-1	-1
-0.999020716189083	-0.999446957272758
-0.998029969397652	-0.99888894976636
-0.997037265386451	-0.998330293727293
-0.99604250116756	-0.997770933658041
-0.99504561029359	-0.997210833489762
-0.994046548491539	-0.996649968943333
-0.993045284932994	-0.996088322887861
-0.99204179692921	-0.995525882520401
-0.991036066707284	-0.994962637652214
-0.990028079450893	-0.994398579667355
-0.98901782210943	-0.993833700889759
-0.988005282674064	-0.993267994198515
-0.986990449737498	-0.992701452793952
-0.985973312226136	-0.992134070055339
-0.984953859236996	-0.991565839454268
-0.983932079938278	-0.990996754501846
-0.982907963508602	-0.990426808716442
-0.981881499099737	-0.989855995603914
-0.980852675813613	-0.989284308645424
-0.97982148268799	-0.988711741289856
-0.978787908687402	-0.988138286949026
-0.977751942697282	-0.987563938994589
-0.976713573520034	-0.986988690755981
-0.975672789872269	-0.986412535518972
-0.97462958038275	-0.985835466524612
-0.973583933590761	-0.985257476968379
-0.972535837944732	-0.984678559999482
-0.971485281801007	-0.984098708720235
-0.9704322534227	-0.983517916185476
-0.969376740978599	-0.982936175402015
-0.968318732542087	-0.98235347932808
-0.967258216090077	-0.981769820872795
-0.966195179501943	-0.981185192895632
-0.965129610558442	-0.980599588205872
-0.964061496940636	-0.980012999562059
-0.962990826228789	-0.979425419671453
-0.961917585901264	-0.978836841189463
-0.960841763333394	-0.978247256719092
-0.959763345796345	-0.977656658810356
-0.958682320455966	-0.977065039959708
-0.957598674371611	-0.976472392609451
-0.956512394494959	-0.975878709147135
-0.955423467668808	-0.975283981904961
-0.95433188062586	-0.974688203159159
-0.953237619987473	-0.974091365129374
-0.952140672262422	-0.973493459978029
-0.951041023845613	-0.972894479809687
-0.949938661016797	-0.972294416670409
-0.948833569939263	-0.971693262547084
-0.947725736658509	-0.971091009366768
-0.946615147100893	-0.970487648996009
-0.945501787072268	-0.969883173240159
-0.944385642256594	-0.969277573842673
-0.943266698214534	-0.968670842484408
-0.942144940382025	-0.968062970782901
-0.941020354068832	-0.967453950291645
-0.939892924457074	-0.96684377249935
-0.938762636599739	-0.966232428829194
-0.937629475419168	-0.965619910638061
-0.936493425705519	-0.965006209215773
-0.935354472115214	-0.964391315784304
-0.934212599169347	-0.963775221496989
-0.933067791252093	-0.963157917437714
-0.931920032609067	-0.962539394620104
-0.930769307345677	-0.961919643986686
-0.929615599425443	-0.961298656408048
-0.928458892668294	-0.960676422681986
-0.927299170748839	-0.960052933532633
-0.926136417194606	-0.959428179609579
-0.924970615384268	-0.958802151486969
-0.923801748545823	-0.95817483966261
-0.922629799754763	-0.957546234557028
-0.921454751932204	-0.956916326512544
-0.920276587842991	-0.956285105792322
-0.919095290093772	-0.9556525625794
-0.917910841131046	-0.955018686975707
-0.916723223239178	-0.954383469001071
-0.915532418538376	-0.953746898592201
-0.914338408982653	-0.953108965601665
-0.913141176357737	-0.952469659796846
-0.911940702278961	-0.951828970858875
-0.910736968189119	-0.951186888381562
-0.90952995535628	-0.950543401870295
-0.908319644871576	-0.94989850074093
-0.907106017646944	-0.949252174318666
-0.905889054412845	-0.948604411836887
-0.904668735715936	-0.94795520243601
-0.903445041916707	-0.947304535162284
-0.90221795318708	-0.946652398966599
-0.900987449507971	-0.945998782703254
-0.899753510666807	-0.945343675128717
-0.898516116255006	-0.944687064900361
-0.897275245665417	-0.944028940575173
-0.896030878089709	-0.943369290608461
-0.894782992515732	-0.94270810335251
-0.893531567724818	-0.942045367055244
-0.892276582289045	-0.941381069858849
-0.891018014568457	-0.940715199798379
-0.88975584270823	-0.940047744800336
-0.888490044635801	-0.93937869268123
-0.887220598057931	-0.93870803114611
-0.885947480457742	-0.938035747787073
-0.884670669091679	-0.937361830081747
-0.883390140986439	-0.936686265391747
-0.882105872935833	-0.93600904096111
-0.880817841497605	-0.935330143914692
-0.879526022990194	-0.934649561256545
-0.878230393489429	-0.933967279868273
-0.876930928825179	-0.93328328650734
-0.875627604577941	-0.932597567805369
-0.874320396075365	-0.931910110266397
-0.873009278388721	-0.931220900265103
-0.871694226329302	-0.930529924045012
-0.87037521444476	-0.929837167716659
-0.869052217015386	-0.929142617255719
-0.867725208050317	-0.928446258501111
-0.866394161283669	-0.927748077153062
-0.865059050170615	-0.927048058771144
-0.863719847883377	-0.926346188772263
-0.86237652730716	-0.925642452428624
-0.861029061035995	-0.924936834865653
-0.859677421368524	-0.924229321059878
-0.858321580303692	-0.923519895836782
-0.856961509536372	-0.922808543868603
-0.855597180452898	-0.922095249672108
-0.854228564126525	-0.921379997606305
-0.852855631312796	-0.920662771870143
-0.851478352444833	-0.919943556500133
-0.850090011498759	-0.919204435535947
-0.848727676490089	-0.918474439571258
-0.847345575034313	-0.917735483057673
-0.845946106148362	-0.916984239296829
-0.844555745541039	-0.9162395357918
-0.843157414904026	-0.915495556027278
-0.841755368708939	-0.914745267069759
-0.840371872499529	-0.914008545338801
-0.838961043674312	-0.913256597539038
-0.837526261903724	-0.912488039441583
-0.836127847019092	-0.91173962750926
-0.834689514557576	-0.910972454446035
-0.83327055206887	-0.910213501597953
-0.831841085213194	-0.909454464884806
-0.83040938179047	-0.908688000843936
-0.828970292256103	-0.907918347488232
-0.8275055988782	-0.907137816591724
-0.826069449451133	-0.906376634582637
-0.824594567982213	-0.905590353857297
-0.823124000637776	-0.904809173798586
-0.821668486370181	-0.90403337479994
-0.82020623846995	-0.903256818273282
-0.81871750067709	-0.902464776101637
-0.817237920686487	-0.901680540252657
-0.815752205141333	-0.900889802331638
-0.814258401675893	-0.900096002869769
-0.812758723159219	-0.899301960655857
-0.81125587305369	-0.898502021029263
-0.809752488236234	-0.897701430206772
-0.808232809284057	-0.896895764711234
-0.806718693853163	-0.896092421985914
-0.805193114349552	-0.895282648818459
-0.803668842742142	-0.894471063855509
-0.802134707207289	-0.893655529915834
-0.800593269928524	-0.892839079467023
-0.799046404090518	-0.89201870670645
-0.797495898984998	-0.891198256711548
-0.795938595684126	-0.890374212308279
-0.794375100704364	-0.889547486203653
-0.792802465938152	-0.888716407556629
-0.791227232578927	-0.887883500131439
-0.789645281701349	-0.887048506930854
-0.788058257767758	-0.886212333879542
-0.786466293977784	-0.885373632985262
-0.784863734957334	-0.884530349294599
-0.783258023659696	-0.883685903074539
-0.781647162310087	-0.882839411116861
-0.780027018411707	-0.881988561951168
-0.77840171887841	-0.881135090486687
-0.776766522304657	-0.880277574239231
-0.775128178255171	-0.879419304838019
-0.773482515643447	-0.878557533269783
-0.771831807642603	-0.877694870517619
-0.77017003912364	-0.876826995394911
-0.768506753831745	-0.875958306054788
-0.766831282825415	-0.875084664244398
-0.765151350883743	-0.874210923717965
-0.763462590870429	-0.873334047366772
-0.761770363871148	-0.872456116059283
-0.760067029206937	-0.871573197790429
-0.758355391716379	-0.870686840399403
-0.756638336126717	-0.869798324201625
-0.754913416863033	-0.868906520907201
-0.753181461859355	-0.868011845670996
-0.751441962289329	-0.86711407265192
-0.749696707188547	-0.866213558026088
-0.747942451117339	-0.865308827096917
-0.74618047916413	-0.864400673559537
-0.744410792484625	-0.863489093699487
-0.742633320467091	-0.862574048162413
-0.740847991032775	-0.861655496809863
-0.739054730776453	-0.860733398789145
-0.737253465034463	-0.859807712567538
-0.73544411791639	-0.858878395948659
-0.73362661231431	-0.857945406077869
-0.731800869898109	-0.857008699440881
-0.729966811102008	-0.856068231858141
-0.728124355105444	-0.855123958476482
-0.726273419810202	-0.854175833759036
-0.724413921814936	-0.853223811473933
-0.722545776387777	-0.852267844682147
-0.720668897437432	-0.851307885724672
-0.718783197483012	-0.850343886209173
-0.716888587622717	-0.849375796996141
-0.714984977501464	-0.848403568184623
-0.713072275277464	-0.847427149097511
-0.711150387587778	-0.846446488266407
-0.709219219512822	-0.845461533416059
-0.707278674539819	-0.844472231448344
-0.705328654525156	-0.843478528425794
-0.703369059655637	-0.842480369554643
-0.701399788408565	-0.841477699167386
-0.699420737510655	-0.840470460704805
-0.697431801895717	-0.839458596697464
-0.695432874661068	-0.838442048746637
-0.693423847022641	-0.83742075750465
-0.691404608268744	-0.836394662654596
-0.689375045712421	-0.835363702889425
-0.68733504464236	-0.834327815890347
-0.685284488272323	-0.833286938304533
-0.683223257689011	-0.832241005722095
-0.681151231798347	-0.831189952652283
-0.679068287270081	-0.830133712498892
-0.6769742984807	-0.829072217534832
-0.67486913745455	-0.828005398875811
-0.672752673803122	-0.826933186453119
-0.670624774662421	-0.825855508985454
-0.668485304628374	-0.824772293949746
-0.66633412569017	-0.823683467550943
-0.664171097161484	-0.822588954690719
-0.66199607560949	-0.82148867893503
-0.659808914781581	-0.820382562480502
-0.657609465529714	-0.819270526119572
-0.65539757573228	-0.818152489204341
-0.653173090213399	-0.817028369609085
-0.650935850659566	-0.815898083691355
-0.648685695533491	-0.814761546251609
-0.646422459985077	-0.813618670491312
-0.644145975759371	-0.812469367969453
-0.641856071101398	-0.811313548557371
-0.639552570657727	-0.810151120391867
-0.637235295374641	-0.808981989826485
-0.63490406239276	-0.807806061380907
-0.632558684937983	-0.806623237688374
-0.630198972208559	-0.805433419441038
-0.627824729258144	-0.80423650533318
-0.625435756874655	-0.803032392002169
-0.623031851454737	-0.80182097396708
-0.620612804873636	-0.800602143564879
-0.618178404350289	-0.79937579088404
-0.615728432307386	-0.798141803695505
-0.613262666226193	-0.79690006738086
-0.61078087849587	-0.795650464857598
-0.608282882802183	-0.794392841620784
-0.605768592498178	-0.793126862869123
-0.603237758269832	-0.791852397223514
-0.600690114865298	-0.790569347396526
-0.598125391060244	-0.789277609537482
-0.595543310011574	-0.787977073844527
-0.592943589333242	-0.786667624974306
-0.590325941007161	-0.785349142316205
-0.587690071196676	-0.784021500173487
-0.58503567878501	-0.782684569871147
-0.582362274451103	-0.781338506090201
-0.579669414326611	-0.779983335406137
-0.576956787615852	-0.778618860239634
-0.574224083687744	-0.777244883003853
-0.571470988529757	-0.775861204815077
-0.568697182377486	-0.77446762475506
-0.565902338066123	-0.773063939449045
-0.563086119827824	-0.771649942814458
-0.560248182366911	-0.770225425891602
-0.557388170110358	-0.76879017670271
-0.554505716570497	-0.767343980107623
-0.551600443780571	-0.765886617638273
-0.548671384815431	-0.76441758562218
-0.545717971400389	-0.762936675788471
-0.542741596409958	-0.761444588119419
-0.539740691142673	-0.759940524872121
-0.53671480790496	-0.75842424778249
-0.533663486875008	-0.756895512655713
-0.530586254929362	-0.755354068818346
-0.527482624905617	-0.753799658787265
-0.524352094900544	-0.752232017955246
-0.521194147577395	-0.750650874279715
-0.518017446385138	-0.749061204211748
-0.514802783864007	-0.74745383921339
-0.511558357633583	-0.745831591943157
-0.508284346485669	-0.744194551271222
-0.504980146971879	-0.742542415436428
-0.501645132504039	-0.740874871105708
-0.498278653749514	-0.739191593571661
-0.494880038479801	-0.737492246676737
-0.491448591061869	-0.73577648255878
-0.487983591706436	-0.734043941275024
-0.484484295541227	-0.732294250338554
-0.480949931548836	-0.730527024187069
-0.47737970139133	-0.728741863594986
-0.473772778132852	-0.726938355034536
-0.470128304864582	-0.725116069988016
-0.466445393232016	-0.72327456421118
-0.462723121861541	-0.721413376946261
-0.45896053468122	-0.719532030082073
-0.455156639129119	-0.717630027257854
-0.451310404241152	-0.715706852906846
-0.447420758609302	-0.713761971235025
-0.443486588199884	-0.71179482512982
-0.439506734020339	-0.709804834993062
-0.435479989621837	-0.707791397491793
-0.431405098423581	-0.70575388421987
-0.427280750843215	-0.703691640262584
-0.423105581216096	-0.701603982655639
-0.418878164484339	-0.699490198728955
-0.414597012634453	-0.697349544324693
-0.410260570860059	-0.695181241877743
-0.405867213423557	-0.692984478345586
-0.40141523918762	-0.69075840297297
-0.396902866784015	-0.688502124875136
-0.392328229383432	-0.6862147104214
-0.387689369025628	-0.683895180398767
-0.382984230464229	-0.68154250693268
-0.378210654474834	-0.679155610139244
-0.373366370568543	-0.676733354479929
-0.36844898904554	-0.674274544786062
-0.363455992314721	-0.671777921916045
-0.358384725395378	-0.669242158003276
-0.353232385505386	-0.66666585124694
-0.347996010626901	-0.66404752019112
-0.342672466924904	-0.661385597429828
-0.337258434875618	-0.658678422666381
-0.331750393940309	-0.655924235044789
-0.32614460559467	-0.653121164658137
-0.320437094494058	-0.650267223123965
-0.314623627519364	-0.647360293098861
-0.308699690405982	-0.644398116583309
-0.30266046160775	-0.641378281842496
-0.296500782986952	-0.638298208738319
-0.290215126848059	-0.635155132231079
-0.283797558743816	-0.631946083764751
-0.277241695373732	-0.628667870195275
-0.270540656761802	-0.62531704985467
-0.263687011736107	-0.621889905261403
-0.256672715529047	-0.618382411885393
-0.249489038062407	-0.614790202248391
-0.24212648116124	-0.611108524480041
-0.234574682534736	-0.607332194246554
-0.226822303844095	-0.603455538709158
-0.21885689950991	-0.599472330834944
-0.21066476204419	-0.595375711947797
-0.202230738553671	-0.591158099836324
-0.193538011551381	-0.58681107897856
-0.184567835188402	-0.582325268427636
-0.175299215268091	-0.577690161523232
-0.16570851762112	-0.572893929695233
-0.155768984135972	-0.567923179974564
-0.145450128242603	-0.562762652063394
-0.134716970820582	-0.55739483538174
-0.123529061560578	-0.551799478501984
-0.111839206816661	-0.545952951332013
-0.0995917879937467	-0.53982740182042
-0.0867204958872133	-0.533389619489078
-0.0731452105329572	-0.526599469896924
-0.0587675936763521	-0.519407682413984
-0.0434646739807742	-0.511752629227975
-0.0270791726925733	-0.503555465341987
-0.00940427038062184	-0.494712471495048
0.00984169592351942	-0.485082326162978
0.0310600724594108	-0.474463527862014
0.053307913143636	-0.463063223638147
0.0747590777025347	-0.450234902360054
0.0954126585445386	-0.436153190647566
0.115352483631566	-0.42107718766821
0.13456937805242	-0.40508961926182
0.153048696259098	-0.388254750718539
0.170775532844733	-0.370629132186331
0.187734333978327	-0.352263239745137
0.20390724749876	-0.333201601699402
0.219271798373212	-0.313482571543614
0.233797899705487	-0.293138038276629
0.24744390560343	-0.272193130799862
0.260151074954801	-0.250665916264031
0.27183524785018	-0.228567122028676
0.282373387273974	-0.205900060302875
0.29158001553755	-0.182661416243525
0.299161784370506	-0.158845212390941
0.304617608078364	-0.13445888678961
0.30696908242592	-0.10959529858323
0.3036772808531	-0.0849303421496278
0.290926809125267	-0.0704962911341768
0.285206039774927	-0.0608955661781157
0.281051116969155	-0.0546951956742888
0.275497425120763	-0.0497972362441401
0.286764194339033	-0.0439868703360462
0.308265246531067	-0.0312464696850574
0.328815819105452	-0.0170151460705402
0.348753996504846	-0.00193516907034188
0.368191234839776	0.0137856593853476
0.387154037504374	0.0300758250898899
0.405658416238379	0.0468850622492295
0.423718631026298	0.0641707584779871
0.441347915718206	0.0818958375398563
0.458558487954658	0.100027830992819
0.475361429319411	0.118538274948045
0.491766507543917	0.137402281702657
0.507781951015458	0.156598231862823
0.523414162777428	0.176107566139986
0.538667343752925	0.195914674156173
0.553542973570331	0.216006892067139
0.568039063447494	0.236374637937166
0.582149034935156	0.257011740181204
0.595859961749754	0.277916061226443
0.609149672170248	0.299090609510747
0.621981675895358	0.320545524177469
0.634295568686675	0.342301755363355
0.645986906924447	0.364398378896157
0.656858340084795	0.386908709809947
0.666470927824803	0.409981095183375
0.673467819280228	0.433949901259597
0.66952998768505	0.457668474242429
0.664442325087214	0.461698082985568
0.68314500093811	0.452190218522861
0.685274815680454	0.433077699833739
0.665273232761491	0.418156975793788
0.643457116456744	0.406294704621008
0.663635475709302	0.417967643240499
0.676710772207076	0.438744723910177
0.674416065967303	0.462702002238879
0.668141385135475	0.467783692725546
0.686210445213303	0.458649530278756
0.690408397629715	0.439832210464566
0.670631634853235	0.424626528288157
0.64875098461866	0.412555600548684
0.666395180841823	0.42261388797513
0.680255772389488	0.442845006920577
0.679070581025308	0.467013822373091
0.67153370156705	0.473328723718576
0.689002659562496	0.464529613288057
0.695041301996712	0.446015999433807
0.675486094936253	0.430539844342097
0.65368210028768	0.418333972819417
0.668887736709616	0.426908480528078
0.683456787516709	0.446617734481866
0.683241330872158	0.470920902265608
0.674640922293649	0.47840630813934
0.69153364553689	0.469918597724243
0.699310683085049	0.451734221759937
0.679988237496867	0.435984488796819
0.658265987658075	0.423636512910725
0.671009491817554	0.430756475568039
0.686281110825426	0.449921508886129
0.687043980727898	0.474315213692429
0.677392279978468	0.483128612658965
0.693594447987037	0.475003587248436
0.703403123776948	0.457254337039774
0.684381659612652	0.441168085948097
0.662759482818661	0.428648651975768
0.672629867637991	0.434115996115418
0.688701058524074	0.452628892973641
0.690582926293781	0.477058982260405
0.679781706598419	0.487563807450287
0.695100384503217	0.479892401024408
0.707380569121985	0.462755023230838
0.68879349821468	0.446217383639994
0.667299040172062	0.43348312034583
0.673693818833065	0.436999913103819
0.690689114920674	0.454711569385709
0.69385616962176	0.479091361120382
0.681830591086125	0.491758906165186
0.696017368664994	0.484659940486972
0.711194944609824	0.468400936311858
0.693299312813506	0.451225996122501
0.671968388049596	0.438223112211619
0.674178382805502	0.43943987558127
0.692203191631172	0.456190225867637
0.696815597787522	0.480394603359268
0.683571959961036	0.495750649677243
0.696337280057694	0.489365142001999
0.714575931162968	0.474374681870717
0.697946864880913	0.456272874097823
0.676823699745595	0.442938905230815
0.674076613545922	0.441470210233557
0.69317690564069	0.457122161064481
0.699404394527186	0.480981655569492
0.68528784140293	0.499445928768612
0.696233693513998	0.493971330506258
0.716739164869847	0.480685953857237
0.702763095277314	0.461429675136081
0.681901933114202	0.447693840920661
0.673391532448429	0.443119200151102
0.69351847677434	0.457604037032121
0.701574575959295	0.480884729175757
0.690208920101547	0.501239017596815
0.696206325893113	0.498271147530443
0.717026194640141	0.486678892706206
0.707755237564442	0.466767248667257
0.68722504618745	0.452547631570436
0.672133822585165	0.444405066210598
0.69313135854485	0.457770906559792
0.703284802614147	0.480145823852603
0.69551592738993	0.502347778716723
0.696227645442341	0.502314740814768
0.715995511038234	0.492065849306587
0.712905612616221	0.472366130597526
0.692803167680039	0.457558822719013
0.671250666221874	0.44580075527403
0.691957063868063	0.457765905667147
0.704480388618989	0.47881512350351
0.700766965668967	0.502531333219767
0.696252369987302	0.506156132713052
0.714134986120061	0.497134299098318
0.718147641702611	0.478338721943925
0.698636251699537	0.46278583188878
0.676933047762575	0.450405711186995
0.690004665695605	0.457683347999507
0.70507536041385	0.47695928112321
0.705376815842215	0.501410277099066
0.69625673809281	0.509834272248058
0.711634193459251	0.502134064355596
0.723265396719736	0.484893860810432
0.704714443488393	0.468288183421457
0.683338638916476	0.455358279338185
0.687333544504983	0.457537347266008
0.704917514144753	0.474688745476756
0.70875447794709	0.499041470679047
0.696231297061785	0.513377919616774
0.708571780853587	0.507205283433917
0.72728088684629	0.492499929866188
0.711016223389995	0.474130644536715
0.690060517360121	0.460536719911066
0.684015867530248	0.45727990851418
0.703750097784331	0.472221088581739
0.710875678969717	0.495822790694799
0.698566111992322	0.515606276989748
0.706139596681234	0.511825497410757
0.72680572517903	0.500339512118388
0.717498136330465	0.480394293907788
0.697076619620076	0.466018549823374
0.680116262739249	0.45683547141622
0.701322008002928	0.469908835428001
0.711967222894117	0.49201436768562
0.705608985334415	0.514833660504348
0.704544235142957	0.515917439947552
0.723160232453343	0.506457867075036
0.724055942652989	0.487212098220274
0.704358103158133	0.471880179865413
0.682602495348371	0.459591190507961
0.697657981247229	0.468016968370435
0.71208320794874	0.48775848589454
0.711715503337631	0.512187157456406
0.703393360546194	0.519695018402441
0.718586169709321	0.512088473331789
0.73033091304564	0.494903886420567
0.711868664672018	0.478196952679257
0.69056796739452	0.465145065009669
0.693024684480053	0.466477598677203
0.710986432631616	0.483263508336245
0.715408558545524	0.507557417386157
0.702483047893504	0.523276433910343
0.713699955973271	0.517666323472755
0.733922563486067	0.504279931839121
0.719555659755711	0.485054415298164
0.69885199298844	0.471082329918102
0.687665089739672	0.465039618408233
0.708214074702644	0.478995405413682
0.716957312298398	0.502000869626514
0.707822992559385	0.523533408566724
0.710647918601861	0.522258416152788
0.730021568512507	0.512260103615766
0.727307591594862	0.492590845231753
0.707397318272045	0.477524818518087
0.685557900220931	0.465382790261167
0.70354206813662	0.475552880908501
0.717008975646202	0.495954906907502
0.715592142539677	0.5202510225838
0.708546015440108	0.526333469565705
0.723950256820267	0.518619086796632
0.734745893284091	0.501215966406862
0.716180300065606	0.484603069259727
0.694883769833032	0.471544575095264
0.697331551501995	0.472863662882299
0.715351825461349	0.489587421406313
0.719954877224267	0.513873363405226
0.706946127439623	0.530153696421078
0.71765331917192	0.524798704522232
0.738192102502059	0.51218128605383
0.725268243966995	0.492562510032123
0.704726388372976	0.47835501994347
0.690031857729902	0.470409400768648
0.711072655189519	0.483713014108509
0.721091263043081	0.506138591399769
0.714588824362282	0.52888702055597
0.71390850806569	0.529713046312805
0.731749755789515	0.520698814398565
0.734470774181269	0.501733137092655
0.715036914952347	0.486072355428799
0.69342926194886	0.473529367751194
0.704011824366939	0.479312067411417
0.71999819409671	0.497829404465846
0.722255763926141	0.522399310654809
0.711313922905561	0.534096648328906
0.723358276924254	0.528072356495253
0.741974694516907	0.513372167025607
0.725735829507208	0.494925109699438
0.704940586516353	0.481087824530631
0.695215310434068	0.475845389272378
0.71572689030478	0.489847063992437
0.724392387821491	0.512908751113052
0.715937984917674	0.534756505697584
0.717948118267679	0.533935874262398
0.736334676341943	0.524583509319128
0.736599518613664	0.505265252943539
0.717004174080627	0.489797660604675
0.695335220625396	0.477358937240047
0.707447201132686	0.483965066549912
0.723184860976535	0.502677490231604
0.725394823382807	0.52726481000265
0.714549531441615	0.538892085951875
0.726249401049411	0.533040266664524
0.745326493979347	0.518665972915944
0.729472582279495	0.499995638726619
0.708759445558477	0.486036289577637
0.696822031883459	0.479604107271053
0.717718861782058	0.49310519587243
0.727352519364201	0.515739886614957
0.721027363721879	0.538547056333824
0.7202609884117	0.539425521534946
0.737299507189532	0.530850628823575
0.741953326371312	0.512216642201139
0.722771971821334	0.496254426232204
0.701309984765878	0.483466099082147
0.70718632522891	0.486598543126625
0.724886578881648	0.503612252570564
0.729537600154513	0.527947394150927
0.716593471735006	0.544822166193806
0.726514462515185	0.539860607414499
0.746841290081979	0.528512555150885
0.737118828698694	0.508504821878836
0.716910055752572	0.493829832740044
0.695336976697428	0.482069592327216
0.716097168090752	0.493658370357007
0.729465545524955	0.514121903607472
0.729394747785033	0.538641603514029
0.721101571480654	0.546353410328736
0.7339261491105	0.539938318650016
0.75025833148774	0.524231492292582
0.73303348965624	0.50640375595721
0.712187491513948	0.492641532464507
0.702352511999345	0.4873462644974
0.723190108690787	0.500930574959716
0.73277039290464	0.523619554864431
0.727219345783686	0.546724091191811
0.725588130443963	0.548184557038471
0.741508646459052	0.540199289850831
0.749007225602416	0.522115517205806
0.730185792116178	0.505746338189067
0.708916596577887	0.492641688431372
0.709027038622895	0.492655189133069
0.728426094066754	0.507964272454008
0.735468801058082	0.531712431744696
0.725417761294828	0.552684723451866
0.729763449937487	0.550561143306471
0.747586788201055	0.541517741491209
0.748372048150364	0.522278706024905
0.728958908938477	0.506581878663693
0.707441167631417	0.493884165543909
0.714107582974614	0.497391867338641
0.732273053452139	0.513970708990766
0.738002719762178	0.538118771094397
0.725526175716103	0.557683607626157
0.733320707951768	0.553786330237249
0.751954909154005	0.54419986603228
0.749414152741543	0.524536009950442
0.729788117873944	0.509098141856034
0.708179650008796	0.496552781755494
0.717378106854455	0.501405235408192
0.735167964848536	0.518348509039573
0.740714057934029	0.542556449598965
0.728097494598451	0.562023565402901
0.73608061332306	0.558031573540366
0.754443815767796	0.548619427708326
0.752570214692777	0.529030170614288
0.733027563756675	0.51348757631124
0.711484363852162	0.50083099014086
0.718585761161328	0.504537641995116
0.737128661298498	0.520756580156815
0.743637763350609	0.544722773962518
0.733518918827539	0.565618510215054
0.738005330906474	0.56341328741673
0.754722833322406	0.55498789867295
0.758117525117916	0.536163624379787
0.739025507689433	0.520083935584129
0.717738237607792	0.507004218056835
0.717360801349085	0.506730271776341
0.737538977304589	0.521163553717111
0.746340445261714	0.544299174642786
0.741891059406315	0.567775957372938
0.739206609853094	0.569996117146474
0.752328267559164	0.563431295197622
0.765875296694002	0.546851843519882
0.74809854353165	0.529432449078516
0.727335574050354	0.515539697192065
0.713248001607842	0.507940584279145
0.734934456123643	0.520307441779371
0.748071968018032	0.541009966650904
0.750565300291613	0.56567478254521
0.739921175943173	0.577812250943994
0.749200059685928	0.573171981859177
0.768809376300127	0.562512515104993
0.760447176356127	0.542405667224944
0.740626084302232	0.527208574222132
0.719026087829003	0.514646856321907
0.728053481918767	0.519307525430028
0.747127972057039	0.534994801624162
0.754818256265918	0.558626404162666
0.749536479229239	0.581763186860607
0.748044517177257	0.583104144925551
0.76007271173601	0.577087561750046
0.775167301412099	0.561012172246078
0.757821126843216	0.543206482001
0.737294827678942	0.528963738523
0.717033697064023	0.517948450254459
0.738779954002341	0.529490396000105
0.754888929083845	0.547964690428672
0.760538291902883	0.572234136931564
0.750079003783324	0.592850264790665
0.755077038765631	0.590366625208752
0.769007040150881	0.583390794927015
0.77832544329319	0.565762193025744
0.760052950514813	0.5487852602216
0.739355635953237	0.534787788997493
0.722947826430823	0.52588875364402
0.744966196074477	0.537705243494494
0.760583074595219	0.556595602791077
0.766343959504868	0.580856729357606
0.756848726992471	0.601962078162706
0.760656076264653	0.600097769943921
0.77278804615482	0.594028548392632
0.78601156389075	0.577405701848287
0.768388742142188	0.559807437067181
0.748004655739411	0.545356083409324
0.726157656766617	0.533267347978457
0.745801470816183	0.543392970099155
0.764120464960233	0.559864235947205
0.771853018601557	0.583551583203437
0.770469037167482	0.607836054069992
0.764865697128858	0.612670035219823
0.773237442149395	0.608483562060552
0.792287063644926	0.598113662476457
0.783789726482783	0.57791087322442
0.764343769253343	0.562226656373737
0.743260407407608	0.548817823055723
0.739692822158382	0.546793131298372
0.761422273892777	0.559096177485253
0.775171641048548	0.579445910495215
0.781055220974706	0.603709650433683
0.773405761175665	0.625654637720475
0.77514495676343	0.624911013160272
0.783742412827796	0.620611604949396
0.803123359346502	0.607933064549521
0.789173000067329	0.588217022480984
0.769587066497822	0.572698245330019
0.74848170970525	0.559326511901142
0.747372391735782	0.558584005827722
0.769169957533764	0.570775581897423
0.783252637890045	0.590887208410812
0.789811105551446	0.614991622594625
0.78691085941791	0.638789961949943
0.783494540734263	0.641547672645561
0.7907301352854	0.637929493330391
0.807304566957139	0.629446644169465
0.805236974421888	0.609759041225897
0.786491008493298	0.593244144463277
0.766218767545639	0.578631821318973
0.745612882813013	0.567150593035644
0.766717711043488	0.577821801574845
0.786656684059266	0.592536121248933
0.796321843160083	0.615461871441705
0.802170724376942	0.639748477636963
0.794153054640068	0.661356007081128
0.796592098153691	0.660197425207298
0.803361835221295	0.656812243203524
0.819871656649968	0.648315415991421
0.816752486284512	0.628458099148674
0.798187941279362	0.611732030339237
0.778291627819058	0.596609078583069
0.756702308184727	0.584044268752452
0.772298549957306	0.591865903545335
0.793670057428113	0.604711357322075
0.805799435820875	0.626215155102953
0.813013780102413	0.650147956134743
0.816354740470749	0.674752459969186
0.807280920117003	0.685621621847556
0.813269781546242	0.682626975982489
0.819814754912107	0.679354198942148
0.838144348252438	0.668953058053267
0.827799964607792	0.648529879636791
0.809282819252074	0.631739986686671
0.78967254036839	0.616248150016274
0.768209211229914	0.60347928417946
0.781568047982595	0.610162719616138
0.803464443760937	0.622184225073728
0.817593039830867	0.642250032375034
0.825474320382419	0.665972870956638
0.832251806425282	0.690027863284986
0.827632221252897	0.712899053554635
0.827016562684791	0.713507151267332
0.832293325442445	0.710868622798418
0.83832572907227	0.707852188207843
0.856643632557284	0.696437867349764
0.843947476040016	0.676128263561108
0.825837259996311	0.658896607126118
0.806866575196587	0.642624042528952
0.78598162635372	0.628942940483201
0.78840719380259	0.630073053284511
0.809894753515161	0.640957568121442
0.828717992006492	0.656828040255842
0.837808945723697	0.680080602189091
0.845835058352633	0.70375718548136
0.852988144274779	0.727701533588834
0.847473638200782	0.750028609908203
0.848154817501331	0.749814544213797
0.85281490221758	0.747484400280303
0.85733333628375	0.74522509070907
0.868460531084647	0.739641649199425
0.873224141791911	0.721066437874693
0.856152244708605	0.702813820752242
0.838421914396747	0.685190011852275
0.819724833018568	0.668609935552846
0.798665730858908	0.655217858511232
0.804974321546102	0.658359949813177
0.824478259501527	0.668157886793938
0.844642663366874	0.682534606469148
0.854577987157122	0.705384015552693
0.862988567726274	0.728926564776244
0.871596983414407	0.752397683015113
0.879204720215188	0.776198691427263
0.872587773315527	0.797822325151861
0.874789687348037	0.796748195627899
0.878872384192073	0.79470677863294
0.882438631404536	0.79292360958
0.886159744396391	0.791063000706248
0.90010932098362	0.783840055331175
0.896219841738086	0.763579251133343
0.879507832948086	0.744986742400731
0.862622016782147	0.726551457648504
0.845043706231974	0.708782936860059
0.825195454403632	0.693663079543421
0.81999192911596	0.690724421795289
0.830927425054111	0.696193508185585
0.851421775354765	0.706599671063063
0.869215792398895	0.723418656165465
0.878067664323966	0.746789586013525
0.886851961982675	0.770194825103069
0.89611314074911	0.793415901245244
0.905530062706219	0.816574488046186
0.914225489171471	0.840007096475248
0.912494232290308	0.863261269028928
0.910877989907994	0.864470582806156
0.91459907545838	0.862609987852055
0.917603439703824	0.861107778334527
0.920111868624271	0.859853547995553
0.922372541958215	0.858723199768964
0.925055945771966	0.857381477050751
0.940790521117616	0.847944518906907
0.92994623160605	0.826831921780938
0.914040688121576	0.807544371346244
0.898297833232722	0.788123721149581
0.882340707188686	0.7688798941459
0.865147912203676	0.750750768648112
0.844669612010703	0.736552769470753
0.847937484187852	0.738168020521271
0.85598526542861	0.742192433290892
0.869773934459878	0.749092996718185
0.891000791120653	0.762093431418406
0.901939628491872	0.784357910366509
0.910607256751864	0.807806566383112
0.919903194637355	0.831013272827019
0.92971956399118	0.854004988881622
0.939926096481161	0.876826369151196
0.950425622399574	0.899514547434105
0.961148556387377	0.9220980538978
0.972046375595632	0.94459772146597
0.983083482711882	0.967029411158008
0.99422250311698	0.989410688935427
1.00539809507643	1.01177374108095
1.01648390693912	1.03418136005415
1.0272638318087	1.05673733773514
1.03733232740476	1.07961771285844
1.04485426489914	1.10339872483242
1.03735712507811	1.11765346837295
1.0410325431927	1.11581570893286
1.04392887983807	1.11436751597961
1.04623613552481	1.11321387570477
1.04811007121671	1.11227690121623
1.049691580361	1.11148614266906
1.0511545619075	1.11075464876368
1.05314191542096	1.10976096250747
1.06755786424952	1.09770513381537
1.05463564175277	1.07643593950046
1.04076954962453	1.05563474841552
1.02745589657884	1.03447539448406
1.01456738143771	1.01305410670946
1.00197401392043	0.991457787320945
0.989551254816363	0.969762770729757
0.977167124501911	0.948045654400992
0.96465693042673	0.926401046429022
0.951749481869424	0.904991813268809
0.937762085431697	0.884280181387897
0.920322780821431	0.866516677432777
0.912439307903519	0.861808272649997
0.918043700633382	0.864610647373133
0.922559177875333	0.866868479015715
0.926335021508006	0.868756454975238
0.929768518462555	0.870473243945245
0.933942115186953	0.87256012100032
0.951274056689822	0.881453400189129
0.966616281979992	0.900268231519427
0.974904620285265	0.92385397792802
0.983695003130436	0.947256845583302
0.993007459616061	0.97045726579169
1.00268275064953	0.993508957383203
1.01257975104444	1.01646646150436
1.02256269546941	1.03938677477567
1.03247557036439	1.06233742006775
1.04206453835471	1.08542473031141
1.05052752507621	1.10893952300832
1.04771537833967	1.13183127198646
1.04728335952147	1.13222548740551
1.05047770886615	1.13062827969397
1.05302617502634	1.1293540298653
1.05510237345176	1.12831592162222
1.05686657821535	1.12743381372626
1.05853142162342	1.126601387404
1.06125625324108	1.12523893797399
1.07346113125513	1.10969649709247
1.05969911095103	1.08883753484529
1.04599990599533	1.0679260735289
1.03284349668512	1.04666854751262
1.02010105222478	1.02516003251061
1.00765041912586	1.00348111053424
0.995375926291249	0.981701871134979
0.9831572690279	0.959891223042445
0.970851254693496	0.938129820845045
0.958244835676709	0.916541515584516
0.944878194978587	0.895418831469457
0.92920658573272	0.875997510612374
0.912103266031245	0.864437133032733
0.918156524737441	0.867463987260456
0.922983910618704	0.869877794032038
0.926936620966987	0.871854211471706
0.93035475226615	0.873563317164726
0.933771318848337	0.875271640577718
0.942243067500935	0.879509796114024
0.96305587501091	0.893000515494322
0.972736380616359	0.915939179921239
0.98120238880536	0.939461263637476
0.990259672017486	0.962762334204469
0.999752417073197	0.985889707139569
1.00952999307021	1.00889828025394
1.01945415166891	1.03184409571771
1.02937908695076	1.05478957320389
1.03910312324043	1.07782066506874
1.0481545167905	1.10112175963624
1.05320987673192	1.12539873902078
1.046375536211	1.13391218112097
1.04986046112751	1.13216967574414
1.05262772071777	1.13078602449117
1.05486273089862	1.12966850812264
1.05672783367147	1.12873595020867
1.05840400961278	1.12789785752585
1.06035394504311	1.12692288193749
1.07443861042483	1.11860972072496
1.06490943442229	1.09680194732938
1.051019793033	1.07601640465909
1.03769870131013	1.05486182167062
1.02483596419669	1.03342511397178
1.01230592861771	1.01179204086156
0.999992274048976	0.990034947832814
0.987778440821163	0.968221601367285
0.975533158178851	0.94642591950673
0.963079133702614	0.924749082484654
0.950088910557904	0.903390749957113
0.935614588103965	0.883026400964665
0.9166646234458	0.866969086725144
0.916185899307253	0.866638298480441
0.921423173902275	0.869257081278407
0.925659644918619	0.871375393567929
0.929229373526962	0.873160303587594
0.932538741716726	0.874815023939785
0.936965563104313	0.877028535754889
0.956031824278054	0.88704751527993
0.969748625730222	0.907195004877902
0.978027194343318	0.930784157270472
0.986874940700733	0.954165453667069
0.99622025464275	0.977352700634666
1.00590503166827	1.00040043553306
1.01578801614916	1.02336399186058
1.02572932098204	1.04630239605975
1.03555792919073	1.06928920585097
1.04495755519736	1.09245377824555
1.05263204983439	1.11622084614008
1.0448791285824	1.13473241614741
1.04868661888845	1.13282861499974
1.05169740397685	1.13132319480243
1.05411092853855	1.13011641830477
1.05609523088534	1.1291242592569
1.05781585646235	1.1282639413616
1.05954625673753	1.12739873600459
1.06681086869121	1.12375379336631
1.07014305874707	1.10451151376638
1.05612093321345	1.08381450432784
1.04259698634447	1.06278918189842
1.02958017686241	1.04144578867051
1.01694119218199	1.0198762545158
1.00456115363878	0.998156905304481
0.992324973936323	0.976356100582079
0.980109139029774	0.954543877281691
0.967759528445053	0.932807245045488
0.95502751092316	0.911293099015693
0.941308918699689	0.890400529051022
0.924469493465207	0.87204012617969
0.913914142375845	0.865511598517393
0.919615978353188	0.868362704415921
0.924184847609421	0.870647235477524
0.927963171907872	0.872536451944428
0.93130531401423	0.874207560376423
0.934915953757587	0.876012928435276
0.947897445939732	0.882536825808832
0.966357597900725	0.898537023675284
0.974895984971949	0.922024785716763
0.983516999154315	0.945490503522077
0.992696420697315	0.968743813688257
1.00227179918238	0.991837148428455
1.01209680684901	1.01482553628493
1.02203350625875	1.03776593300766
1.03192859530858	1.06072427341094
1.04154676875706	1.0837995791922
1.05021822874967	1.10724136718757
1.05047110537682	1.13109660095712
1.04737610165345	1.1334880728247
1.05065786832224	1.13184715365977
1.05327284806411	1.13053964569115
1.05539836470104	1.12947687768049
1.05719571141083	1.12857819849204
1.05886868222322	1.12774170840167
1.06128943026867	1.12653131549206
1.07478233945972	1.112562574525
1.06130651661813	1.09154273104628
1.04756483824713	1.07065916607349
1.03437483800775	1.0494224972773
1.021609674347	1.02792747824988
1.00914671961443	1.00625565029562
0.996870690694711	0.984477283743805
0.984662981479822	0.962660505800991
0.972384846941777	0.940883343764675
0.959836303382146	0.919261248012495
0.946606809951265	0.898051531081625
0.931370818870319	0.878271198889469
0.911603605140477	0.864356772618704
0.917646112466036	0.867378254181436
0.92259437237119	0.869852506772642
0.926628669123594	0.871869721385973
0.930084664130184	0.873597760309381
0.93344070289647	0.87527581759319
0.939722411722924	0.878417145197861
0.96109477613166	0.890929389950276
0.971843133028749	0.913233946456526
0.980234258815243	0.936782917562122
0.989224915941919	0.960109731829954
0.99867093156092	0.983256202050722
1.00841920155739	1.00627719108988
1.01833068226238	1.02922847936441
1.02826186813021	1.05217125898594
1.03802249617526	1.07518692711385
1.04720159641449	1.09843878912488
1.05342348702463	1.12255427700775
1.04594225427773	1.13420526085663
1.049524770988	1.13241395586937
1.05236557041997	1.13099353293423
1.0546542173719	1.1298491973444
1.05655442370202	1.12889908727229
1.05824078247139	1.12805590308667
1.0600932051693	1.12712968517547
1.07236143881479	1.12059707561869
1.06655752271886	1.09922591221244
1.05260996729704	1.07847904185012
1.03922815379995	1.05736286552107
1.02631983086541	1.0359536087186
1.01375804681868	1.01433897527782
1.00142584765595	0.992592399395911
0.98920734564848	0.970781671134253
0.976974075145461	0.948979235425147
0.964557086514067	0.927281108901332
0.951658013023174	0.905867243127986
0.937458769652111	0.885304998135581
0.919197773488312	0.868439913790315
0.915500137239354	0.86630522644743
0.920877207236956	0.868993918954514
0.925212848595377	0.871161821969691
0.928842511925155	0.87297670172389
0.932151084395003	0.874631024189276
0.936208054510869	0.876659581880543
0.953527168466561	0.885554249688585
0.968766195041209	0.904451415390024
0.977037676183406	0.928043099322203
0.985816129044224	0.95145045562999
0.995111663296805	0.97465767120115
1.00476411072524	0.997718945481526
1.01463083690932	1.02068948273105
1.02457293973449	1.04362754172172
1.03442604908781	1.06660388787094
1.04390479478143	1.08973645785165
1.05197959863931	1.11338083473424
1.04516054840322	1.13459530830335
1.04828925917131	1.13303173970195
1.05138196215184	1.13148535823426
1.05385612943538	1.13024825927251
1.05588236250045	1.12923513435161
1.0576239495646	1.12836433552015
1.05932548766285	1.12751356152799
1.06420982059265	1.12507041520607
1.07173420135212	1.10695876065481
1.05773816750542	1.08624464902971
1.0441469827268	1.06526277224068
1.03107789223659	1.0439513904996
1.01840116676155	1.02240403937013
1.00599686278474	1.00069855366807
0.993750000624278	0.978903754675278
0.981538873867738	0.95708889182045
0.969214866325416	0.935337704192615
0.956547104295062	0.913785495502342
0.943004246228942	0.89277684555622
0.926735083951544	0.873880237741785
0.913157402796146	0.865133768154976
0.919016247708083	0.868063394522521
0.923698943970716	0.870404846513097
0.927552593483946	0.872331728934527
0.930923058285781	0.874016999696935
0.93442001559715	0.875765521663716
0.945296168593319	0.881214154994359
0.965009419842491	0.895950099804719
0.973931555642025	0.919270677367099
0.982478884894298	0.94276331836601
0.991601632749021	0.966038882621649
1.00113864440788	0.989148065060295
1.01094161687162	1.01214584529697
1.02087256178455	1.03508873010873
1.03078193991036	1.05804091941132
1.04045139018558	1.08109488935978
1.04931508833027	1.10446659700172
1.05219406218777	1.12875546738392
1.04694022065641	1.13370627743834
1.05031297935437	1.13201985918941
1.05299607873603	1.1306782899448
1.05517038370061	1.12959112708331
1.05699736289389	1.12867763135584
1.05866883836093	1.12784188895124
1.06081256556505	1.12677001406443
1.07548558707658	1.11538235050273
1.0629484569826	1.09395546962635
1.04913835339552	1.07311707764136
1.03589020399718	1.05191668088007
1.02308200001937	1.0304473090193
1.01058977006442	1.00879236030985
0.998297858917702	0.987022963274044
0.986088726706937	0.965206982591956
0.973827309478014	0.943420388090813
0.961324845426991	0.921771532425725
0.948212526662717	0.900488518131302
0.933354720747142	0.88041141039991
0.913601831562607	0.865362691953349
0.916993021566399	0.867051721756161
0.922070287843528	0.869590487417603
0.926194221642452	0.871652525102432
0.929698838920132	0.873404876964998
0.933024342495979	0.875067665569834
0.93817333195373	0.877642349231208
0.958879103967449	0.889032260527085
0.970892536316324	0.910474712711497
0.9792221660567	0.934045644108035
0.988148756666549	0.957397006002882
0.997549907617656	0.980561706324296
1.00727020045794	1.00359450598305
1.01716971270035	1.02655095195272
1.02710685286202	1.04949115772849
1.03690104688223	1.07249260886685
1.04619005547031	1.09570132044239
1.05320807633427	1.11964524074555
1.04546546359269	1.13444367909403
1.04914883780853	1.13260194129735
1.05206573674906	1.13114346668659
1.05441011496311	1.12997126455474
