0	-1
0.05	-0.999020716189083
0.1	-0.998029969397652
0.15	-0.997037265386451
0.2	-0.99604250116756
0.25	-0.99504561029359
0.3	-0.994046548491539
0.35	-0.993045284932994
0.4	-0.99204179692921
0.45	-0.991036066707284
0.5	-0.990028079450893
0.55	-0.98901782210943
0.6	-0.988005282674064
0.65	-0.986990449737498
0.7	-0.985973312226136
0.75	-0.984953859236996
0.8	-0.983932079938278
0.85	-0.982907963508602
0.9	-0.981881499099737
0.95	-0.980852675813613
1	-0.97982148268799
1.05	-0.978787908687402
1.1	-0.977751942697282
1.15	-0.976713573520034
1.2	-0.975672789872269
1.25	-0.97462958038275
1.3	-0.973583933590761
1.35	-0.972535837944732
1.4	-0.971485281801007
1.45	-0.9704322534227
1.5	-0.969376740978599
1.55	-0.968318732542087
1.6	-0.967258216090077
1.65	-0.966195179501943
1.7	-0.965129610558442
1.75	-0.964061496940636
1.8	-0.962990826228789
1.85	-0.961917585901264
1.9	-0.960841763333394
1.95	-0.959763345796345
2	-0.958682320455966
2.05	-0.957598674371611
2.1	-0.956512394494959
2.15	-0.955423467668808
2.2	-0.95433188062586
2.25	-0.953237619987473
2.3	-0.952140672262422
2.35	-0.951041023845613
2.4	-0.949938661016797
2.45	-0.948833569939263
2.5	-0.947725736658509
2.55	-0.946615147100893
2.6	-0.945501787072268
2.65	-0.944385642256594
2.7	-0.943266698214534
2.75	-0.942144940382025
2.8	-0.941020354068832
2.85	-0.939892924457074
2.9	-0.938762636599739
2.95	-0.937629475419168
3	-0.936493425705519
3.05	-0.935354472115214
3.1	-0.934212599169347
3.15	-0.933067791252093
3.2	-0.931920032609067
3.25	-0.930769307345677
3.3	-0.929615599425443
3.35	-0.928458892668294
3.4	-0.927299170748839
3.45	-0.926136417194606
3.5	-0.924970615384268
3.55	-0.923801748545823
3.6	-0.922629799754763
3.65	-0.921454751932204
3.7	-0.920276587842991
3.75	-0.919095290093772
3.8	-0.917910841131046
3.85	-0.916723223239178
3.9	-0.915532418538376
3.95	-0.914338408982653
4	-0.913141176357737
4.05	-0.911940702278961
4.1	-0.910736968189119
4.15	-0.90952995535628
4.2	-0.908319644871576
4.25	-0.907106017646944
4.3	-0.905889054412845
4.35	-0.904668735715936
4.4	-0.903445041916707
4.45	-0.90221795318708
4.5	-0.900987449507971
4.55	-0.899753510666807
4.6	-0.898516116255006
4.65	-0.897275245665417
4.7	-0.896030878089709
4.75	-0.894782992515732
4.8	-0.893531567724818
4.85	-0.892276582289045
4.9	-0.891018014568457
4.95	-0.88975584270823
5	-0.888490044635801
5.05	-0.887220598057931
5.1	-0.885947480457742
5.15	-0.884670669091679
5.2	-0.883390140986439
5.25	-0.882105872935833
5.3	-0.880817841497605
5.35	-0.879526022990194
5.4	-0.878230393489429
5.45	-0.876930928825179
5.5	-0.875627604577941
5.55	-0.874320396075365
5.6	-0.873009278388721
5.65	-0.871694226329302
5.7	-0.87037521444476
5.75	-0.869052217015386
5.8	-0.867725208050317
5.85	-0.866394161283669
5.9	-0.865059050170615
5.95	-0.863719847883377
6	-0.86237652730716
6.05	-0.861029061035995
6.1	-0.859677421368524
6.15	-0.858321580303692
6.2	-0.856961509536372
6.25	-0.855597180452898
6.3	-0.854228564126525
6.35	-0.852855631312796
6.4	-0.851478352444833
6.45	-0.850090011498759
6.5	-0.848727676490089
6.55	-0.847345575034313
6.6	-0.845946106148362
6.65	-0.844555745541039
6.7	-0.843157414904026
6.75	-0.841755368708939
6.8	-0.840371872499529
6.85	-0.838961043674312
6.9	-0.837526261903724
6.95	-0.836127847019092
7	-0.834689514557576
7.05	-0.83327055206887
7.1	-0.831841085213194
7.15	-0.83040938179047
7.2	-0.828970292256103
7.25	-0.8275055988782
7.3	-0.826069449451133
7.35	-0.824594567982213
7.4	-0.823124000637776
7.45	-0.821668486370181
7.5	-0.82020623846995
7.55	-0.81871750067709
7.6	-0.817237920686487
7.65	-0.815752205141333
7.7	-0.814258401675893
7.75	-0.812758723159219
7.8	-0.81125587305369
7.85	-0.809752488236234
7.9	-0.808232809284057
7.95	-0.806718693853163
8	-0.805193114349552
8.05	-0.803668842742142
8.1	-0.802134707207289
8.15	-0.800593269928524
8.2	-0.799046404090518
8.25	-0.797495898984998
8.3	-0.795938595684126
8.35	-0.794375100704364
8.4	-0.792802465938152
8.45	-0.791227232578927
8.5	-0.789645281701349
8.55	-0.788058257767758
8.6	-0.786466293977784
8.65	-0.784863734957334
8.7	-0.783258023659696
8.75	-0.781647162310087
8.8	-0.780027018411707
8.85	-0.77840171887841
8.9	-0.776766522304657
8.95	-0.775128178255171
9	-0.773482515643447
9.05	-0.771831807642603
9.1	-0.77017003912364
9.15	-0.768506753831745
9.2	-0.766831282825415
9.25	-0.765151350883743
9.3	-0.763462590870429
9.35	-0.761770363871148
9.4	-0.760067029206937
9.45	-0.758355391716379
9.5	-0.756638336126717
9.55	-0.754913416863033
9.6	-0.753181461859355
9.65	-0.751441962289329
9.7	-0.749696707188547
9.75	-0.747942451117339
9.8	-0.74618047916413
9.85	-0.744410792484625
9.9	-0.742633320467091
9.95	-0.740847991032775
10	-0.739054730776453
10.05	-0.737253465034463
10.1	-0.73544411791639
10.15	-0.73362661231431
10.2	-0.731800869898109
10.25	-0.729966811102008
10.3	-0.728124355105444
10.35	-0.726273419810202
10.4	-0.724413921814936
10.45	-0.722545776387777
10.5	-0.720668897437432
10.55	-0.718783197483012
10.6	-0.716888587622717
10.65	-0.714984977501464
10.7	-0.713072275277464
10.75	-0.711150387587778
10.8	-0.709219219512822
10.85	-0.707278674539819
10.9	-0.705328654525156
10.95	-0.703369059655637
11	-0.701399788408565
11.05	-0.699420737510655
11.1	-0.697431801895717
11.15	-0.695432874661068
11.2	-0.693423847022641
11.25	-0.691404608268744
11.3	-0.689375045712421
11.35	-0.68733504464236
11.4	-0.685284488272323
11.45	-0.683223257689011
11.5	-0.681151231798347
11.55	-0.679068287270081
11.6	-0.6769742984807
11.65	-0.67486913745455
11.7	-0.672752673803122
11.75	-0.670624774662421
11.8	-0.668485304628374
11.85	-0.66633412569017
11.9	-0.664171097161484
11.95	-0.66199607560949
12	-0.659808914781581
12.05	-0.657609465529714
12.1	-0.65539757573228
12.15	-0.653173090213399
12.2	-0.650935850659566
12.25	-0.648685695533491
12.3	-0.646422459985077
12.35	-0.644145975759371
12.4	-0.641856071101398
12.45	-0.639552570657727
12.5	-0.637235295374641
12.55	-0.63490406239276
12.6	-0.632558684937983
12.65	-0.630198972208559
12.7	-0.627824729258144
12.75	-0.625435756874655
12.8	-0.623031851454737
12.85	-0.620612804873636
12.9	-0.618178404350289
12.95	-0.615728432307386
13	-0.613262666226193
13.05	-0.61078087849587
13.1	-0.608282882802183
13.15	-0.605768592498178
13.2	-0.603237758269832
13.25	-0.600690114865298
13.3	-0.598125391060244
13.35	-0.595543310011574
13.4	-0.592943589333242
13.45	-0.590325941007161
13.5	-0.587690071196676
13.55	-0.58503567878501
13.6	-0.582362274451103
13.65	-0.579669414326611
13.7	-0.576956787615852
13.75	-0.574224083687744
13.8	-0.571470988529757
13.85	-0.568697182377486
13.9	-0.565902338066123
13.95	-0.563086119827824
14	-0.560248182366911
14.05	-0.557388170110358
14.1	-0.554505716570497
14.15	-0.551600443780571
14.2	-0.548671384815431
14.25	-0.545717971400389
14.3	-0.542741596409958
14.35	-0.539740691142673
14.4	-0.53671480790496
14.45	-0.533663486875008
14.5	-0.530586254929362
14.55	-0.527482624905617
14.6	-0.524352094900544
14.65	-0.521194147577395
14.7	-0.518017446385138
14.75	-0.514802783864007
14.8	-0.511558357633583
14.85	-0.508284346485669
14.9	-0.504980146971879
14.95	-0.501645132504039
15	-0.498278653749514
15.05	-0.494880038479801
15.1	-0.491448591061869
15.15	-0.487983591706436
15.2	-0.484484295541227
15.25	-0.480949931548836
15.3	-0.47737970139133
15.35	-0.473772778132852
15.4	-0.470128304864582
15.45	-0.466445393232016
15.5	-0.462723121861541
15.55	-0.45896053468122
15.6	-0.455156639129119
15.65	-0.451310404241152
15.7	-0.447420758609302
15.75	-0.443486588199884
15.8	-0.439506734020339
15.85	-0.435479989621837
15.9	-0.431405098423581
15.95	-0.427280750843215
16	-0.423105581216096
16.05	-0.418878164484339
16.1	-0.414597012634453
16.15	-0.410260570860059
16.2	-0.405867213423557
16.25	-0.40141523918762
16.3	-0.396902866784015
16.35	-0.392328229383432
16.4	-0.387689369025628
16.45	-0.382984230464229
16.5	-0.378210654474834
16.55	-0.373366370568543
16.6	-0.36844898904554
16.65	-0.363455992314721
16.7	-0.358384725395378
16.75	-0.353232385505386
16.8	-0.347996010626901
16.85	-0.342672466924904
16.9	-0.337258434875618
16.95	-0.331750393940309
17	-0.32614460559467
17.05	-0.320437094494058
17.1	-0.314623627519364
17.15	-0.308699690405982
17.2	-0.30266046160775
17.25	-0.296500782986952
17.3	-0.290215126848059
17.35	-0.283797558743816
17.4	-0.277241695373732
17.45	-0.270540656761802
17.5	-0.263687011736107
17.55	-0.256672715529047
17.6	-0.249489038062407
17.65	-0.24212648116124
17.7	-0.234574682534736
17.75	-0.226822303844095
17.8	-0.21885689950991
17.85	-0.21066476204419
17.9	-0.202230738553671
17.95	-0.193538011551381
18	-0.184567835188402
18.05	-0.175299215268091
18.1	-0.16570851762112
18.15	-0.155768984135972
18.2	-0.145450128242603
18.25	-0.134716970820582
18.3	-0.123529061560578
18.35	-0.111839206816661
18.4	-0.0995917879937467
18.45	-0.0867204958872133
18.5	-0.0731452105329572
18.55	-0.0587675936763521
18.6	-0.0434646739807742
18.65	-0.0270791726925733
18.7	-0.00940427038062184
18.75	0.00984169592351942
18.8	0.0310600724594108
18.85	0.053307913143636
18.9	0.0747590777025347
18.95	0.0954126585445386
19	0.115352483631566
19.05	0.13456937805242
19.1	0.153048696259098
19.15	0.170775532844733
19.2	0.187734333978327
19.25	0.20390724749876
19.3	0.219271798373212
19.35	0.233797899705487
19.4	0.24744390560343
19.45	0.260151074954801
19.5	0.27183524785018
19.55	0.282373387273974
19.6	0.29158001553755
19.65	0.299161784370506
19.7	0.304617608078364
19.75	0.30696908242592
19.8	0.3036772808531
19.85	0.290926809125267
19.9	0.285206039774927
19.95	0.281051116969155
20	0.275497425120763
20.05	0.286764194339033
20.1	0.308265246531067
20.15	0.328815819105452
20.2	0.348753996504846
20.25	0.368191234839776
20.3	0.387154037504374
20.35	0.405658416238379
20.4	0.423718631026298
20.45	0.441347915718206
20.5	0.458558487954658
20.55	0.475361429319411
20.6	0.491766507543917
20.65	0.507781951015458
20.7	0.523414162777428
20.75	0.538667343752925
20.8	0.553542973570331
20.85	0.568039063447494
20.9	0.582149034935156
20.95	0.595859961749754
21	0.609149672170248
21.05	0.621981675895358
21.1	0.634295568686675
21.15	0.645986906924447
21.2	0.656858340084795
21.25	0.666470927824803
21.3	0.673467819280228
21.35	0.66952998768505
21.4	0.664442325087214
21.45	0.68314500093811
21.5	0.685274815680454
21.55	0.665273232761491
21.6	0.643457116456744
21.65	0.663635475709302
21.7	0.676710772207076
21.75	0.674416065967303
21.8	0.668141385135475
21.85	0.686210445213303
21.9	0.690408397629715
21.95	0.670631634853235
22	0.64875098461866
22.05	0.666395180841823
22.1	0.680255772389488
22.15	0.679070581025308
22.2	0.67153370156705
22.25	0.689002659562496
22.3	0.695041301996712
22.35	0.675486094936253
22.4	0.65368210028768
22.45	0.668887736709616
22.5	0.683456787516709
22.55	0.683241330872158
22.6	0.674640922293649
22.65	0.69153364553689
22.7	0.699310683085049
22.75	0.679988237496867
22.8	0.658265987658075
22.85	0.671009491817554
22.9	0.686281110825426
22.95	0.687043980727898
23	0.677392279978468
23.05	0.693594447987037
23.1	0.703403123776948
23.15	0.684381659612652
23.2	0.662759482818661
23.25	0.672629867637991
23.3	0.688701058524074
23.35	0.690582926293781
23.4	0.679781706598419
23.45	0.695100384503217
23.5	0.707380569121985
23.55	0.68879349821468
23.6	0.667299040172062
23.65	0.673693818833065
23.7	0.690689114920674
23.75	0.69385616962176
23.8	0.681830591086125
23.85	0.696017368664994
23.9	0.711194944609824
23.95	0.693299312813506
24	0.671968388049596
24.05	0.674178382805502
24.1	0.692203191631172
24.15	0.696815597787522
24.2	0.683571959961036
24.25	0.696337280057694
24.3	0.714575931162968
24.35	0.697946864880913
24.4	0.676823699745595
24.45	0.674076613545922
24.5	0.69317690564069
24.55	0.699404394527186
24.6	0.68528784140293
24.65	0.696233693513998
24.7	0.716739164869847
24.75	0.702763095277314
24.8	0.681901933114202
24.85	0.673391532448429
24.9	0.69351847677434
24.95	0.701574575959295
25	0.690208920101547
25.05	0.696206325893113
25.1	0.717026194640141
25.15	0.707755237564442
25.2	0.68722504618745
25.25	0.672133822585165
25.3	0.69313135854485
25.35	0.703284802614147
25.4	0.69551592738993
25.45	0.696227645442341
25.5	0.715995511038234
25.55	0.712905612616221
25.6	0.692803167680039
25.65	0.671250666221874
25.7	0.691957063868063
25.75	0.704480388618989
25.8	0.700766965668967
25.85	0.696252369987302
25.9	0.714134986120061
25.95	0.718147641702611
26	0.698636251699537
26.05	0.676933047762575
26.1	0.690004665695605
26.15	0.70507536041385
26.2	0.705376815842215
26.25	0.69625673809281
26.3	0.711634193459251
26.35	0.723265396719736
26.4	0.704714443488393
26.45	0.683338638916476
26.5	0.687333544504983
26.55	0.704917514144753
26.6	0.70875447794709
26.65	0.696231297061785
26.7	0.708571780853587
26.75	0.72728088684629
26.8	0.711016223389995
26.85	0.690060517360121
26.9	0.684015867530248
26.95	0.703750097784331
27	0.710875678969717
27.05	0.698566111992322
27.1	0.706139596681234
27.15	0.72680572517903
27.2	0.717498136330465
27.25	0.697076619620076
27.3	0.680116262739249
27.35	0.701322008002928
27.4	0.711967222894117
27.45	0.705608985334415
27.5	0.704544235142957
27.55	0.723160232453343
27.6	0.724055942652989
27.65	0.704358103158133
27.7	0.682602495348371
27.75	0.697657981247229
27.8	0.71208320794874
27.85	0.711715503337631
27.9	0.703393360546194
27.95	0.718586169709321
28	0.73033091304564
28.05	0.711868664672018
28.1	0.69056796739452
28.15	0.693024684480053
28.2	0.710986432631616
28.25	0.715408558545524
28.3	0.702483047893504
28.35	0.713699955973271
28.4	0.733922563486067
28.45	0.719555659755711
28.5	0.69885199298844
28.55	0.687665089739672
28.6	0.708214074702644
28.65	0.716957312298398
28.7	0.707822992559385
28.75	0.710647918601861
28.8	0.730021568512507
28.85	0.727307591594862
28.9	0.707397318272045
28.95	0.685557900220931
29	0.70354206813662
29.05	0.717008975646202
29.1	0.715592142539677
29.15	0.708546015440108
29.2	0.723950256820267
29.25	0.734745893284091
29.3	0.716180300065606
29.35	0.694883769833032
29.4	0.697331551501995
29.45	0.715351825461349
29.5	0.719954877224267
29.55	0.706946127439623
29.6	0.71765331917192
29.65	0.738192102502059
29.7	0.725268243966995
29.75	0.704726388372976
29.8	0.690031857729902
29.85	0.711072655189519
29.9	0.721091263043081
29.95	0.714588824362282
30	0.71390850806569
30.05	0.731749755789515
30.1	0.734470774181269
30.15	0.715036914952347
30.2	0.69342926194886
30.25	0.704011824366939
30.3	0.71999819409671
30.35	0.722255763926141
30.4	0.711313922905561
30.45	0.723358276924254
30.5	0.741974694516907
30.55	0.725735829507208
30.6	0.704940586516353
30.65	0.695215310434068
30.7	0.71572689030478
30.75	0.724392387821491
30.8	0.715937984917674
30.85	0.717948118267679
30.9	0.736334676341943
30.95	0.736599518613664
31	0.717004174080627
31.05	0.695335220625396
31.1	0.707447201132686
31.15	0.723184860976535
31.2	0.725394823382807
31.25	0.714549531441615
31.3	0.726249401049411
31.35	0.745326493979347
31.4	0.729472582279495
31.45	0.708759445558477
31.5	0.696822031883459
31.55	0.717718861782058
31.6	0.727352519364201
31.65	0.721027363721879
31.7	0.7202609884117
31.75	0.737299507189532
31.8	0.741953326371312
31.85	0.722771971821334
31.9	0.701309984765878
31.95	0.70718632522891
32	0.724886578881648
32.05	0.729537600154513
32.1	0.716593471735006
32.15	0.726514462515185
32.2	0.746841290081979
32.25	0.737118828698694
32.3	0.716910055752572
32.35	0.695336976697428
32.4	0.716097168090752
32.45	0.729465545524955
32.5	0.729394747785033
32.55	0.721101571480654
32.6	0.7339261491105
32.65	0.75025833148774
32.7	0.73303348965624
32.75	0.712187491513948
32.8	0.702352511999345
32.85	0.723190108690787
32.9	0.73277039290464
32.95	0.727219345783686
33	0.725588130443963
33.05	0.741508646459052
33.1	0.749007225602416
33.15	0.730185792116178
33.2	0.708916596577887
33.25	0.709027038622895
33.3	0.728426094066754
33.35	0.735468801058082
33.4	0.725417761294828
33.45	0.729763449937487
33.5	0.747586788201055
33.55	0.748372048150364
33.6	0.728958908938477
33.65	0.707441167631417
33.7	0.714107582974614
33.75	0.732273053452139
33.8	0.738002719762178
33.85	0.725526175716103
33.9	0.733320707951768
33.95	0.751954909154005
34	0.749414152741543
34.05	0.729788117873944
34.1	0.708179650008796
34.15	0.717378106854455
34.2	0.735167964848536
34.25	0.740714057934029
34.3	0.728097494598451
34.35	0.73608061332306
34.4	0.754443815767796
34.45	0.752570214692777
34.5	0.733027563756675
34.55	0.711484363852162
34.6	0.718585761161328
34.65	0.737128661298498
34.7	0.743637763350609
34.75	0.733518918827539
34.8	0.738005330906474
34.85	0.754722833322406
34.9	0.758117525117916
34.95	0.739025507689433
35	0.717738237607792
35.05	0.717360801349085
35.1	0.737538977304589
35.15	0.746340445261714
35.2	0.741891059406315
35.25	0.739206609853094
35.3	0.752328267559164
35.35	0.765875296694002
35.4	0.74809854353165
35.45	0.727335574050354
35.5	0.713248001607842
35.55	0.734934456123643
35.6	0.748071968018032
35.65	0.750565300291613
35.7	0.739921175943173
35.75	0.749200059685928
35.8	0.768809376300127
35.85	0.760447176356127
35.9	0.740626084302232
35.95	0.719026087829003
36	0.728053481918767
36.05	0.747127972057039
36.1	0.754818256265918
36.15	0.749536479229239
36.2	0.748044517177257
36.25	0.76007271173601
36.3	0.775167301412099
36.35	0.757821126843216
36.4	0.737294827678942
36.45	0.717033697064023
36.5	0.738779954002341
36.55	0.754888929083845
36.6	0.760538291902883
36.65	0.750079003783324
36.7	0.755077038765631
36.75	0.769007040150881
36.8	0.77832544329319
36.85	0.760052950514813
36.9	0.739355635953237
36.95	0.722947826430823
37	0.744966196074477
37.05	0.760583074595219
37.1	0.766343959504868
37.15	0.756848726992471
37.2	0.760656076264653
37.25	0.77278804615482
37.3	0.78601156389075
37.35	0.768388742142188
37.4	0.748004655739411
37.45	0.726157656766617
37.5	0.745801470816183
37.55	0.764120464960233
37.6	0.771853018601557
37.65	0.770469037167482
37.7	0.764865697128858
37.75	0.773237442149395
37.8	0.792287063644926
37.85	0.783789726482783
37.9	0.764343769253343
37.95	0.743260407407608
38	0.739692822158382
38.05	0.761422273892777
38.1	0.775171641048548
38.15	0.781055220974706
38.2	0.773405761175665
38.25	0.77514495676343
38.3	0.783742412827796
38.35	0.803123359346502
38.4	0.789173000067329
38.45	0.769587066497822
38.5	0.74848170970525
38.55	0.747372391735782
38.6	0.769169957533764
38.65	0.783252637890045
38.7	0.789811105551446
38.75	0.78691085941791
38.8	0.783494540734263
38.85	0.7907301352854
38.9	0.807304566957139
38.95	0.805236974421888
39	0.786491008493298
39.05	0.766218767545639
39.1	0.745612882813013
39.15	0.766717711043488
39.2	0.786656684059266
39.25	0.796321843160083
39.3	0.802170724376942
39.35	0.794153054640068
39.4	0.796592098153691
39.45	0.803361835221295
39.5	0.819871656649968
39.55	0.816752486284512
39.6	0.798187941279362
39.65	0.778291627819058
39.7	0.756702308184727
39.75	0.772298549957306
39.8	0.793670057428113
39.85	0.805799435820875
39.9	0.813013780102413
39.95	0.816354740470749
40	0.807280920117003
40.05	0.813269781546242
40.1	0.819814754912107
40.15	0.838144348252438
40.2	0.827799964607792
40.25	0.809282819252074
40.3	0.78967254036839
40.35	0.768209211229914
40.4	0.781568047982595
40.45	0.803464443760937
40.5	0.817593039830867
40.55	0.825474320382419
40.6	0.832251806425282
40.65	0.827632221252897
40.7	0.827016562684791
40.75	0.832293325442445
40.8	0.83832572907227
40.85	0.856643632557284
40.9	0.843947476040016
40.95	0.825837259996311
41	0.806866575196587
41.05	0.78598162635372
41.1	0.78840719380259
41.15	0.809894753515161
41.2	0.828717992006492
41.25	0.837808945723697
41.3	0.845835058352633
41.35	0.852988144274779
41.4	0.847473638200782
41.45	0.848154817501331
41.5	0.85281490221758
41.55	0.85733333628375
41.6	0.868460531084647
41.65	0.873224141791911
41.7	0.856152244708605
41.75	0.838421914396747
41.8	0.819724833018568
41.85	0.798665730858908
41.9	0.804974321546102
41.95	0.824478259501527
42	0.844642663366874
42.05	0.854577987157122
42.1	0.862988567726274
42.15	0.871596983414407
42.2	0.879204720215188
42.25	0.872587773315527
42.3	0.874789687348037
42.35	0.878872384192073
42.4	0.882438631404536
42.45	0.886159744396391
42.5	0.90010932098362
42.55	0.896219841738086
42.6	0.879507832948086
42.65	0.862622016782147
42.7	0.845043706231974
42.75	0.825195454403632
42.8	0.81999192911596
42.85	0.830927425054111
42.9	0.851421775354765
42.95	0.869215792398895
43	0.878067664323966
43.05	0.886851961982675
43.1	0.89611314074911
43.15	0.905530062706219
43.2	0.914225489171471
43.25	0.912494232290308
43.3	0.910877989907994
43.35	0.91459907545838
43.4	0.917603439703824
43.45	0.920111868624271
43.5	0.922372541958215
43.55	0.925055945771966
43.6	0.940790521117616
43.65	0.92994623160605
43.7	0.914040688121576
43.75	0.898297833232722
43.8	0.882340707188686
43.85	0.865147912203676
43.9	0.844669612010703
43.95	0.847937484187852
44	0.85598526542861
44.05	0.869773934459878
44.1	0.891000791120653
44.15	0.901939628491872
44.2	0.910607256751864
44.25	0.919903194637355
44.3	0.92971956399118
44.35	0.939926096481161
44.4	0.950425622399574
44.45	0.961148556387377
44.5	0.972046375595632
44.55	0.983083482711882
44.6	0.99422250311698
44.65	1.00539809507643
44.7	1.01648390693912
44.75	1.0272638318087
44.8	1.03733232740476
44.85	1.04485426489914
44.9	1.03735712507811
44.95	1.0410325431927
45	1.04392887983807
45.05	1.04623613552481
45.1	1.04811007121671
45.15	1.049691580361
45.2	1.0511545619075
45.25	1.05314191542096
45.3	1.06755786424952
45.35	1.05463564175277
45.4	1.04076954962453
45.45	1.02745589657884
45.5	1.01456738143771
45.55	1.00197401392043
45.6	0.989551254816363
45.65	0.977167124501911
45.7	0.96465693042673
45.75	0.951749481869424
45.8	0.937762085431697
45.85	0.920322780821431
45.9	0.912439307903519
45.95	0.918043700633382
46	0.922559177875333
46.05	0.926335021508006
46.1	0.929768518462555
46.15	0.933942115186953
46.2	0.951274056689822
46.25	0.966616281979992
46.3	0.974904620285265
46.35	0.983695003130436
46.4	0.993007459616061
46.45	1.00268275064953
46.5	1.01257975104444
46.55	1.02256269546941
46.6	1.03247557036439
46.65	1.04206453835471
46.7	1.05052752507621
46.75	1.04771537833967
46.8	1.04728335952147
46.85	1.05047770886615
46.9	1.05302617502634
46.95	1.05510237345176
47	1.05686657821535
47.05	1.05853142162342
47.1	1.06125625324108
47.15	1.07346113125513
47.2	1.05969911095103
47.25	1.04599990599533
47.3	1.03284349668512
47.35	1.02010105222478
47.4	1.00765041912586
47.45	0.995375926291249
47.5	0.9831572690279
47.55	0.970851254693496
47.6	0.958244835676709
47.65	0.944878194978587
47.7	0.92920658573272
47.75	0.912103266031245
47.8	0.918156524737441
47.85	0.922983910618704
47.9	0.926936620966987
47.95	0.93035475226615
48	0.933771318848337
48.05	0.942243067500935
48.1	0.96305587501091
48.15	0.972736380616359
48.2	0.98120238880536
48.25	0.990259672017486
48.3	0.999752417073197
48.35	1.00952999307021
48.4	1.01945415166891
48.45	1.02937908695076
48.5	1.03910312324043
48.55	1.0481545167905
48.6	1.05320987673192
48.65	1.046375536211
48.7	1.04986046112751
48.75	1.05262772071777
48.8	1.05486273089862
48.85	1.05672783367147
48.9	1.05840400961278
48.95	1.06035394504311
49	1.07443861042483
49.05	1.06490943442229
49.1	1.051019793033
49.15	1.03769870131013
49.2	1.02483596419669
49.25	1.01230592861771
49.3	0.999992274048976
49.35	0.987778440821163
49.4	0.975533158178851
49.45	0.963079133702614
49.5	0.950088910557904
49.55	0.935614588103965
49.6	0.9166646234458
49.65	0.916185899307253
49.7	0.921423173902275
49.75	0.925659644918619
49.8	0.929229373526962
49.85	0.932538741716726
49.9	0.936965563104313
49.95	0.956031824278054
50	0.969748625730222
50.05	0.978027194343318
50.1	0.986874940700733
50.15	0.99622025464275
50.2	1.00590503166827
50.25	1.01578801614916
50.3	1.02572932098204
50.35	1.03555792919073
50.4	1.04495755519736
50.45	1.05263204983439
50.5	1.0448791285824
50.55	1.04868661888845
50.6	1.05169740397685
50.65	1.05411092853855
50.7	1.05609523088534
50.75	1.05781585646235
50.8	1.05954625673753
50.85	1.06681086869121
50.9	1.07014305874707
50.95	1.05612093321345
51	1.04259698634447
51.05	1.02958017686241
51.1	1.01694119218199
51.15	1.00456115363878
51.2	0.992324973936323
51.25	0.980109139029774
51.3	0.967759528445053
51.35	0.95502751092316
51.4	0.941308918699689
51.45	0.924469493465207
51.5	0.913914142375845
51.55	0.919615978353188
51.6	0.924184847609421
51.65	0.927963171907872
51.7	0.93130531401423
51.75	0.934915953757587
51.8	0.947897445939732
51.85	0.966357597900725
51.9	0.974895984971949
51.95	0.983516999154315
52	0.992696420697315
52.05	1.00227179918238
52.1	1.01209680684901
52.15	1.02203350625875
52.2	1.03192859530858
52.25	1.04154676875706
52.3	1.05021822874967
52.35	1.05047110537682
52.4	1.04737610165345
52.45	1.05065786832224
52.5	1.05327284806411
52.55	1.05539836470104
52.6	1.05719571141083
52.65	1.05886868222322
52.7	1.06128943026867
52.75	1.07478233945972
52.8	1.06130651661813
52.85	1.04756483824713
52.9	1.03437483800775
52.95	1.021609674347
53	1.00914671961443
53.05	0.996870690694711
53.1	0.984662981479822
53.15	0.972384846941777
53.2	0.959836303382146
53.25	0.946606809951265
53.3	0.931370818870319
53.35	0.911603605140477
53.4	0.917646112466036
53.45	0.92259437237119
53.5	0.926628669123594
53.55	0.930084664130184
53.6	0.93344070289647
53.65	0.939722411722924
53.7	0.96109477613166
53.75	0.971843133028749
53.8	0.980234258815243
53.85	0.989224915941919
53.9	0.99867093156092
53.95	1.00841920155739
54	1.01833068226238
54.05	1.02826186813021
54.1	1.03802249617526
54.15	1.04720159641449
54.2	1.05342348702463
54.25	1.04594225427773
54.3	1.049524770988
54.35	1.05236557041997
54.4	1.0546542173719
54.45	1.05655442370202
54.5	1.05824078247139
54.55	1.0600932051693
54.6	1.07236143881479
54.65	1.06655752271886
54.7	1.05260996729704
54.75	1.03922815379995
54.8	1.02631983086541
54.85	1.01375804681868
54.9	1.00142584765595
54.95	0.98920734564848
55	0.976974075145461
55.05	0.964557086514067
55.1	0.951658013023174
55.15	0.937458769652111
55.2	0.919197773488312
55.25	0.915500137239354
55.3	0.920877207236956
55.35	0.925212848595377
55.4	0.928842511925155
55.45	0.932151084395003
55.5	0.936208054510869
55.55	0.953527168466561
55.6	0.968766195041209
55.65	0.977037676183406
55.7	0.985816129044224
55.75	0.995111663296805
55.8	1.00476411072524
55.85	1.01463083690932
55.9	1.02457293973449
55.95	1.03442604908781
56	1.04390479478143
56.05	1.05197959863931
56.1	1.04516054840322
56.15	1.04828925917131
56.2	1.05138196215184
56.25	1.05385612943538
56.3	1.05588236250045
56.35	1.0576239495646
56.4	1.05932548766285
56.45	1.06420982059265
56.5	1.07173420135212
56.55	1.05773816750542
56.6	1.0441469827268
56.65	1.03107789223659
56.7	1.01840116676155
56.75	1.00599686278474
56.8	0.993750000624278
56.85	0.981538873867738
56.9	0.969214866325416
56.95	0.956547104295062
57	0.943004246228942
57.05	0.926735083951544
57.1	0.913157402796146
57.15	0.919016247708083
57.2	0.923698943970716
57.25	0.927552593483946
57.3	0.930923058285781
57.35	0.93442001559715
57.4	0.945296168593319
57.45	0.965009419842491
57.5	0.973931555642025
57.55	0.982478884894298
57.6	0.991601632749021
57.65	1.00113864440788
57.7	1.01094161687162
57.75	1.02087256178455
57.8	1.03078193991036
57.85	1.04045139018558
57.9	1.04931508833027
57.95	1.05219406218777
58	1.04694022065641
58.05	1.05031297935437
58.1	1.05299607873603
58.15	1.05517038370061
58.2	1.05699736289389
58.25	1.05866883836093
58.3	1.06081256556505
58.35	1.07548558707658
58.4	1.0629484569826
58.45	1.04913835339552
58.5	1.03589020399718
58.55	1.02308200001937
58.6	1.01058977006442
58.65	0.998297858917702
58.7	0.986088726706937
58.75	0.973827309478014
58.8	0.961324845426991
58.85	0.948212526662717
58.9	0.933354720747142
58.95	0.913601831562607
59	0.916993021566399
59.05	0.922070287843528
59.1	0.926194221642452
59.15	0.929698838920132
59.2	0.933024342495979
59.25	0.93817333195373
59.3	0.958879103967449
59.35	0.970892536316324
59.4	0.9792221660567
59.45	0.988148756666549
59.5	0.997549907617656
59.55	1.00727020045794
59.6	1.01716971270035
59.65	1.02710685286202
59.7	1.03690104688223
59.75	1.04619005547031
59.8	1.05320807633427
59.85	1.04546546359269
59.9	1.04914883780853
59.95	1.05206573674906
60	1.05441011496311
