x	y	z	c
-2	-1	1259	1259
-2	-0.833333333333333	1177.05555555556	1177.05555555556
-2	-0.666666666666667	1097.88888888889	1097.88888888889
-2	-0.5	1021.5	1021.5
-2	-0.333333333333333	947.888888888889	947.888888888889
-2	-0.166666666666667	877.055555555556	877.055555555556
-2	0	809	809
-2	0.166666666666667	743.722222222222	743.722222222222
-2	0.333333333333333	681.222222222222	681.222222222222
-2	0.5	621.5	621.5
-2	0.666666666666667	564.555555555555	564.555555555555
-2	0.833333333333333	510.388888888889	510.388888888889
-2	1	459	459
-2	1.16666666666667	410.388888888889	410.388888888889
-2	1.33333333333333	364.555555555556	364.555555555556
-2	1.5	321.5	321.5
-2	1.66666666666667	281.222222222222	281.222222222222
-2	1.83333333333333	243.722222222222	243.722222222222
-2	2	209	209
-2	2.16666666666667	177.055555555556	177.055555555556
-2	2.33333333333333	147.888888888889	147.888888888889
-2	2.5	121.5	121.5
-2	2.66666666666667	97.8888888888889	97.8888888888889
-2	2.83333333333333	77.0555555555555	77.0555555555555
-2	3	59	59
-1.83333333333333	-1	958.992283950617	958.992283950617
-1.83333333333333	-0.833333333333333	887.695987654321	887.695987654321
-1.83333333333333	-0.666666666666667	819.177469135803	819.177469135803
-1.83333333333333	-0.5	753.436728395062	753.436728395062
-1.83333333333333	-0.333333333333333	690.473765432099	690.473765432099
-1.83333333333333	-0.166666666666667	630.288580246913	630.288580246913
-1.83333333333333	0	572.881172839506	572.881172839506
-1.83333333333333	0.166666666666667	518.251543209876	518.251543209876
-1.83333333333333	0.333333333333333	466.399691358025	466.399691358025
-1.83333333333333	0.5	417.32561728395	417.32561728395
-1.83333333333333	0.666666666666667	371.029320987654	371.029320987654
-1.83333333333333	0.833333333333333	327.510802469136	327.510802469136
-1.83333333333333	1	286.770061728395	286.770061728395
-1.83333333333333	1.16666666666667	248.807098765432	248.807098765432
-1.83333333333333	1.33333333333333	213.621913580247	213.621913580247
-1.83333333333333	1.5	181.214506172839	181.214506172839
-1.83333333333333	1.66666666666667	151.58487654321	151.58487654321
-1.83333333333333	1.83333333333333	124.733024691358	124.733024691358
-1.83333333333333	2	100.658950617284	100.658950617284
-1.83333333333333	2.16666666666667	79.3626543209876	79.3626543209876
-1.83333333333333	2.33333333333333	60.8441358024691	60.8441358024691
-1.83333333333333	2.5	45.1033950617284	45.1033950617284
-1.83333333333333	2.66666666666667	32.1404320987654	32.1404320987654
-1.83333333333333	2.83333333333333	21.9552469135802	21.9552469135802
-1.83333333333333	3	14.5478395061728	14.5478395061728
-1.66666666666667	-1	720.691358024691	720.691358024691
-1.66666666666667	-0.833333333333333	659.117283950617	659.117283950617
-1.66666666666667	-0.666666666666667	600.320987654321	600.320987654321
-1.66666666666667	-0.5	544.302469135803	544.302469135803
-1.66666666666667	-0.333333333333333	491.061728395062	491.061728395062
-1.66666666666667	-0.166666666666667	440.598765432099	440.598765432099
-1.66666666666667	0	392.913580246914	392.913580246914
-1.66666666666667	0.166666666666667	348.006172839506	348.006172839506
-1.66666666666667	0.333333333333333	305.876543209877	305.876543209877
-1.66666666666667	0.5	266.524691358025	266.524691358025
-1.66666666666667	0.666666666666667	229.950617283951	229.950617283951
-1.66666666666667	0.833333333333333	196.154320987654	196.154320987654
-1.66666666666667	1	165.135802469136	165.135802469136
-1.66666666666667	1.16666666666667	136.895061728395	136.895061728395
-1.66666666666667	1.33333333333333	111.432098765432	111.432098765432
-1.66666666666667	1.5	88.746913580247	88.746913580247
-1.66666666666667	1.66666666666667	68.8395061728396	68.8395061728396
-1.66666666666667	1.83333333333333	51.7098765432099	51.7098765432099
-1.66666666666667	2	37.3580246913581	37.3580246913581
-1.66666666666667	2.16666666666667	25.783950617284	25.783950617284
-1.66666666666667	2.33333333333333	16.9876543209877	16.9876543209877
-1.66666666666667	2.5	10.9691358024691	10.9691358024691
-1.66666666666667	2.66666666666667	7.7283950617284	7.7283950617284
-1.66666666666667	2.83333333333333	7.26543209876543	7.26543209876543
-1.66666666666667	3	9.58024691358024	9.58024691358024
-1.5	-1	534.375	534.375
-1.5	-0.833333333333333	481.597222222222	481.597222222222
-1.5	-0.666666666666667	431.597222222222	431.597222222222
-1.5	-0.5	384.375	384.375
-1.5	-0.333333333333333	339.930555555556	339.930555555556
-1.5	-0.166666666666667	298.263888888889	298.263888888889
-1.5	0	259.375	259.375
-1.5	0.166666666666667	223.263888888889	223.263888888889
-1.5	0.333333333333333	189.930555555556	189.930555555556
-1.5	0.5	159.375	159.375
-1.5	0.666666666666667	131.597222222222	131.597222222222
-1.5	0.833333333333333	106.597222222222	106.597222222222
-1.5	1	84.375	84.375
-1.5	1.16666666666667	64.9305555555556	64.9305555555556
-1.5	1.33333333333333	48.2638888888889	48.2638888888889
-1.5	1.5	34.375	34.375
-1.5	1.66666666666667	23.2638888888889	23.2638888888889
-1.5	1.83333333333333	14.9305555555556	14.9305555555556
-1.5	2	9.375	9.375
-1.5	2.16666666666667	6.59722222222222	6.59722222222222
-1.5	2.33333333333333	6.59722222222222	6.59722222222222
-1.5	2.5	9.375	9.375
-1.5	2.66666666666667	14.9305555555556	14.9305555555556
-1.5	2.83333333333333	23.2638888888889	23.2638888888889
-1.5	3	34.375	34.375
-1.33333333333333	-1	391.246913580247	391.246913580247
-1.33333333333333	-0.833333333333333	346.33950617284	346.33950617284
-1.33333333333333	-0.666666666666667	304.20987654321	304.20987654321
-1.33333333333333	-0.5	264.858024691358	264.858024691358
-1.33333333333333	-0.333333333333333	228.283950617284	228.283950617284
-1.33333333333333	-0.166666666666667	194.487654320988	194.487654320988
-1.33333333333333	0	163.469135802469	163.469135802469
-1.33333333333333	0.166666666666667	135.228395061728	135.228395061728
-1.33333333333333	0.333333333333333	109.765432098765	109.765432098765
-1.33333333333333	0.5	87.0802469135803	87.0802469135803
-1.33333333333333	0.666666666666667	67.1728395061729	67.1728395061729
-1.33333333333333	0.833333333333333	50.0432098765432	50.0432098765432
-1.33333333333333	1	35.6913580246914	35.6913580246914
-1.33333333333333	1.16666666666667	24.1172839506173	24.1172839506173
-1.33333333333333	1.33333333333333	15.320987654321	15.320987654321
-1.33333333333333	1.5	9.30246913580248	9.30246913580248
-1.33333333333333	1.66666666666667	6.06172839506173	6.06172839506173
-1.33333333333333	1.83333333333333	5.59876543209877	5.59876543209877
-1.33333333333333	2	7.91358024691357	7.91358024691357
-1.33333333333333	2.16666666666667	13.0061728395062	13.0061728395062
-1.33333333333333	2.33333333333333	20.8765432098765	20.8765432098765
-1.33333333333333	2.5	31.5246913580247	31.5246913580247
-1.33333333333333	2.66666666666667	44.9506172839506	44.9506172839506
-1.33333333333333	2.83333333333333	61.1543209876543	61.1543209876543
-1.33333333333333	3	80.1358024691358	80.1358024691358
-1.16666666666667	-1	283.436728395062	283.436728395062
-1.16666666666667	-0.833333333333333	245.473765432099	245.473765432099
-1.16666666666667	-0.666666666666667	210.288580246914	210.288580246914
-1.16666666666667	-0.5	177.881172839506	177.881172839506
-1.16666666666667	-0.333333333333333	148.251543209877	148.251543209877
-1.16666666666667	-0.166666666666667	121.399691358025	121.399691358025
-1.16666666666667	0	97.3256172839506	97.3256172839506
-1.16666666666667	0.166666666666667	76.0293209876543	76.0293209876543
-1.16666666666667	0.333333333333333	57.5108024691358	57.5108024691358
-1.16666666666667	0.5	41.770061728395	41.770061728395
-1.16666666666667	0.666666666666667	28.8070987654321	28.8070987654321
-1.16666666666667	0.833333333333333	18.6219135802469	18.6219135802469
-1.16666666666667	1	11.2145061728395	11.2145061728395
-1.16666666666667	1.16666666666667	6.58487654320987	6.58487654320987
-1.16666666666667	1.33333333333333	4.73302469135802	4.73302469135802
-1.16666666666667	1.5	5.65895061728396	5.65895061728396
-1.16666666666667	1.66666666666667	9.36265432098766	9.36265432098766
-1.16666666666667	1.83333333333333	15.8441358024692	15.8441358024692
-1.16666666666667	2	25.1033950617284	25.1033950617284
-1.16666666666667	2.16666666666667	37.1404320987655	37.1404320987655
-1.16666666666667	2.33333333333333	51.9552469135803	51.9552469135803
-1.16666666666667	2.5	69.5478395061729	69.5478395061729
-1.16666666666667	2.66666666666667	89.9182098765432	89.9182098765432
-1.16666666666667	2.83333333333333	113.066358024691	113.066358024691
-1.16666666666667	3	138.992283950617	138.992283950617
-1	-1	204	204
-1	-0.833333333333333	172.055555555556	172.055555555556
-1	-0.666666666666667	142.888888888889	142.888888888889
-1	-0.5	116.5	116.5
-1	-0.333333333333333	92.8888888888889	92.8888888888889
-1	-0.166666666666667	72.0555555555555	72.0555555555555
-1	0	54	54
-1	0.166666666666667	38.7222222222222	38.7222222222222
-1	0.333333333333333	26.2222222222222	26.2222222222222
-1	0.5	16.5	16.5
-1	0.666666666666667	9.55555555555555	9.55555555555555
-1	0.833333333333333	5.38888888888889	5.38888888888889
-1	1	4	4
-1	1.16666666666667	5.38888888888889	5.38888888888889
-1	1.33333333333333	9.55555555555556	9.55555555555556
-1	1.5	16.5	16.5
-1	1.66666666666667	26.2222222222222	26.2222222222222
-1	1.83333333333333	38.7222222222222	38.7222222222222
-1	2	54	54
-1	2.16666666666667	72.0555555555555	72.0555555555555
-1	2.33333333333333	92.8888888888889	92.8888888888889
-1	2.5	116.5	116.5
-1	2.66666666666667	142.888888888889	142.888888888889
-1	2.83333333333333	172.055555555556	172.055555555556
-1	3	204	204
-0.833333333333333	-1	146.918209876543	146.918209876543
-0.833333333333333	-0.833333333333333	120.066358024691	120.066358024691
-0.833333333333333	-0.666666666666667	95.9922839506173	95.9922839506173
-0.833333333333333	-0.5	74.695987654321	74.695987654321
-0.833333333333333	-0.333333333333333	56.1774691358025	56.1774691358025
-0.833333333333333	-0.166666666666667	40.4367283950617	40.4367283950617
-0.833333333333333	0	27.4737654320988	27.4737654320988
-0.833333333333333	0.166666666666667	17.2885802469136	17.2885802469136
-0.833333333333333	0.333333333333333	9.88117283950617	9.88117283950617
-0.833333333333333	0.5	5.25154320987654	5.25154320987654
-0.833333333333333	0.666666666666667	3.39969135802469	3.39969135802469
-0.833333333333333	0.833333333333333	4.32561728395062	4.32561728395062
-0.833333333333333	1	8.02932098765432	8.02932098765432
-0.833333333333333	1.16666666666667	14.5108024691358	14.5108024691358
-0.833333333333333	1.33333333333333	23.7700617283951	23.7700617283951
-0.833333333333333	1.5	35.8070987654321	35.8070987654321
-0.833333333333333	1.66666666666667	50.6219135802469	50.6219135802469
-0.833333333333333	1.83333333333333	68.2145061728395	68.2145061728395
-0.833333333333333	2	88.5848765432099	88.5848765432099
-0.833333333333333	2.16666666666667	111.733024691358	111.733024691358
-0.833333333333333	2.33333333333333	137.658950617284	137.658950617284
-0.833333333333333	2.5	166.362654320988	166.362654320988
-0.833333333333333	2.66666666666667	197.844135802469	197.844135802469
-0.833333333333333	2.83333333333333	232.103395061728	232.103395061728
-0.833333333333333	3	269.140432098765	269.140432098765
-0.666666666666667	-1	107.098765432099	107.098765432099
-0.666666666666667	-0.833333333333333	84.4135802469136	84.4135802469136
-0.666666666666667	-0.666666666666667	64.5061728395062	64.5061728395062
-0.666666666666667	-0.5	47.3765432098766	47.3765432098766
-0.666666666666667	-0.333333333333333	33.0246913580247	33.0246913580247
-0.666666666666667	-0.166666666666667	21.4506172839506	21.4506172839506
-0.666666666666667	0	12.6543209876543	12.6543209876543
-0.666666666666667	0.166666666666667	6.6358024691358	6.6358024691358
-0.666666666666667	0.333333333333333	3.39506172839506	3.39506172839506
-0.666666666666667	0.5	2.9320987654321	2.9320987654321
-0.666666666666667	0.666666666666667	5.24691358024691	5.24691358024691
-0.666666666666667	0.833333333333333	10.3395061728395	10.3395061728395
-0.666666666666667	1	18.2098765432099	18.2098765432099
-0.666666666666667	1.16666666666667	28.858024691358	28.858024691358
-0.666666666666667	1.33333333333333	42.283950617284	42.283950617284
-0.666666666666667	1.5	58.4876543209876	58.4876543209876
-0.666666666666667	1.66666666666667	77.4691358024691	77.4691358024691
-0.666666666666667	1.83333333333333	99.2283950617284	99.2283950617284
-0.666666666666667	2	123.765432098765	123.765432098765
-0.666666666666667	2.16666666666667	151.08024691358	151.08024691358
-0.666666666666667	2.33333333333333	181.172839506173	181.172839506173
-0.666666666666667	2.5	214.043209876543	214.043209876543
-0.666666666666667	2.66666666666667	249.691358024691	249.691358024691
-0.666666666666667	2.83333333333333	288.117283950617	288.117283950617
-0.666666666666667	3	329.320987654321	329.320987654321
-0.5	-1	80.375	80.375
-0.5	-0.833333333333333	60.9305555555556	60.9305555555556
-0.5	-0.666666666666667	44.2638888888889	44.2638888888889
-0.5	-0.5	30.375	30.375
-0.5	-0.333333333333333	19.2638888888889	19.2638888888889
-0.5	-0.166666666666667	10.9305555555556	10.9305555555556
-0.5	0	5.375	5.375
-0.5	0.166666666666667	2.59722222222222	2.59722222222222
-0.5	0.333333333333333	2.59722222222222	2.59722222222222
-0.5	0.5	5.375	5.375
-0.5	0.666666666666667	10.9305555555556	10.9305555555556
-0.5	0.833333333333333	19.2638888888889	19.2638888888889
-0.5	1	30.375	30.375
-0.5	1.16666666666667	44.2638888888889	44.2638888888889
-0.5	1.33333333333333	60.9305555555556	60.9305555555556
-0.5	1.5	80.375	80.375
-0.5	1.66666666666667	102.597222222222	102.597222222222
-0.5	1.83333333333333	127.597222222222	127.597222222222
-0.5	2	155.375	155.375
-0.5	2.16666666666667	185.930555555556	185.930555555556
-0.5	2.33333333333333	219.263888888889	219.263888888889
-0.5	2.5	255.375	255.375
-0.5	2.66666666666667	294.263888888889	294.263888888889
-0.5	2.83333333333333	335.930555555556	335.930555555556
-0.5	3	380.375	380.375
-0.333333333333333	-1	63.5061728395062	63.5061728395062
-0.333333333333333	-0.833333333333333	46.3765432098765	46.3765432098765
-0.333333333333333	-0.666666666666667	32.0246913580247	32.0246913580247
-0.333333333333333	-0.5	20.4506172839506	20.4506172839506
-0.333333333333333	-0.333333333333333	11.6543209876543	11.6543209876543
-0.333333333333333	-0.166666666666667	5.6358024691358	5.6358024691358
-0.333333333333333	0	2.39506172839506	2.39506172839506
-0.333333333333333	0.166666666666667	1.9320987654321	1.9320987654321
-0.333333333333333	0.333333333333333	4.24691358024691	4.24691358024691
-0.333333333333333	0.5	9.33950617283951	9.33950617283951
-0.333333333333333	0.666666666666667	17.2098765432099	17.2098765432099
-0.333333333333333	0.833333333333333	27.858024691358	27.858024691358
-0.333333333333333	1	41.283950617284	41.283950617284
-0.333333333333333	1.16666666666667	57.4876543209876	57.4876543209876
-0.333333333333333	1.33333333333333	76.4691358024691	76.4691358024691
-0.333333333333333	1.5	98.2283950617284	98.2283950617284
-0.333333333333333	1.66666666666667	122.765432098765	122.765432098765
-0.333333333333333	1.83333333333333	150.08024691358	150.08024691358
-0.333333333333333	2	180.172839506173	180.172839506173
-0.333333333333333	2.16666666666667	213.043209876543	213.043209876543
-0.333333333333333	2.33333333333333	248.691358024691	248.691358024691
-0.333333333333333	2.5	287.117283950617	287.117283950617
-0.333333333333333	2.66666666666667	328.320987654321	328.320987654321
-0.333333333333333	2.83333333333333	372.302469135802	372.302469135802
-0.333333333333333	3	419.061728395062	419.061728395062
-0.166666666666667	-1	54.1774691358025	54.1774691358025
-0.166666666666667	-0.833333333333333	38.4367283950617	38.4367283950617
-0.166666666666667	-0.666666666666667	25.4737654320988	25.4737654320988
-0.166666666666667	-0.5	15.2885802469136	15.2885802469136
-0.166666666666667	-0.333333333333333	7.88117283950617	7.88117283950617
-0.166666666666667	-0.166666666666667	3.25154320987654	3.25154320987654
-0.166666666666667	0	1.39969135802469	1.39969135802469
-0.166666666666667	0.166666666666667	2.32561728395062	2.32561728395062
-0.166666666666667	0.333333333333333	6.02932098765432	6.02932098765432
-0.166666666666667	0.5	12.5108024691358	12.5108024691358
-0.166666666666667	0.666666666666667	21.7700617283951	21.7700617283951
-0.166666666666667	0.833333333333333	33.8070987654321	33.8070987654321
-0.166666666666667	1	48.6219135802469	48.6219135802469
-0.166666666666667	1.16666666666667	66.2145061728395	66.2145061728395
-0.166666666666667	1.33333333333333	86.5848765432099	86.5848765432099
-0.166666666666667	1.5	109.733024691358	109.733024691358
-0.166666666666667	1.66666666666667	135.658950617284	135.658950617284
-0.166666666666667	1.83333333333333	164.362654320988	164.362654320988
-0.166666666666667	2	195.844135802469	195.844135802469
-0.166666666666667	2.16666666666667	230.103395061728	230.103395061728
-0.166666666666667	2.33333333333333	267.140432098765	267.140432098765
-0.166666666666667	2.5	306.95524691358	306.95524691358
-0.166666666666667	2.66666666666667	349.547839506173	349.547839506173
-0.166666666666667	2.83333333333333	394.918209876543	394.918209876543
-0.166666666666667	3	443.066358024691	443.066358024691
0	-1	51	51
0	-0.833333333333333	35.7222222222222	35.7222222222222
0	-0.666666666666667	23.2222222222222	23.2222222222222
0	-0.5	13.5	13.5
0	-0.333333333333333	6.55555555555556	6.55555555555556
0	-0.166666666666667	2.38888888888889	2.38888888888889
0	0	1	1
0	0.166666666666667	2.38888888888889	2.38888888888889
0	0.333333333333333	6.55555555555555	6.55555555555555
0	0.5	13.5	13.5
0	0.666666666666667	23.2222222222222	23.2222222222222
0	0.833333333333333	35.7222222222222	35.7222222222222
0	1	51	51
0	1.16666666666667	69.0555555555555	69.0555555555555
0	1.33333333333333	89.8888888888889	89.8888888888889
0	1.5	113.5	113.5
0	1.66666666666667	139.888888888889	139.888888888889
0	1.83333333333333	169.055555555556	169.055555555556
0	2	201	201
0	2.16666666666667	235.722222222222	235.722222222222
0	2.33333333333333	273.222222222222	273.222222222222
0	2.5	313.5	313.5
0	2.66666666666667	356.555555555556	356.555555555556
0	2.83333333333333	402.388888888889	402.388888888889
0	3	451	451
0.166666666666667	-1	53.5108024691358	53.5108024691358
0.166666666666667	-0.833333333333333	37.7700617283951	37.7700617283951
0.166666666666667	-0.666666666666667	24.8070987654321	24.8070987654321
0.166666666666667	-0.5	14.6219135802469	14.6219135802469
0.166666666666667	-0.333333333333333	7.21450617283951	7.21450617283951
0.166666666666667	-0.166666666666667	2.58487654320987	2.58487654320987
0.166666666666667	0	0.733024691358025	0.733024691358025
0.166666666666667	0.166666666666667	1.65895061728395	1.65895061728395
0.166666666666667	0.333333333333333	5.36265432098765	5.36265432098765
0.166666666666667	0.5	11.8441358024691	11.8441358024691
0.166666666666667	0.666666666666667	21.1033950617284	21.1033950617284
0.166666666666667	0.833333333333333	33.1404320987654	33.1404320987654
0.166666666666667	1	47.9552469135803	47.9552469135803
0.166666666666667	1.16666666666667	65.5478395061728	65.5478395061728
0.166666666666667	1.33333333333333	85.9182098765432	85.9182098765432
0.166666666666667	1.5	109.066358024691	109.066358024691
0.166666666666667	1.66666666666667	134.992283950617	134.992283950617
0.166666666666667	1.83333333333333	163.695987654321	163.695987654321
0.166666666666667	2	195.177469135803	195.177469135803
0.166666666666667	2.16666666666667	229.436728395062	229.436728395062
0.166666666666667	2.33333333333333	266.473765432099	266.473765432099
0.166666666666667	2.5	306.288580246914	306.288580246914
0.166666666666667	2.66666666666667	348.881172839506	348.881172839506
0.166666666666667	2.83333333333333	394.251543209877	394.251543209877
0.166666666666667	3	442.399691358025	442.399691358025
0.333333333333333	-1	62.1728395061728	62.1728395061728
0.333333333333333	-0.833333333333333	45.0432098765432	45.0432098765432
0.333333333333333	-0.666666666666667	30.6913580246914	30.6913580246914
0.333333333333333	-0.5	19.1172839506173	19.1172839506173
0.333333333333333	-0.333333333333333	10.320987654321	10.320987654321
0.333333333333333	-0.166666666666667	4.30246913580247	4.30246913580247
0.333333333333333	0	1.06172839506173	1.06172839506173
0.333333333333333	0.166666666666667	0.598765432098765	0.598765432098765
0.333333333333333	0.333333333333333	2.91358024691358	2.91358024691358
0.333333333333333	0.5	8.00617283950617	8.00617283950617
0.333333333333333	0.666666666666667	15.8765432098765	15.8765432098765
0.333333333333333	0.833333333333333	26.5246913580247	26.5246913580247
0.333333333333333	1	39.9506172839506	39.9506172839506
0.333333333333333	1.16666666666667	56.1543209876543	56.1543209876543
0.333333333333333	1.33333333333333	75.1358024691358	75.1358024691358
0.333333333333333	1.5	96.895061728395	96.895061728395
0.333333333333333	1.66666666666667	121.432098765432	121.432098765432
0.333333333333333	1.83333333333333	148.746913580247	148.746913580247
0.333333333333333	2	178.83950617284	178.83950617284
0.333333333333333	2.16666666666667	211.70987654321	211.70987654321
0.333333333333333	2.33333333333333	247.358024691358	247.358024691358
0.333333333333333	2.5	285.783950617284	285.783950617284
0.333333333333333	2.66666666666667	326.987654320988	326.987654320988
0.333333333333333	2.83333333333333	370.969135802469	370.969135802469
0.333333333333333	3	417.728395061728	417.728395061728
0.5	-1	78.375	78.375
0.5	-0.833333333333333	58.9305555555556	58.9305555555556
0.5	-0.666666666666667	42.2638888888889	42.2638888888889
0.5	-0.5	28.375	28.375
0.5	-0.333333333333333	17.2638888888889	17.2638888888889
0.5	-0.166666666666667	8.93055555555555	8.93055555555555
0.5	0	3.375	3.375
0.5	0.166666666666667	0.597222222222222	0.597222222222222
0.5	0.333333333333333	0.597222222222222	0.597222222222222
0.5	0.5	3.375	3.375
0.5	0.666666666666667	8.93055555555556	8.93055555555556
0.5	0.833333333333333	17.2638888888889	17.2638888888889
0.5	1	28.375	28.375
0.5	1.16666666666667	42.2638888888889	42.2638888888889
0.5	1.33333333333333	58.9305555555556	58.9305555555556
0.5	1.5	78.375	78.375
0.5	1.66666666666667	100.597222222222	100.597222222222
0.5	1.83333333333333	125.597222222222	125.597222222222
0.5	2	153.375	153.375
0.5	2.16666666666667	183.930555555556	183.930555555556
0.5	2.33333333333333	217.263888888889	217.263888888889
0.5	2.5	253.375	253.375
0.5	2.66666666666667	292.263888888889	292.263888888889
0.5	2.83333333333333	333.930555555556	333.930555555556
0.5	3	378.375	378.375
0.666666666666667	-1	104.432098765432	104.432098765432
0.666666666666667	-0.833333333333333	81.7469135802469	81.7469135802469
0.666666666666667	-0.666666666666667	61.8395061728395	61.8395061728395
0.666666666666667	-0.5	44.7098765432099	44.7098765432099
0.666666666666667	-0.333333333333333	30.358024691358	30.358024691358
0.666666666666667	-0.166666666666667	18.7839506172839	18.7839506172839
0.666666666666667	0	9.98765432098764	9.98765432098764
0.666666666666667	0.166666666666667	3.96913580246913	3.96913580246913
0.666666666666667	0.333333333333333	0.728395061728394	0.728395061728394
0.666666666666667	0.5	0.265432098765433	0.265432098765433
0.666666666666667	0.666666666666667	2.58024691358025	2.58024691358025
0.666666666666667	0.833333333333333	7.67283950617284	7.67283950617284
0.666666666666667	1	15.5432098765432	15.5432098765432
0.666666666666667	1.16666666666667	26.1913580246914	26.1913580246914
0.666666666666667	1.33333333333333	39.6172839506173	39.6172839506173
0.666666666666667	1.5	55.820987654321	55.820987654321
0.666666666666667	1.66666666666667	74.8024691358025	74.8024691358025
0.666666666666667	1.83333333333333	96.5617283950618	96.5617283950618
0.666666666666667	2	121.098765432099	121.098765432099
0.666666666666667	2.16666666666667	148.413580246914	148.413580246914
0.666666666666667	2.33333333333333	178.506172839506	178.506172839506
0.666666666666667	2.5	211.376543209877	211.376543209877
0.666666666666667	2.66666666666667	247.024691358025	247.024691358025
0.666666666666667	2.83333333333333	285.450617283951	285.450617283951
0.666666666666667	3	326.654320987654	326.654320987654
0.833333333333333	-1	143.58487654321	143.58487654321
0.833333333333333	-0.833333333333333	116.733024691358	116.733024691358
0.833333333333333	-0.666666666666667	92.658950617284	92.658950617284
0.833333333333333	-0.5	71.3626543209877	71.3626543209877
0.833333333333333	-0.333333333333333	52.8441358024692	52.8441358024692
0.833333333333333	-0.166666666666667	37.1033950617284	37.1033950617284
0.833333333333333	0	24.1404320987654	24.1404320987654
0.833333333333333	0.166666666666667	13.9552469135803	13.9552469135803
0.833333333333333	0.333333333333333	6.54783950617285	6.54783950617285
0.833333333333333	0.5	1.91820987654321	1.91820987654321
0.833333333333333	0.666666666666667	0.0663580246913583	0.0663580246913583
0.833333333333333	0.833333333333333	0.99228395061728	0.99228395061728
0.833333333333333	1	4.69598765432098	4.69598765432098
0.833333333333333	1.16666666666667	11.1774691358025	11.1774691358025
0.833333333333333	1.33333333333333	20.4367283950617	20.4367283950617
0.833333333333333	1.5	32.4737654320988	32.4737654320988
0.833333333333333	1.66666666666667	47.2885802469135	47.2885802469135
0.833333333333333	1.83333333333333	64.8811728395062	64.8811728395062
0.833333333333333	2	85.2515432098765	85.2515432098765
0.833333333333333	2.16666666666667	108.399691358025	108.399691358025
0.833333333333333	2.33333333333333	134.325617283951	134.325617283951
0.833333333333333	2.5	163.029320987654	163.029320987654
0.833333333333333	2.66666666666667	194.510802469136	194.510802469136
0.833333333333333	2.83333333333333	228.770061728395	228.770061728395
0.833333333333333	3	265.807098765432	265.807098765432
1	-1	200	200
1	-0.833333333333333	168.055555555556	168.055555555556
1	-0.666666666666667	138.888888888889	138.888888888889
1	-0.5	112.5	112.5
1	-0.333333333333333	88.8888888888889	88.8888888888889
1	-0.166666666666667	68.0555555555555	68.0555555555555
1	0	50	50
1	0.166666666666667	34.7222222222222	34.7222222222222
1	0.333333333333333	22.2222222222222	22.2222222222222
1	0.5	12.5	12.5
1	0.666666666666667	5.55555555555555	5.55555555555555
1	0.833333333333333	1.38888888888889	1.38888888888889
1	1	0	0
1	1.16666666666667	1.38888888888889	1.38888888888889
1	1.33333333333333	5.55555555555556	5.55555555555556
1	1.5	12.5	12.5
1	1.66666666666667	22.2222222222222	22.2222222222222
1	1.83333333333333	34.7222222222222	34.7222222222222
1	2	50	50
1	2.16666666666667	68.0555555555555	68.0555555555555
1	2.33333333333333	88.8888888888889	88.8888888888889
1	2.5	112.5	112.5
1	2.66666666666667	138.888888888889	138.888888888889
1	2.83333333333333	168.055555555556	168.055555555556
1	3	200	200
1.16666666666667	-1	278.770061728395	278.770061728395
1.16666666666667	-0.833333333333333	240.807098765432	240.807098765432
1.16666666666667	-0.666666666666667	205.621913580247	205.621913580247
1.16666666666667	-0.5	173.214506172839	173.214506172839
1.16666666666667	-0.333333333333333	143.58487654321	143.58487654321
1.16666666666667	-0.166666666666667	116.733024691358	116.733024691358
1.16666666666667	0	92.6589506172839	92.6589506172839
1.16666666666667	0.166666666666667	71.3626543209876	71.3626543209876
1.16666666666667	0.333333333333333	52.8441358024691	52.8441358024691
1.16666666666667	0.5	37.1033950617284	37.1033950617284
1.16666666666667	0.666666666666667	24.1404320987654	24.1404320987654
1.16666666666667	0.833333333333333	13.9552469135802	13.9552469135802
1.16666666666667	1	6.54783950617283	6.54783950617283
1.16666666666667	1.16666666666667	1.9182098765432	1.9182098765432
1.16666666666667	1.33333333333333	0.0663580246913565	0.0663580246913565
1.16666666666667	1.5	0.992283950617289	0.992283950617289
1.16666666666667	1.66666666666667	4.695987654321	4.695987654321
1.16666666666667	1.83333333333333	11.1774691358025	11.1774691358025
1.16666666666667	2	20.4367283950618	20.4367283950618
1.16666666666667	2.16666666666667	32.4737654320988	32.4737654320988
1.16666666666667	2.33333333333333	47.2885802469136	47.2885802469136
1.16666666666667	2.5	64.8811728395062	64.8811728395062
1.16666666666667	2.66666666666667	85.2515432098766	85.2515432098766
1.16666666666667	2.83333333333333	108.399691358025	108.399691358025
1.16666666666667	3	134.325617283951	134.325617283951
1.33333333333333	-1	385.913580246914	385.913580246914
1.33333333333333	-0.833333333333333	341.006172839506	341.006172839506
1.33333333333333	-0.666666666666667	298.876543209877	298.876543209877
1.33333333333333	-0.5	259.524691358025	259.524691358025
1.33333333333333	-0.333333333333333	222.950617283951	222.950617283951
1.33333333333333	-0.166666666666667	189.154320987654	189.154320987654
1.33333333333333	0	158.135802469136	158.135802469136
1.33333333333333	0.166666666666667	129.895061728395	129.895061728395
1.33333333333333	0.333333333333333	104.432098765432	104.432098765432
1.33333333333333	0.5	81.746913580247	81.746913580247
1.33333333333333	0.666666666666667	61.8395061728395	61.8395061728395
1.33333333333333	0.833333333333333	44.7098765432099	44.7098765432099
1.33333333333333	1	30.3580246913581	30.3580246913581
1.33333333333333	1.16666666666667	18.783950617284	18.783950617284
1.33333333333333	1.33333333333333	9.98765432098766	9.98765432098766
1.33333333333333	1.5	3.96913580246915	3.96913580246915
1.33333333333333	1.66666666666667	0.728395061728401	0.728395061728401
1.33333333333333	1.83333333333333	0.265432098765431	0.265432098765431
1.33333333333333	2	2.58024691358024	2.58024691358024
1.33333333333333	2.16666666666667	7.67283950617282	7.67283950617282
1.33333333333333	2.33333333333333	15.5432098765432	15.5432098765432
1.33333333333333	2.5	26.1913580246913	26.1913580246913
1.33333333333333	2.66666666666667	39.6172839506172	39.6172839506172
1.33333333333333	2.83333333333333	55.820987654321	55.820987654321
1.33333333333333	3	74.8024691358024	74.8024691358024
1.5	-1	528.375	528.375
1.5	-0.833333333333333	475.597222222222	475.597222222222
1.5	-0.666666666666667	425.597222222222	425.597222222222
1.5	-0.5	378.375	378.375
1.5	-0.333333333333333	333.930555555556	333.930555555556
1.5	-0.166666666666667	292.263888888889	292.263888888889
1.5	0	253.375	253.375
1.5	0.166666666666667	217.263888888889	217.263888888889
1.5	0.333333333333333	183.930555555556	183.930555555556
1.5	0.5	153.375	153.375
1.5	0.666666666666667	125.597222222222	125.597222222222
1.5	0.833333333333333	100.597222222222	100.597222222222
1.5	1	78.375	78.375
1.5	1.16666666666667	58.9305555555556	58.9305555555556
1.5	1.33333333333333	42.2638888888889	42.2638888888889
1.5	1.5	28.375	28.375
1.5	1.66666666666667	17.2638888888889	17.2638888888889
1.5	1.83333333333333	8.93055555555555	8.93055555555555
1.5	2	3.375	3.375
1.5	2.16666666666667	0.597222222222223	0.597222222222223
1.5	2.33333333333333	0.597222222222223	0.597222222222223
1.5	2.5	3.375	3.375
1.5	2.66666666666667	8.93055555555555	8.93055555555555
1.5	2.83333333333333	17.2638888888889	17.2638888888889
1.5	3	28.375	28.375
1.66666666666667	-1	714.024691358024	714.024691358024
1.66666666666667	-0.833333333333333	652.45061728395	652.45061728395
1.66666666666667	-0.666666666666667	593.654320987654	593.654320987654
1.66666666666667	-0.5	537.635802469136	537.635802469136
1.66666666666667	-0.333333333333333	484.395061728395	484.395061728395
1.66666666666667	-0.166666666666667	433.932098765432	433.932098765432
1.66666666666667	0	386.246913580247	386.246913580247
1.66666666666667	0.166666666666667	341.339506172839	341.339506172839
1.66666666666667	0.333333333333333	299.20987654321	299.20987654321
1.66666666666667	0.5	259.858024691358	259.858024691358
1.66666666666667	0.666666666666667	223.283950617284	223.283950617284
1.66666666666667	0.833333333333333	189.487654320988	189.487654320988
1.66666666666667	1	158.469135802469	158.469135802469
1.66666666666667	1.16666666666667	130.228395061728	130.228395061728
1.66666666666667	1.33333333333333	104.765432098765	104.765432098765
1.66666666666667	1.5	82.0802469135802	82.0802469135802
1.66666666666667	1.66666666666667	62.1728395061728	62.1728395061728
1.66666666666667	1.83333333333333	45.0432098765431	45.0432098765431
1.66666666666667	2	30.6913580246913	30.6913580246913
1.66666666666667	2.16666666666667	19.1172839506173	19.1172839506173
1.66666666666667	2.33333333333333	10.320987654321	10.320987654321
1.66666666666667	2.5	4.30246913580245	4.30246913580245
1.66666666666667	2.66666666666667	1.06172839506172	1.06172839506172
1.66666666666667	2.83333333333333	0.598765432098769	0.598765432098769
1.66666666666667	3	2.91358024691359	2.91358024691359
1.83333333333333	-1	951.658950617284	951.658950617284
1.83333333333333	-0.833333333333333	880.362654320988	880.362654320988
1.83333333333333	-0.666666666666667	811.84413580247	811.84413580247
1.83333333333333	-0.5	746.103395061729	746.103395061729
1.83333333333333	-0.333333333333333	683.140432098766	683.140432098766
1.83333333333333	-0.166666666666667	622.95524691358	622.95524691358
1.83333333333333	0	565.547839506173	565.547839506173
1.83333333333333	0.166666666666667	510.918209876543	510.918209876543
1.83333333333333	0.333333333333333	459.066358024692	459.066358024692
1.83333333333333	0.5	409.992283950617	409.992283950617
1.83333333333333	0.666666666666667	363.695987654321	363.695987654321
1.83333333333333	0.833333333333333	320.177469135803	320.177469135803
1.83333333333333	1	279.436728395062	279.436728395062
1.83333333333333	1.16666666666667	241.473765432099	241.473765432099
1.83333333333333	1.33333333333333	206.288580246914	206.288580246914
1.83333333333333	1.5	173.881172839506	173.881172839506
1.83333333333333	1.66666666666667	144.251543209877	144.251543209877
1.83333333333333	1.83333333333333	117.399691358025	117.399691358025
1.83333333333333	2	93.3256172839507	93.3256172839507
1.83333333333333	2.16666666666667	72.0293209876544	72.0293209876544
1.83333333333333	2.33333333333333	53.5108024691358	53.5108024691358
1.83333333333333	2.5	37.7700617283951	37.7700617283951
1.83333333333333	2.66666666666667	24.8070987654321	24.8070987654321
1.83333333333333	2.83333333333333	14.6219135802469	14.6219135802469
1.83333333333333	3	7.21450617283952	7.21450617283952
2	-1	1251	1251
2	-0.833333333333333	1169.05555555556	1169.05555555556
2	-0.666666666666667	1089.88888888889	1089.88888888889
2	-0.5	1013.5	1013.5
2	-0.333333333333333	939.888888888889	939.888888888889
2	-0.166666666666667	869.055555555556	869.055555555556
2	0	801	801
2	0.166666666666667	735.722222222222	735.722222222222
2	0.333333333333333	673.222222222222	673.222222222222
2	0.5	613.5	613.5
2	0.666666666666667	556.555555555555	556.555555555555
2	0.833333333333333	502.388888888889	502.388888888889
2	1	451	451
2	1.16666666666667	402.388888888889	402.388888888889
2	1.33333333333333	356.555555555556	356.555555555556
2	1.5	313.5	313.5
2	1.66666666666667	273.222222222222	273.222222222222
2	1.83333333333333	235.722222222222	235.722222222222
2	2	201	201
2	2.16666666666667	169.055555555556	169.055555555556
2	2.33333333333333	139.888888888889	139.888888888889
2	2.5	113.5	113.5
2	2.66666666666667	89.8888888888889	89.8888888888889
2	2.83333333333333	69.0555555555555	69.0555555555555
2	3	51	51
