0.882907233571653	0.00225513599498424
0.87792588378544	0.00164596841666187
0.900133859814878	0.00115031464035193
0.834907175341923	0.00373280776286468
0.878002981801791	0.00139323399697268
0.841335866041386	0.00211433077161872
0.849090274735516	0.0022909892706011
0.818358310051905	0.00332199378486316
0.838152833101614	0.00198150581518548
0.805405363877099	0.00279715314296063
0.837754465188737	0.00214336003518898
0.778496108427194	0.00452627650408395
0.796445006573462	0.00324751930224631
0.795190971680007	0.00275937776901677
0.75739184335697	0.00387229560699083
0.774534401869767	0.00319662921668047
0.7643158531204	0.00386164952917923
0.726373497163403	0.00574245704434233
0.733829967623773	0.00504660291445185
0.748216642544295	0.00405890707799966
0.738852609233186	0.00404002968955395
0.714943798991627	0.00469588576151303
0.696912638596802	0.00530746046061785
0.702945525977564	0.00499411968450949
0.705251201944455	0.0049502018126101
0.708133929220982	0.00499109554491698
0.699644989409843	0.0053943802161128
0.686934809244395	0.00594420954120316
0.674986208366556	0.00647851722345441
0.65992420620681	0.0071124839906098
0.654148470638536	0.00737763997592701
0.648107056702987	0.00757786900145042
0.642643385976151	0.00772740913909263
0.636882558524945	0.00790204098292473
0.638283038703231	0.0077101279571959
0.639835080177169	0.00751518602357582
0.639006203980148	0.00739393696740185
0.632609688269133	0.0074719148623909
0.619798700840781	0.0078380965085302
0.606662512055941	0.00829219105427718
0.590479336146342	0.00898907573301603
0.592888894280041	0.00886045318462637
0.597880480731461	0.00875565364142347
0.597266634091921	0.00905435212167251
0.576925618530933	0.0104506015484424
0.55763407133588	0.0119926954392478
0.566180645661142	0.0108800485824857
0.57060830851824	0.0101383273816435
0.548968109706359	0.0108865274758755
0.537224472980922	0.0114518826541118
0.553061086451235	0.0109260095079034
0.532805711083462	0.0125678329941073
0.519029784925591	0.0137195608649897
0.539565477550031	0.0118169690522652
0.521276525439235	0.0123264871792547
0.523922239346817	0.0122874182747743
0.519189605111735	0.0132208566430214
0.500347492331884	0.0148856685738166
0.519849190831079	0.0127408988785263
0.495280451554058	0.013753237523854
0.513668812805351	0.0131391148093699
0.485727114660681	0.0159571040960018
0.51143464359103	0.0133457122419419
0.486894823118791	0.0142590282455955
0.497467360527129	0.0141954197590238
0.471885097349	0.0167473068428909
0.490594155593212	0.0144019295956214
0.473517501037716	0.015138405711933
0.473619156929019	0.0159255826446369
0.463608789306849	0.0170089347769274
0.469771942230369	0.0155570843119965
0.461981321659582	0.0160039705739062
0.452853257986794	0.0176410511405627
0.454965409021788	0.017374449289063
0.44938763195251	0.0168182293937067
0.451467128019721	0.0168838711283515
0.43390933195209	0.0193402809263495
0.446952343371373	0.0177304362003825
0.431085619533549	0.018050413282023
0.441497302189134	0.017813239383022
0.415379065055648	0.0211444890345776
0.438085765101376	0.0181635765621844
0.415920771778388	0.0191770558440172
0.425136445525333	0.0192719139878275
0.405729242651435	0.0217876681075345
0.421270640094304	0.0192377152312251
0.407318684153875	0.0199541519323766
0.407420672594342	0.0209453302240368
0.39881453643764	0.0221064729500417
0.40554092675997	0.0203359996458542
0.399149154463552	0.0207658861744808
0.390560761351721	0.0226722825255949
0.391994399551099	0.0224668854260121
0.390872840795857	0.0214467300065258
0.391404052811894	0.021608248078304
0.374941675722667	0.0244179016218666
0.385311979846203	0.0228596053685201
0.376618033726859	0.0226000566389245
0.38438916719199	0.02244207848817
0.360171773888037	0.0261986301506389
0.378325061679939	0.0232857370835704
0.362621122341114	0.0238056018149784
0.375793727945699	0.0234707739521526
0.349286535225137	0.02744913862859
0.366195572667446	0.024230661131169
0.353765538713853	0.0247583795181632
0.362130320571125	0.0250173545564743
0.344614444103987	0.027712888722738
0.353676389502217	0.0252847210401551
0.346069937608769	0.0256835565735346
0.34754394617918	0.0268050747341868
0.34001637460125	0.0279758163940999
0.343466805213885	0.0261860864806153
0.339635912388842	0.0265304686469196
0.332294067378008	0.028751732334598
0.334503724862981	0.0283580611147883
0.33334855359635	0.0271238387563575
0.334142906743811	0.0273191046901037
0.319412186803847	0.0305206354330601
0.32809849939036	0.028857382600069
0.321758874092814	0.0282790457128453
0.328865521019556	0.0281345284104971
0.309488366229529	0.0320357948839743
0.322639405044056	0.0293152137800341
0.308431873222228	0.0297179289218605
0.321861124419537	0.0292203767083669
0.299296481678235	0.0336468264600583
0.317145295591937	0.0297960537392033
0.301375150351402	0.030610241706524
0.309209650620439	0.0309787450307028
0.292839012128715	0.034338889038922
0.308151716460533	0.0306945527826155
0.297373325204208	0.0312579607086402
0.30013871351023	0.0323605946556639
0.287536258385815	0.0348362576046745
0.295767613886503	0.0320394666932845
0.291626330370765	0.0321974510351157
0.291412547417732	0.0337700241729945
0.284496166290896	0.0350879508075833
0.28764175729708	0.0329692381615553
0.28501042754648	0.0332873051836195
0.27834361533572	0.0359089494975924
0.280454553978363	0.0354595878332797
0.280792861178106	0.0337750068544768
0.281661137400153	0.0339556376455823
0.270104736847515	0.0374001121288943
0.275378463306464	0.0360045642186956
0.269754721342322	0.0351671091472027
0.276476157976328	0.0349592658015567
0.262804885024891	0.0388080157564782
0.272936820486662	0.0362365877445938
0.263360050838368	0.0360161214637531
0.270690267104995	0.0360695677619576
0.251134583711131	0.0410463231589484
0.268592631267942	0.0367109952609598
0.25679849487772	0.0369004578084254
0.267686276173424	0.0367805511313849
0.245963428243073	0.0420657487902351
0.26163887073772	0.0376006346189779
0.249719468116898	0.0381379174855017
0.256246653310048	0.0388316275086916
0.24216645786934	0.042574135672389
0.256015436637483	0.0383291906798925
0.247169245259022	0.038718869697153
0.250066870226195	0.040053093595116
0.238085063995252	0.0431260914137014
0.246192834339379	0.0397211553733322
0.241259064750724	0.0399387423373815
0.241752475586345	0.0417661877929929
0.235787385117467	0.0433990205589523
0.242466650360539	0.0402421656908193
0.238462281853475	0.0406085498396042
0.234333175710307	0.0433474301005824
0.231047971193734	0.0440913978938705
0.233011881603018	0.0416969295243997
0.233451289104366	0.0417511789799202
0.227838108417706	0.0448635118327906
0.22958635679619	0.0442648968085109
0.229634830715267	0.0422227889971501
0.230391266558969	0.0425365538021981
0.220079789070608	0.0466356449890793
0.224795208092043	0.0450140439092239
0.220896171605619	0.0436815590952568
0.225753262823066	0.043695239112255
0.214393672477611	0.0481169809205302
0.223439140692875	0.0451995877782239
0.218055996254263	0.0441665688692172
0.222994918902891	0.0444775251341334
0.207577880902288	0.0498298007607416
0.218710901354251	0.0459943770380857
0.209743870728622	0.0456724717089476
0.218217566538693	0.0457563568569449
0.201411685582063	0.0515180835602531
0.217450338524177	0.0461760168916922
0.20712737718367	0.0461811995934204
0.215696614153094	0.0465164121366696
0.197101957428753	0.0526065811685991
0.211520428372172	0.0472455551380909
0.201563549328795	0.0475176469802322
0.207246006929524	0.0485606054817187
0.193756066111252	0.0533002765003941
0.206822272273497	0.0480898232679046
0.199834408594235	0.0481042622983951
0.204413003572489	0.0494018729164834
0.192563359544867	0.053555475075235
0.202317345202192	0.048968156850596
0.196054824123087	0.0491791124948364
0.196663342969501	0.0514419111045054
0.18832642362345	0.0544416696937472
0.195772000737544	0.0502606579211103
0.192440416774636	0.0502599312616466
0.192451281339431	0.052721122741514
0.187415849753253	0.0546275624084148
0.193874377748554	0.0506512313384459
0.190920141350973	0.050842234242827
0.188137010784589	0.0540119144945628
0.184275017323356	0.0553680648040055
0.187662472674849	0.0520081756144134
0.185992775545534	0.0523200016966054
0.181024436196927	0.0561289222340696
0.181203635377232	0.0560501675500805
0.183265370533507	0.0529701392737481
0.184208662792744	0.0530424469028323
0.178776413136397	0.0570263675956519
0.180326629707473	0.0562790948336634
0.181257493274708	0.0534573016942773
0.181765407462673	0.0539039923965853
0.173599155119386	0.0586795312489141
0.176876021338344	0.0571671274689627
0.174871193888542	0.0549992399572681
0.17739660209027	0.0553779630749574
0.167661314280513	0.0607187038861553
0.174299574716811	0.0577971194166162
0.171776731203935	0.0557610980211904
0.175964150143058	0.0560678274587682
0.1658754225005	0.0615634993367501
0.173553402455138	0.0580281177721527
0.169918844816839	0.0562714762194649
0.173762286341352	0.0569328628385187
0.161343829243337	0.0631854569501169
0.170271065575299	0.0589588688212972
0.164566626701038	0.0577185980718925
0.169438339374489	0.0585023606170166
0.155598902376851	0.065348827936564
0.167485938045254	0.0597187535070893
0.160552394136207	0.0588176129030882
0.167327692511656	0.0594319068097277
0.153325022786624	0.0664441297667533
0.166822035924013	0.0599668912310271
0.159533718603399	0.0591467777906019
0.166240882382733	0.0600235810222534
0.15119717599069	0.0673959152070749
0.164209568837288	0.0607595194635084
0.155854637626314	0.0604280056079998
0.161503645487629	0.0617584039590439
0.147294110200537	0.0688498668275057
0.159118794715887	0.0622363246151877
0.152399888091339	0.0617865522485982
0.156500035019679	0.0636387629668532
0.145092189943887	0.0696637561697717
0.155830165754318	0.063214423791891
0.15071107247184	0.0625992509499181
0.154383225089844	0.0646209089997903
0.144481413099436	0.0699888205557273
0.155076634406889	0.0635350630564428
0.149908090534991	0.0630847603845326
0.152652884422107	0.0654378762067503
0.14292135137561	0.0706480665244748
0.152130359085655	0.0645309819059245
0.147044617498776	0.0643439676515321
0.14818347994964	0.0672677781103543
0.139798542942594	0.0718917547169834
0.14764431018243	0.0660439645805471
0.143747960104052	0.065844506819852
0.143609695294134	0.069252306405902
0.13722939218625	0.0729148313999094
0.14409127035082	0.0672551734181993
0.141618248775498	0.0669328883240043
0.140765883725343	0.0706648533211786
0.136067862234086	0.0734712327676139
0.142382214577802	0.0679140898939568
0.140514425623126	0.0676031436139811
0.139734892569787	0.0713902263681709
0.135695177281404	0.0738145408216528
0.141514918173231	0.0683543880034709
0.139416751243413	0.068233315696993
0.13775028878095	0.0723640998374568
0.133874570864011	0.0746782041881319
0.138955447636992	0.0694219712984798
0.136795367780049	0.0695847413043703
0.133986310429667	0.0742177001780741
0.130790883109393	0.0760735600031966
0.134977017574911	0.0710044845210169
0.133721235214841	0.071147241644509
0.130346544141139	0.0761299827340911
0.128528181086197	0.0772267390159993
0.131759768403782	0.0723665041214811
0.1311429863252	0.0725443527590386
0.127020763299397	0.0778754193342828
0.126781181248072	0.078111247467397
0.129540550258601	0.07335995562159
0.129668812672948	0.0735475854448426
0.125038542066788	0.0791825140889289
0.125578844037092	0.0788214557599249
0.127850247534717	0.0741658883498465
0.128402492965064	0.0743400431642957
0.1238429204707	0.0800154613780394
0.125067132063181	0.0793038049797088
0.127486453522558	0.0745727308366137
0.127855717635412	0.0749945041628643
0.122969425889991	0.0808645776176448
0.124057306966061	0.0799572159570791
0.125858192803896	0.0753610064792391
0.126163768632092	0.0758893283041662
0.120828135758294	0.082051343412532
0.122032374996561	0.0811138414298791
0.123542098242494	0.0766236104627372
0.123866767317051	0.0773592491662107
0.118261102288939	0.0838055670243558
0.119664656408399	0.0825715569206372
0.120681281334067	0.0781557314882731
0.121080105789708	0.0789922346352123
0.115025042390489	0.0857503414567842
0.116927748568731	0.0841166618128786
0.117864029519197	0.0796598300109136
0.118755165096844	0.0804770784130826
0.112603828348176	0.0874562465380708
0.11520886330588	0.0853586674713031
0.11580795778195	0.0809594463909122
0.116796640903771	0.0819260389703677
0.110359322623425	0.0891683160030605
0.113398084369535	0.0866053776984864
0.113732347383597	0.0822339647201853
0.114883433751505	0.0832889572757827
0.108223069501652	0.090746432459278
0.111604099106079	0.0877930594424717
0.111660359658947	0.0834792410689395
0.113142970040521	0.0845330327045541
0.10622034886128	0.0922446100253917
0.110091896546238	0.0889209571413332
0.110025275435488	0.0846073837357908
0.111720114935709	0.0857039080169375
0.104775323985692	0.0935691063561034
0.109030469091815	0.0899248788994035
0.108782886357784	0.0856172827199949
0.110475527455538	0.0868351804340516
0.103357389745039	0.0949149883182225
0.107696384668571	0.0910847732953901
0.10731431607573	0.0867661819993664
0.10898743883676	0.0880877889879124
0.101808228357413	0.0963409555135216
0.106209265936221	0.0923501594489473
0.105776077087625	0.0879859869905769
0.107429667147513	0.0893903809309509
0.100251240977584	0.0977926329487054
0.104675961967186	0.0936779425213517
0.104240286783015	0.0892456482465766
0.10586445967705	0.0907176284306277
0.0987271580305632	0.0992516819238193
0.103132654825287	0.0950544842984747
0.102729850838885	0.0905356626588706
0.104312161466566	0.0920612297854721
0.0972479890467202	0.100712152666375
0.101590932740969	0.0964764242941179
0.101250953120544	0.0918539415730407
0.102778944112854	0.093418653032854
0.0958162420156213	0.102172221818522
0.100054270972594	0.0979438240172294
0.0998044061388094	0.0932008368585602
0.101266423473859	0.0947892502848211
0.0944314654757879	0.103631393496422
0.0985236472442796	0.0994578183821711
0.0983894498888684	0.0945774554219866
0.0997748665593108	0.0961729603108331
0.0930923860821101	0.105089586274412
0.0969993891026958	0.101019832323017
0.097004966888279	0.0959851091515319
0.0983042260247296	0.0975698897615188
0.0917975663535565	0.106546856911747
0.0954524676879784	0.102645649978298
0.0955774395673797	0.0974629629775125
0.0967073665871925	0.0990514708865703
0.0903472857185409	0.108105632811883
0.0934636011344879	0.104546997099767
0.0938826401663148	0.0991327937769991
0.0948558535339461	0.100688981587591
0.0889840888792203	0.109644896035484
0.0918301525088104	0.106362538774412
0.0926904068527816	0.100632432953036
0.0933798316010879	0.102236592499091
0.0878501778679891	0.111180158849332
0.090306279051808	0.108295708001203
0.0914395100563028	0.102286109323329
0.0920470895551173	0.103712214093502
0.0868522768477715	0.11259750575659
0.0889172009972102	0.11011585599168
0.0903352211735072	0.103785953668845
0.0907970921562643	0.10502527556737
0.0859162549245807	0.113827099527284
0.0874466367114954	0.111840985270508
0.0893780700227276	0.105130026086738
0.0896312612320159	0.106328123273191
0.0851647458936173	0.115029463901482
0.086388053768187	0.113468345668781
0.0884167238843472	0.106589216425534
0.0885768435037119	0.107630830627889
0.0843036580145659	0.116301218827752
0.085279452336407	0.114954550699936
0.087542964333226	0.10773090473286
0.087728016419445	0.108521768286976
0.0837005056290151	0.117125412876287
0.084592576787737	0.116101480782762
0.0870193721617507	0.108823189184716
0.087137351657155	0.109710400617712
0.0831906307397566	0.118481718707292
0.0838713816426776	0.117810777616869
0.0861589846185171	0.110418652006891
0.0862269427331137	0.111045625801503
0.0819970231276042	0.12010868130804
0.0817832342593348	0.120408674517934
0.0840188204736804	0.113048391307518
0.083828814371519	0.113640544249987
0.0800558774721701	0.122636573331184
0.0791850670925298	0.123780419179597
0.0820745934607083	0.115767019770429
0.0816814442460281	0.116015328476884
0.0786966395955152	0.124666805005916
0.0773148876477184	0.126791888761856
0.0808896606385455	0.118107701449571
0.0803562454817981	0.117768815056244
0.0779750675116645	0.12606370559093
0.0759977942474482	0.129060329754182
0.0801122000106449	0.119811682925226
0.0793664500625911	0.119161709617191
0.0774049884725852	0.127264338670657
0.0749870153056779	0.130882504596148
0.0794286063240981	0.121139959077317
0.0787259221198806	0.12009251755221
0.0770194895399895	0.128152290943366
0.0744260657215341	0.132472246589223
0.0788299105558491	0.122748248007731
0.0780536414182588	0.121431085389309
0.0760998292183881	0.129788344139221
0.0726742377325318	0.135385878325935
0.077081700344035	0.125593253311281
0.076083979529346	0.124050970103387
0.0745980016716174	0.132230675167138
0.070417563288272	0.139258500101965
0.0755131276997691	0.128723437729038
0.0743665868866296	0.126474619428707
0.0737694584750185	0.134052984012161
0.0688179940175209	0.142496847290021
0.0746850663830092	0.131008524150246
0.073357328615686	0.128036327849843
0.073295078075978	0.135266573786379
0.0679287445406326	0.144513220899712
0.0741384099438903	0.132500490651422
0.072814416629016	0.129077289275701
0.0729476535708639	0.136317894171729
0.067165833230419	0.146634903824017
0.0730639600852523	0.134811949880829
0.0716472781947576	0.131048943607648
0.0717942163121659	0.138426949156377
0.0649865599875536	0.150855073462653
0.0714553560679448	0.138384490702483
0.0698607186018048	0.133856015737145
0.070803627246424	0.140622095496905
0.0633987107472416	0.154515359965822
0.0704339440412705	0.141428308530792
0.0688607555097825	0.135876496076076
0.0700924278798336	0.142104041389175
0.0629247233020626	0.156156240133192
0.0695942332194597	0.143444731097939
0.0684277626535169	0.137253253865028
0.0695786474209476	0.143355727536404
0.0624166938029901	0.157649948790159
0.0681257313707143	0.146596444388757
0.0670728124491399	0.140360849504214
0.0678141122861615	0.146176936555376
0.0614266345762468	0.160262239890638
0.0658426063779656	0.151356272463946
0.0657954889540534	0.144011602620765
0.0663575318296072	0.148709508036874
0.0609601348407376	0.162031088994978
0.0645616919998906	0.154470806005254
0.0652734567540941	0.14602956204243
0.065745644747429	0.150077942319898
0.0606467803557475	0.163270577427152
0.0636226717986433	0.157027647502579
0.0642406097614598	0.14885980513939
0.0645000600605423	0.152515308197181
0.0597405931632453	0.16570266876481
0.06136755303793	0.162270039444482
0.0628847366260996	0.153090967528896
0.0629255121647451	0.15539731564073
0.0592570008631304	0.167694678879227
0.060011780459703	0.165998525609651
0.0623460699002573	0.155469717808263
0.0623177893272824	0.156887840788203
0.0589278623367703	0.169026187437812
0.0589817579318499	0.1690272520517
0.061258725645972	0.158796628093968
0.0609887802480746	0.15961058416131
0.0580804541211415	0.171625673474757
0.0567905066490374	0.174880702228924
0.0600868251207343	0.163205474758546
0.0597060342956527	0.162332553038344
0.0577259432813489	0.173367660126845
0.0558211068060856	0.178151587707077
0.0595489492614035	0.165751158590381
0.0591387178337018	0.163833515113457
0.0572306252069879	0.175112181597644
0.0541917361479974	0.182925566897334
0.0581800172688797	0.17027506361929
0.0575549147743513	0.167344708673792
0.0566196389604456	0.177656034879705
0.0524380531558615	0.188676396383569
0.0573420262261304	0.174305187532808
0.0567797778545556	0.169222433791902
0.0563104329724432	0.179152405656682
0.0514720204585132	0.192130173110378
0.0564222831741322	0.177855424856784
0.0556822929996798	0.172021939094302
0.0556196312974779	0.181772547049242
0.0495952825569937	0.198441219361742
0.0552705987334123	0.183140234208858
0.0546187609937231	0.175160405077013
0.0550687943845018	0.18365318606227
0.0492467268783082	0.200572620116167
0.0542085624790661	0.18676292672206
0.0537668266018801	0.178549444554082
0.0539133192205693	0.186642217332966
0.0486204125915277	0.20341601865809
0.0519588806499397	0.193722404777467
0.0526675386946765	0.183833106811969
0.052757055095561	0.18952311428908
0.0483837749390072	0.205146690200691
0.0510119954890678	0.19759728782851
0.0518367405090895	0.187398541318076
0.0517750079762622	0.192317764139644
0.0478078122066212	0.207959792718658
0.0487909493282915	0.205059407581051
0.0507322188220453	0.193210558201465
0.0506183585859663	0.195403140326965
0.0475612823473634	0.209861679353543
0.0478066387502933	0.209385810038845
0.0498819818425104	0.197209768906134
0.0496266016796938	0.198396437378987
0.0470121939354763	0.212803223095308
0.0457124540566863	0.217294008848644
0.0487929009119132	0.203353147244733
0.0486072815228449	0.201376773341946
0.0467569421315122	0.214766071868687
0.0445908816369763	0.222273106033247
0.0477944711696999	0.20817597108065
0.0474621508033576	0.205018352777702
0.0462791160132218	0.217751486824256
0.0426944474136861	0.230478003063679
0.0469982064347492	0.213917234644339
0.046729516909213	0.207588413475066
0.045981484659141	0.219773336714376
0.0413374393447693	0.236725053942043
0.0458644880193593	0.220307284998977
0.0454509516605668	0.211929237823136
0.0454766054751159	0.222924535516365
0.0404342254772156	0.241867871343266
0.0448502042554471	0.22586671698553
0.0446995305406297	0.215925925681815
0.0445060471848262	0.226102990334121
0.0399575719974479	0.245132931947714
0.0427170214331532	0.234812444473863
0.0436269668540967	0.222793331038823
0.0435452643556054	0.229451801539244
0.0396885278766917	0.247343970961833
0.0412274749008998	0.241529718583204
0.0425270044374931	0.229428517060544
0.042289162380507	0.233765597956716
0.039361618810415	0.250628230090769
0.0398041896531005	0.249214463981825
0.0416708927105708	0.235315019619457
0.0414594190122809	0.237065936851519
0.0389618989664989	0.25375221896114
0.0377782022297841	0.259148583763245
0.04059147074881	0.243184422196543
0.0404891871828873	0.240791916467072
0.038694211252683	0.256261312753699
0.036289916835754	0.267164503715215
0.0394569276034431	0.251017452955539
0.0393274234927001	0.24538376689095
0.0384443148023713	0.259287848187741
0.0349230189293162	0.275513375946496
0.0385761756141846	0.257828237422366
0.0384303772418025	0.249362608351236
0.0380701804467126	0.262862875773998
0.0335258619069629	0.284373454388567
0.0375094344868721	0.266127764098646
0.0375514646764053	0.254682086009108
0.0371459807806081	0.266821706769636
0.0331772738394946	0.287904973778589
0.035455895076718	0.277098040798412
0.0365209357832454	0.263142162138862
0.0362201321137391	0.270871075711396
0.0328885608403912	0.290968978676921
0.0336120512428981	0.287684392519352
0.0353254376764526	0.272616989125224
0.0351521183871962	0.27559684674026
0.0326147929379903	0.294212449305454
0.0320857444754568	0.297466543159255
0.0341918997358349	0.281807721278705
0.0340924454639451	0.280528793279494
0.0323586949403025	0.297865696441144
0.0305847102623073	0.307806814761927
0.0331962059810759	0.290783896030642
0.0331274451063781	0.285465470577768
0.032128451858778	0.301527898976902
0.029002264773794	0.319416849280671
0.0321750881716407	0.300423230179295
0.0322219791838727	0.29054904429278
0.0317059066310851	0.305869081475211
0.0278273837587749	0.328775213114932
0.0309126394869484	0.311092076203252
0.0312149830473695	0.298612216961478
0.030709413553758	0.310900192408199
0.0275487317558289	0.332860363395885
0.0291488950196031	0.323573827911449
0.0300970342697204	0.309099482510548
0.02972220835455	0.316308226394412
0.0272459147339793	0.337285038569965
0.0274042914508878	0.336679774419695
0.0289862992042241	0.320209815913252
0.0287672013454698	0.321829098443181
0.0269737879033425	0.341560061749284
0.0256989026766595	0.350354661400562
0.0278951674950746	0.33194459304841
0.0278623494033677	0.327411770034572
0.0267457443324532	0.345806004658931
0.0240368724189208	0.364799093203627
0.0268113949209608	0.344522797103913
0.0269751850904898	0.33342193709374
0.0264169812571698	0.350317472035174
0.022955153296555	0.375537808958292
0.0252985278003945	0.359051542554054
0.02588427058359	0.3448504675499
0.0254762281182725	0.35612559033012
0.0227135218442743	0.379930257050942
0.0234891033112416	0.374770892917701
0.0247450432451322	0.358240337453071
0.0245105262888562	0.362604287239611
0.0224150497821202	0.385211432930443
0.0216958534568586	0.391701311666746
0.023710772121144	0.371708911081036
0.0237012778922078	0.36840852810462
0.0222586629352445	0.389748587542531
0.0201220127674489	0.408243204691662
0.0226958898535352	0.385811704027645
0.0228005655416025	0.375584453955723
0.0220258559645325	0.395593184505727
0.0188952508022645	0.42264943789937
0.0208931973835022	0.405511209031982
0.0216448831717546	0.389534067658746
0.0211994320092171	0.397970489478572
0.0196630418697142	0.418390796727457
0.0178513662338835	0.436642997581735
0.019975579499427	0.417850878833902
0.0203715387492813	0.405527181016868
0.020167985160117	0.406130793153655
0.0197571313362954	0.420877316663349
0.0177014305078523	0.441316490083467
0.0160783889661109	0.460157114166077
0.0174286542942044	0.447461797705305
0.0184517020125422	0.436885800082379
0.0184188425065062	0.429328811609683
0.0185607318103529	0.425021963246497
0.0180006453459252	0.436944615615037
0.0174899301661703	0.449103637799867
0.0166131209710023	0.462131235426969
0.0153628388385779	0.476215635236409
0.0144527873109638	0.488071536623135
0.0135270838082864	0.500606696955586
0.0135181915267415	0.501514109207441
0.0137940884589728	0.498943626851359
0.0139633341273451	0.497900047347716
0.0138283853498808	0.500076467867495
0.0138109115564078	0.501631575948834
0.0136759167282365	0.50518976528512
0.0133090503252338	0.510704870331868
0.0127517248868352	0.517857806840216
0.0122782394453532	0.526291940182374
0.0116761406624082	0.536148025781049
0.0109658816898905	0.548071807917158
0.0110372445211515	0.548253837819464
0.0114227641781424	0.543368041946527
0.0120090702897482	0.536732389749386
0.0127512009366694	0.528571915518957
0.0126823879098834	0.521288948232799
0.0128082682808201	0.513099247891003
0.0124690673111227	0.52016418696855
0.0118204358106455	0.541501755972603
0.0103503089722212	0.569484520606064
0.00845087048905668	0.602977333369971
0.00969877698595568	0.582500933304659
0.0109716728671041	0.55968001237795
0.0113271304561921	0.539906998113172
0.0104771208261023	0.56797891410071
0.00828771505459065	0.611869037605426
0.00795111713554767	0.619911203224684
0.00984761175556135	0.583952424060423
0.0099618881975129	0.568273593947803
0.00843595381963384	0.6176156883972
0.00659976300206998	0.65310390583602
0.00883790744738338	0.60464911580049
0.008723378020368	0.598455274449693
0.00611193119100488	0.667983892923008
0.00752369022635367	0.644819996967628
0.0086373384028495	0.598450550234783
0.00597392230248279	0.676158004323728
0.0067684848254933	0.666437619113797
0.00778928143229058	0.619342467355798
0.00462247001569081	0.716577207405775
0.007035425089697	0.662514853658606
0.00660568251104248	0.666426774961602
0.00431779372435388	0.730515491610031
0.00714148838468648	0.63863493279902
0.00340530085289581	0.765058663865146
0.00600322124118909	0.674743645661562
0.00405234622644988	0.747709657338783
0.0056356515670009	0.705838926576782
0.00440964984561048	0.747166624158913
0.00534850591058824	0.725565968253024
0.00389622427811247	0.766878821186262
0.0049019975670109	0.730160217462382
0.00257073495695687	0.810450965212135
0.00460912925778729	0.71773243357515
0.0015961184076363	0.884457918850548
0.00463367273691912	0.716974355750981
0.00240635561133264	0.83695696709356
0.00375787971776447	0.808654770790739
0.00372854228122712	0.759697251294491
0.000973275267304822	0.938965478528768
0.0034039391061558	0.789149007229405
0.00363332590860766	0.799209793129659
0.000877012567317069	0.988266113254366
0.00359768679320165	0.826706876268811
0.00311680100731121	0.781184206918721
0.000717621172915815	0.955935490963263
0.000495020962468943	0.973659355825296
0.0027852865048564	0.796491461561957
0.00304552914071245	0.817517740702723
0.000757235249323348	0.998719726099462
0.000721758734023222	1.12415377252453
0.00578916886708642	0.926793092109169
0.00381351778428832	0.771524515410905
0.00323318692238608	0.82445843377141
0.00465503882650577	0.999177860386919
0.000412756661131842	1.21519214753138
0.00209361478810977	1.29541050616352
0.00121342118264256	1.19082159241037
0.00708683360154572	0.98171185136938
0.00274854294228292	0.81400496310494
0.00589851900903846	0.725233294014009
0.00386750791737685	0.763071799286338
