0	0
0.001	-0.00701455419149748
0.002	-0.0155008069686401
0.003	-0.0252692760820959
0.004	-0.0361563489779763
0.005	-0.0480238535459163
0.006	-0.0607551530057318
0.007	-0.074251840221413
0.008	-0.0884309394130804
0.009	-0.103222537365067
0.01	-0.118567778186945
0.011	-0.13441716580705
0.012	-0.150729126946689
0.013	-0.167468794576386
0.014	-0.184606977995086
0.015	-0.202119290870255
0.016	-0.219985412975875
0.017	-0.238188465089014
0.018	-0.256714479657624
0.019	-0.275551952520163
0.02	-0.294691463216005
0.021	-0.314125353337113
0.022	-0.333847453989456
0.023	-0.353852854802176
0.024	-0.374137708081659
0.025	-0.393658863496846
0.026	-0.40970116817266
0.027	-0.422629207831819
0.028	-0.432921903695115
0.029	-0.440984598400454
0.03	-0.447160351722663
0.031	-0.451739502198357
0.032	-0.454967760871035
0.033	-0.457053062502657
0.034	-0.458171365003194
0.035	-0.458471558545798
0.036	-0.458079621046994
0.037	-0.457102135708517
0.038	-0.455629268555863
0.039	-0.453737288873795
0.04	-0.451490702712359
0.041	-0.448944058864021
0.042	-0.446143477593464
0.043	-0.443127944682463
0.044	-0.439930406818115
0.045	-0.436578698821736
0.046	-0.433096328533821
0.047	-0.42950314120734
0.048	-0.425811163956665
0.049	-0.422006054826595
0.05	-0.418067353157477
0.051	-0.413977283919408
0.052	-0.409720352784146
0.053	-0.405282994710853
0.054	-0.400653276494931
0.055	-0.395820644997403
0.056	-0.390775714044257
0.057	-0.385510084062007
0.058	-0.380016189427265
0.059	-0.374287169279774
0.06	-0.368316758201609
0.061	-0.36209919371832
0.062	-0.355629138045979
0.063	-0.348901611904495
0.064	-0.341911938553208
0.065	-0.334655696488935
0.066	-0.32712867948731
0.067	-0.319326862872031
0.068	-0.31124637506926
0.069	-0.302883473650585
0.07	-0.294234525191891
0.071	-0.285295988380386
0.072	-0.276064399891054
0.073	-0.266536362629215
0.074	-0.256708535999862
0.075	-0.246577627918773
0.076	-0.236140388326467
0.077	-0.225393604005281
0.078	-0.214334094533157
0.079	-0.202958709236102
0.08	-0.191264325025447
0.081	-0.179247845026727
0.082	-0.166906197924614
0.083	-0.154236337963499
0.084	-0.141235245556347
0.085	-0.127899928465636
0.086	-0.114227423529926
0.087	-0.100214798918024
0.088	-0.0858591569000607
0.089	-0.0711576371312806
0.09	-0.0561074204500055
0.091	-0.0411428278615449
0.092	-0.0300389933564242
0.093	-0.0230744457593818
0.094	-0.0196076324346564
0.095	-0.0190954776713943
0.096	-0.0210521270046116
0.097	-0.022162488868931
0.098	-0.0206139339173899
0.099	-0.0167615733361179
0.1	-0.0109057006426436
0.101	-0.00330022243732941
0.102	0.00581237663210754
0.103	0.0131359660382104
0.104	0.0169396128532449
0.105	0.0177702646967069
0.106	0.0160909136412717
0.107	0.0122934846274407
0.108	0.00670974527861912
0.109	-0.000379459132317961
0.11	-0.00873638844528657
0.111	-0.0181597904569626
0.112	-0.0269428130819367
0.113	-0.0321560055491887
0.114	-0.0342150219606775
0.115	-0.0335572093919443
0.116	-0.0305526519927382
0.117	-0.0255145182588611
0.118	-0.0187078213165847
0.119	-0.010356835939153
0.12	-0.000651378603138131
0.121	0.0102478747758323
0.122	0.0217730630457276
0.123	0.0300801591672881
0.124	0.0348032353383843
0.125	0.0364998646526291
0.126	0.0356420285229608
0.127	0.0326292562163877
0.128	0.0277997472392373
0.129	0.0214397862420855
0.13	0.0137917125735705
0.131	0.00506066637078617
0.132	-0.00457970098996641
0.133	-0.0149823930926385
0.134	-0.0258153748222093
0.135	-0.0338956257969252
0.136	-0.0386004092031695
0.137	-0.040412310475835
0.138	-0.0397400232542107
0.139	-0.0369297221830729
0.14	-0.0322746912694074
0.141	-0.0260234756573633
0.142	-0.0183867835628634
0.143	-0.00954333030102605
0.144	0.000355213125390885
0.145	0.0111800293499547
0.146	0.0227208026962249
0.147	0.0317442368232607
0.148	0.0372033972652153
0.149	0.0396536359440457
0.15	0.0395650467448716
0.151	0.0373355537924707
0.152	0.0333019904484982
0.153	0.02774947749034
0.154	0.0209193615780942
0.155	0.0130159350316194
0.156	0.0042121240085794
0.157	-0.00534569654736139
0.158	-0.0155336271316526
0.159	-0.0260630036414183
0.16	-0.0341244968319774
0.161	-0.039183315296312
0.162	-0.0416822102292477
0.163	-0.0419965605049897
0.164	-0.0404447480629209
0.165	-0.0372969414559594
0.166	-0.0327825319421896
0.167	-0.027096428981098
0.168	-0.0204043902364182
0.169	-0.0128475343033474
0.17	-0.00454616162086308
0.171	0.00439701023390959
0.172	0.0138941069788562
0.173	0.0238697777008479
0.174	0.0326025035831627
0.175	0.0380079537052223
0.176	0.0405875349702727
0.177	0.0407839646260931
0.178	0.0389719832785378
0.179	0.0354687901585684
0.18	0.0305428763957569
0.181	0.0244215022332971
0.182	0.0172970263641363
0.183	0.00933226360838157
0.184	0.000665020099179792
0.185	-0.00858809850851794
0.186	-0.0183455304402634
0.187	-0.02751052996273
0.188	-0.0341049975829107
0.189	-0.0384579247044495
0.19	-0.0409072642273594
0.191	-0.0417390377576515
0.192	-0.0411953077044033
0.193	-0.0394809255029783
0.194	-0.0367692438512249
0.195	-0.0332069520014632
0.196	-0.0289181687349523
0.197	-0.0240079069780936
0.198	-0.0185650065245058
0.199	-0.0126646165183646
0.2	-0.0063702968186109
0.201	0.000264203247438144
0.202	0.00719343921461058
0.203	0.0143789969714261
0.204	0.021788413925383
0.205	0.0293942658028088
0.206	0.0365021649103413
0.207	0.0405467916116954
0.208	0.0416563933206817
0.209	0.0402038811987366
0.21	0.0365045413403458
0.211	0.0308249318881922
0.212	0.0233904144242854
0.213	0.0143915291386683
0.214	0.00398939111089114
0.215	-0.00767974218851719
0.216	-0.0186522994632119
0.217	-0.0265141436639487
0.218	-0.0317156954376134
0.219	-0.0346584448088084
0.22	-0.0356821941695207
0.221	-0.0350745280076969
0.222	-0.0330788288455061
0.223	-0.0299010625700944
0.224	-0.0257155220776798
0.225	-0.0206696891484195
0.226	-0.0148883499196898
0.227	-0.00847707854365087
0.228	-0.00152518602415708
0.229	0.00589178366251297
0.23	0.0137099406632611
0.231	0.0218752607296054
0.232	0.0303420712861788
0.233	0.0386561749110927
0.234	0.0431748291445048
0.235	0.0435550992377434
0.236	0.0403382386371185
0.237	0.033983070389738
0.238	0.0248787158278224
0.239	0.0133553661741387
0.24	-0.000306602769640341
0.241	-0.0134905311656744
0.242	-0.0230217549778374
0.243	-0.0294275857582366
0.244	-0.0331804341743818
0.245	-0.0346801339630829
0.246	-0.0342650832352471
0.247	-0.0322216753701046
0.248	-0.0287922820779548
0.249	-0.0241820108996539
0.25	-0.0185644252888721
0.251	-0.0120863865394046
0.252	-0.00487215236990213
0.253	0.00297315371753548
0.254	0.0113606057076194
0.255	0.0202149892030754
0.256	0.0294726972017487
0.257	0.0390799489304553
0.258	0.0463440645478733
0.259	0.0479170511412953
0.26	0.0445436215011379
0.261	0.0368853442398772
0.262	0.025504428352137
0.263	0.0108790374314903
0.264	-0.00426571451987878
0.265	-0.0153617046871335
0.266	-0.0228938701038927
0.267	-0.0274016148662324
0.268	-0.0293414800868197
0.269	-0.0290998641675905
0.27	-0.0270037902591016
0.271	-0.0233300206985729
0.272	-0.0183127721954294
0.273	-0.0121502465745477
0.274	-0.0050101589105962
0.275	0.00296558302821792
0.276	0.0116569177381248
0.277	0.0209622770517008
0.278	0.030795747968012
0.279	0.0410432580928602
0.28	0.0470018470648663
0.281	0.0462454453510442
0.282	0.0397133908190721
0.283	0.0282046180960516
0.284	0.0123992249930264
0.285	-0.00291077827468822
0.286	-0.0138367173511796
0.287	-0.021043809066921
0.288	-0.0250950928245471
0.289	-0.0264671158911991
0.29	-0.0255632106908621
0.291	-0.0227247337685984
0.292	-0.0182405793466767
0.293	-0.0123552323539406
0.294	-0.00527558514548732
0.295	0.00282329229170286
0.296	0.0117932679885506
0.297	0.0215090135046206
0.298	0.0318645041830923
0.299	0.0423398815625601
0.3	0.0464741156247328
0.301	0.0430749845008208
0.302	0.0332279866540992
0.303	0.0178572735015708
0.304	0.00164559617797599
0.305	-0.00992631568670432
0.306	-0.0175200111564262
0.307	-0.0217383278442006
0.308	-0.0230915018492786
0.309	-0.0220113828477692
0.31	-0.0188634668842168
0.311	-0.0139570818864975
0.312	-0.00755400949442653
0.313	0.000124216744276318
0.314	0.00889013360922664
0.315	0.0185851188676003
0.316	0.0290749647596006
0.317	0.0400294980568723
0.318	0.0446024996009835
0.319	0.0406275621947503
0.32	0.0293738907457156
0.321	0.0121430855709237
0.322	-0.00327039427725151
0.323	-0.0139789079855488
0.324	-0.0206970086031099
0.325	-0.0240294997157285
0.326	-0.0244882829941033
0.327	-0.022506619312112
0.328	-0.018451200499053
0.329	-0.0126323678329313
0.33	-0.00531276178343898
0.331	0.00328535616416115
0.332	0.0129739057448932
0.333	0.0235937416465254
0.334	0.0350102126672607
0.335	0.0442621735902624
0.336	0.0438687337954172
0.337	0.0348321051728315
0.338	0.018475386209269
0.339	0.00166234869834014
0.34	-0.0101029209064128
0.341	-0.0175878004830974
0.342	-0.0214418116144487
0.343	-0.0222147116130379
0.344	-0.0203718080661721
0.345	-0.0163069222941354
0.346	-0.0103533626558758
0.347	-0.00279321322630788
0.348	0.00613480353387641
0.349	0.016228671198586
0.35	0.027317445576851
0.351	0.0391916900098874
0.352	0.0445029229127246
0.353	0.0395821823211615
0.354	0.0260321647797926
0.355	0.00746542031953534
0.356	-0.00656957435977645
0.357	-0.0158661864730986
0.358	-0.0211445569270677
0.359	-0.0230142252822473
0.36	-0.0219911079421753
0.361	-0.0185118698561995
0.362	-0.0129460898788641
0.363	-0.00560655849940672
0.364	0.00324200534398145
0.365	0.0133755756663771
0.366	0.0246045736147247
0.367	0.0367685805215837
0.368	0.044402969022445
0.369	0.0409018670892498
0.37	0.0279886491006825
0.371	0.00955000718191112
0.372	-0.00432394330919894
0.373	-0.0133858850660393
0.374	-0.0183676077722924
0.375	-0.0198885159274141
0.376	-0.0184728808403215
0.377	-0.014564444103311
0.378	-0.00853877914206724
0.379	-0.000713755017281215
0.38	0.00864160618348586
0.381	0.0192996317511712
0.382	0.0310676518047213
0.383	0.0412678930549497
0.384	0.0404060231999193
0.385	0.0292898943951436
0.386	0.0107109457597621
0.387	-0.00447995362282316
0.388	-0.0145773281993955
0.389	-0.0203566235931524
0.39	-0.0224742044240568
0.391	-0.0214856342137133
0.392	-0.0178611489689328
0.393	-0.011998755264687
0.394	-0.00423531750900275
0.395	0.00514405691345021
0.396	0.0158980733134328
0.397	0.0278225249932664
0.398	0.0404490340332648
0.399	0.0444765643473284
0.4	0.0371270659362432
0.401	0.0203025725812529
0.402	0.00240852279163517
0.403	-0.00991042903433037
0.404	-0.0175041607014139
0.405	-0.0210920495194361
0.406	-0.0212830053007482
0.407	-0.01859242790638
0.408	-0.0134565614780461
0.409	-0.00624464501207245
0.41	0.00273080242363288
0.411	0.0132052754636742
0.412	0.0249549128071427
0.413	0.0377902589771564
0.414	0.0443525399938515
0.415	0.0389235712098317
0.416	0.0235343855617042
0.417	0.00435919171634358
0.418	-0.00924094853460683
0.419	-0.0178664054577741
0.42	-0.0222754147058994
0.421	-0.0231097869427394
0.422	-0.0209127799751597
0.423	-0.0161442271676757
0.424	-0.00919334334985589
0.425	-0.000389564763288497
0.426	0.0099882751414499
0.427	0.0217041785810463
0.428	0.0345584087324515
0.429	0.0447532482673494
0.43	0.0428539028057795
0.431	0.030337769132877
0.432	0.010833657557586
0.433	-0.00435338842499888
0.434	-0.0142825258582869
0.435	-0.0197560704981222
0.436	-0.0214531544420978
0.437	-0.0199486358481378
0.438	-0.0157291056496229
0.439	-0.00920643693045825
0.44	-0.000729254206157881
0.441	0.00940735805683207
0.442	0.0209536373752306
0.443	0.0336981868249415
0.444	0.0438323980575334
0.445	0.0419230250439376
0.446	0.0294629305879086
0.447	0.0100832346754372
0.448	-0.00496338409400543
0.449	-0.0147469087166653
0.45	-0.0200710800647857
0.451	-0.0216162451254946
0.452	-0.0199582990033645
0.453	-0.0155847189652448
0.454	-0.00890813695228893
0.455	-0.000277828448176975
0.456	0.0100105624187295
0.457	0.0217067907698602
0.458	0.0345990426657281
0.459	0.0438330395751231
0.46	0.0409902207219972
0.461	0.0279214121495728
0.462	0.00819709536151556
0.463	-0.00710551087316236
0.464	-0.0170926203664625
0.465	-0.0225766882545839
0.466	-0.0242454471652773
0.467	-0.0226810532046402
0.468	-0.0183762926738577
0.469	-0.0117483007469081
0.47	-0.00315017406864701
0.471	0.00711919940561112
0.472	0.0188068196435241
0.473	0.0316985311719103
0.474	0.0437811140064252
0.475	0.0448789706182106
0.476	0.0352974120928462
0.477	0.0170122701519783
0.478	-0.000611929753500134
0.479	-0.0125639499724761
0.48	-0.0197116949794765
0.481	-0.0227898437093709
0.482	-0.0224203009326729
0.483	-0.0191295089622686
0.484	-0.0133631016878052
0.485	-0.00549830893854145
0.486	0.00414554345980032
0.487	0.0152981455887751
0.488	0.0277306798366121
0.489	0.0409576136309027
0.49	0.0458076227665195
0.491	0.0396290607043348
0.492	0.0243821285031298
0.493	0.00590778765596311
0.494	-0.00700964568756814
0.495	-0.0149854428843247
0.496	-0.018776068744373
0.497	-0.0190218780529918
0.498	-0.0162649394070297
0.499	-0.0109641227603257
0.5	-0.00350787074776816
0.501	0.0057749906289977
0.502	0.0166061009614461
0.503	0.0287498192535364
0.504	0.0402669887729772
0.505	0.0414752818632639
0.506	0.0326530342613442
0.507	0.0155985775259791
0.508	-0.00190872113690906
0.509	-0.0137929913304893
0.51	-0.0209159793516439
0.511	-0.0240071683893331
0.512	-0.023684082169428
0.513	-0.0204694716148475
0.514	-0.014805863034931
0.515	-0.00706787289731681
0.516	0.0024273679475583
0.517	0.0134113903558021
0.518	0.0256569176163882
0.519	0.0389023988145167
0.52	0.0453224903478562
0.521	0.0411686507547011
0.522	0.0283116065654776
0.523	0.00933457227508888
0.524	-0.00586311139663701
0.525	-0.0158235305182868
0.526	-0.0213499442147233
0.527	-0.0231223347939015
0.528	-0.0217163318332623
0.529	-0.0176192310705575
0.53	-0.0112435541000871
0.531	-0.00293852640532391
0.532	0.00700020669882073
0.533	0.0183223557013619
0.534	0.0308160251236195
0.535	0.0426746247965
0.536	0.0448432708606325
0.537	0.0375759672260356
0.538	0.0225479708674514
0.539	0.00332498336245526
0.54	-0.0109467579442564
0.541	-0.0201655740951203
0.542	-0.0251071574951455
0.543	-0.0264281631020095
0.544	-0.0246844816866357
0.545	-0.0203467078145457
0.546	-0.0138132332088116
0.547	-0.00542133004241502
0.548	0.00454346725783372
0.549	0.0158394204863458
0.55	0.0282618653035177
0.551	0.0413821154882243
0.552	0.0471648452714041
0.553	0.0432658964381686
0.554	0.0313765557528954
0.555	0.0131599991490371
0.556	-0.00286207600243799
0.557	-0.013613072986131
0.558	-0.019902890084227
0.559	-0.0224171434231463
0.56	-0.0217362453787953
0.561	-0.0183515540997561
0.562	-0.0126790437850666
0.563	-0.00507087632625774
0.564	0.00417480350772209
0.565	0.0148055766239817
0.566	0.0266077310463995
0.567	0.0391544923002664
0.568	0.0446955140674394
0.569	0.0409493077611466
0.57	0.0295205942726839
0.571	0.0118202421564735
0.572	-0.00461242156138325
0.573	-0.0157688300218833
0.574	-0.022460373294191
0.575	-0.0253739358841824
0.576	-0.0250910094129612
0.577	-0.0221038711533935
0.578	-0.0168292788689708
0.579	-0.00962006324814291
0.58	-0.000774940691409765
0.581	0.00945318034047976
0.582	0.0208501681511026
0.583	0.0332347160439673
0.584	0.0436311332830353
0.585	0.0446791842838622
0.586	0.0375012334947811
0.587	0.023508725050133
0.588	0.00526065651743302
0.589	-0.00872733875584497
0.59	-0.0178805841326104
0.591	-0.0229434241893236
0.592	-0.0245459941630466
0.593	-0.0232217519419925
0.594	-0.0194223185802079
0.595	-0.0135300405270186
0.596	-0.00586862333006621
0.597	0.00328786712467888
0.598	0.013707385222458
0.599	0.0251934559400318
0.6	0.0375797153047689
0.601	0.0452399834599067
0.602	0.0437948781574995
0.603	0.0347649717040803
0.604	0.0194331612844221
0.605	0.00147468662644556
0.606	-0.0115374557261606
0.607	-0.0199376014824801
0.608	-0.0244366089269766
0.609	-0.0256362704038915
0.61	-0.0240460546643325
0.611	-0.020097278963767
0.612	-0.0141551054904157
0.613	-0.00652869612936191
0.614	0.00252019170828466
0.615	0.0127699288663953
0.616	0.0240328552507607
0.617	0.036150066177719
0.618	0.0446344977100752
0.619	0.0441014246994016
0.62	0.0359802922651604
0.621	0.0215255492405799
0.622	0.00368324062474112
0.623	-0.00963331747248097
0.624	-0.0183693791170108
0.625	-0.0232316554434946
0.626	-0.0248184296305338
0.627	-0.0236362012628217
0.628	-0.020113775487989
0.629	-0.0146141892387457
0.63	-0.00744480657055879
0.631	0.00113413581111754
0.632	0.0109022949095534
0.633	0.0216730982831354
0.634	0.0332885608993284
0.635	0.0436876926511006
0.636	0.045583918613058
0.637	0.0395791394179361
0.638	0.0269477373087219
0.639	0.00924087288139352
0.64	-0.00561447011034011
0.641	-0.0157361229034962
0.642	-0.0218549764075191
0.643	-0.0245897816668531
0.644	-0.0244643640222899
0.645	-0.0219221945939994
0.646	-0.0173387247858945
0.647	-0.0110318272283644
0.648	-0.00327063385573934
0.649	0.00571698281239363
0.65	0.0157380768929983
0.651	0.0266292685483166
0.652	0.0382522063331184
0.653	0.0453381148643532
0.654	0.0437333179121554
0.655	0.0348063665921793
0.656	0.0197126467163988
0.657	0.00270697429127065
0.658	-0.00950558765696297
0.659	-0.0174821369664732
0.66	-0.0218778648990954
0.661	-0.0232474412650072
0.662	-0.0220604449132945
0.663	-0.0187144253720244
0.664	-0.0135459592999292
0.665	-0.00684000958276021
0.666	0.00116215235082118
0.667	0.0102562404214235
0.668	0.0202692772893439
0.669	0.031054789196221
0.67	0.0411804267999712
0.671	0.0433162843154337
0.672	0.0375256075815522
0.673	0.0250305834551635
0.674	0.00770107234970818
0.675	-0.00638147421182333
0.676	-0.0160326886238998
0.677	-0.0219383558861682
0.678	-0.0246790398517972
0.679	-0.0247462351709274
0.68	-0.0225560396290432
0.681	-0.0184607275455307
0.682	-0.0127585464577106
0.683	-0.00570200984872349
0.684	0.00249508319610303
0.685	0.0116517059647714
0.686	0.021614574289637
0.687	0.0322538888755189
0.688	0.0426266405596066
0.689	0.0454681046037764
0.69	0.0402390520486874
0.691	0.0281575456666094
0.692	0.0107263732795344
0.693	-0.00416552587827135
0.694	-0.014603352991875
0.695	-0.0212769994790537
0.696	-0.0247704998675747
0.697	-0.0255782813180704
0.698	-0.0241189185636782
0.699	-0.0207467772307639
0.7	-0.0157618697125238
0.701	-0.00941819800152111
0.702	-0.00193081576045462
0.703	0.00651819374864993
0.704	0.0157746574410965
0.705	0.025708029007783
0.706	0.0362077630785939
0.707	0.045347663118105
0.708	0.0461823764830908
0.709	0.0392151644370674
0.71	0.0255974161926035
0.711	0.00816596258258251
0.712	-0.00526790683438982
0.713	-0.0145841396356583
0.714	-0.0204215829574741
0.715	-0.0233210551545264
0.716	-0.0237403935788593
0.717	-0.0220671922668211
0.718	-0.0186295841755867
0.719	-0.0137053681663846
0.72	-0.00752973484606312
0.721	-0.000301806367791535
0.722	0.00780982773030781
0.723	0.0166624245221144
0.724	0.0261351210608727
0.725	0.0361255766806533
0.726	0.0447423277642996
0.727	0.0451404668675598
0.728	0.037799806563772
0.729	0.0238403805285541
0.73	0.00671644598747556
0.731	-0.00624509370792914
0.732	-0.015279162814406
0.733	-0.0209959326693575
0.734	-0.0239119387868386
0.735	-0.024464454272437
0.736	-0.0230236566747835
0.737	-0.0199029270215089
0.738	-0.0153675677833481
0.739	-0.00964218248973114
0.74	-0.00291692245660635
0.741	0.00464722545443619
0.742	0.0129139628269613
0.743	0.0217678908118638
0.744	0.0311113028939245
0.745	0.0408614700099619
0.746	0.0461488073239482
0.747	0.0430599750614622
0.748	0.0327966537172414
0.749	0.0165806064411737
0.75	0.00172192271283933
0.751	-0.00904000728511922
0.752	-0.0163417575184753
0.753	-0.0207222025852065
0.754	-0.0226375150180265
0.755	-0.0224738602463816
0.756	-0.0205581426691077
0.757	-0.0171671020277505
0.758	-0.0125350133394831
0.759	-0.00686020476846283
0.76	-0.000310574903643834
0.761	0.00697173694783271
0.762	0.0148663974241986
0.763	0.0232715326637912
0.764	0.0321008955822115
0.765	0.0412328106277218
0.766	0.0451590056191228
0.767	0.0410660778420574
0.768	0.0300883561862326
0.769	0.0139804526634953
0.77	0.000436880238492754
0.771	-0.00934514139922649
0.772	-0.015951037381459
0.773	-0.0198763735510228
0.774	-0.0215406502732032
0.775	-0.0212989786647886
0.776	-0.0194519643280761
0.777	-0.016254073770493
0.778	-0.0119207164451018
0.779	-0.00663423958741394
0.78	-0.000549002754080985
0.781	0.00620432665432313
0.782	0.0135151372932878
0.783	0.0212897959641187
0.784	0.0294490422010378
0.785	0.0379257828191645
0.786	0.0437952520546688
0.787	0.0418003534014046
0.788	0.0328861663612254
0.789	0.0180589846746494
0.79	0.00355886848875464
0.791	-0.00716805229813167
0.792	-0.0147091445519466
0.793	-0.0195616057128457
0.794	-0.0221463053393935
0.795	-0.0228195017421322
0.796	-0.0218827599190549
0.797	-0.0195913469256325
0.798	-0.0161613384210391
0.799	-0.0117756342481619
0.8	-0.00658905053053793
0.801	-0.000732630057484474
0.802	0.00568270903574741
0.803	0.0125630847092387
0.804	0.0198290365924515
0.805	0.0274133129032126
0.806	0.0352589970981522
0.807	0.0426325134967981
0.808	0.0435645520135945
0.809	0.0375671131790536
0.81	0.0256004435947087
0.811	0.0106405123636687
0.812	-0.000973177711776962
0.813	-0.00940812718082917
0.814	-0.0151604123525173
0.815	-0.0186499413334045
0.816	-0.0202321463009384
0.817	-0.0202078808173024
0.818	-0.0188317977425422
0.819	-0.0163194410026314
0.82	-0.0128532486589372
0.821	-0.00858763441401778
0.822	-0.00365328903037476
0.823	0.00183917858047222
0.824	0.00779615922613186
0.825	0.0141384344488491
0.826	0.0207989680517984
0.827	0.027721036650733
0.828	0.0348566472046131
0.829	0.0411859832181821
0.83	0.0412290629316513
0.831	0.034981742153825
0.832	0.0233120297320107
0.833	0.00894770720731575
0.834	-0.00228176480148012
0.835	-0.0105391245847322
0.836	-0.0162884861711756
0.837	-0.0199226901715581
0.838	-0.0217742447856913
0.839	-0.022124587181325
0.84	-0.0212119230982631
0.841	-0.0192378629458756
0.842	-0.0163730391540881
0.843	-0.0127618611737541
0.844	-0.00852654051280077
0.845	-0.00377049787075634
0.846	0.00141875276939651
0.847	0.00696716279569354
0.848	0.0128120823985278
0.849	0.0189005112440284
0.85	0.0251876176872829
0.851	0.0316354852998155
0.852	0.0382120518147179
0.853	0.0426902711361141
0.854	0.0410482325470916
0.855	0.0340176169428251
0.856	0.0223393633628861
0.857	0.00842232063810244
0.858	-0.00254852094263025
0.859	-0.0107410786287565
0.86	-0.0165892114150153
0.861	-0.0204601382793881
0.862	-0.022664668068072
0.863	-0.0234658589201591
0.864	-0.0230863483261583
0.865	-0.0217145579021679
0.866	-0.0195099456311753
0.867	-0.0166074518024752
0.868	-0.013121262431064
0.869	-0.00914799493608442
0.87	-0.00476939477189275
0.871	-5.46180892415649e-05
0.872	0.00493783602171682
0.873	0.0101584899112164
0.874	0.0155655028356408
0.875	0.0211234989632525
0.876	0.0268025752912501
0.877	0.0325774618547778
0.878	0.0384268108484542
0.879	0.0435863222285646
0.88	0.0438923041939401
0.881	0.0393551537141811
0.882	0.0306484441708638
0.883	0.0183417738455649
0.884	0.00541983803942447
0.885	-0.00460429519710903
0.886	-0.0121545136631421
0.887	-0.0176171213722461
0.888	-0.0213190729622431
0.889	-0.0235370845338927
0.89	-0.0245053458204284
0.891	-0.0244220484090155
0.892	-0.0234549117716416
0.893	-0.0217458609597807
0.894	-0.0194149861977922
0.895	-0.0165638946165013
0.896	-0.0132785474443737
0.897	-0.00963166164775453
0.898	-0.00568474288500087
0.899	-0.00148980637438012
0.9	0.00290916641352967
0.901	0.0074749946833409
0.902	0.01217625453273
0.903	0.0169863954013169
0.904	0.0218829921523631
0.905	0.0268471119653567
0.906	0.0318627784140824
0.907	0.0369165178106329
0.908	0.0419969751861924
0.909	0.0447322458717749
0.91	0.0432112923951816
0.911	0.0380361085807829
0.912	0.0297159523299105
0.913	0.0186815905747095
0.914	0.0062175345646136
0.915	-0.0039076680981337
0.916	-0.0116937369230093
0.917	-0.0175051054206676
0.918	-0.0216502080241107
0.919	-0.024390076782402
0.92	-0.0259456183127471
0.921	-0.0265037736152724
0.922	-0.0262227322513253
0.923	-0.0252363460576422
0.924	-0.0236578652820861
0.925	-0.0215831011614784
0.926	-0.0190931029929902
0.927	-0.0162564242330413
0.928	-0.0131310407153421
0.929	-0.00976597439398563
0.93	-0.00620266781873013
0.931	-0.00247614760946641
0.932	0.00138399067779116
0.933	0.00535274887388265
0.934	0.00940902049834363
0.935	0.0135349933931388
0.936	0.0177156440575543
0.937	0.021938309606545
0.938	0.0261923254361148
0.939	0.0304687185086051
0.94	0.034759947719392
0.941	0.0390596841172634
0.942	0.0432881576070517
0.943	0.0451183410633569
0.944	0.0438214206386789
0.945	0.0398440260186746
0.946	0.0335640388226304
0.947	0.0253011518034976
0.948	0.0153258073923027
0.949	0.00404453662240145
0.95	-0.00571192325629194
0.951	-0.0133174301370828
0.952	-0.0191059240497995
0.953	-0.0233600234201685
0.954	-0.0263189038485425
0.955	-0.0281849673568508
0.956	-0.0291294877888825
0.957	-0.0292973895429836
0.958	-0.0288112926863318
0.959	-0.0277749370745384
0.96	-0.0262760808104671
0.961	-0.0243889537406904
0.962	-0.022176334299316
0.963	-0.0196851389220442
0.964	-0.0169274528400226
0.965	-0.0139054691984846
0.966	-0.010620536719323
0.967	-0.00707328778861555
0.968	-0.0032637468226186
0.969	0.000808578066616161
0.97	0.00514461754853754
0.971	0.00974567552930772
0.972	0.01461337375206
0.973	0.0197496049905024
0.974	0.025156493522015
0.975	0.0308363617677302
0.976	0.0367917021574375
0.977	0.0430251534212613
0.978	0.0495394806319919
0.979	0.0560088103707201
0.98	0.0595921682149747
0.981	0.0600742071765444
0.982	0.0579320677447345
0.983	0.0535696610603078
0.984	0.0473289109567015
0.985	0.0394992701403093
0.986	0.0303257754609065
0.987	0.0200158665485118
0.988	0.0087451576624348
0.989	-0.0028692811525025
0.99	-0.0120963921616959
0.991	-0.0188408069050327
0.992	-0.0234387259039357
0.993	-0.0261742065342296
0.994	-0.0272871655443994
0.995	-0.0269801529193631
0.996	-0.0254240857073427
0.997	-0.0227631014718718
0.998	-0.0191186665208558
0.999	-0.014593053317193
1	-0.00927228391335542
1.001	-0.00322862138643512
1.002	0.00347732133349
1.003	0.010794796500422
1.004	0.0186814107300851
1.005	0.0271018462251591
1.006	0.0360267784154435
1.007	0.0450521957788881
1.008	0.0508732774799641
1.009	0.0532225171462885
1.01	0.0526353009211984
1.011	0.0495648442112459
1.012	0.0443948063414795
1.013	0.0374499686307057
1.014	0.029005273187139
1.015	0.0192934740836318
1.016	0.00851161393756338
1.017	-0.00317349378294683
1.018	-0.0148546341716182
1.019	-0.0235282383774205
1.02	-0.0293024701771739
1.021	-0.032571749164599
1.022	-0.0336693907316162
1.023	-0.0328769833475572
1.024	-0.030432326194345
1.025	-0.0265361481821217
1.026	-0.0213577954405981
1.027	-0.0150400456612109
1.028	-0.00770318335418876
1.029	0.000551550493920916
1.03	0.00963903829595542
1.031	0.0194878139515002
1.032	0.0300379703054439
1.033	0.0403168748620852
1.034	0.0468102785584445
1.035	0.0497374732401225
1.036	0.049649568883824
1.037	0.0470130900379424
1.038	0.0422229611143518
1.039	0.0356134982029763
1.04	0.0274677134442471
1.041	0.0180251910125088
1.042	0.00748875399408189
1.043	-0.00396989222036359
1.044	-0.0161117258552703
1.045	-0.025889708387991
1.046	-0.0322775215329791
1.047	-0.0357425114339779
1.048	-0.0366797364367505
1.049	-0.0354230629744976
1.05	-0.0322545582329885
1.051	-0.0274124411066146
1.052	-0.0210978128131938
1.053	-0.0134803545552007
1.054	-0.00470315085152756
1.055	0.00511322718347906
1.056	0.0158672649465046
1.057	0.0274735776152008
1.058	0.0377163357364902
1.059	0.0438753425620889
1.06	0.0465586926519381
1.061	0.0463047321188635
1.062	0.0435691790125903
1.063	0.0387378080542885
1.064	0.032137188037033
1.065	0.0240437708434515
1.066	0.0146915851372847
1.067	0.0042787489368093
1.068	-0.00702701760683166
1.069	-0.0189865691514288
1.07	-0.0284472380746753
1.071	-0.0343534112073068
1.072	-0.0371979823792026
1.073	-0.0373977150843876
1.074	-0.0353049337139105
1.075	-0.0312174206017768
1.076	-0.0253867943850799
1.077	-0.0180256028894062
1.078	-0.00931332795311596
1.079	0.000598530697641653
1.08	0.0115821510608603
1.081	0.0235297442069695
1.082	0.0341722074859052
1.083	0.0407331210176182
1.084	0.0438209013346558
1.085	0.0439745461138661
1.086	0.0416503214759204
1.087	0.0372344625430703
1.088	0.031053924235607
1.089	0.0233854816309028
1.09	0.0144634332571586
1.091	0.00448612179679142
1.092	-0.00637854625149248
1.093	-0.017988428273935
1.094	-0.0287152457248384
1.095	-0.0357218320471129
1.096	-0.0394466174749459
1.097	-0.0403444710416055
1.098	-0.0388001554063622
1.099	-0.0351391027890406
1.1	-0.0296365377358849
1.101	-0.0225252005858998
1.102	-0.0140018865375525
1.103	-0.00423298222881574
1.104	0.0066408461788704
1.105	0.0185006830581622
1.106	0.0302775488759894
1.107	0.0382469145839214
1.108	0.0426160776752006
1.109	0.0439445190402614
1.11	0.0427058385048713
1.111	0.0393009388324571
1.112	0.0340691857493399
1.113	0.0272978547102216
1.114	0.0192301274204123
1.115	0.0100718607535021
1.116	-2.68347598053609e-06
1.117	-0.0108459883573274
1.118	-0.0223331763086773
1.119	-0.0321127801432486
1.12	-0.0382932064781271
1.121	-0.0413869407107513
1.122	-0.0418278021125105
1.123	-0.0399830433902785
1.124	-0.036163594105338
1.125	-0.0306327329678456
1.126	-0.0236134302716176
1.127	-0.0152945646973612
1.128	-0.00583618736172919
1.129	0.00462602054854189
1.13	0.0159769726821252
1.131	0.0277088590153097
1.132	0.0361996670096451
1.133	0.0411305110744623
1.134	0.0430556037902742
1.135	0.0424440786595852
1.136	0.0396930509414114
1.137	0.0351386734186927
1.138	0.0290654949127188
1.139	0.0217143821038737
1.14	0.0132892252171375
1.141	0.00396261427126421
1.142	-0.00611935607136216
1.143	-0.0168330192785748
1.144	-0.0275467517503503
1.145	-0.0352526340241354
1.146	-0.0399158345588475
1.147	-0.0419780787274218
1.148	-0.0418136949332324
1.149	-0.0397399921636941
1.15	-0.0360260455942732
1.151	-0.0309001346629258
1.152	-0.0245560405109394
1.153	-0.0171583779224345
1.154	-0.00884711000724014
1.155	0.000258628888299417
1.156	0.0100572958241769
1.157	0.0204621975537966
1.158	0.0303121537803333
1.159	0.0367242008191886
1.16	0.0400561470947781
1.161	0.0407893455994045
1.162	0.0393312465519663
1.163	0.0360267424469334
1.164	0.0311677714412057
1.165	0.0250014464557631
1.166	0.017736936321497
1.167	0.0095512905531957
1.168	0.000594369923790583
1.169	-0.00900697988529797
1.17	-0.0191453953562521
1.171	-0.0283247351569459
1.172	-0.034748565339238
1.173	-0.0388195731972418
1.174	-0.0408949342298979
1.175	-0.0412778037469237
1.176	-0.0402256374004046
1.177	-0.0379572346633175
1.178	-0.0346587012759675
1.179	-0.0304884965856483
1.18	-0.0255817062295872
1.181	-0.0200536590466988
1.182	-0.014002988849614
1.183	-0.007514226236641
1.184	-0.000659992543624255
1.185	0.00649714303614091
1.186	0.0139030915080327
1.187	0.0215109135855521
1.188	0.02927969364602
1.189	0.0358320322696577
1.19	0.0395034269845771
1.191	0.0406855202206766
1.192	0.0396933123057609
1.193	0.036792044271863
1.194	0.0322056499113884
1.195	0.0261231339383424
1.196	0.0187039715766382
1.197	0.010082679699865
1.198	0.000372686595430327
1.199	-0.0103303920869904
1.2	-0.0209427812243453
1.201	-0.0287601732658852
1.202	-0.0340414273610533
1.203	-0.0371693230982872
1.204	-0.0384678250920918
1.205	-0.038211111772615
1.206	-0.0366312180782222
1.207	-0.0339245048422425
1.208	-0.0302571349974667
1.209	-0.025769709069824
1.21	-0.0205811890255524
1.211	-0.0147922197222723
1.212	-0.00848794044267764
1.213	-0.00174036479208117
1.214	0.00538960477626849
1.215	0.0128504717171376
1.216	0.0205987019504096
1.217	0.0285975020283616
1.218	0.0366074501855014
1.219	0.0414943777898177
1.22	0.0426414402118669
1.221	0.040534324101281
1.222	0.0355843201947806
1.223	0.0281398113293313
1.224	0.0184959954373438
1.225	0.00690311424094903
1.226	-0.00639885864376577
1.227	-0.0181176177299085
1.228	-0.0264907815734469
1.229	-0.0320248095437063
1.23	-0.0351483572178355
1.231	-0.0362242201731205
1.232	-0.0355594441735674
1.233	-0.0334138832425883
1.234	-0.0300074438992687
1.235	-0.0255262172560147
1.236	-0.0201276697107005
1.237	-0.0139450367561263
1.238	-0.00709104224244561
1.239	0.000338953352365112
1.24	0.00826428798677292
1.241	0.0166167422541129
1.242	0.0253386299061119
1.243	0.0343811815345437
1.244	0.0432152945441382
1.245	0.047572003887612
1.246	0.0470624520748442
1.247	0.0423350740832884
1.248	0.0339402947972191
1.249	0.022345649334682
1.25	0.0079485761399809
1.251	-0.00676402930231357
1.252	-0.0175864827144777
1.253	-0.0249889372667678
1.254	-0.0294888085101337
1.255	-0.0315240240856417
1.256	-0.0314652259118111
1.257	-0.0296260990949707
1.258	-0.026272115144743
1.259	-0.0216279329273362
1.26	-0.0158836634181438
1.261	-0.00920017268076023
1.262	-0.00171357072199518
1.263	0.00646098879471102
1.264	0.0152260921819789
1.265	0.0244993431535048
1.266	0.0342110582355099
1.267	0.0439583471663094
1.268	0.0485745494536554
1.269	0.0470808735126385
1.27	0.0403195470562562
1.271	0.0290066921992572
1.272	0.0137517224808618
1.273	-0.000954786278372421
1.274	-0.0114623338154118
1.275	-0.0184076915660109
1.276	-0.0223298188994053
1.277	-0.0236848782807513
1.278	-0.0228589453113686
1.279	-0.0201787675247675
1.28	-0.0159208714898182
1.281	-0.0103192717855972
1.282	-0.00357199648580153
1.283	0.004153389160376
1.284	0.0127151070561214
1.285	0.0219932084094704
1.286	0.0318862235113277
1.287	0.0415902258748629
1.288	0.0448221401232294
1.289	0.041050362506395
1.29	0.0312700495632257
1.291	0.0163283202694444
1.292	-0.000105689655810259
1.293	-0.0120761649842157
1.294	-0.0200961387901377
1.295	-0.0247641166874557
1.296	-0.0265866662573453
1.297	-0.0259925303197749
1.298	-0.0233445735377253
1.299	-0.0189498949764955
1.3	-0.0130683881770963
1.301	-0.00591998707829144
1.302	0.00230920046702687
1.303	0.0114617008070735
1.304	0.0214042796808618
1.305	0.03202422211738
1.306	0.0427610690307405
1.307	0.0466366535414874
1.308	0.0423823011069874
1.309	0.0311910636709669
1.31	0.0141325739534707
1.311	-0.00193487370450818
1.312	-0.0132729107055729
1.313	-0.0205996840641296
1.314	-0.0245230372341266
1.315	-0.0255574427430407
1.316	-0.0241383353335756
1.317	-0.0206342446825353
1.318	-0.0153570655012137
1.319	-0.00857075096291671
1.32	-0.000498671505028914
1.321	0.00867015610532906
1.322	0.018775796007688
1.323	0.029682929977274
1.324	0.0412187595394811
1.325	0.0467718798650283
1.326	0.0430077147034881
1.327	0.0313347868586279
1.328	0.0134764241808842
1.329	-0.00179584602600236
1.33	-0.0123191856328074
1.331	-0.0188148459155661
1.332	-0.0218932996192293
1.333	-0.0220712464155679
1.334	-0.0197860076881099
1.335	-0.0154077114297303
1.336	-0.00924960651028428
1.337	-0.00157679348977602
1.338	0.00738638493447918
1.339	0.0174500880764727
1.34	0.0284536818255596
1.341	0.0401976993424159
1.342	0.0454763893669784
1.343	0.0406836891219698
1.344	0.027383898525515
1.345	0.00912390663820051
1.346	-0.00469362195836609
1.347	-0.0138616427488255
1.348	-0.0190863450239066
1.349	-0.0209654544529029
1.35	-0.0200048830840888
1.351	-0.0166328232410031
1.352	-0.0112116777227649
1.353	-0.00404815847475992
1.354	0.00459816509787481
1.355	0.0145076301659954
1.356	0.0254943553929192
1.357	0.0374010561916598
1.358	0.0436343809205313
1.359	0.0389932582109634
1.36	0.0252071669938192
1.361	0.0060862832907822
1.362	-0.00840500338171535
1.363	-0.0180385028364308
1.364	-0.0235527099266089
1.365	-0.0255727010946424
1.366	-0.0246275449802611
1.367	-0.0211650401580148
1.368	-0.0155641903378386
1.369	-0.00814576436910108
1.37	0.00081876493489641
1.371	0.011099654272027
1.372	0.0225024849534956
1.373	0.0348627413028134
1.374	0.0455310718713156
1.375	0.0450459178507905
1.376	0.0342215530772088
1.377	0.0153760239636783
1.378	-0.000894092997692275
1.379	-0.0119406206590418
1.38	-0.0185586035023438
1.381	-0.021420991670378
1.382	-0.0210973834523406
1.383	-0.0180698904323519
1.384	-0.0127465670236702
1.385	-0.00547277829972381
1.386	0.00345917736983403
1.387	0.0138019229591779
1.388	0.0253461079142941
1.389	0.0379145717967616
1.39	0.0455910792289349
1.391	0.0412688279823616
1.392	0.0268741511940801
1.393	0.00751013145661805
1.394	-0.00664334777891451
1.395	-0.015818511754611
1.396	-0.0207731932982644
1.397	-0.0221488494743303
1.398	-0.0204884261325169
1.399	-0.0162514798997994
1.4	-0.0098269786473999
1.401	-0.00154413682910215
1.402	0.00831841262685185
1.403	0.0195248545032572
1.404	0.0318756193920744
1.405	0.043332611770895
1.406	0.0434904228215959
1.407	0.0325902949333964
1.408	0.0136726492004354
1.409	-0.00181142814437674
1.41	-0.012052285594927
1.411	-0.0178489331356543
1.412	-0.0198776907816375
1.413	-0.0187110224657137
1.414	-0.0148334785594313
1.415	-0.00865519090483724
1.416	-0.000523296090895742
1.417	0.00926839497381288
1.418	0.0204712119669463
1.419	0.0328746966430121
1.42	0.0426291594797196
1.421	0.0401813034228847
1.422	0.0270194395947982
1.423	0.00759094142296407
1.424	-0.00697772964298193
1.425	-0.0163963188066343
1.426	-0.0214500964394405
1.427	-0.0228037600658983
1.428	-0.0210199432342207
1.429	-0.0165748829188866
1.43	-0.00987168167193297
1.431	-0.00125153377242576
1.432	0.00899677206311061
1.433	0.0206288088299644
1.434	0.0334377022838536
1.435	0.0435562585610719
1.436	0.0413953311596302
1.437	0.0284795719133793
1.438	0.00928737373177041
1.439	-0.00504612185918307
1.44	-0.0142311299361083
1.441	-0.0190532720654363
1.442	-0.0201775511886635
1.443	-0.0181668675266313
1.444	-0.0134976919383033
1.445	-0.00657333311580816
1.446	0.00226483199409527
1.447	0.0127278518611826
1.448	0.0245711534559304
1.449	0.03750992191158
1.45	0.0427425111520177
1.451	0.0360437691105041
1.452	0.0195151526576035
1.453	0.00185411795826573
1.454	-0.0101297299775813
1.455	-0.017303805659425
1.456	-0.0204023576129367
1.457	-0.0200469105557287
1.458	-0.0167635693120302
1.459	-0.0109976662465848
1.46	-0.00312616003551144
1.461	0.00653186901544636
1.462	0.0177063348907811
1.463	0.0301686256692664
1.464	0.0410397690491411
1.465	0.040239485771371
1.466	0.0287675078200985
1.467	0.00967113918786139
1.468	-0.00581010084533901
1.469	-0.0159394996055153
1.47	-0.0215351848919001
1.471	-0.0232896935634096
1.472	-0.0217892508207229
1.473	-0.0175300897552146
1.474	-0.0109322655375451
1.475	-0.00235134886409144
1.476	0.00791167576635973
1.477	0.0196020313547628
1.478	0.0325040560001454
1.479	0.0428675680558882
1.48	0.0414407201159731
1.481	0.029731198631592
1.482	0.0107046398310608
1.483	-0.00466877432759344
1.484	-0.0147101089056731
1.485	-0.0202351433045816
1.486	-0.0219344353504374
1.487	-0.0203925438881551
1.488	-0.0161043003478527
1.489	-0.00948858231919861
1.49	-0.000899972621366901
1.491	0.00936137151680194
1.492	0.0210413643860091
1.493	0.0339249202384116
1.494	0.04331383072607
1.495	0.0410889218255042
1.496	0.0290637549538383
1.497	0.0100946617891236
1.498	-0.00518130654167142
1.499	-0.0151549316233051
1.5	-0.0206381266443362
1.501	-0.0223181854977323
1.502	-0.0207769129292163
1.503	-0.0165068178521438
1.504	-0.00992482068595302
1.505	-0.00138385636122772
1.506	0.00881730395573019
1.507	0.0204257389597889
1.508	0.0332273396472453
1.509	0.0436647269573178
1.51	0.0429783946319278
1.511	0.0325931653349509
1.512	0.0143342015822691
1.513	-0.00301048617200446
1.514	-0.0147619184668118
1.515	-0.0217773763573341
1.516	-0.0247825659182818
1.517	-0.0243918162296063
1.518	-0.0211251765983391
1.519	-0.0154228890404474
1.52	-0.00765763896801472
1.521	0.00185507483239422
1.522	0.0128481622070744
1.523	0.0250955112298956
1.524	0.038405698504709
1.525	0.0460821522527832
1.526	0.04298571687713
1.527	0.0310282023885922
1.528	0.0123880859023281
1.529	-0.00327435210226906
1.53	-0.0136368566181807
1.531	-0.0195124126347475
1.532	-0.0215892377352697
1.533	-0.0204499349973819
1.534	-0.0165877055712472
1.535	-0.0104200723287673
1.536	-0.00230049667979379
1.537	0.00747178800775231
1.538	0.0186434525995769
1.539	0.0310000262462554
1.54	0.0420395792720469
1.541	0.0430402264292883
1.542	0.0348533222952659
1.543	0.0191224529325091
1.544	0.000997156154240231
1.545	-0.0117063597426105
1.546	-0.0196086154277683
1.547	-0.0234467716038842
1.548	-0.0238448685243127
1.549	-0.0213311908682939
1.55	-0.0163529667902113
1.551	-0.00928881039617913
1.552	-0.000459254072956383
1.553	0.00986433608836002
1.554	0.0214522135495896
1.555	0.0341098631459849
1.556	0.0437484183006353
1.557	0.0432906407304059
1.558	0.0342788277027971
1.559	0.0182334430652444
1.56	0.00101308241454556
1.561	-0.0108153344756411
1.562	-0.0180294582372972
1.563	-0.0213384658437266
1.564	-0.0213427155422769
1.565	-0.0185504513240486
1.566	-0.0133919429537999
1.567	-0.00623145524873442
1.568	0.00262262014424808
1.569	0.0129091883824742
1.57	0.0244071916888679
1.571	0.0368678437989435
1.572	0.043297283546877
1.573	0.040315942759976
1.574	0.029552851815016
1.575	0.0124388410937475
1.576	-0.00349554862955209
1.577	-0.0142436719731567
1.578	-0.020603158809795
1.579	-0.0232492472054205
1.58	-0.0227535715805042
1.581	-0.0196000665487684
1.582	-0.0141984292293362
1.583	-0.00689551485154599
1.584	0.00201501707060436
1.585	0.0122845374244674
1.586	0.0237025357065412
1.587	0.0360907693133581
1.588	0.0436565557395144
1.589	0.0419105148782896
1.59	0.0324383254269183
1.591	0.0165771996357168
1.592	-0.00111945038425632
1.593	-0.0136179819739984
1.594	-0.0215260418348643
1.595	-0.0255505273005693
1.596	-0.0262898763459278
1.597	-0.0242507168335118
1.598	-0.0198619598016823
1.599	-0.01348672918053
1.6	-0.00543246008353704
1.601	0.00404055316795227
1.602	0.0147119212930436
1.603	0.026395035114649
1.604	0.0388741846614422
1.605	0.045605909373429
1.606	0.0433995220476325
1.607	0.0337524868047592
1.608	0.017927872679294
1.609	0.00121711945850411
1.61	-0.0103746517860938
1.611	-0.0175892705835499
1.612	-0.0211016007965608
1.613	-0.021482966600484
1.614	-0.019217046435977
1.615	-0.014713326956364
1.616	-0.00831849155492892
1.617	-0.000326060551955054
1.618	0.00901544855630187
1.619	0.0194956135892449
1.62	0.0309362605955057
1.621	0.0405285027491489
1.622	0.0413124906919109
1.623	0.0342994990787595
1.624	0.020779831810232
1.625	0.00315691707982246
1.626	-0.0104159925051076
1.627	-0.0193835265462964
1.628	-0.024456216105381
1.629	-0.0262355789517673
1.63	-0.0252308537674439
1.631	-0.0218731653539839
1.632	-0.0165275152296359
1.633	-0.00950293145930503
1.634	-0.00106106030850184
1.635	0.00857656106997551
1.636	0.0192223484312241
1.637	0.0307174593148977
1.638	0.0420614841347895
1.639	0.0457151246632339
1.64	0.0411791742875042
1.641	0.0297756672454395
1.642	0.0126734451400372
1.643	-0.00324209320620916
1.644	-0.0142766258671363
1.645	-0.0211836552346174
1.646	-0.0246010735836673
1.647	-0.0250689099629612
1.648	-0.0230443526233558
1.649	-0.0189144652393278
1.65	-0.0130069509682642
1.651	-0.00559926404004674
1.652	0.00307367743836484
1.653	0.0128129627247269
1.654	0.0234501619565592
1.655	0.0348426480725272
1.656	0.0443030489544038
1.657	0.0451046876093025
1.658	0.0381917868242824
1.659	0.0247828686678113
1.66	0.00720761071618747
1.661	-0.00648568437316099
1.662	-0.0157318162926867
1.663	-0.0212183833463225
1.664	-0.0235274882610911
1.665	-0.0231519322777425
1.666	-0.0205089231644432
1.667	-0.0159516788120122
1.668	-0.00977924947698527
1.669	-0.00224483214319637
1.67	0.00643719151124911
1.671	0.0160852975912491
1.672	0.0265457770387931
1.673	0.0376884668592731
1.674	0.0443097987000601
1.675	0.042290748952082
1.676	0.0329658253728005
1.677	0.0174617522330915
1.678	0.000857519539785745
1.679	-0.010990518892211
1.68	-0.018772416860989
1.681	-0.0231179412036229
1.682	-0.0245602368826771
1.683	-0.0235506587776211
1.684	-0.0204713265390584
1.685	-0.0156457520571415
1.686	-0.00934783543334394
1.687	-0.00180947991992164
1.688	0.00677296215921031
1.689	0.0162332330403268
1.69	0.0264305507903342
1.691	0.0372456996228689
1.692	0.0444694349861721
1.693	0.0429774061872727
1.694	0.0340436456173645
1.695	0.0187892468056663
1.696	0.00229550829256608
1.697	-0.0095609499323055
1.698	-0.0174525099007339
1.699	-0.0219940089638599
1.7	-0.0237059486530772
1.701	-0.0230289755093467
1.702	-0.0203361388561677
1.703	-0.0159432667960333
1.704	-0.0101177493171842
1.705	-0.00308597304876723
1.706	0.00496038533950915
1.707	0.0138590318740954
1.708	0.0234725458311817
1.709	0.0336845625574437
1.71	0.0431150392124738
1.711	0.0445848219344518
1.712	0.038128146530316
1.713	0.024916939314711
1.714	0.00780649724258109
1.715	-0.00537367587399451
1.716	-0.0144927091669665
1.717	-0.0201807660733915
1.718	-0.022971314195262
1.719	-0.0233159684394839
1.72	-0.0215970554818096
1.721	-0.0181382493731208
1.722	-0.0132135744029093
1.723	-0.00705502587571816
1.724	0.000140979023851351
1.725	0.00820814067493414
1.726	0.0170056547425005
1.727	0.0264142994869926
1.728	0.0363331237267204
1.729	0.0442284027315124
1.73	0.0436606094437341
1.731	0.0354628146425312
1.732	0.0207392649471627
1.733	0.00452879181516208
1.734	-0.00731154527231603
1.735	-0.0154145835691009
1.736	-0.0203612848783118
1.737	-0.022643458775406
1.738	-0.0226774477096554
1.739	-0.0208157112109005
1.74	-0.0173566317273173
1.741	-0.0125528151062057
1.742	-0.00661811681749847
1.743	0.000266410458392374
1.744	0.00794748228805475
1.745	0.0162953208191368
1.746	0.0252000473402769
1.747	0.0345686286314423
1.748	0.0430875642321488
1.749	0.0438380955549921
1.75	0.036828894373464
1.751	0.0231670587150387
1.752	0.00700036900572687
1.753	-0.00505877884268635
1.754	-0.0134694573261567
1.755	-0.0187993971164205
1.756	-0.0215291972670407
1.757	-0.0220657001814805
1.758	-0.0207533132985055
1.759	-0.0178835927112232
1.76	-0.0137033555444861
1.761	-0.00842154695305553
1.762	-0.00221505292889768
1.763	0.00476637924515411
1.764	0.0123959759027741
1.765	0.0205664113011353
1.766	0.0291868231680714
1.767	0.0381802863995238
1.768	0.0436864198141569
1.769	0.0409486755982504
1.77	0.0310955670881374
1.771	0.0155732440817145
1.772	0.00192103167961843
1.773	-0.00796384331415645
1.774	-0.0146676419425773
1.775	-0.0186866376861344
1.776	-0.0204409299622225
1.777	-0.0202861370194924
1.778	-0.0185232937788141
1.779	-0.0154072301939873
1.78	-0.0111536634002152
1.781	-0.00594520110699326
1.782	6.35766206099619e-05
1.783	0.00674181570853671
1.784	0.0139787467843381
1.785	0.0216806028741017
1.786	0.0297680102713409
1.787	0.0381737799374521
1.788	0.0423817270039377
1.789	0.0387472080712232
1.79	0.0283719459866242
1.791	0.0129533244103365
1.792	-9.22843685975394e-05
1.793	-0.00959878187102992
1.794	-0.0161175400248417
1.795	-0.0201152870388978
1.796	-0.0219871006516792
1.797	-0.0220674066980984
1.798	-0.0206392892143674
1.799	-0.017942371290543
1.8	-0.0141794860868582
1.801	-0.00952232374562467
1.802	-0.00411621141717022
1.803	0.00191584051749594
1.804	0.0084697133753624
1.805	0.0154572808936089
1.806	0.0228039550265466
1.807	0.0304466084905354
1.808	0.0383318162193519
1.809	0.0437106194834113
1.81	0.0416309440338168
1.811	0.0329847628498978
1.812	0.0186760178314378
1.813	0.003851961680021
1.814	-0.00730138131131186
1.815	-0.0153555623704331
1.816	-0.0207943788565405
1.817	-0.0240273451196998
1.818	-0.025401095355581
1.819	-0.0252090359317437
1.82	-0.0236995159233783
1.821	-0.0210827433401688
1.822	-0.0175366396034082
1.823	-0.0132117952711572
1.824	-0.00823566498598371
1.825	-0.00271611843833652
1.826	0.0032555537913167
1.827	0.00960209582579852
1.828	0.0162581326814297
1.829	0.0231683470915669
1.83	0.0302859362055825
1.831	0.0375713051974088
1.832	0.0446353738790854
1.833	0.0461670732606918
1.834	0.0411937250879312
1.835	0.0306168621677467
1.836	0.0162245619668459
1.837	0.00436774394017003
1.838	-0.00443590339684063
1.839	-0.0106628467448726
1.84	-0.0147163824304545
1.841	-0.0169378686399843
1.842	-0.017616233316718
1.843	-0.0169960224377484
1.844	-0.0152842127490721
1.845	-0.0126559786368049
1.846	-0.00925957369351682
1.847	-0.00522046288992561
1.848	-0.000644820397534551
1.849	0.00437750955393901
1.85	0.00977050635049559
1.851	0.0154698514206146
1.852	0.0214211323484387
1.853	0.0275783226747975
1.854	0.0339024950632049
1.855	0.039099792032896
1.856	0.0383945935495463
1.857	0.0321074522342008
1.858	0.0210082119847351
1.859	0.00707393469205708
1.86	-0.00415156548089124
1.861	-0.0125660678749758
1.862	-0.0186083790188075
1.863	-0.0226499059774303
1.864	-0.0250050028225093
1.865	-0.0259397287442508
1.866	-0.0256792616468869
1.867	-0.0244141736353327
1.868	-0.0223057431133449
1.869	-0.0194904513906575
1.87	-0.0160837889916923
1.871	-0.0121834776390153
1.872	-0.0078721976159476
1.873	-0.0032198964414305
1.874	0.00171425686684146
1.875	0.00688021753258028
1.876	0.0122356647085659
1.877	0.0177448161264644
1.878	0.0233774247083871
1.879	0.0291079292059723
1.88	0.0349147352211296
1.881	0.0407796065927534
1.882	0.0452328117741123
1.883	0.0444641915836529
1.884	0.038967023080883
1.885	0.0293963227209293
1.886	0.0164345368356449
1.887	0.00456422107980103
1.888	-0.00455343681545606
1.889	-0.0113474503183923
1.89	-0.0161809269239064
1.891	-0.0193611855480446
1.892	-0.0211483207285847
1.893	-0.0217624520751458
1.894	-0.0213898608068774
1.895	-0.02018818422993
1.896	-0.0182908127779849
1.897	-0.0158106120367824
1.898	-0.012843073379793
1.899	-0.00946898093339299
1.9	-0.00575666912371442
1.901	-0.00176393365808369
1.902	0.00246035085495955
1.903	0.00687486161094408
1.904	0.0114446685177405
1.905	0.0161402530370401
1.906	0.0209366776432065
1.907	0.0258128827771754
1.908	0.0307510917227524
1.909	0.0357363068374461
1.91	0.040655615440033
1.911	0.0423690615761824
1.912	0.0398842294559295
1.913	0.0337921293240674
1.914	0.0245926812784786
1.915	0.0127087063280195
1.916	0.00104659988963696
1.917	-0.00803790921093767
1.918	-0.0149458242965297
1.919	-0.0200165357799815
1.92	-0.02353727967483
1.921	-0.0257511440597636
1.922	-0.0268638464123684
1.923	-0.0270494705060141
1.924	-0.0264553225958193
1.925	-0.0252060420987489
1.926	-0.0234070812164832
1.927	-0.021147650379691
1.928	-0.0185032115197507
1.929	-0.0155375885844865
1.93	-0.0123047540578348
1.931	-0.00885034122256373
1.932	-0.00521292426936787
1.933	-0.00142510189198708
1.934	0.00248558546328526
1.935	0.00649587915682864
1.936	0.0105861451070214
1.937	0.0147398174357203
1.938	0.0189429275188854
1.939	0.0231837053313245
1.94	0.0274522419871496
1.941	0.0317402040815087
1.942	0.0360405918812435
1.943	0.040347534633044
1.944	0.0443541360038322
1.945	0.0454474279452842
1.946	0.0434328844307462
1.947	0.0387519463806877
1.948	0.0317780665921466
1.949	0.0228271516688138
1.95	0.0121664012941652
1.951	0.000993936755784131
1.952	-0.00796555940713617
1.953	-0.0148962414215856
1.954	-0.020113207208072
1.955	-0.0238831258327207
1.956	-0.0264316721934742
1.957	-0.0279498203506883
1.958	-0.028599170721036
1.959	-0.0285164594541854
1.96	-0.0278173755420482
1.961	-0.0265997919361683
1.962	-0.0249465006336127
1.963	-0.0229275278811002
1.964	-0.020602093956804
1.965	-0.018020272093505
1.966	-0.0152243927303008
1.967	-0.0122440797208294
1.968	-0.00907754502347291
1.969	-0.00571560299820117
1.97	-0.00214998401467603
1.971	0.00162680783777061
1.972	0.00562161523855143
1.973	0.00984072967393027
1.974	0.0142899778612624
1.975	0.0189747949602747
1.976	0.0239002866032127
1.977	0.029071281463553
1.978	0.0344923758184521
1.979	0.0401679713362675
1.98	0.0461023071308608
1.981	0.0522791689260972
1.982	0.0564266161266729
1.983	0.0573893042972234
1.984	0.0556572810080834
1.985	0.0516453831333742
1.986	0.0457047830727026
1.987	0.0381327624147133
1.988	0.0291809851625439
1.989	0.0190625008657287
1.99	0.00795767264105955
1.991	-0.00352506902809002
1.992	-0.0127220647092041
1.993	-0.0195356820883785
1.994	-0.0242889808766423
1.995	-0.0272549125673231
1.996	-0.0286640108273846
1.997	-0.0287109011975239
1.998	-0.0275598113573733
1.999	-0.0253492353867582
2	-0.0221958819002163
