0	4
0.01	4.15215933427824
0.02	4.15626470019502
0.03	4.10217818988736
0.04	4.05596615738938
0.05	4.01427908674109
0.06	3.97393934968323
0.07	3.93394929936363
0.08	3.894047002785
0.09	3.85416760921144
0.1	3.81429541704421
0.11	3.77442667791574
0.12	3.73456053096118
0.13	3.69469681461633
0.14	3.65483553877785
0.15	3.61497675707463
0.16	3.57512053585609
0.17	3.53526694668852
0.18	3.49541606460675
0.19	3.4555679677898
0.2	3.41572273759649
0.21	3.37588045869856
0.22	3.33604121924617
0.23	3.29620511105018
0.24	3.25637222977792
0.25	3.21654267516223
0.26	3.1767165512246
0.27	3.13689396651337
0.28	3.09707503435832
0.29	3.05725987314276
0.3	3.01744860659478
0.31	2.97764136409917
0.32	2.93783828103171
0.33	2.89803949911781
0.34	2.85824516681764
0.35	2.81845543973996
0.36	2.7786704810873
0.37	2.73889046213541
0.38	2.69911556274978
0.39	2.65934597194313
0.4	2.61958188847729
0.41	2.57982352151406
0.42	2.54007109131945
0.43	2.50032483002691
0.44	2.46058498246506
0.45	2.42085180705666
0.46	2.38112557679608
0.47	2.34140658031351
0.48	2.30169512303484
0.49	2.26199152844785
0.5	2.22229613948602
0.51	2.18260932004317
0.52	2.14293145663365
0.53	2.10326296021478
0.54	2.06360426819035
0.55	2.02395584661702
0.56	1.98431819263757
0.57	1.94469183716947
0.58	1.90507734788028
0.59	1.86547533248675
0.6	1.82588644241947
0.61	1.78631137690156
0.62	1.74675088749725
0.63	1.70720578319514
0.64	1.66767693610095
0.65	1.62816528782739
0.66	1.5886718566831
0.67	1.5491977457799
0.68	1.50974415219882
0.69	1.47031237737997
0.7	1.43090383893179
0.71	1.39152008409134
0.72	1.35216280511162
0.73	1.31283385690589
0.74	1.2735352773447
0.75	1.2342693106824
0.76	1.19503843469045
0.77	1.15584539219824
0.78	1.116693227898
0.79	1.07758533146376
0.8	1.03852548827937
0.81	0.999517939504586
0.82	0.960716878642177
0.83	0.922683298273947
0.84	0.885768902370142
0.85	0.850122027657672
0.86	0.815790892834021
0.87	0.782774204138125
0.88	0.751046373821579
0.89	0.720570240087097
0.9	0.691303539226549
0.91	0.663202216133884
0.92	0.636222118000284
0.93	0.610319853418133
0.94	0.585453217099632
0.95	0.561581386957115
0.96	0.538665001342724
0.97	0.516666173153086
0.98	0.495548470879799
0.99	0.475276882686163
1	0.455817772163572
1.01	0.437138830446601
1.02	0.419209027221318
1.03	0.401998561994739
1.04	0.385478816354138
1.05	0.369622307592194
1.06	0.354402643878678
1.07	0.33979448105045
1.08	0.325773481031488
1.09	0.312316271861261
1.1	0.299400409291996
1.11	0.287004339906005
1.12	0.27510736570009
1.13	0.263689610082457
1.14	0.25273198522768
1.15	0.242216160736261
1.16	0.232124533546881
1.17	0.222440199050995
1.18	0.213146923361398
1.19	0.204229116688217
1.2	0.195671807777578
1.21	0.187460619370067
1.22	0.179581744637827
1.23	0.172021924560803
1.24	0.164768426204321
1.25	0.157809021861697
1.26	0.151131969027055
1.27	0.144725991165057
1.28	0.138580259245462
1.29	0.132684374011924
1.3	0.127028348955521
1.31	0.121602593964834
1.32	0.116397899625498
1.33	0.111405422143234
1.34	0.106616668865475
1.35	0.102023484377648
1.36	0.0976180371512194
1.37	0.0933928067214683
1.38	0.0893405713738743
1.39	0.0854543963188805
1.4	0.0817276223355609
1.41	0.0781538548655653
1.42	0.0747269535393965
1.43	0.0714410221178602
1.44	0.0682903988321975
1.45	0.0652696471070419
1.46	0.0623735466510288
1.47	0.0595970849004606
1.48	0.0569354488020466
1.49	0.0543840169212473
1.5	0.0519383518633641
1.51	0.0495941929949565
1.52	0.0473474494537305
1.53	0.0451941934354817
1.54	0.0431306537471265
1.55	0.0411532096153487
1.56	0.0392583847407259
1.57	0.037442841587688
1.58	0.0357033759009952
1.59	0.034036911439818
1.6	0.0324404949208544
1.61	0.0309112911622725
1.62	0.0294465784205776
1.63	0.0280437439128563
1.64	0.0267002795171185
1.65	0.0254137776437726
1.66	0.0241819272715541
1.67	0.023002510141497
1.68	0.021873397102786
1.69	0.0207925446046044
1.7	0.0197579913283163
1.71	0.0187678549545672
1.72	0.0178203290600999
1.73	0.0169136801393265
1.74	0.0160462447458644
1.75	0.0152164267495062
1.76	0.0144226947042241
1.77	0.0136635793230667
1.78	0.0129376710559299
1.79	0.0122436177664089
1.8	0.0115801225040891
1.81	0.01094594136881
1.82	0.0103398814636052
1.83	0.00976079893317933
1.84	0.00920759708494364
1.85	0.00867922458979281
1.86	0.00817467375995977
1.87	0.00769297890143756
1.88	0.00723321473860684
1.89	0.00679449490887749
1.9	0.00637597052528584
1.91	0.00597682880516381
1.92	0.00559629176314296
1.93	0.00523361496693069
1.94	0.00488808635445414
1.95	0.00455902511114663
1.96	0.0042457806063373
1.97	0.00394773138788845
1.98	0.00366428423443672
1.99	0.00339487326480971
2	0.00313895910442383
2.01	0.00289602810871863
2.02	0.0026655916439748
2.03	0.00244718542614457
2.04	0.00224036891867785
2.05	0.00204472479069524
2.06	0.00185985843727411
2.07	0.00168539756407951
2.08	0.00152099183910825
2.09	0.00136631261490651
2.1	0.00122105272530245
2.11	0.00108492636147892
2.12	0.000957669033100437
2.13	0.000839037621241034
2.14	0.000728810531043414
2.15	0.000626787953424691
2.16	0.000532792246744116
2.17	0.000446668451217219
2.18	0.000368284951058478
2.19	0.000297534301900456
2.2	0.000234334244073527
2.21	0.000178628925909721
2.22	0.000130390365481649
2.23	8.96201842375694e-05
2.24	5.63516520195219e-05
2.25	3.06520901641456e-05
2.26	1.2625688051499e-05
2.27	2.41679890977575e-06
2.28	2.1379331846176e-07
2.29	6.25356419193252e-06
2.3	2.0826795721103e-05
2.31	4.42841316293838e-05
2.32	7.70434062072728e-05
2.33	0.000119598136276364
2.34	0.000172527515221965
2.35	0.000236508203761946
2.36	0.000312328279093574
2.37	0.00040090378827628
2.38	0.000503298458166532
2.39	0.000620747249536522
2.4	0.000754684615998327
2.41	0.000906778550839153
2.42	0.00107897179284223
2.43	0.0012735319373837
2.44	0.00149311269140208
2.45	0.00174082916159182
2.46	0.0020203509320346
2.47	0.0023360178517125
2.48	0.00269298502953882
2.49	0.00309740569071149
2.5	0.0035566635243872
2.51	0.00407967030277146
2.52	0.00467725040115466
2.53	0.00536264218681142
2.54	0.00615215827350818
2.55	0.00706606420872658
2.56	0.00812976116131607
2.57	0.00937539717222322
2.58	0.01084409081443
2.59	0.0125890424502173
2.6	0.0146799507730783
2.61	0.0172093769092266
2.62	0.0203020542609891
2.63	0.0241287038859239
2.64	0.028926779311765
2.65	0.0350317960997666
2.66	0.0429242704480034
2.67	0.0532972585869631
2.68	0.0671417122019739
2.69	0.085809885737702
2.7	0.110894763600584
2.71	0.143497574757066
2.72	0.182407593057729
2.73	0.222396663206001
2.74	0.256288374428286
2.75	0.279888543130938
2.76	0.293337202551284
2.77	0.298855391022193
2.78	0.298809848195558
2.79	0.29505303417842
2.8	0.288892224727584
2.81	0.281217745851475
2.82	0.272630137576152
2.83	0.2635343219036
2.84	0.254203793983194
2.85	0.244823362879519
2.86	0.235517559538022
2.87	0.226369638812409
2.88	0.217434403753761
2.89	0.208746940296519
2.9	0.200328617436824
2.91	0.192191240520229
2.92	0.184339945479414
2.93	0.176775227560664
2.94	0.169494370621489
2.95	0.162492458501074
2.96	0.155763093244734
2.97	0.149298906571023
2.98	0.143091924769623
2.99	0.13713382920768
3	0.131416142160791
3.01	0.125930359011513
3.02	0.120668041788166
3.03	0.115620884746679
3.04	0.110780759679723
3.05	0.106139746493503
3.06	0.10169015306318
3.07	0.0974245272817817
3.08	0.0933356634288424
3.09	0.0894166044150524
3.1	0.0856606410456203
3.11	0.0820613091438752
3.12	0.0786123851563076
3.13	0.075307880698643
3.14	0.0721420363833714
3.15	0.0691093151812032
3.16	0.0662043955035794
3.17	0.063422164144846
3.18	0.06075770918644
3.19	0.0582063129383574
3.2	0.0557634449728649
3.21	0.053424755290141
3.22	0.0511860676440805
3.23	0.0490433730478578
3.24	0.0469928234723471
3.25	0.045030725745626
3.26	0.0431535356581298
3.27	0.0413578522752936
3.28	0.0396404124574902
3.29	0.0379980855856141
3.3	0.03642786848957
3.31	0.0349268805761861
3.32	0.0334923591525719
3.33	0.0321216549406045
3.34	0.0308122277780733
3.35	0.0295616425019512
3.36	0.0283675650092773
3.37	0.0272277584912452
3.38	0.0261400798362414
3.39	0.025102476197759
3.4	0.0241129817233574
3.41	0.0231697144410748
3.42	0.0222708732999786
3.43	0.0214147353618389
3.44	0.0205996531411955
3.45	0.0198240520914182
3.46	0.0190864282346745
3.47	0.0183853459340498
3.48	0.0177194358063831
3.49	0.0170873927747325
3.5	0.0164879742596873
3.51	0.0159199985090801
3.52	0.0153823430659541
3.53	0.0148739433749316
3.54	0.0143937915274015
3.55	0.0139409351461721
3.56	0.0135144764104257
3.57	0.013113571221939
3.58	0.0127374285135742
3.59	0.0123853097009909
3.6	0.0120565282783183
3.61	0.0117504495581445
3.62	0.0114664905555468
3.63	0.0112041200149304
3.64	0.0109628585770795
3.65	0.010742279081884
3.66	0.0105420069995542
3.67	0.0103617209794788
3.68	0.0102011535009614
3.69	0.0100600916033701
3.7	0.0099383776642371
3.71	0.00983591018166935
3.72	0.00975264450099866
3.73	0.00968859340335297
3.74	0.00964382744361353
3.75	0.00961847488406072
3.76	0.00961272101367736
3.77	0.00962680656561999
3.78	0.00966102483832582
3.79	0.00971571697692292
3.8	0.00979126466348666
3.81	0.00988807917164949
3.82	0.0100065853254803
3.83	0.0101471983086016
3.84	0.010308194002547
3.85	0.0104675249135794
3.86	0.0105986994674202
3.87	0.0106835115853706
3.88	0.0107096250724719
3.89	0.0106691874072667
3.9	0.0105580258636604
3.91	0.0103750878080306
3.92	0.0101219626242558
3.93	0.00980241857788768
3.94	0.00942194047136079
3.95	0.00898727945657216
3.96	0.00850603462832106
3.97	0.00798628427134848
3.98	0.00743627832560899
3.99	0.0068641964329616
4	0.00627796986700517
4.01	0.00568516151440242
4.02	0.00509289587715642
4.03	0.00450783042546993
4.04	0.00393616006726087
4.05	0.00338364757466129
4.06	0.00285567418730121
4.07	0.00235730607823956
4.08	0.00189337379940918
4.09	0.00146856317062146
4.1	0.00108751734159808
4.11	0.000754950976710914
4.12	0.000475778748285038
4.13	0.000255261658275764
4.14	9.91762437564781e-05
4.15	1.40135912378502e-05
4.16	7.21746072634781e-06
4.17	8.7473932969837e-05
4.18	0.000265069157117527
4.19	0.000552337427246905
4.2	0.00096422956526078
4.21	0.00151904229106438
4.22	0.00223936411591344
4.23	0.00315331395227225
4.24	0.00429617730364727
4.25	0.0057125843633529
4.26	0.00745942765081567
4.27	0.00960978598465047
4.28	0.0122582039489801
4.29	0.0155277543036221
4.3	0.0195793286692886
4.31	0.0246234055253128
4.32	0.0309337522937283
4.33	0.0388602569043235
4.34	0.0488325788405002
4.35	0.0613347568232137
4.36	0.0768119306117427
4.37	0.0954556530019694
4.38	0.116854269647917
4.39	0.139669508781602
4.4	0.161728180338715
4.41	0.180750295852081
4.42	0.195242395293554
4.43	0.204837056905837
4.44	0.210007531656161
4.45	0.211598137937052
4.46	0.210488537494442
4.47	0.207438202817778
4.48	0.20304588238655
4.49	0.197761088325116
4.5	0.191911984196021
4.51	0.185734089928988
4.52	0.179394494048435
4.53	0.173010637788884
4.54	0.166664293420585
4.55	0.160411738339983
4.56	0.154291072804421
4.57	0.148327451642534
4.58	0.142536815247848
4.59	0.136928549477473
4.6	0.131507383915625
4.61	0.126274749121001
4.62	0.121229749311959
4.63	0.116369861202299
4.64	0.111691437323916
4.65	0.107190069334072
4.66	0.102860850711319
4.67	0.0986985668968746
4.68	0.0946978329244125
4.69	0.0908531929078069
4.7	0.0871591917278842
4.71	0.0836104263892713
4.72	0.0802015824663751
4.73	0.0769274595847593
4.74	0.0737829888229671
4.75	0.070763244152213
4.76	0.0678634494738091
4.77	0.0650789824076089
4.78	0.0624053756870712
4.79	0.0598383167977243
4.8	0.0573736463343762
4.81	0.0550073554327763
4.82	0.0527355825424973
4.83	0.0505546097414682
4.84	0.048460858742853
4.85	0.0464508867076509
4.86	0.044521381948226
4.87	0.0426691595866885
4.88	0.0408911572159227
4.89	0.0391844305987869
4.9	0.0375461494316546
4.91	0.0359735931913444
4.92	0.0344641470790253
4.93	0.0330152980705379
4.94	0.0316246310793546
4.95	0.030289825235984
4.96	0.0290086502857417
4.97	0.0277789631054206
4.98	0.0265987043382902
4.99	0.0254658951460677
5	0.0243786340758976
5.01	0.0233350940399304
5.02	0.022333519404769
5.03	0.0213722231878511
5.04	0.0204495843576693
5.05	0.0195640452346498
5.06	0.0187141089894876
5.07	0.0178983372357087
5.08	0.0171153477132644
5.09	0.0163638120600181
5.1	0.0156424536680336
5.11	0.01495004562166
5.12	0.014285408714502
5.13	0.013647409542452
5.14	0.013034958670083
5.15	0.0124470088678038
5.16	0.0118825534173159
5.17	0.0113406244830343
5.18	0.0108202915472776
5.19	0.0103206599071928
5.2	0.00984086923153834
5.21	0.00938009217562996
5.22	0.00893753305296438
5.23	0.00851242656223893
5.24	0.00810403656875335
5.25	0.00771165493945866
5.26	0.00733460043123427
5.27	0.00697221763237151
5.28	0.00662387595766847
5.29	0.00628896869806464
5.3	0.00596691212636212
5.31	0.00565714466131696
5.32	0.00535912609326555
5.33	0.00507233687551721
5.34	0.00479627748703399
5.35	0.00453046787349811
5.36	0.00427444697578291
5.37	0.00402777235721412
5.38	0.00379001994391291
5.39	0.00356078389611414
5.4	0.00333967663282338
5.41	0.00312632903774243
5.42	0.00292039088135059
5.43	0.00272153150276658
5.44	0.00252944080601055
5.45	0.00234383063919586
5.46	0.0021644366428276
5.47	0.00199102067589088
5.48	0.00182337395719172
5.49	0.00166132109644273
5.5	0.00150472523738083
5.51	0.00135349459723808
5.52	0.00120759076778468
5.53	0.00106703924920931
5.54	0.000931942827891312
5.55	0.000802498594416029
5.56	0.00067901964530659
5.57	0.000561962843554857
5.58	0.000451964460962709
5.59	0.000349886134501112
5.6	0.00025687440340298
5.61	0.000174438245473037
5.62	0.000104550633316895
5.63	4.97823784476982e-05
5.64	1.34797104597895e-05
5.65	1.57675157413797e-09
5.66	1.5039187485981e-05
5.67	6.60498447912859e-05
5.68	0.000162851078015523
5.69	0.000318441870413621
5.7	0.000550148922309026
5.71	0.00088124315743921
5.72	0.00134324412522902
5.73	0.00197924214154465
5.74	0.00284874339178517
5.75	0.00403481957381421
5.76	0.00565478144238561
5.77	0.00787628954527399
5.78	0.0109419061155427
5.79	0.0152067590357837
5.8	0.0211963428328158
5.81	0.0296940122294878
5.82	0.041866866941039
5.83	0.0594178619235886
5.84	0.0846458169884554
5.85	0.119918139704489
5.86	0.165372339891459
5.87	0.214934933239086
5.88	0.257286017802098
5.89	0.284896447258864
5.9	0.297892122246922
5.91	0.299984389730326
5.92	0.294984920805447
5.93	0.285783226006288
5.94	0.274348244582073
5.95	0.261946624266775
5.96	0.249354756577661
5.97	0.237023259807524
5.98	0.225194531800404
5.99	0.213982593723737
6	0.203425227840607
6.01	0.193516938970709
6.02	0.184229217209422
6.03	0.175522665433682
6.04	0.167354045078522
6.05	0.159680211595057
6.06	0.152460181069623
6.07	0.145656095980135
6.08	0.139233558669013
6.09	0.133161614982902
6.1	0.127412556145907
6.11	0.12196163723836
6.12	0.116786768502756
6.13	0.111868210411538
6.14	0.107188288420164
6.15	0.10273113455459
6.16	0.098482457975694
6.17	0.094429343918388
6.18	0.0905600790026648
6.19	0.0868640002999024
6.2	0.0833313653726105
6.21	0.0799532405860578
6.22	0.0767214051945567
6.23	0.0736282689626084
6.24	0.0706668013509686
6.25	0.0678304705578614
6.26	0.065113190945009
6.27	0.0625092775920954
6.28	0.0600134069109323
6.29	0.0576205824130776
6.3	0.0553261048639374
6.31	0.0531255461750977
6.32	0.0510147264873254
6.33	0.0489896939817572
6.34	0.0470467070285938
6.35	0.0451822183430547
6.36	0.0433928608691861
6.37	0.0416754351548923
6.38	0.040026898017503
6.39	0.0384443523294517
6.4	0.0369250377790798
6.41	0.0354663224829909
6.42	0.0340656953444806
6.43	0.0327207590677815
6.44	0.0314292237507297
6.45	0.0301889009893617
6.46	0.0289976984371579
6.47	0.0278536147694764
6.48	0.0267547350103514
6.49	0.0256992261844948
6.5	0.024685333262164
6.51	0.0237113753686508
6.52	0.0227757422336891
6.53	0.0218768908590773
6.54	0.0210133423854227
6.55	0.0201836791411338
6.56	0.0193865418587075
6.57	0.0186206270450327
6.58	0.0178846844938628
6.59	0.0171775149298701
6.6	0.0164979677747806
6.61	0.0158449390270332
6.62	0.0152173692472483
6.63	0.0146142416425238
6.64	0.0140345802431954
6.65	0.0134774481662959
6.66	0.0129419459604281
6.67	0.012427210027214
6.68	0.0119324111148818
6.69	0.0114567528799015
6.7	0.0109994705128962
6.71	0.0105598294253383
6.72	0.0101371239937989
6.73	0.00973067635874122
6.74	0.00933983527506724
6.75	0.00896397501180838
6.76	0.00860249429853293
6.77	0.00825481531620059
6.78	0.00792038273033202
6.79	0.00759866276451496
6.8	0.00728914231238481
6.81	0.00699132808633901
6.82	0.00670474580135924
6.83	0.00642893939242259
6.84	0.00616347026408984
6.85	0.00590791657095335
6.86	0.00566187252773415
6.87	0.00542494774791103
6.88	0.00519676660987112
6.89	0.00497696764966313
6.9	0.00476520297955469
6.91	0.00456113773169921
6.92	0.00436444952633589
6.93	0.0041748279640919
6.94	0.00399197414208195
6.95	0.00381560019367697
6.96	0.00364542885199171
6.97	0.00348119303734873
6.98	0.00332263546921931
6.99	0.00316950830342158
7	0.00302157279568679
7.01	0.00287859899308798
7.02	0.0027403654552854
7.03	0.00260665900809225
7.04	0.00247727453251481
7.05	0.00235201479321032
7.06	0.00223069031125005
7.07	0.00211311928722535
7.08	0.00199912758212658
7.09	0.00188854876512559
7.1	0.00178122423946042
7.11	0.00167700346017195
7.12	0.00157574426057188
7.13	0.00147731330817751
7.14	0.00138158671563515
7.15	0.00128845083808972
7.16	0.00119780329585499
7.17	0.00110955427049778
7.18	0.00102362813406156
7.19	0.000939965485786887
7.2	0.000858525689195958
7.21	0.000779290025910895
7.22	0.00070226561254599
7.23	0.000627490265410074
7.24	0.00055503854715488
7.25	0.00048502929338135
7.26	0.000417635000227442
7.27	0.000353093562387579
7.28	0.000291722993443887
7.29	0.000233939948537997
7.3	0.00018028311946774
7.31	0.000131442906722107
7.32	8.82992232022168e-05
7.33	5.19698947257911e-05
7.34	2.38729558611243e-05
7.35	5.80728643260274e-06
7.36	5.76246755721269e-08
7.37	9.53221787295283e-06
7.38	3.79445108034762e-05
7.39	9.00547436271599e-05
7.4	0.000171993760894688
7.41	0.000291700674576329
7.42	0.000459519739033718
7.43	0.000689022156500158
7.44	0.00099814910704271
7.45	0.00141081875935975
7.46	0.00195921148496763
7.47	0.00268705877921638
7.48	0.00365443677631148
7.49	0.00494484483336074
7.5	0.00667579976890394
7.51	0.00901490565688731
7.52	0.0122045397709359
7.53	0.0166001733965811
7.54	0.0227301559192295
7.55	0.0313881833528093
7.56	0.0437699961939819
7.57	0.0616446456955282
7.58	0.0874334129922082
7.59	0.123643560872932
7.6	0.170339056563004
7.61	0.220891561257396
7.62	0.263471574020149
7.63	0.290731431436555
7.64	0.303148010561431
7.65	0.3045661706396
7.66	0.298827333814854
7.67	0.288851285259831
7.68	0.276649562121186
7.69	0.263528658137005
7.7	0.250291951532311
7.71	0.23740276482955
7.72	0.225105100796695
7.73	0.213507652541271
7.74	0.20263938192538
7.75	0.192484793078333
7.76	0.183005540134097
7.77	0.174153229623232
7.78	0.16587673110342
7.79	0.15812615021986
7.8	0.150854820032615
7.81	0.144020144621661
7.82	0.137583799044745
7.83	0.131511585606187
7.84	0.125773121985059
7.85	0.12034146178691
7.86	0.11519270333416
7.87	0.110305616092375
7.88	0.105661298753304
7.89	0.101242874231546
7.9	0.0970352220009811
7.91	0.0930247456847585
7.92	0.0891991726478755
7.93	0.0855473819427653
7.94	0.0820592569796391
7.95	0.0787255595301999
7.96	0.0755378220070248
7.97	0.0724882553238633
7.98	0.0695696699976185
7.99	0.0667754084822535
8	0.0640992870201674
8.01	0.0615355455557433
8.02	0.0590788044799303
8.03	0.0567240271666983
8.04	0.0544664874254295
8.05	0.052301741131454
8.06	0.0502256014134587
8.07	0.0482341168744658
8.08	0.0463235524054141
8.09	0.0444903722194263
8.1	0.0427312247928052
8.11	0.0410429294473683
8.12	0.0394224643495018
8.13	0.0378669557355032
8.14	0.0363736682015374
8.15	0.0349399959206502
8.16	0.0335634546696144
8.17	0.0322416745655168
8.18	0.0309723934263771
8.19	0.0297534506823525
8.2	0.0285827817743253
8.21	0.0274584129854502
8.22	0.0263784566586299
8.23	0.0253411067591837
8.24	0.024344634747336
8.25	0.0233873857297262
8.26	0.0224677748630399
8.27	0.0215842839862127
8.28	0.0207354584605226
8.29	0.0199199041993372
8.3	0.0191362848714345
8.31	0.0183833192636141
8.32	0.0176597787899242
8.33	0.0169644851361909
8.34	0.0162963080297425
8.35	0.015654163125238
8.36	0.0150370099984436
8.37	0.0144438502405829
8.38	0.0138737256465755
8.39	0.0133257164911167
8.4	0.0127989398870626
8.41	0.0122925482210925
8.42	0.0118057276620201
8.43	0.0113376967375246
8.44	0.010887704975396
8.45	0.0104550316056982
8.46	0.0100389843205235
8.47	0.00963889808825005
8.48	0.00925413401944772
8.49	0.00888407828177067
8.5	0.00852814106135507
8.51	0.00818575556841059
8.52	0.00785637708484926
8.53	0.00753948205194099
8.54	0.00723456719610108
8.55	0.00694114869106022
8.56	0.00665876135476341
8.57	0.0063869578794671
8.58	0.00612530809360465
8.59	0.00587339825408758
8.6	0.00563083036781865
8.61	0.0053972215412755
8.62	0.005172203357146
8.63	0.00495542127707326
8.64	0.00474653406967895
8.65	0.00454521326314683
8.66	0.00435114262176227
8.67	0.00416401764591816
8.68	0.00398354509524543
8.69	0.00380944253467418
8.7	0.00364143790339461
8.71	0.00347926910689336
8.72	0.00332268363244862
8.73	0.0031714381887355
8.74	0.00302529837048994
8.75	0.00288403834952643
8.76	0.00274744059383348
8.77	0.00261529561695811
8.78	0.0024874017604827
8.79	0.0023635650131145
8.8	0.00224359887075911
8.81	0.00212732424298058
8.82	0.00201456941251079
8.83	0.00190517005598869
8.84	0.00179896933597441
8.85	0.00169581807656038
8.86	0.00159557503769848
8.87	0.0014981073068104
8.88	0.00140329083050713
8.89	0.0013110111145194
8.9	0.00122116412652163
8.91	0.00113365744472437
8.92	0.00104841170538729
8.93	0.000965362415327791
8.94	0.00088446221180134
8.95	0.000805683672797516
8.96	0.000729022807086049
8.97	0.00065450338694923
8.98	0.000582182329671188
8.99	0.000512156389478281
9	0.000444570493724769
9.01	0.00037962815103258
9.02	0.000317604482093471
9.03	0.000258862585835597
9.04	0.000203874168257727
9.05	0.000153245647285078
9.06	0.000107751330745189
9.07	6.83757828612115e-05
9.08	3.63681996562444e-05
9.09	1.3312579769394e-05
9.1	1.21881146425853e-06
9.11	2.64165450969674e-06
9.12	2.08372049336826e-05
9.13	5.99701284650648e-05
9.14	0.000125390238597464
9.15	0.00022400463857268
9.16	0.000364782804937869
9.17	0.000559448457186455
9.18	0.00082343663372441
9.19	0.00117723150200074
9.2	0.00164825713605233
9.21	0.0022735812116078
9.22	0.0031038289220594
9.23	0.00420892205463745
9.24	0.00568660675440373
9.25	0.00767529661452653
9.26	0.0103736707324355
9.27	0.0140709364144254
9.28	0.0191939573053198
9.29	0.0263806561664229
9.3	0.0365919526084663
9.31	0.0512689531978539
9.32	0.0724918989289759
9.33	0.102872749829977
9.34	0.144266655173275
9.35	0.194062963769993
9.36	0.242325507601411
9.37	0.278144030126337
9.38	0.298112160661957
9.39	0.304889714411596
9.4	0.302552899634806
9.41	0.294543287375269
9.42	0.283335918599524
9.43	0.270586377833168
9.44	0.257343183264401
9.45	0.244233273598419
9.46	0.231605007621622
9.47	0.219630792161141
9.48	0.208376722905238
9.49	0.19784772276629
9.5	0.188015703966308
9.51	0.17883655495048
9.52	0.170260043441761
9.53	0.162235356833701
9.54	0.154714019777009
9.55	0.147651271415271
9.56	0.141006562429185
9.57	0.134743568026876
9.58	0.128829950903313
9.59	0.123237009916392
9.6	0.117939291260979
9.61	0.112914203894762
9.62	0.108141660410791
9.63	0.103603752685617
9.64	0.0992844649571754
9.65	0.0951694233887373
9.66	0.0912456793809894
9.67	0.0875015231393566
9.68	0.0839263238311842
9.69	0.0805103928064034
9.7	0.0772448666465622
9.71	0.0741216071591788
9.72	0.0711331157959367
9.73	0.0682724603171882
9.74	0.065533211838569
9.75	0.0629093906733551
9.76	0.0603954196262635
9.77	0.057986083602724
9.78	0.0556764945754515
9.79	0.0534620611009442
9.8	0.0513384617059904
9.81	0.0493016215715544
9.82	0.0473476920316327
9.83	0.0454730324804183
9.84	0.0436741943446297
9.85	0.0419479068311633
9.86	0.0402910642049221
9.87	0.0387007143891686
9.88	0.0371740487122397
9.89	0.0357083926509158
9.9	0.0343011974429724
9.91	0.0329500324601663
9.92	0.031652578248717
9.93	0.0304066201576327
9.94	0.0292100424865061
9.95	0.0280608230939366
9.96	0.0269570284157994
9.97	0.0258968088494472
9.98	0.024878394465759
9.99	0.0239000910159309
10	0.0229602762041221
