0	0
0.001	0
0.002	0
0.003	0
0.004	0
0.005	0
0.006	0
0.007	0
0.008	0
0.009	0
0.01	0
0.011	-2.00271669616293e-14
0.012	0.0438963462690641
0.013	0.128838741049719
0.014	0.252141467252707
0.015	0.411272790907412
0.016	0.603845055523234
0.017	0.827605423726844
0.018	1.08042722441544
0.019	1.36030186635509
0.02	1.6653312816702
0.021	1.99372086502321
0.022	2.34377287648623
0.023	2.71388027816628
0.024	3.10252097657267
0.025	3.50825244451854
0.026	3.92970669803474
0.027	4.36558560535254
0.028	4.81465650648755
0.029	5.27574812333833
0.03	5.74774674150521
0.031	6.23848641288832
0.032	6.73740533945691
0.033	7.24358068609357
0.034	7.75613183796438
0.035	8.27421785856014
0.036	8.79703511918608
0.037	9.32381508875955
0.038	9.85382227349118
0.039	10.3863522966938
0.04	10.9207301095892
0.041	11.5063960968082
0.042	12.0886058281203
0.043	12.6670013283985
0.044	13.2412329125467
0.045	13.8109589121275
0.046	14.3758454259988
0.047	14.9355660932897
0.048	15.4898018871574
0.049	16.0382409278604
0.05	16.5805783137775
0.051	17.2062491075789
0.052	17.8170187285833
0.053	18.4130935569948
0.054	18.9946558302523
0.055	19.5618655358564
0.056	20.1148621867248
0.057	20.6537664865026
0.058	21.1786818917753
0.059	21.6896960776779
0.06	22.1868823129777
0.061	22.7559602915281
0.062	23.3010337663347
0.063	23.8227680462864
0.064	24.3217803496471
0.065	24.7986432951165
0.066	25.2538881698423
0.067	25.6880079885961
0.068	26.101460357409
0.069	26.4946701541047
0.07	26.8680320373661
0.071	27.2262818705082
0.072	27.5579448813537
0.073	27.8638200697989
0.074	28.1446568341139
0.075	28.4011585707457
0.076	28.6339860409335
0.077	28.8437605190017
0.078	29.031066736235
0.079	29.1964556333449
0.08	29.3404469337002
0.081	29.3021296620295
0.082	29.245397793011
0.083	29.1706349073926
0.084	29.0782093612266
0.085	28.9684756162768
0.086	28.8417754802971
0.087	28.6984392628425
0.088	28.5387868519118
0.089	28.3631287163803
0.09	28.1717668388638
0.091	27.6047411119294
0.092	27.0387726996297
0.093	26.4732607502003
0.094	25.9076589736379
0.095	25.3414723495109
0.096	24.7742540400625
0.097	24.2056024952676
0.098	23.6351587373727
0.099	23.0626038132517
0.1	22.4876564036675
0.101	21.4277876795733
0.102	20.3930602762523
0.103	19.3817004259994
0.104	18.3920677799283
0.105	17.4226468617449
0.106	16.4720390643301
0.107	15.5389551541025
0.108	14.6222082503949
0.109	13.7207072491916
0.11	12.8334506625616
0.111	11.5191331356132
0.112	10.2469908126267
0.113	9.0145357907677
0.114	7.81945920120733
0.115	6.65961955256126
0.116	5.53303181800342
0.117	4.43785721814409
0.118	3.37239365485491
0.119	2.33506675411757
0.12	1.32442147868049
0.121	0.0722554034429212
0.122	-1.13536480133315
0.123	-2.30078441122602
0.124	-3.42618179407395
0.125	-4.51357941280793
0.126	-5.56485412543035
0.127	-6.58174682736232
0.128	-7.56587147846192
0.129	-8.51872355428528
0.13	-9.44168795860722
0.131	-10.4167219707935
0.132	-11.3572739042864
0.133	-12.264860403205
0.134	-13.1408881498232
0.135	-13.9866612719762
0.136	-14.8033882779245
0.137	-15.5921885490115
0.138	-16.3540984184909
0.139	-17.0900768630688
0.14	-17.8010108319904
0.141	-18.4494411779279
0.142	-19.0782723090831
0.143	-19.6879705091777
0.144	-20.2789625927658
0.145	-20.8516388047901
0.146	-21.4063555371019
0.147	-21.9434378735906
0.148	-22.46318197482
0.149	-22.9658573123598
0.15	-23.4517087623452
0.151	-23.8284626751607
0.152	-24.1995163711103
0.153	-24.5644006362421
0.154	-24.9226687273402
0.155	-25.2738952931848
0.156	-25.6176753686392
0.157	-25.9536234367032
0.158	-26.2813725539833
0.159	-26.6005735353241
0.16	-26.9108941936168
0.161	-27.0954729527093
0.162	-27.2853278522581
0.163	-27.479268829941
0.164	-27.6761754119917
0.165	-27.874992601053
0.166	-28.0747270322148
0.167	-28.2744433797748
0.168	-28.4732609983849
0.169	-28.6703507832977
0.17	-28.8649322354126
0.171	-28.9217641280437
0.172	-28.9921936553661
0.173	-29.0744947897843
0.174	-29.1670456221594
0.175	-29.2683220223965
0.176	-29.3768917118797
0.177	-29.491408721024
0.178	-29.6106082069416
0.179	-29.7333016078286
0.18	-29.858372112185
0.181	-29.8302019827536
0.182	-29.8220803868426
0.183	-29.8318740099098
0.184	-29.8575794945781
0.185	-29.8973154311335
0.186	-29.9493148677693
0.187	-30.011918306892
0.188	-30.0835671559744
0.189	-30.1627976034744
0.19	-30.2482348922354
0.191	-30.1616177621293
0.192	-30.1002451529791
0.193	-30.0616626233194
0.194	-30.0435657677037
0.195	-30.0437909063843
0.196	-30.060306378913
0.197	-30.091204402552
0.198	-30.1346934589026
0.199	-30.1890911745234
0.2	-30.2528176635088
0.201	-30.1245761329449
0.202	-30.0258740462628
0.203	-29.9539973877979
0.204	-29.9063982048191
0.205	-29.880684256243
0.206	-29.8746093327212
0.207	-29.8860642046422
0.208	-29.9130681573915
0.209	-29.9537610758311
0.21	-30.0063960424167
0.211	-29.8480628747598
0.212	-29.7228350255864
0.213	-29.6277879597259
0.214	-29.5601760607705
0.215	-29.5174214424498
0.216	-29.4971034857016
0.217	-29.4969490544802
0.218	-29.5148233463721
0.219	-29.5487213369164
0.22	-29.5967597791811
0.221	-29.4170802906192
0.222	-29.273420476629
0.223	-29.1626881210508
0.224	-29.081980057518
0.225	-29.0285703188487
0.226	-28.99989905513
0.227	-28.9935621707689
0.228	-29.0073016339862
0.229	-29.038996415229
0.23	-29.0866540137848
0.231	-28.4247720251331
0.232	-27.8410948084714
0.233	-27.3300305469653
0.234	-26.8863327227245
0.235	-26.5050780942908
0.236	-26.1816461010632
0.237	-25.9116996025182
0.238	-25.6911668660256
0.239	-25.5162247226165
0.24	-25.383282815258
0.241	-24.1974947080028
0.242	-23.130950540183
0.243	-22.1757431093686
0.244	-21.3244565145046
0.245	-20.5701345732449
0.246	-19.9062512843161
0.247	-19.3266832029676
0.248	-18.8256836060767
0.249	-18.3978583314275
0.25	-18.0381431831337
0.251	-16.5951373927654
0.252	-15.2887617909673
0.253	-14.1103081315862
0.254	-13.0516106420209
0.255	-12.1050110000048
0.256	-11.2633255775879
0.257	-10.51981480611
0.258	-9.86815452538408
0.259	-9.30240918912487
0.26	-8.81700680690757
0.261	-7.50368304583761
0.262	-6.3162564520543
0.263	-5.24691600733834
0.264	-4.28833625070003
0.265	-3.43364583557063
0.266	-2.67639812290243
0.267	-2.01054367892558
0.268	-1.43040455477259
0.269	-0.930650233095669
0.27	-0.506275134208063
0.271	0.374517406661228
0.272	1.15817605466374
0.273	1.85061101294489
0.274	2.45736915773841
0.275	2.98365761830453
0.276	3.43436582821553
0.277	3.81408614651626
0.278	4.12713314093598
0.279	4.37756161938682
0.28	4.56918349042556
0.281	4.86920995090107
0.282	5.10766372621926
0.283	5.28827353510289
0.284	5.41454624356089
0.285	5.48978127114679
0.286	5.51708405988893
0.287	5.4993786663054
0.288	5.43941953302286
0.289	5.33980249287815
0.29	5.20297505497375
0.291	4.91447788440843
0.292	4.60069139891084
0.293	4.26324521403563
0.294	3.90368309986439
0.295	3.52346850967251
0.296	3.12398974358855
0.297	2.70656477079456
0.298	2.27244573229969
0.299	1.82282314490319
0.3	1.35882982563583
0.301	0.656409816149742
0.302	-0.0425393304229558
0.303	-0.737953450377726
0.304	-1.42975429609321
0.305	-2.11785057868173
0.306	-2.80213895132922
0.307	-3.48250493708714
0.308	-4.15882380463333
0.309	-4.83096139528789
0.31	-5.49877490435555
0.311	-6.29133662451142
0.312	-7.06926943735796
0.313	-7.83299761366934
0.314	-8.58290228495893
0.315	-9.31932446035509
0.316	-10.0425678557244
0.317	-10.752901547045
0.318	-11.450562459256
0.319	-12.1357577010823
0.32	-12.8086667556534
0.321	-13.4028770043089
0.322	-13.9907354477054
0.323	-14.57201472828
0.324	-15.1464884074667
0.325	-15.7139311918696
0.326	-16.2741191507513
0.327	-16.826829925272
0.328	-17.3718429298775
0.329	-17.9089395462133
0.33	-18.4379033099078
0.331	-18.6925574589982
0.332	-18.9622935369989
0.333	-19.2454917413566
0.334	-19.5406232012528
0.335	-19.8462444028501
0.336	-20.1609919798848
0.337	-20.4835778459156
0.338	-20.8127846460597
0.339	-21.1474615074773
0.34	-21.4865200692011
0.341	-21.3538004491147
0.342	-21.2645547586783
0.343	-21.2154142635849
0.344	-21.2032124253137
0.345	-21.2249721151581
0.346	-21.2778936593662
0.347	-21.3593436616794
0.348	-21.4668445530136
0.349	-21.5980648212667
0.35	-21.7508098772665
0.351	-21.2288150918991
0.352	-20.7801251317135
0.353	-20.3996085536451
0.354	-20.0824476509786
0.355	-19.8241184039304
0.356	-19.6203717307628
0.357	-19.4672159554682
0.358	-19.3609004134768
0.359	-19.2979001218995
0.36	-19.2749014455577
0.361	-18.8910442675489
0.362	-18.5717934602508
0.363	-18.3125879344162
0.364	-18.1091434563807
0.365	-17.9574349731639
0.366	-17.8536800850055
0.367	-17.79432359125
0.368	-17.7760230402705
0.369	-17.7956352185871
0.37	-17.8502035185175
0.371	-17.6366550191975
0.372	-17.4759323994919
0.373	-17.3642002889808
0.374	-17.2978537328074
0.375	-17.2735035266494
0.376	-17.2879625048412
0.377	-17.338232720084
0.378	-17.4214934571499
0.379	-17.5350900266976
0.38	-17.6765232887896
0.381	-17.5799733931571
0.382	-17.5274917000196
0.383	-17.5157617804977
0.384	-17.5416647044893
0.385	-17.6022665184514
0.386	-17.6948065378828
0.387	-17.8166864018665
0.388	-17.9654598404239
0.389	-18.1388231086042
0.39	-18.3346060442032
0.391	-18.3085871657849
0.392	-18.3206033144038
0.393	-18.3676782610251
0.394	-18.4470120071414
0.395	-18.55596965538
0.396	-18.6920710046796
0.397	-18.8529808231964
0.398	-19.0364997551231
0.399	-19.2405558204235
0.4	-19.4631964691285
0.401	-19.4685227485604
0.402	-19.5082996639714
0.403	-19.5797371670726
0.404	-19.6802101378331
0.405	-19.8072480034391
0.406	-19.9585250332401
0.407	-20.1318512659672
0.408	-20.3251640283317
0.409	-20.5365200067394
0.41	-20.7640878363277
0.411	-20.7724700500345
0.412	-20.8136387559203
0.413	-20.8848737346865
0.414	-20.9836158517002
0.415	-21.1074569399998
0.416	-21.2541303419616
0.417	-21.4215020670232
0.418	-21.6075625256103
0.419	-21.8104188019754
0.42	-22.028287431064
0.421	-22.0223299327874
0.422	-22.0488358442416
0.423	-22.1050768570965
0.424	-22.1884868294404
0.425	-22.2966516114621
0.426	-22.4272995332385
0.427	-22.5782925117984
0.428	-22.7476177373949
0.429	-22.9333799014963
0.43	-23.1337939314251
0.431	-23.1049748107604
0.432	-23.1091249654461
0.433	-23.1434626408406
0.434	-23.2053721296569
0.435	-23.2923933562903
0.436	-23.4022121386233
0.437	-23.5326510834846
0.438	-23.6816610747596
0.439	-23.847313315796
0.44	-24.0277918902164
0.441	-23.9737369698964
0.442	-23.9535952161985
0.443	-23.9645100780341
0.444	-24.003796181561
0.445	-24.0689285896374
0.446	-24.1575327595683
0.447	-24.2673751539755
0.448	-24.3963544625331
0.449	-24.5424933950316
0.45	-24.703931008785
0.451	-24.6259345315534
0.452	-24.5829658741103
0.453	-24.572088159655
0.454	-24.5905410612088
0.455	-24.6357297181877
0.456	-24.7052143732952
0.457	-24.796700683145
0.458	-24.9080306590236
0.459	-25.0371741970133
0.46	-25.1822211593229
0.461	-25.0834140935491
0.462	-25.0207533582169
0.463	-24.9912256353926
0.464	-24.9919991869319
0.465	-25.0204124484935
0.466	-25.0739633646336
0.467	-25.1502994170474
0.468	-25.2472083011164
0.469	-25.3626092088101
0.47	-25.4945446786912
0.471	-25.378722533484
0.472	-25.3000737515361
0.473	-25.2555174365053
0.474	-25.2421586616684
0.475	-25.2572767813924
0.476	-25.298314501895
0.477	-25.3628676621845
0.478	-25.4486756792431
0.479	-25.5536126144678
0.48	-25.6756788211634
0.481	-25.5466333304093
0.482	-25.4556487238455
0.483	-25.3995875263596
0.484	-25.37550186593
0.485	-25.3806215504788
0.486	-25.4123429191495
0.487	-25.46821841793
0.488	-25.5459468527639
0.489	-25.6433642763177
0.49	-25.7584354673927
0.491	-25.619614362694
0.492	-25.5195841094265
0.493	-25.4551620572467
0.494	-25.4233580279467
0.495	-25.4213622064557
0.496	-25.4465338182735
0.497	-25.4963905424798
0.498	-25.5685986127418
0.499	-25.6609635618072
0.5	-25.7714215678388
0.501	-25.625781061583
0.502	-25.5195043628892
0.503	-25.4493744347272
0.504	-25.4123688704034
0.505	-25.4056476442726
0.506	-25.4265416579563
0.507	-25.4725420306259
0.508	-25.5412900852274
0.509	-25.6305679856216
0.51	-25.7382899825187
0.511	-25.5882532760819
0.512	-25.4780080774711
0.513	-25.4043125679726
0.514	-25.3641210930068
0.515	-25.354571812719
0.516	-25.3729751545615
0.517	-25.4168030160108
0.518	-25.4836786689013
0.519	-25.5713673199881
0.52	-25.6777672852731
0.521	-25.5252394816141
0.522	-25.4128037233878
0.523	-25.3372015525169
0.524	-25.2953716856365
0.525	-25.2844375983324
0.526	-25.3016959156791
0.527	-25.3446055569416
0.528	-25.4107775856654
0.529	-25.4979657195227
0.53	-25.6040574572229
0.531	-25.3308584322259
0.532	-25.1080515926004
0.533	-24.9317680960982
0.534	-24.7983745132482
0.535	-24.7044579223242
0.536	-24.6468119716579
0.537	-24.6224238467879
0.538	-24.6284620839597
0.539	-24.6622651752637
0.54	-24.7213309142221
0.541	-23.9331916903728
0.542	-23.2362249313303
0.543	-22.6241792395326
0.544	-22.0911888613637
0.545	-21.6317489860707
0.546	-21.2406926453635
0.547	-20.9131691103853
0.548	-20.6446236894005
0.549	-20.4307788357793
0.55	-20.2676164816826
0.551	-19.1355343452923
0.552	-18.1201691172617
0.553	-17.2138973227172
0.554	-16.4095680256632
0.555	-15.7004724036211
0.556	-15.0803152928838
0.557	-14.5431885772675
0.558	-14.0835463014386
0.559	-13.6961813975564
0.56	-13.3762039211467
0.561	-12.1670226824934
0.562	-11.0791945651987
0.563	-10.1050260049788
0.564	-9.23730054382123
0.565	-8.46924800962344
0.566	-7.79451569194563
0.567	-7.2071413851594
0.568	-6.70152817857111
0.569	-6.27242088086191
0.57	-5.91488397344819
0.571	-4.92732621095792
0.572	-4.04561394040981
0.573	-3.2631681393407
0.574	-2.57381549293864
0.575	-1.9717621280622
0.576	-1.4515690494553
0.577	-1.00812916841722
0.578	-0.636645821260528
0.579	-0.332612681508554
0.58	-0.091794975973815
0.581	0.472298456515943
0.582	0.957577642894006
0.583	1.36889939512742
0.584	1.7108260028435
0.585	1.98764431922271
0.586	2.20338360772155
0.587	2.36183222950825
0.588	2.46655324634492
0.589	2.52089900883479
0.59	2.52802479544637
0.591	2.59230078305065
0.592	2.60874407344039
0.593	2.58035903383313
0.594	2.50997546632714
0.595	2.4002598931836
0.596	2.25372610584499
0.597	2.07274502516599
0.598	1.85955391727533
0.599	1.61626500662546
0.6	1.34487352511085
0.601	0.971937225002293
0.602	0.579630561403327
0.603	0.169347386604647
0.604	-0.257589358867965
0.605	-0.699923144628144
0.606	-1.15645964742572
0.607	-1.62606282747136
0.608	-2.10765126603526
0.609	-2.6001947474271
0.61	-3.10271106955023
0.611	-3.70603725355805
0.612	-4.31081999110058
0.613	-4.91659522522103
0.614	-5.52291128365609
0.615	-6.12932825014109
0.616	-6.73541738388302
0.617	-7.34076058401693
0.618	-7.94494989606322
0.619	-8.54758705759247
0.62	-9.14828308048159
0.621	-9.71891674332645
0.622	-10.2890458888846
0.623	-10.8581780382784
0.624	-11.4258367833391
0.625	-11.9915609873177
0.626	-12.5549040439241
0.627	-13.1154331908249
0.628	-13.6727288739777
0.629	-14.2263841594115
0.63	-14.7760041892767
0.631	-15.1211449718092
0.632	-15.4782067158449
0.633	-15.845836209924
0.634	-16.2227527800441
0.635	-16.6077438742359
0.636	-16.9996609382542
0.637	-17.397415563493
0.638	-17.7999758894447
0.639	-18.206363244166
0.64	-18.6156490072724
0.641	-18.6436529566964
0.642	-18.7051463184893
0.643	-18.7974148466446
0.644	-18.9179041086699
0.645	-19.0642094284582
0.646	-19.2340664843557
0.647	-19.4253425200588
0.648	-19.6360281287009
0.649	-19.8642295730423
0.65	-20.10816160707
0.651	-19.7926558096534
0.652	-19.5360710275702
0.653	-19.3341598487099
0.654	-19.1829320697339
0.655	-19.0786383112642
0.656	-19.0177546970371
0.657	-18.9969685283108
0.658	-19.0131648892428
0.659	-19.0634141230972
0.66	-19.1449601230171
0.661	-18.5201787135202
0.662	-17.9775547226818
0.663	-17.5115035973247
0.664	-17.1167827164471
0.665	-16.7884694721149
0.666	-16.5219407719436
0.667	-16.3128538714207
0.668	-16.1571284502393
0.669	-16.0509298523422
0.67	-15.9906534145513
0.671	-15.6318477212369
0.672	-15.3376110141336
0.673	-15.1034658428685
0.674	-14.9252054905441
0.675	-14.7988766583688
0.676	-14.7207632748682
0.677	-14.6873713570817
0.678	-14.6954148558284
0.679	-14.7418024215002
0.68	-14.8236250309376
0.681	-14.6707038623954
0.682	-14.5680153908661
0.683	-14.5119499386658
0.684	-14.4991130846087
0.685	-14.5263119512728
0.686	-14.5905423842742
0.687	-14.6889769659411
0.688	-14.8189538094959
0.689	-14.97796608332
0.69	-15.1636522181295
0.691	-15.147924954133
0.692	-15.1719984717736
0.693	-15.2328667853498
0.694	-15.3277009562498
0.695	-15.4538378744811
0.696	-15.6087697710113
0.697	-15.7901344136987
0.698	-15.9957059426291
0.699	-16.2233863035258
0.7	-16.471197240559
0.701	-16.5282691268403
0.702	-16.6185274601839
0.703	-16.7393247590637
0.704	-16.888168339441
0.705	-17.0627105607346
0.706	-17.2607397077615
0.707	-17.4801714675271
0.708	-17.7190409623941
0.709	-17.9754953036391
0.71	-18.2477866317196
0.711	-18.3265341978715
0.712	-18.4350763014805
0.713	-18.5709253270427
0.714	-18.731739046619
0.715	-18.9153114981243
0.716	-19.1195644583998
0.717	-19.3425394725932
0.718	-19.582390403852
0.719	-19.8373764696522
0.72	-20.1058557332537
0.721	-20.1721616528701
0.722	-20.2672403078187
0.723	-20.3886236768547
0.724	-20.5339886830598
0.725	-20.7011481206693
0.726	-20.8880421731822
0.727	-21.0927304844988
0.728	-21.3133847472909
0.729	-21.5482817751203
0.73	-21.7957970269738
0.731	-21.8313364451672
0.732	-21.8961405821795
0.733	-21.9876760296704
0.734	-22.1035592100106
0.735	-22.2415470024364
0.736	-22.39952797958
0.737	-22.5755142148798
0.738	-22.7676336239216
0.739	-22.9741228051401
0.74	-23.1933203475389
0.741	-23.1915410544826
0.742	-23.220336677973
0.743	-23.2770666255308
0.744	-23.3592475390711
0.745	-23.4645434533009
0.746	-23.5907565944394
0.747	-23.7358187778322
0.748	-23.8977833656962
0.749	-24.074817748734
0.75	-24.2651963176886
0.751	-24.226820102682
0.752	-24.2206638662062
0.753	-24.2439669633422
0.754	-24.2941340460445
0.755	-24.3687247075398
0.756	-24.4654438000555
0.757	-24.5821323823174
0.758	-24.7167592560598
0.759	-24.8674130534218
0.76	-25.032294839556
0.761	-24.9617242574324
0.762	-24.9250569048501
0.763	-24.9194161709794
0.764	-24.9420983966193
0.765	-24.9905620280832
0.766	-25.0624174759718
0.767	-25.1554176332339
0.768	-25.2674490098561
0.769	-25.3965234442698
0.77	-25.5407703541371
0.771	-25.4437580350567
0.772	-25.3822073693236
0.773	-25.3531385157226
0.774	-25.3537513080211
0.775	-25.3814139764051
0.776	-25.433652601663
0.777	-25.5081412547216
0.778	-25.602692777193
0.779	-25.7152501614477
0.78	-25.8438784914052
0.781	-25.726241694276
0.782	-25.6454216774207
0.783	-25.5983516632614
0.784	-25.5821501449042
0.785	-25.5941092464898
0.786	-25.6316838395844
0.787	-25.6924813667142
0.788	-25.7742523262947
0.789	-25.8748813761584
0.79	-25.9923790156393
0.791	-25.8593938085778
0.792	-25.7643485853474
0.793	-25.704106601563
0.794	-25.6757208363849
0.795	-25.6764220646289
0.796	-25.7036077035325
0.797	-25.7548313840816
0.798	-25.8277932000246
0.799	-25.9203305907288
0.8	-26.030409816853
0.801	-25.8865822375099
0.802	-25.7815858176991
0.803	-25.7122299334906
0.804	-25.675517073643
0.805	-25.6686306915945
0.806	-25.6889238463462
0.807	-25.733908581221
0.808	-25.8012459927712
0.809	-25.8887369451822
0.81	-25.994313388399
0.811	-25.8433359782494
0.812	-25.7318649724397
0.813	-25.6566702612843
0.814	-25.6147172986691
0.815	-25.6031547942351
0.816	-25.6193032048043
0.817	-25.6606439733635
0.818	-25.7248094672545
0.819	-25.8095735703379
0.82	-25.9128428868072
0.821	-25.7576341690599
0.822	-25.6424162641989
0.823	-25.5639318891205
0.824	-25.5191209822481
0.825	-25.5051082870455
0.826	-25.5191917418223
0.827	-25.5588316236949
0.828	-25.621640397926
0.829	-25.7053732270115
0.83	-25.8079190968224
0.831	-25.6506979161101
0.832	-25.5337906727384
0.833	-25.4539230102036
0.834	-25.4080188082035
0.835	-25.3931876990971
0.836	-25.4067133950186
0.837	-25.4460427732293
0.838	-25.5087756706696
0.839	-25.5926553418302
0.84	-25.6955595370246
0.841	-25.537933732276
0.842	-25.4208145746424
0.843	-25.3409185619819
0.844	-25.2951609436689
0.845	-25.2806432024115
0.846	-25.2946413489917
0.847	-25.3345949773645
0.848	-25.3980970309424
0.849	-25.4828842340586
0.85	-25.5868281455686
0.851	-25.0085262583861
0.852	-24.5050085610395
0.853	-24.0709653251151
0.854	-23.7014130371853
0.855	-23.3916735805178
0.856	-23.1373547664585
0.857	-22.9343321283413
0.858	-22.778731896399
0.859	-22.6669150774001
0.86	-22.5954625676559
0.861	-21.5837535003431
0.862	-20.6800888293864
0.863	-19.8772861498708
0.864	-19.1686076001413
0.865	-18.5477312936584
0.866	-18.0087246014702
0.867	-17.5460191658992
0.868	-17.1543875337399
0.869	-16.8289213044627
0.87	-16.5650106956565
0.871	-15.3475608643548
0.872	-14.2524468680298
0.873	-13.2718249846231
0.874	-12.3983381235222
0.875	-11.6250844290175
0.876	-10.9455879170874
0.877	-10.3537710143748
0.878	-9.84392887667557
0.879	-9.41070537216186
0.88	-9.049070621969
0.881	-7.93171230126185
0.882	-6.92898303730177
0.883	-6.03370541251715
0.884	-5.2391461429571
0.885	-4.53898734814253
0.886	-3.92729968210359
0.887	-3.39851720560261
0.888	-2.94741388727721
0.889	-2.56908162867548
0.89	-2.25890971492458
0.891	-1.49415709004274
0.892	-0.820800160532902
0.893	-0.233197556423035
0.894	0.273946824722461
0.895	0.705606188296862
0.896	1.06645176219756
0.897	1.36087235896054
0.898	1.59299266798971
0.899	1.76669035974795
0.9	1.88561207850011
0.901	2.16661760392775
0.902	2.38633277041362
0.903	2.5485527617259
0.904	2.65684699944119
0.905	2.71457376403421
0.906	2.72489386463509
0.907	2.69078341878619
0.908	2.61504579957898
0.909	2.50032280385401
0.91	2.34910509168855
0.911	2.14594894969682
0.912	1.91202343785178
0.913	1.64935489101917
0.914	1.35985818316706
0.915	1.04534388909405
0.916	0.707524975849082
0.917	0.348023054190385
0.918	-0.0316257815224398
0.919	-0.429965498437125
0.92	-0.845615030461182
0.921	-1.38382551364321
0.922	-1.92929928738868
0.923	-2.48128950425439
0.924	-3.03907919454447
0.925	-3.60197946952218
0.926	-4.16932784846875
0.927	-4.74048670154122
0.928	-5.31484180089696
0.929	-5.89180097303467
0.93	-6.47079284575338
0.931	-7.08751692760191
0.932	-7.70242215061615
0.933	-8.31515560256357
0.934	-8.9253706893526
0.935	-9.5327269410166
0.936	-10.1368898373293
0.937	-10.7375306516891
0.938	-11.334326311993
0.939	-11.9269592773038
0.94	-12.5151174291837
0.941	-12.9755611954669
0.942	-13.4409908110302
0.943	-13.9105134992988
0.944	-14.3832791003224
0.945	-14.8584775793855
0.946	-15.3353367027462
0.947	-15.8131198696095
0.948	-16.291124090142
0.949	-16.7686780999863
0.95	-17.2451406023492
0.951	-17.4171604514023
0.952	-17.6124967940955
0.953	-17.8290674633283
0.954	-18.0649097389534
0.955	-18.3181729043997
0.956	-18.5871112897412
0.957	-18.8700777697239
0.958	-19.1655176872877
0.959	-19.4719631750205
0.96	-19.7880278487541
0.961	-19.6207664164888
0.962	-19.5012987510818
0.963	-19.4260397977638
0.964	-19.3916197039014
0.965	-19.3948701672909
0.966	-19.4328116718264
0.967	-19.5026415532085
0.968	-19.6017228410569
0.969	-19.7275738272434
0.97	-19.8778583134977
0.971	-19.3769209768665
0.972	-18.9488545459501
0.973	-18.5885989051117
0.974	-18.2914026505086
0.975	-18.052803345902
0.976	-17.8686090595072
0.977	-17.7348810991898
0.978	-17.6479178686419
0.979	-17.6042397721586
0.98	-17.6005751003024
0.981	-17.116499802583
0.982	-16.7052267125305
0.983	-16.3617567243289
0.984	-16.0813950375031
0.985	-15.8597316723066
0.986	-15.6926232496271
0.987	-15.5761759537904
0.988	-15.5067296019037
0.989	-15.4808427483015
0.99	-15.4952787572612
0.991	-15.2579892690211
0.992	-15.0767287407251
0.993	-14.9475315220207
0.994	-14.8666700135369
0.995	-14.8306394762883
0.996	-14.8361438284758
0.997	-14.880082365927
0.998	-14.9595373465314
0.999	-15.0717623828651
1	-15.214171590799
1.001	-15.1384776498089
1.002	-15.107055530146
1.003	-15.1166355011241
1.004	-15.1641416135351
1.005	-15.2466793912395
1.006	-15.361524323989
1.007	-15.506111109721
1.008	-15.6780235978984
1.009	-15.8749853885896
1.01	-16.0948510449011
1.011	-16.117242177219
1.012	-16.1758210727045
1.013	-16.26777220671
1.014	-16.3904453432361
1.015	-16.5413450932425
1.016	-16.7181211534378
1.017	-16.9185591815577
1.018	-17.1405722669844
1.019	-17.3821929582034
1.02	-17.6415658110781
1.021	-17.7062407195906
1.022	-17.802435591624
1.023	-17.9275744958069
1.024	-18.0792322153631
1.025	-18.2551247729289
1.026	-18.453100573117
1.027	-18.6711321228747
1.028	-18.9073082922592
1.029	-19.1598270806605
1.03	-19.4269888557545
1.031	-19.4935351242838
1.032	-19.5896076019553
1.033	-19.7127084349409
1.034	-19.8604862922296
1.035	-20.0307271825729
1.036	-20.2213458699563
1.037	-20.4303778488756
1.038	-20.6559718431911
1.039	-20.8963827946674
1.04	-21.1499653094898
1.041	-21.1940209955764
1.042	-21.2674425300607
1.043	-21.3677042315893
1.044	-21.4924294596502
1.045	-21.6393812855467
1.046	-21.8064537709872
1.047	-21.9916638149754
1.048	-22.193143532221
1.049	-22.4091331286584
1.05	-22.6379742418792
1.051	-22.6483580774506
1.052	-22.6890330183344
1.053	-22.7573869316335
1.054	-22.8509628593281
1.055	-22.9674493051426
1.056	-23.1046711535513
1.057	-23.2605811800208
1.058	-23.4332521142245
1.059	-23.620869220429
1.06	-23.821723361559
1.061	-23.7961720310977
1.062	-23.8023643543089
1.063	-23.837577172457
1.064	-23.8992500492118
1.065	-23.984975078185
1.066	-24.0924873533465
1.067	-24.2196560594316
1.068	-24.364476142219
1.069	-24.5250605211391
1.07	-24.6996328090957
1.071	-24.6409116997291
1.072	-24.6155492831274
1.073	-24.6207081845094
1.074	-24.6537213520743
1.075	-24.712081378657
1.076	-24.7934305174925
1.077	-24.8955513471902
1.078	-25.0163580439051
1.079	-25.1538882214071
1.08	-25.3062953022775
1.081	-25.2194244346947
1.082	-25.1674764654912
1.083	-25.1475084339627
1.084	-25.156754624309
1.085	-25.1926154428813
1.086	-25.2526470181524
1.087	-25.3345514766588
1.088	-25.4361678511811
1.089	-25.5554635802428
1.09	-25.6905265606485
1.091	-25.5811174834828
1.092	-25.5080330692016
1.093	-25.4682389911066
1.094	-25.4588840830939
1.095	-25.4772888357867
1.096	-25.5209346399605
1.097	-25.5874537289251
1.098	-25.6746197746457
1.099	-25.7803390952985
1.1	-25.9026424346828
1.101	-25.7760389568229
1.102	-25.6869502012664
1.103	-25.632266595704
1.104	-25.6090665450524
1.105	-25.6146046163002
1.106	-25.6463004907371
1.107	-25.7017286339378
1.108	-25.7786086370687
1.109	-25.8747961860812
1.11	-25.9882746181506
1.111	-25.8491768042305
1.112	-25.7485592830292
1.113	-25.6832531967978
1.114	-25.6502814171706
1.115	-25.6468464867405
1.116	-25.6703193437395
1.117	-25.7182287791811
1.118	-25.7882515790866
1.119	-25.8782033074696
1.12	-25.9860296886102
1.121	-25.8383727024137
1.122	-25.7299453193049
1.123	-25.6575340869437
1.124	-25.6181200702714
1.125	-25.6088666116862
1.126	-25.6271078860619
1.127	-25.6703381992107
1.128	-25.7362019817047
1.129	-25.8224844330683
1.13	-25.9271027742532
1.131	-25.7740574024046
1.132	-25.6607948766065
1.133	-25.5840700040396
1.134	-25.5408340642649
1.135	-25.5282224416191
1.136	-25.5435430607354
1.137	-25.5842655732582
1.138	-25.648011247164
1.139	-25.732543513238
1.14	-25.8357591261778
1.141	-25.6797865115992
1.142	-25.5639805374059
1.143	-25.4850750408948
1.144	-25.4400015969759
1.145	-25.4258770673477
1.146	-25.4399919582034
1.147	-25.4797995341891
1.148	-25.5429056397018
1.149	-25.6270591817695
1.15	-25.7301432317038
1.151	-25.5730730398307
1.152	-25.4564131913309
1.153	-25.3768851995309
1.154	-25.3314090328554
1.155	-25.3170906162745
1.156	-25.331210144395
1.157	-25.3712111537156
1.158	-25.4346903049484
1.159	-25.5193878294711
1.16	-25.6231785969395
1.161	-25.2658276316583
1.162	-24.965752729709
1.163	-24.7186768131977
1.164	-24.5205838911031
1.165	-24.3677024830351
1.166	-24.2564901184193
1.167	-24.1836188416278
1.168	-24.1459616580596
1.169	-24.1405798603627
1.17	-24.1647111779068
1.171	-23.3106597921141
1.172	-22.5528781307447
1.173	-21.8848303407639
1.174	-21.3003841680508
1.175	-20.7937850790763
1.176	-20.3596320593688
1.177	-19.9928549805544
1.178	-19.6886934347366
1.179	-19.4426769415032
1.18	-19.2506064389547
1.181	-18.0889234565698
1.182	-17.0460088128023
1.183	-16.1141484199795
1.184	-15.2861064925429
1.185	-14.5550947317413
1.186	-13.9147435061327
1.187	-13.3590748991598
1.188	-12.8824775033625
1.189	-12.4796828485552
1.19	-12.1457433585595
1.191	-10.9575415765216
1.192	-9.88912991514257
1.193	-8.9329413124974
1.194	-8.08187773513234
1.195	-7.32927986736399
1.196	-6.66889876379233
1.197	-6.0948693384358
1.198	-5.6016855720574
1.199	-5.18417732688483
1.2	-4.8374886650698
1.201	-3.91044637441931
1.202	-3.08529146773659
1.203	-2.35570415480097
1.204	-1.71575365665441
1.205	-1.15987301468848
1.206	-0.682835532582663
1.207	-0.279732745826336
1.208	0.0540461796577016
1.209	0.322833711922601
1.21	0.530701966635338
1.211	1.01514903184063
1.212	1.42570733444345
1.213	1.76693344141061
1.214	2.04310884632415
1.215	2.25825779325926
1.216	2.4161639428504
1.217	2.52038595518453
1.218	2.57427205935031
1.219	2.58097367497169
1.22	2.54345814684561
1.221	2.52998867669917
1.222	2.47357193811028
1.223	2.37693093986933
1.224	2.24263231317818
1.225	2.07309640913923
1.226	1.87060673657422
1.227	1.63731878271584
1.228	1.37526825657524
1.229	1.08637879222522
1.23	0.772469146840383
1.231	0.347924719921873
1.232	-0.0923461900291685
1.233	-0.547146047047625
1.234	-1.01533572109108
1.235	-1.49583080986735
1.236	-1.98759820610079
1.237	-2.48965289436607
1.238	-3.00105496263722
1.239	-3.5209068146548
1.24	-4.04835057010642
1.241	-4.66034185683979
1.242	-5.27257896669079
1.243	-5.88464566116549
1.244	-6.49613530168164
1.245	-7.10665041361963
1.246	-7.71580228597343
1.247	-8.32321060422152
1.248	-8.92850311418901
1.249	-9.5313153148115
1.25	-10.1312901778439
1.251	-10.6729367253329
1.252	-11.2154511006341
1.253	-11.7582374414435
1.254	-12.3007228483478
1.255	-12.8423561474589
1.256	-13.3826067395278
1.257	-13.9209635298512
1.258	-14.4569339336472
1.259	-14.9900429519176
1.26	-15.5198323131323
1.261	-15.816129487231
1.262	-16.1275123100719
1.263	-16.4524238431849
1.264	-16.7893928181332
1.265	-17.1370283739575
1.266	-17.4940151403725
1.267	-17.8591086443014
1.268	-18.231131018773
1.269	-18.6089669945579
1.27	-18.9915601561827
1.271	-18.9638061491094
1.272	-18.9736127726297
1.273	-19.0180168269506
1.274	-19.094230767377
1.275	-19.1996316196207
1.276	-19.3317506166737
1.277	-19.4882635106018
1.278	-19.6669815156151
1.279	-19.8658428415879
1.28	-20.0829047798285
1.281	-19.7135322193439
1.282	-19.4071607577794
1.283	-19.1593039192391
1.284	-18.9657475783605
1.285	-18.8225325885141
1.286	-18.7259385377478
1.287	-18.6724685596566
1.288	-18.6588351310508
1.289	-18.6819467926845
1.29	-18.7388957334171
1.291	-18.1247506738763
1.292	-17.5921781551449
1.293	-17.1356381224615
1.294	-16.749929536048
1.295	-16.4301686371908
1.296	-16.1717686239897
1.297	-15.9704206457967
1.298	-15.8220760312345
1.299	-15.7229296701689
1.3	-15.6694044751401
1.301	-15.3531133035137
1.302	-15.0984869857466
1.303	-14.9012258808026
1.304	-14.7572896888284
1.305	-14.6628808746459
1.306	-14.6144291681382
1.307	-14.6085770720089
1.308	-14.642166311871
1.309	-14.7122251678171
1.31	-14.8159566305408
1.311	-14.6905868783896
1.312	-14.6134272779413
1.313	-14.5809868329196
1.314	-14.5899822622369
1.315	-14.637324778736
1.316	-14.7201077281926
1.317	-14.8355950330135
1.318	-14.9812103886531
1.319	-15.154527164112
1.32	-15.3532589610221
1.321	-15.3535599033499
1.322	-15.3923101887908
1.323	-15.4665787361377
1.324	-15.5736068251331
1.325	-15.7107971855371
1.326	-15.8757037971078
1.327	-16.066022354551
1.328	-16.2795813544571
1.329	-16.5143337640104
1.33	-16.7683492338489
1.331	-16.8315898559135
1.332	-16.9272730565036
1.333	-17.0527883688182
1.334	-17.2056778929069
1.335	-17.3836266902416
1.336	-17.5844538046033
1.337	-17.8061038687848
1.338	-18.0466392592192
1.339	-18.3042327630847
1.34	-18.5771607247193
1.341	-18.6551246528224
1.342	-18.7626045177349
1.343	-18.897121842372
1.344	-19.0563430960865
1.345	-19.2380706052165
1.346	-19.4402340562684
1.347	-19.6608825533971
1.348	-19.8981771943184
1.349	-20.1503841310922
1.35	-20.4158680843845
1.351	-20.477371340942
1.352	-20.5676787745689
1.353	-20.6843137949229
1.354	-20.8249454335834
1.355	-20.9873792299916
1.356	-21.169548711256
1.357	-21.3695074273971
1.358	-21.5854215060825
1.359	-21.8155626932187
1.36	-22.058301847933
1.361	-22.0873545415597
1.362	-22.1458794746927
1.363	-22.2313253669268
1.364	-22.341292015653
1.365	-22.4735208437108
1.366	-22.6258860624366
1.367	-22.7963864102898
1.368	-22.9831374297996
1.369	-23.1843642479828
1.37	-23.3983948276208
1.371	-23.3899701954487
1.372	-23.4124069310871
1.373	-23.4630431435504
1.374	-23.5393756134521
1.375	-23.639049859922
1.376	-23.759850853719
1.377	-23.8996943347283
1.378	-24.056618694728
1.379	-24.2287773888303
1.38	-24.4144318413592
1.381	-24.3700716911456
1.382	-24.3582354014256
1.383	-24.3761411677664
1.384	-24.4211738839393
1.385	-24.4908746966093
1.386	-24.5829312391251
1.387	-24.6951685004733
1.388	-24.825540288296
1.389	-24.972121247515
1.39	-25.1330993985875
1.391	-25.0575423195681
1.392	-25.0161751534918
1.393	-25.0061021511037
1.394	-25.0246017646874
1.395	-25.0691157216171
1.396	-25.1372388079708
1.397	-25.2267093162723
1.398	-25.3354001143893
1.399	-25.4613102953848
1.4	-25.60255737071
1.401	-25.5016135460221
1.402	-25.4363836924746
1.403	-25.4038716730438
1.404	-25.4012620772218
1.405	-25.4259088746443
1.406	-25.4753248058405
1.407	-25.5471714624247
1.408	-25.6392500121269
1.409	-25.7494925269293
1.41	-25.8759538752694
1.411	-25.7553615983313
1.412	-25.6717972700059
1.413	-25.62218087363
1.414	-25.6036185078796
1.415	-25.6133906924829
1.416	-25.6489414335011
1.417	-25.7078679990537
1.418	-25.7879113595261
1.419	-25.8869472492642
1.42	-26.0029778095281
1.421	-25.8678795053384
1.422	-25.7708903261885
1.423	-25.7088632317598
1.424	-25.6788415546213
1.425	-25.6780470301987
1.426	-25.7038686041247
1.427	-25.7538519666969
1.428	-25.8256897674101
1.429	-25.9172124655593
1.43	-26.0263797757476
1.431	-25.8811343979291
1.432	-25.7748497273715
1.433	-25.7043275043004
1.434	-25.666563057063
1.435	-25.6587331231497
1.436	-25.6781844611115
1.437	-25.7224232022292
1.438	-25.7891048940862
1.439	-25.8760251912796
1.44	-25.9811111513902
1.441	-25.8292693253085
1.442	-25.717028119297
1.443	-25.6411520831057
1.444	-25.5986016572939
1.445	-25.5865208439948
1.446	-25.6022256783092
1.447	-25.6431934485589
1.448	-25.7070526169617
1.449	-25.7915733954172
1.45	-25.8946589340083
1.451	-25.7390101175934
1.452	-25.6234161886887
1.453	-25.5446164235678
1.454	-25.4995475259709
1.455	-25.4853311970412
1.456	-25.4992625124339
1.457	-25.5387990544079
1.458	-25.6015507500693
1.459	-25.6852703700842
1.46	-25.787844645124
1.461	-25.6304944539975
1.462	-25.5134976545587
1.463	-25.4335779565625
1.464	-25.3876574167557
1.465	-25.3728439479288
1.466	-25.3864196391074
1.467	-25.425829834434
1.468	-25.4886729216727
1.469	-25.5726907844312
1.47	-25.6757598751533
1.471	-25.5182198242341
1.472	-25.40120667497
1.473	-25.3214361301166
1.474	-25.2758226836906
1.475	-25.2614671000049
1.476	-25.2756447058107
1.477	-25.3157944429713
1.478	-25.379508632484
1.479	-25.4645234038307
1.48	-25.5687097466096
1.481	-24.8859571054131
1.482	-24.2859795805566
1.483	-23.7629978560358
1.484	-23.3115885459896
1.485	-22.926661440136
1.486	-22.603438224017
1.487	-22.3374325788467
1.488	-22.1244315718917
1.489	-21.9604782540543
1.49	-21.841855386703
1.491	-20.7607665936876
1.492	-19.7926864762937
1.493	-18.9301640005596
1.494	-18.1662097632885
1.495	-17.4942662993635
1.496	-16.9081803123197
1.497	-16.402176704096
1.498	-15.9708342878885
1.499	-15.6090630755108
1.5	-15.3120830376643
1.501	-14.0750991158179
1.502	-12.9615321113097
1.503	-11.96351266987
1.504	-11.0736597808584
1.505	-10.2850492509302
1.506	-9.5911842193834
1.507	-8.98596758352147
1.508	-8.46367621085316
1.509	-8.01893682289236
1.51	-7.64670344274875
1.511	-6.566508339467
1.512	-5.59824755879167
1.513	-4.73494097827743
1.514	-3.97004000515794
1.515	-3.29739964871221
1.516	-2.71125240201152
1.517	-2.20618381639221
1.518	-1.77710965951865
1.519	-1.41925455493652
1.52	-1.12813200759717
1.521	-0.4395090868263
1.522	0.162608068262026
1.523	0.683546870410862
1.524	1.12830972126825
1.525	1.50159507484234
1.526	1.80781713430174
1.527	2.05112427022044
1.528	2.23541624268855
1.529	2.36436030439841
1.53	2.44140625684544
1.531	2.6292823167717
1.532	2.76166930165938
1.533	2.84201346492252
1.534	2.87355788049277
1.535	2.85935559636843
1.536	2.80228193144835
1.537	2.70504597088604
1.538	2.57020131163961
1.539	2.40015610656467
1.54	2.19718245228284
1.541	1.91008208443715
1.542	1.59773919519146
1.543	1.26186474072311
1.544	0.904078488726463
1.545	0.525914854710871
1.546	0.128828353509928
1.547	-0.285801309158084
1.548	-0.716664481837229
1.549	-1.16251712744226
1.55	-1.62217667798062
1.551	-2.20649661467067
1.552	-2.79443787198034
1.553	-3.38544658675976
1.554	-3.9789866387819
1.555	-4.57453865481791
1.556	-5.17159908476403
1.557	-5.7696793451048
1.558	-6.36830502529764
1.559	-6.96701515294557
1.56	-7.56536151388808
1.561	-8.17949977688914
1.562	-8.79112739439496
1.563	-9.39990661657014
1.564	-10.0055054233495
1.565	-10.6075973811168
1.566	-11.2058615155693
1.567	-11.7999821996208
1.568	-12.3896490552702
1.569	-12.9745568684238
1.57	-13.5544055157274
1.571	-13.9770079847135
1.572	-14.4065577561056
1.573	-14.8420229597427
1.574	-15.2824235284288
1.575	-15.7268281195087
1.576	-16.1743512413366
1.577	-16.6241505713046
1.578	-17.075424452956
1.579	-17.5274095605112
1.58	-17.9793787198811
1.581	-18.0959914123058
1.582	-18.2396258787216
1.583	-18.4079644589354
1.584	-18.5988240681964
1.585	-18.8101477766254
1.586	-19.0399969381421
1.587	-19.2865438333328
1.588	-19.5480647929942
1.589	-19.8229337712318
1.59	-20.1096163389926
1.591	-19.8801154906663
1.592	-19.7029595375774
1.593	-19.5742878725011
1.594	-19.490472618323
1.595	-19.4481038381127
1.596	-19.4439757060898
1.597	-19.475073577411
1.598	-19.5385618987087
1.599	-19.6317729050502
1.6	-19.7521960524928
1.601	-19.193342139611
1.602	-18.7116371899897
1.603	-18.3017739005998
1.604	-17.9587693715812
1.605	-17.6779443375674
1.606	-17.4549037462398
1.607	-17.2855185971524
1.608	-17.1659089594729
1.609	-17.0924280925308
1.61	-17.0616475979662
1.611	-16.6178329266708
1.612	-16.2441848577479
1.613	-15.9358718689254
1.614	-15.6883559533446
1.615	-15.4973738318757
1.616	-15.3589193849937
1.617	-15.2692272254972
1.618	-15.22475733842
1.619	-15.2221807192387
1.62	-15.2583659459146
1.621	-15.0476383863017
1.622	-14.8911312272938
1.623	-14.7849905524479
1.624	-14.7255933341879
1.625	-14.709532707254
1.626	-14.7336041995995
1.627	-14.794792858911
1.628	-14.8902612169113
1.629	-15.0173380373292
1.63	-15.1735077969113
1.631	-15.1172087362225
1.632	-15.1037567856706
1.633	-15.1299668190158
1.634	-15.1928421144864
1.635	-15.2895623963119
1.636	-15.4174726548833
1.637	-15.5740726952358
1.638	-15.7570073667907
1.639	-15.9640574303263
1.64	-16.1931310209819
1.641	-16.2271306936544
1.642	-16.2963425536977
1.643	-16.3980062224618
1.644	-16.5295231563013
1.645	-16.688446430991
1.646	-16.8724711919877
1.647	-17.0794257274972
1.648	-17.3072631240741
1.649	-17.5540534670792
1.65	-17.8179765507456
1.651	-17.8877608007307
1.652	-17.9884875665986
1.653	-18.1176110359038
1.654	-18.2727342801838
1.655	-18.4515999009159
1.656	-18.6520812853556
1.657	-18.8721744328132
1.658	-19.1099903144629
1.659	-19.363747732158
1.66	-19.6317666439498
1.661	-19.6987893020819
1.662	-19.7950702729116
1.663	-19.9181230823651
1.664	-20.06560715188
1.665	-20.2353186583491
1.666	-20.4251819897678
1.667	-20.6332417580473
1.668	-20.8576553329341
1.669	-21.0966858633034
1.67	-21.348695754263
1.671	-21.3904617297912
1.672	-21.4615376057126
1.673	-21.5593967807215
1.674	-21.6816618449861
1.675	-21.826095243353
1.676	-21.9905905466289
1.677	-22.1731642915916
1.678	-22.3719483529234
1.679	-22.5851828126258
1.68	-22.8112092946983
1.681	-22.8180126993822
1.682	-22.8551791510246
1.683	-22.920088616495
1.684	-23.0102768182179
1.685	-23.1234254849884
1.686	-23.2573532372201
1.687	-23.4100070655744
1.688	-23.5794543645672
1.689	-23.7638754852244
1.69	-23.9615567731693
1.691	-23.9321111450119
1.692	-23.9345472214258
1.693	-23.9661307422602
1.694	-24.0242909363189
1.695	-24.1066102804016
1.696	-24.2108149243288
1.697	-24.3347657388635
1.698	-24.4764499462189
1.699	-24.6339732954385
1.7	-24.8055527473666
1.701	-24.7431744665578
1.702	-24.7143184758771
1.703	-24.7161354889961
1.704	-24.7459473430842
1.705	-24.801236269417
1.706	-24.8796348613741
1.707	-24.9789166947098
1.708	-25.0969875578918
1.709	-25.2318772530187
1.71	-25.3817319303751
1.711	-25.2916982039321
1.712	-25.236752041832
1.713	-25.2139391339772
1.714	-25.2204831647065
1.715	-25.2537746420146
1.716	-25.3113604525838
1.717	-25.3909340956782
1.718	-25.4903265519797
1.719	-25.6074977462721
1.72	-25.7405285655298
1.721	-25.6285331525226
1.722	-25.5530144225005
1.723	-25.5109279708309
1.724	-25.4994132100437
1.725	-25.5157818237377
1.726	-25.5575069704979
1.727	-25.6222131893156
1.728	-25.7076669611281
1.729	-25.8117678840205
1.73	-25.9325404223669
1.731	-25.8039166325369
1.732	-25.7129399828818
1.733	-25.6564924004147
1.734	-25.6316443366686
1.735	-25.6356429172283
1.736	-25.665900860924
1.737	-25.7199861189092
1.738	-25.7956121870575
1.739	-25.8906290481081
1.74	-26.0030147028044
1.741	-25.8624082133125
1.742	-25.7603920376916
1.743	-25.6937904616989
1.744	-25.6596199369914
1.745	-25.6550769944464
1.746	-25.677526942412
1.747	-25.724493299126
1.748	-25.7936479118167
1.749	-25.8828017180552
1.75	-25.9898961077957
1.751	-25.8411699988195
1.752	-25.7317609042947
1.753	-25.6584500858657
1.754	-25.6182136551229
1.755	-25.6082103121721
1.756	-25.6257698804455
1.757	-25.668382586263
1.758	-25.7336890349759
1.759	-25.8194708386241
1.76	-25.9236418529477
1.761	-25.7698903948751
1.762	-25.6559879822647
1.763	-25.5786855514001
1.764	-25.5349307513568
1.765	-25.5218555607217
1.766	-25.5367647084533
1.767	-25.5771248468846
1.768	-25.640554428223
1.769	-25.7248142390346
1.77	-25.8277985501348
1.771	-25.6714086176933
1.772	-25.5552326850261
1.773	-25.4760019343208
1.774	-25.4306454474739
1.775	-25.4162777446398
1.776	-25.430187132002
1.777	-25.4698248064396
1.778	-25.5327946681384
1.779	-25.6168437953476
1.78	-25.7198535384379
1.781	-25.5625863261203
1.782	-25.4457608680517
1.783	-25.3660970210528
1.784	-25.3205131955105
1.785	-25.3061138503164
1.786	-25.3201777998727
1.787	-25.3601472806582
1.788	-25.4236177282311
1.789	-25.5083282187108
1.79	-25.6121525317426
1.791	-25.1590886753919
1.792	-24.7709904742639
1.793	-24.4431265487346
1.794	-24.1710552221737
1.795	-23.9506060811811
1.796	-23.7778627317408
1.797	-23.6491466740515
1.798	-23.5610022237753
1.799	-23.5101824120993
1.8	-23.4936358013651
1.801	-22.5692045621881
1.802	-21.7463806400422
1.803	-21.0183334449219
1.804	-20.378654622476
1.805	-19.8213309521803
1.806	-19.3407190013772
1.807	-18.9315214218828
1.808	-18.5887647831591
1.809	-18.3077788428859
1.81	-18.0841771621595
1.811	-16.8954074370387
1.812	-15.8272047731071
1.813	-14.8717839318738
1.814	-14.0218425233561
1.815	-13.2705298779024
1.816	-12.6114179340282
1.817	-12.0384740122373
1.818	-11.5460353531793
1.819	-11.1287853063394
1.82	-10.7817310627901
1.821	-9.6223828668695
1.822	-8.58071455206901
1.823	-7.64932119384228
1.824	-6.82125653721062
1.825	-6.09000334268198
1.826	-5.4494456529987
1.827	-4.8938428568598
1.828	-4.41780543374935
1.829	-4.01627227147013
1.83	-3.68448945497086
1.831	-2.82767702671441
1.832	-2.06819684028551
1.833	-1.40002470750693
1.834	-0.817506397451805
1.835	-0.315333673592225
1.836	0.111478115407321
1.837	0.467610991410896
1.838	0.757463942749133
1.839	0.985171248038101
1.84	1.15461960989145
1.841	1.54988766469303
1.842	1.87678050051816
1.843	2.13952066595535
1.844	2.34207727324368
1.845	2.48818241719213
1.846	2.58134652686061
1.847	2.6248727188048
1.848	2.62187021625234
1.849	2.57526689443081
1.85	2.48782100838735
1.851	2.38998314634237
1.852	2.25456473281747
1.853	2.08398126986627
1.854	1.88051172999166
1.855	1.64630735661484
1.856	1.38339988852437
1.857	1.09370924546125
1.858	0.779050709602189
1.859	0.441141635466503
1.86	0.0816077186768812
1.861	-0.395293731511936
1.862	-0.884105202330611
1.863	-1.38383297958725
1.864	-1.89352882122014
1.865	-2.41228713174359
1.866	-2.9392423270433
1.867	-3.47356637719447
1.868	-4.01446651576694
1.869	-4.56118310482253
1.87	-5.1129876455024
1.871	-5.72929136350149
1.872	-6.3448104981699
1.873	-6.95916358661918
1.874	-7.57197686693173
1.875	-8.18288397842639
1.876	-8.79152568858214
1.877	-9.39754964481085
1.878	-10.0006101493839
1.879	-10.600367955923
1.88	-11.1964900859663
1.881	-11.7031680201383
1.882	-12.2124610204973
1.883	-12.7236459663014
1.884	-13.2360311363103
1.885	-13.7489544336013
1.886	-14.2617817314482
1.887	-14.773905332342
1.888	-15.2847425327413
1.889	-15.7937342866159
1.89	-16.3003439612907
1.891	-16.5417935546793
1.892	-16.8019413165438
1.893	-17.0789992681808
1.894	-17.3712799677558
1.895	-17.6771902880893
1.896	-17.9952256021034
1.897	-18.323964349521
1.898	-18.662062960108
1.899	-19.0082511103397
1.9	-19.3613272918647
1.901	-19.2718727667207
1.902	-19.2245052642451
1.903	-19.2159860238233
1.904	-19.2432694647614
1.905	-19.3034909642832
1.906	-19.3939554305526
1.907	-19.5121266193425
1.908	-19.6556171462779
1.909	-19.822179149681
1.91	-20.0096955619432
1.911	-19.581745808478
1.912	-19.2212142963126
1.913	-18.9233571556443
1.914	-18.6837191750592
1.915	-18.4981153660483
1.916	-18.3626137240032
1.917	-18.273519108444
1.918	-18.2273581702094
1.919	-18.2208652579974
1.92	-18.2509692410018
1.921	-17.6843852156848
1.922	-17.1962016739048
1.923	-16.7810761260949
1.924	-16.4339924049207
1.925	-16.1502397530212
1.926	-15.9253932674009
1.927	-15.7552956129156
1.928	-15.636039922939
1.929	-15.5639538105732
1.93	-15.5355844187096
1.931	-15.2488701423988
1.932	-15.0217519837822
1.933	-14.8500546054963
1.934	-14.7298540692515
1.935	-14.6574617755077
1.936	-14.6294094467184
1.937	-14.6424350867705
1.938	-14.6934698535854
1.939	-14.779625785912
1.94	-14.8981843291399
1.941	-14.7925421901019
1.942	-14.733602228962
1.943	-14.7179598284836
1.944	-14.7424126238441
1.945	-14.8039476384165
1.946	-14.8997292567323
1.947	-15.027087980553
1.948	-15.1835099174579
1.949	-15.3666269546171
1.95	-15.5742075734673
1.951	-15.5844541782669
1.952	-15.632227385693
1.953	-15.7146451360553
1.954	-15.8289946970193
1.955	-15.9727219528676
1.956	-16.1434213917034
1.957	-16.3388267454893
1.958	-16.5568022407186
1.959	-16.7953344202356
1.96	-17.0525244992657
1.961	-17.1180609646526
1.962	-17.2156022071073
1.963	-17.342557076305
1.964	-17.496485873977
1.965	-17.6750908242345
1.966	-17.8762071652627
1.967	-18.0977948222036
1.968	-18.3379306236336
1.969	-18.5948010264644
1.97	-18.8666953163617
1.971	-18.9419282429505
1.972	-19.0465909686064
1.973	-19.178203693865
1.974	-19.3344317690424
1.975	-19.5130765946336
1.976	-19.7120671149466
1.977	-19.9294518665977
1.978	-20.1633915459599
1.979	-20.412152061974
1.98	-20.6740980428921
1.981	-20.7302727862344
1.982	-20.8153843769037
1.983	-20.9269427928528
1.984	-21.0626045949026
1.985	-21.2201637528034
1.986	-21.3975430689817
1.987	-21.5927861612982
1.988	-21.804049968637
1.989	-22.0295977454762
1.99	-22.26779251377
1.991	-22.2907161597151
1.992	-22.3433565552025
1.993	-22.4231434786697
1.994	-22.5276590754645
1.995	-22.6546283237191
1.996	-22.8019101208643
1.997	-22.967488950626
1.998	-23.1494670929321
1.999	-23.3460573415801
2	-23.5555761967806
2.001	-23.5413113543364
2.002	-23.5581910437564
2.003	-23.6035332679165
2.004	-23.6748160398319
2.005	-23.7696673640369
2.006	-23.8858558696582
2.007	-24.0212820530163
2.008	-24.1739700903065
2.009	-24.3420601834555
2.01	-24.5238014046238
2.011	-24.4744164306411
2.012	-24.457833488293
2.013	-24.4712519630426
2.014	-24.5120391722071
2.015	-24.577719840457
2.016	-24.6659662595139
2.017	-24.774589087782
2.018	-24.9015287485037
2.019	-25.0448473876959
2.02	-25.2027213556223
2.021	-25.1231212811086
2.022	-25.0779615460411
2.023	-25.064330058576
2.024	-25.0794899870154
2.025	-25.1208687651684
2.026	-25.186047812168
2.027	-25.2727529205298
2.028	-25.3788452692138
2.029	-25.5023130212383
2.03	-25.6412634680026
2.031	-25.5372320536199
2.032	-25.4691274727066
2.033	-25.4339401132669
2.034	-25.4288419527387
2.035	-25.4511751558606
2.036	-25.498441413259
2.037	-25.5682919728448
2.038	-25.6585183191979
2.039	-25.7670434590052
2.04	-25.8919137733215
2.041	-25.7690774659558
2.042	-25.6834419511927
2.043	-25.6319165854797
2.044	-25.6115975134103
2.045	-25.6197559298225
2.046	-25.6538271042837
2.047	-25.7114001186562
2.048	-25.7902082716124
2.049	-25.8881201069445
2.05	-26.0031310252932
2.051	-25.866493166239
2.052	-25.768098812408
2.053	-25.7047929123638
2.054	-25.6736112885466
2.055	-25.671768634651
2.056	-25.6966472924941
2.057	-25.7457867579639
2.058	-25.8168738688877
2.059	-25.9077336306994
2.06	-26.0163206386259
2.061	-25.8701012361709
2.062	-25.7629421358044
2.063	-25.6916393501724
2.064	-25.6531828330001
2.065	-25.6447442770512
2.066	-25.6636657044788
2.067	-25.7074487983263
2.068	-25.7737449272398
2.069	-25.8603458185434
2.07	-25.9651748377184
2.071	-25.8127969597086
2.072	-25.7000892526536
2.073	-25.6238124513123
2.074	-25.5809234116591
2.075	-25.5685627665017
2.076	-25.5840433827115
2.077	-25.624839568234
2.078	-25.6885769803833
2.079	-25.7730231900513
2.08	-25.8760788593886
2.081	-25.7202197520334
2.082	-25.6044602011855
2.083	-25.5255372064539
2.084	-25.4803853278361
2.085	-25.4661242468221
2.086	-25.4800471352484
2.087	-25.5196097796721
2.088	-25.5824204124019
2.089	-25.6662302034696
2.09	-25.768924370776
2.091	-25.6115938420836
2.092	-25.4946416450885
2.093	-25.4147903961866
2.094	-25.3689611175588
2.095	-25.3542607422104
2.096	-25.3679704304141
2.097	-25.4075346450895
2.098	-25.4705509370385
2.099	-25.5547603941129
2.1	-25.658038711356
2.101	-25.4140991720595
2.102	-25.218046513654
2.103	-25.0661593804894
2.104	-24.9549425950828
2.105	-24.8811128547187
2.106	-24.8415853564717
2.107	-24.8334612906443
2.108	-24.8540161464858
2.109	-24.9006887776707
2.11	-24.9710711784037
2.111	-24.2042869362312
2.112	-23.5269537707656
2.113	-22.9329150223612
2.114	-22.4163937233932
2.115	-21.9719682881087
2.116	-21.594549777876
2.117	-21.2793606401464
2.118	-21.0219148259988
2.119	-20.8179991972707
2.12	-20.663656140012
2.121	-19.5392527308503
2.122	-18.5309998263424
2.123	-17.6312959406177
2.124	-16.8330107461256
2.125	-16.1294547436733
2.126	-15.5143508969073
2.127	-14.9818081045158
2.128	-14.5262963915989
2.129	-14.1426237092939
2.13	-13.8259142388942
2.131	-12.6061659655886
2.132	-11.5085112287714
2.133	-10.5252005992546
2.134	-9.64896533478323
2.135	-8.87298633231142
2.136	-8.19086509106474
2.137	-7.59659655672201
2.138	-7.08454372540919
2.139	-6.6494138940175
2.14	-6.28623645067375
2.141	-5.2746690059336
2.142	-4.37049516461001
2.143	-3.56703608696984
2.144	-2.85802507867739
2.145	-2.23758090960707
2.146	-1.70018286163018
2.147	-1.24064739390746
2.148	-0.854106321405652
2.149	-0.535986409077256
2.15	-0.281990290431688
2.151	0.311588666335278
2.152	0.824549251157275
2.153	1.26185703534401
2.154	1.62817601412048
2.155	1.92788815079174
2.156	2.16511165219814
2.157	2.34371805724671
2.158	2.46734821503405
2.159	2.53942722414469
2.16	2.56317840009577
2.161	2.65476063823851
2.162	2.69681462944601
2.163	2.69244109279193
2.164	2.64455994508763
2.165	2.55592199413389
2.166	2.42911986940533
2.167	2.2665982393373
2.168	2.07066336121826
2.169	1.84349200672712
2.17	1.5871398033835
2.171	1.23096165948675
2.172	0.854237154550217
2.173	0.458421823023073
2.174	0.0448963574411301
2.175	-0.385028630286401
2.176	-0.830108162982605
2.177	-1.28915874732777
2.178	-1.76105449894071
2.179	-2.24472352557902
2.18	-2.73914455176827
2.181	-3.34177898925291
2.182	-3.94612601415126
2.183	-4.55171555256706
2.184	-5.15809020601313
2.185	-5.76480459940626
2.186	-6.37142477877785
2.187	-6.97752765541815
2.188	-7.58270049338002
2.189	-8.18654043746339
2.19	-8.78865407898359
2.191	-9.37211841875565
2.192	-9.95439640981811
2.193	-10.5350440289469
2.194	-11.1136301326758
2.195	-11.6897358618667
2.196	-12.2629540914908
2.197	-12.8328889225965
2.198	-13.3991552136364
2.199	-13.9613781485013
2.2	-14.5191928387794
2.201	-14.8836722059257
2.202	-15.2587787728485
2.203	-15.6432415705739
2.204	-16.0358568843932
2.205	-16.4354841796872
2.206	-16.8410422968491
2.207	-17.2515058978322
2.208	-17.6659021479734
2.209	-18.0833076177946
2.21	-18.5028453904686
2.211	-18.5517610613323
2.212	-18.6326061119162
2.213	-18.7427610199405
2.214	-18.8797600628348
2.215	-19.0412816510035
2.216	-19.225139291067
2.217	-19.4292731383373
2.218	-19.6517421004073
2.219	-19.8907164561931
2.22	-20.1444709570628
2.221	-19.8483152838442
2.222	-19.609583777325
2.223	-19.4241161572972
2.224	-19.2880038461498
2.225	-19.1975739432476
2.226	-19.1493742400579
2.227	-19.1401592088099
2.228	-19.166876901802
2.229	-19.2266567025245
2.23	-19.3167978735597
2.231	-18.7056247251307
2.232	-18.1755651625498
2.233	-17.7210911961337
2.234	-17.3370131979907
2.235	-17.0184582178655
2.236	-16.7608497053832
2.237	-16.5598885479241
2.238	-16.4115353392117
2.239	-16.3119937991702
2.24	-16.2576952707256
2.241	-15.8765547382053
2.242	-15.5614608862609
2.243	-15.3078431884406
2.244	-15.1114078372914
2.245	-14.9681200419916
2.246	-14.8741874755308
2.247	-14.8260447972331
2.248	-14.8203391811994
2.249	-14.8539167857211
2.25	-14.9238101028995
2.251	-14.7557629043643
2.252	-14.6390006353571
2.253	-14.5698495226786
2.254	-14.544855148099
2.255	-14.5607684696604
2.256	-14.6145327521567
2.257	-14.7032713480775
2.258	-14.8242762740857
2.259	-14.9749975316374
2.26	-15.1530331236655
2.261	-15.1269330561083
2.262	-15.1414239720692
2.263	-15.1934537197913
2.264	-15.2801501167579
2.265	-15.3988095406811
2.266	-15.5468862636163
2.267	-15.7219824811863
2.268	-15.9218389919906
2.269	-16.1443264851721
2.27	-16.3874373968173
2.271	-16.4388196734578
2.272	-16.5239034836936
2.273	-16.6400129262604
2.274	-16.7846286631933
2.275	-16.9553780498374
2.276	-17.150025908337
2.277	-17.3664659030007
2.278	-17.6027124786183
2.279	-17.8568933253153
2.28	-18.127242335874
2.281	-18.2039960607609
2.282	-18.3108271756713
2.283	-18.4452340398494
2.284	-18.6048612351325
2.285	-18.7874903885662
2.286	-18.9910315934256
2.287	-19.2135153899333
2.288	-19.453085269461
2.289	-19.7079906683346
2.29	-19.9765804195434
2.291	-20.0433682349892
2.292	-20.1390395478515
2.293	-20.2611225769083
2.294	-20.4072906640592
2.295	-20.5753531881648
2.296	-20.7632470710359
2.297	-20.9690288372606
2.298	-21.1908671920238
2.299	-21.4270360833858
2.3	-21.6759082176422
2.301	-21.7132938709091
2.302	-21.7799427409749
2.303	-21.8733240465303
2.304	-21.9910566148706
2.305	-22.1308995212878
2.306	-22.2907433380085
2.307	-22.468601953236
2.308	-22.6626049233967
2.309	-22.8709903240697
2.31	-23.0920980672995
2.311	-23.0927101307208
2.312	-23.1238315890595
2.313	-23.1828278512294
2.314	-23.2672211337974
2.315	-23.3746806461418
2.316	-23.5030134142254
2.317	-23.6501557016646
2.318	-23.8141649894346
2.319	-23.9932124780468
2.32	-24.1855760783596
2.321	-24.1496271083103
2.322	-24.1458023260015
2.323	-24.1713484254983
2.324	-24.2236768972631
2.325	-24.3003537043346
2.326	-24.3990896297994
2.327	-24.5177312521261
2.328	-24.6542525077296
2.329	-24.806746802754
2.33	-24.9734196385085
2.331	-24.9050445148796
2.332	-24.8704678634967
2.333	-24.8668205160986
2.334	-24.8914057595943
2.335	-24.9416885216738
2.336	-25.0152852592663
2.337	-25.1099545043805
2.338	-25.2235880247888
2.339	-25.3542025597605
2.34	-25.4999320936127
2.341	-25.4047719938789
2.342	-25.3449722385624
2.343	-25.3175598551227
2.344	-25.3197410949072
2.345	-25.3488901835374
2.346	-25.4025388021783
2.347	-25.4783662524177
2.348	-25.5741902605245
2.349	-25.6879583797093
2.35	-25.8177399516735
2.351	-25.7015888364356
2.352	-25.6221633249451
2.353	-25.5764026056788
2.354	-25.5614307509507
2.355	-25.5745451021748
2.356	-25.6132054095636
2.357	-25.6750236774657
2.358	-25.7577546696959
2.359	-25.8592870321464
2.36	-25.9776349927267
2.361	-25.8457899219903
2.362	-25.7518069485634
2.363	-25.692554270165
2.364	-25.6650894912699
2.365	-25.6666477156845
2.366	-25.6946304124584
2.367	-25.7465950051195
2.368	-25.8202451374423
2.369	-25.9134215719758
2.37	-26.0240936803765
2.371	-25.881101267235
2.372	-25.7768764187065
2.373	-25.7082324289561
2.374	-25.6721754564933
2.375	-25.6658923922591
2.376	-25.6867395155634
2.377	-25.7322318869272
2.378	-25.8000334301615
2.379	-25.8879476590918
2.38	-25.9939090072082
2.381	-25.8435092198689
2.382	-25.7325662000321
2.383	-25.6578528027891
2.384	-25.616337261128
2.385	-25.6051708901946
2.386	-25.6216765900121
2.387	-25.6633380950293
2.388	-25.7277899221908
2.389	-25.8128079723408
2.39	-25.916300742679
2.391	-25.7614601039486
2.392	-25.6465734392466
2.393	-25.5683855878229
2.394	-25.5238384794333
2.395	-25.5100587264111
2.396	-25.5243460214771
2.397	-25.5641622891852
2.398	-25.6271215422623
2.399	-25.7109803972404
2.4	-25.8136292067189
2.401	-25.6566119887284
2.402	-25.5398830229334
2.403	-25.4601693638612
2.404	-25.4143962168419
2.405	-25.399674460081
2.406	-25.4132889770218
2.407	-25.4526877466048
2.408	-25.5154716424079
2.409	-25.5993848948074
2.41	-25.7023061732605
2.411	-25.5447613732535
2.412	-25.427706811036
2.413	-25.3478598212847
2.414	-25.302136441226
2.415	-25.2876388957072
2.416	-25.3016438949763
2.417	-25.3415916926249
2.418	-25.4050758545289
2.419	-25.4898336927955
2.42	-25.5937373216845
2.421	-25.0473192048725
2.422	-24.5732106589182
2.423	-24.1662475558121
2.424	-23.8215827818292
2.425	-23.5346660186829
2.426	-23.3012248356059
2.427	-23.1172470077098
2.428	-22.9789639814288
2.429	-22.8828354129606
2.43	-22.8255347103919
2.431	-21.83557776331
2.432	-20.9520804119991
2.433	-20.1679464914583
2.434	-19.4765189048071
2.435	-18.8715514152206
2.436	-18.3471822652168
2.437	-17.8979095053923
2.438	-17.518567922303
2.439	-17.2043074622954
2.44	-16.9505730547476
2.441	-15.7397957978662
2.442	-14.6509592231725
2.443	-13.6762312440566
2.444	-12.8082656455803
2.445	-12.040170743014
2.446	-11.3654800701507
2.447	-10.7781249664868
2.448	-10.2724089408018
2.449	-9.84298369655864
2.45	-9.48482671193822
2.451	-8.35642481870272
2.452	-7.34345295919303
2.453	-6.43867453576251
2.454	-5.63530086551213
2.455	-4.92696220959743
2.456	-4.30768067924917
2.457	-3.77184489750478
2.458	-3.31418630344649
2.459	-2.92975699304037
2.46	-2.61390899749674
2.461	-1.82574997156962
2.462	-1.13049301081544
2.463	-0.522399819313948
2.464	0.00391637888935703
2.465	0.453513613619841
2.466	0.831142465450243
2.467	1.14126598083029
2.468	1.38807829454551
2.469	1.57552204284035
2.47	1.70730464516957
2.471	2.01714133730256
2.472	2.26389706928699
2.473	2.45147487528272
2.474	2.58354504472978
2.475	2.66356019712744
2.476	2.69476937623131
2.477	2.68023122688489
2.478	2.62282631362972
2.479	2.52526863642658
2.48	2.39011639525594
2.481	2.21326476576753
2.482	2.00393018295349
2.483	1.76423680653614
2.484	1.49619103931006
2.485	1.20168910048615
2.486	0.882524102172489
2.487	0.54039266104964
2.488	0.176901075234436
2.489	-0.206428905605263
2.49	-0.608154690627282
2.491	-1.13144713522402
2.492	-1.66315313962844
2.493	-2.20246484969345
2.494	-2.74860813526664
2.495	-3.3008405396012
2.496	-3.85844936902344
2.497	-4.42074991375352
2.498	-4.98708379135899
2.499	-5.55681740486722
2.5	-6.12934050807328
2.501	-6.74640941737615
2.502	-7.3618959065761
2.503	-7.97544120927212
2.504	-8.58669313717631
2.505	-9.19530586526207
2.506	-9.8009397379409
2.507	-10.4032610948165
2.508	-11.0019421146557
2.509	-11.5966606762997
2.51	-12.1871002353196
2.511	-12.6592901002213
2.512	-13.135859081964
2.513	-13.6159575954078
2.514	-14.0987758185217
2.515	-14.5835413832758
2.516	-15.0695172219371
2.517	-15.5559995586327
2.518	-16.0423160366911
2.519	-16.527823972888
2.52	-17.0119087302856
2.521	-17.2013269636857
2.522	-17.4129007728884
2.523	-17.6446218462782
2.524	-17.8945965734481
2.525	-18.1610389083315
2.526	-18.4422636990048
2.527	-18.7366804539474
2.528	-19.0427875164896
2.529	-19.3591666209998
2.53	-19.684477806067
2.531	-19.536709042703
2.532	-19.4353054145404
2.533	-19.3767684591587
2.534	-19.3578094092485
2.535	-19.3753358984725
2.536	-19.4264395316053
2.537	-19.5083842631061
2.538	-19.6185955318805
2.539	-19.7546501033501
2.54	-19.9142665731015
2.541	-19.4315358189803
2.542	-19.0203217419996
2.543	-18.6756426289008
2.544	-18.3928205046311
2.545	-18.1674617128028
2.546	-17.9954387562172
2.547	-17.8728733161092
2.548	-17.7961203740115
2.549	-17.7617533650407
2.55	-17.7665502959995
2.551	-17.239966662699
2.552	-16.7891455313939
2.553	-16.4089107298665
2.554	-16.0944017088928
2.555	-15.8410533216805
2.556	-15.6445769153349
2.557	-15.5009426496732
2.558	-15.4063629641652
2.559	-15.3572771188821
2.56	-15.3503367401153
2.561	-15.0893968391681
2.562	-14.8862814624543
2.563	-14.7369235123993
2.564	-14.6375003602887
2.565	-14.5844182355165
2.566	-14.5742976293845
2.567	-14.6039596479496
2.568	-14.6704132526341
2.569	-14.7708433312672
2.57	-14.9025995459172
2.571	-14.8151729217723
2.572	-14.7730942284415
2.573	-14.7730381531526
2.574	-14.8118766031407
2.575	-14.8866661694773
2.576	-14.9946364068867
2.577	-15.1331788768421
2.578	-15.2998369046248
2.579	-15.4922960042129
2.58	-15.7083749278335
2.581	-15.7288948445971
2.582	-15.7860526775166
2.583	-15.8770154791867
2.584	-15.9991165649006
2.585	-16.1498450031158
2.586	-16.3268357908387
2.587	-16.5278606696603
2.588	-16.7508195410231
2.589	-16.9937324419712
2.59	-17.2547320451294
2.591	-17.324061130517
2.592	-17.4249084208593
2.593	-17.5547068690233
2.594	-17.7110394347536
2.595	-17.8916296513462
2.596	-18.0943328074285
2.597	-18.317127704067
2.598	-18.5581089499871
2.599	-18.8154797600832
2.6	-19.0875452246446
2.601	-19.1620822413422
2.602	-19.2658669801328
2.603	-19.3964255415432
2.604	-19.5514288974824
2.605	-19.7286838121123
2.606	-19.9261243545898
2.607	-20.1418039653885
2.608	-20.3738880403776
2.609	-20.6206469991407
2.61	-20.8804498061772
2.611	-20.9333854905344
2.612	-21.0152767774692
2.613	-21.1236281019881
2.614	-21.2560909247551
2.615	-21.4104545314599
2.616	-21.5846374315543
2.617	-21.7766793175731
2.618	-21.9847335487589
2.619	-22.2070601250435
2.62	-22.4420191196284
2.621	-22.4606646480424
2.622	-22.5091593634763
2.623	-22.5849215137064
2.624	-22.6855225213194
2.625	-22.8086773987653
2.626	-22.9522357872991
2.627	-23.1141735794431
2.628	-23.2925850872024
2.629	-23.4856757207002
2.63	-23.6917551441735
2.631	-23.6731365414885
2.632	-23.6858463249647
2.633	-23.7271887398506
2.634	-23.7946289721683
2.635	-23.8857830708888
2.636	-23.9984085255978
2.637	-24.1303954572444
2.638	-24.279758382293
2.639	-24.4446285131607
2.64	-24.6232465602082
2.641	-24.5699439610872
2.642	-24.5496394114794
2.643	-24.5595185849347
2.644	-24.5969359965061
2.645	-24.6594044200409
2.646	-24.7445849934125
2.647	-24.8502779671876
2.648	-24.9744140550917
2.649	-25.1150463473209
2.65	-25.270342750254
2.651	-25.1874701210097
2.652	-25.1392237371776
2.653	-25.1226790506604
2.654	-25.1350875880964
2.655	-25.1738659038832
2.656	-25.2365852510298
2.657	-25.3209619234017
2.658	-25.4248482259189
2.659	-25.5462240320661
2.66	-25.6831888906914
2.661	-25.5765663383686
2.662	-25.5060351133263
2.663	-25.4685749464071
2.664	-25.4613478463783
2.665	-25.4816866534159
2.666	-25.5270843361715
2.667	-25.5951839843245
2.668	-25.6837694516286
2.669	-25.7907566073534
2.67	-25.9141851567419
2.671	-25.7893905290144
2.672	-25.7019350607436
2.673	-25.648719408222
2.674	-25.6268315716032
2.675	-25.6335351210645
2.676	-25.6662581876758
2.677	-25.7225831695197
2.678	-25.8002371067921
2.679	-25.8970826825964
2.68	-26.0111098089336
2.681	-25.873062928249
2.682	-25.7733709083275
2.683	-25.7088718993341
2.684	-25.6765953546129
2.685	-25.6737500002132
2.686	-25.6977125857064
2.687	-25.7460173657679
2.688	-25.8163462652541
2.689	-25.9065196835526
2.69	-26.0144878968314
2.691	-25.8673156662923
2.692	-25.7592894162779
2.693	-25.6872000928659
2.694	-25.6480328991472
2.695	-25.6389550726132
2.696	-25.6573044562657
2.697	-25.7005788121224
2.698	-25.7664258291008
2.699	-25.8526337803536
2.7	-25.9571227880295
2.701	-25.8041573232809
2.702	-25.6909246378512
2.703	-25.6141819033269
2.704	-25.5708826312649
2.705	-25.5581643144978
2.706	-25.5733368709814
2.707	-25.6138718382895
2.708	-25.6773922702042
2.709	-25.7616632899832
2.71	-25.8645832578076
2.711	-25.7084181750243
2.712	-25.592395473042
2.713	-25.51324983885
2.714	-25.4679136586507
2.715	-25.4535045698172
2.716	-25.4673138211959
2.717	-25.506795389486
2.718	-25.5695558027951
2.719	-25.6533446256235
2.72	-25.756045562477
2.721	-25.5986166418542
2.722	-25.4815926488855
2.723	-25.4016948832972
2.724	-25.3558431264609
2.725	-25.3411431413686
2.726	-25.3548749843434
2.727	-25.394482075996
2.728	-25.457560982325
2.729	-25.5418518600227
2.73	-25.6452295230065
2.731	-25.3394220158804
2.732	-25.0866533706867
2.733	-24.8828969508581
2.734	-24.7243714652517
2.735	-24.6075254169703
2.736	-24.5290225613118
2.737	-24.4857283076444
2.738	-24.4746970042031
2.739	-24.4931600487391
2.74	-24.5385147716284
2.741	-23.7232702570133
2.742	-23.0012847661102
2.743	-22.3661892437237
2.744	-21.8120077109287
2.745	-21.3331320772977
2.746	-20.924298585272
2.747	-20.5805657813373
2.748	-20.297293915456
2.749	-20.0701256765616
2.75	-19.8949681778628
2.751	-18.748932416524
2.752	-17.7205812165377
2.753	-16.8022453280914
2.754	-15.9867309554481
2.755	-15.2672891362922
2.756	-14.6375871043073
2.757	-14.0916815070558
2.758	-13.6239933594779
2.759	-13.2292846210449
2.76	-12.9026362918156
2.761	-11.6990804016031
2.762	-10.6164295918614
2.763	-9.64703016091716
2.764	-8.78370297505524
2.765	-8.01971280703803
2.766	-7.34873966048002
2.767	-6.76485195202306
2.768	-6.26248143151218
2.769	-5.83639972809457
2.77	-5.48169641738895
2.771	-4.51593201841035
2.772	-3.65456983682861
2.773	-2.89112664423945
2.774	-2.21951875712758
2.775	-1.63403616714991
2.776	-1.12931834805167
2.777	-0.70033163112362
2.778	-0.342348048077009
2.779	-0.0509255467299467
2.78	0.178110509001989
2.781	0.711899417576086
2.782	1.1687576679967
2.783	1.55342628069516
2.784	1.87035925019181
2.785	2.12374214500786
2.786	2.31750949973874
2.787	2.4553610771518
2.788	2.54077707315308
2.789	2.57703233277403
2.79	2.56720964093671
2.791	2.60070945645677
2.792	2.58830715518375
2.793	2.53289500857099
2.794	2.43719797080654
2.795	2.30378449119977
2.796	2.13507662079753
2.797	1.93335945874188
2.798	1.70078998094993
2.799	1.43940529095402
2.8	1.15113033017463
2.801	0.756414211021097
2.802	0.343844897758761
2.803	-0.0852666205564045
2.804	-0.529674978387692
2.805	-0.988196279699654
2.806	-1.45970422011648
2.807	-1.94312646740698
2.808	-2.4374412835941
2.809	-2.94167437306058
2.81	-3.45489594202669
2.811	-4.06376265371747
2.812	-4.67347173561394
2.813	-5.28358646119705
2.814	-5.89368084404782
2.815	-6.50333912055352
2.816	-7.11215527354292
2.817	-7.71973259413058
2.818	-8.32568327922253
2.819	-8.92962806229626
2.82	-9.53119587521966
2.821	-10.0922900241352
2.822	-10.6532785053224
2.823	-11.2136365635637
2.824	-11.7728576937649
2.825	-12.3304527039399
2.826	-12.8859488453597
2.827	-13.4388890054288
2.828	-13.9888309591312
2.829	-14.5353466751543
2.83	-15.0780216730476
2.831	-15.4051995998811
2.832	-15.7454315924861
2.833	-16.0972907076002
2.834	-16.4594273060884
2.835	-16.8305643303783
2.836	-17.2094928928166
2.837	-17.5950681547739
2.838	-17.9862054776263
2.839	-18.3818768279555
2.84	-18.7811074204464
2.841	-18.7878860987033
2.842	-18.8296842684988
2.843	-18.9036935618977
2.844	-19.0072714220639
2.845	-19.1379306573563
2.846	-19.2933296757288
2.847	-19.4712633554459
2.848	-19.6696545109628
2.849	-19.8865459154675
2.85	-20.1200928440628
2.851	-19.7834901143625
2.852	-19.5073960645816
2.853	-19.2874697047431
2.854	-19.1196331853812
2.855	-19.000055026347
2.856	-18.9251344345466
2.857	-18.89148664029
2.858	-18.8959291864634
2.859	-18.9354691089762
2.86	-19.007290950902
2.861	-18.388604865428
2.862	-17.8517013847013
2.863	-17.3910213416323
2.864	-17.0013458555033
2.865	-16.677774518477
2.866	-16.4157049968856
2.867	-16.2108139559946
2.868	-16.0590392228181
2.869	-15.956563107073
2.87	-15.8997968055045
2.871	-15.5784094489975
2.872	-15.3189411351761
2.873	-15.1170715798225
2.874	-14.968741205795
2.875	-14.8701344802767
2.876	-14.8176643344656
2.877	-14.8079575958242
2.878	-14.8378413675123
2.879	-14.904330293839
2.88	-15.0046146545111
2.881	-14.8725814011536
2.882	-14.7891369345371
2.883	-14.7507634470474
2.884	-14.7541525988958
2.885	-14.7961921848669
2.886	-14.8739536685366
2.887	-14.9846805279346
2.888	-15.1257773602347
2.889	-15.2947996964321
2.89	-15.4894444801288
2.891	-15.4830285181753
2.892	-15.5154714117507
2.893	-15.5838147727019
2.894	-15.6852743457373
2.895	-15.8172289836059
2.896	-15.9772103405288
2.897	-16.1628932374667
2.898	-16.372086655798
2.899	-16.6027253187792
2.9	-16.8528618227764
2.901	-16.9102622458244
2.902	-17.0004873083059
2.903	-17.1209020713965
2.904	-17.2690257389724
2.905	-17.4425219504769
2.906	-17.6391897066618
2.907	-17.8569548872832
2.908	-18.0938623224632
2.909	-18.3480683819004
2.91	-18.6178340484155
2.911	-18.6913042433963
2.912	-18.7946106307961
2.913	-18.9252548861561
2.914	-19.0808848977838
2.915	-19.2592855952814
2.916	-19.4583703760066
2.917	-19.6761730907852
2.918	-19.9108405526894
2.919	-20.1606255350253
2.92	-20.4238802268543
2.921	-20.4822937274964
2.922	-20.5697581882445
2.923	-20.6837822105456
2.924	-20.82202095148
2.925	-20.9822669490063
2.926	-21.1624415449955
2.927	-21.3605868673758
2.928	-21.5748583352025
2.929	-21.8035176527972
2.93	-22.0449262612844
2.931	-22.0720955999186
2.932	-22.1289143594335
2.933	-22.2128210123653
2.934	-22.3214057449615
2.935	-22.452400963314
2.936	-22.6036724175778
2.937	-22.7732109042812
2.938	-22.9591245093128
2.939	-23.1596313565796
2.94	-23.3730528295859
2.941	-23.3636574703247
2.942	-23.385242502281
2.943	-23.4351394761435
2.944	-23.5108390119345
2.945	-23.6099808397966
2.946	-23.7303444886711
2.947	-23.8698405809483
2.948	-24.0265026938729
2.949	-24.1984797510124
2.95	-24.3840289094634
2.951	-24.3393262725771
2.952	-24.3272215362484
2.953	-24.3449291084282
2.954	-24.3898303163279
2.955	-24.4594629464303
2.956	-24.551511464556
2.957	-24.6637978719913
2.958	-24.7942731565162
2.959	-24.9410092998238
2.96	-25.1021918053049
2.961	-25.0266916745117
2.962	-24.9854224038096
2.963	-24.9754864329032
2.964	-24.9941604999003
2.965	-25.0388847082624
2.966	-25.1072523042499
2.967	-25.1970001189028
2.968	-25.3059996315592
2.969	-25.4322486146825
2.97	-25.5738633223645
2.971	-25.4732097046814
2.972	-25.4082875547352
2.973	-25.3761002756306
2.974	-25.3738320104694
2.975	-25.3988362948227
2.976	-25.4486254464069
2.977	-25.5208606442785
2.978	-25.6133426529383
2.979	-25.7240031496103
2.98	-25.8508966156498
2.981	-25.7307140316758
2.982	-25.6475608979467
2.983	-25.598357617848
2.984	-25.5802106705383
2.985	-25.5904009189932
2.986	-25.6263726774719
2.987	-25.6857234892927
2.988	-25.7661945689649
2.989	-25.8656618656885
2.99	-25.9821277080041
2.991	-25.8474833416056
2.992	-25.7509392659976
2.993	-25.6893493923687
2.994	-25.6597579342945
2.995	-25.6593874420906
2.996	-25.6856276142672
2.997	-25.736024835832
2.998	-25.8082723964219
2.999	-25.9002013442792
3	-26.009771934919
3.001	-25.8649762803352
3.002	-25.7591264204809
3.003	-25.6890253237245
3.004	-25.6516694610506
3.005	-25.6442366324817
3.006	-25.6640745840507
3.007	-25.7086903642023
3.008	-25.7757403717949
3.009	-25.8630210509593
3.01	-25.9684601909502
3.011	-25.8170338167195
3.012	-25.7051902327574
3.013	-25.6296953104478
3.014	-25.5875107227393
3.015	-25.5757816205916
3.016	-25.5918251096876
3.017	-25.6331194756624
3.018	-25.6972941094356
3.019	-25.7821200873565
3.02	-25.8855013637846
3.021	-25.7302165044083
3.022	-25.6149680688091
3.023	-25.536496621276
3.024	-25.4917400682561
3.025	-25.4778212337504
3.026	-25.4920362415329
3.027	-25.5318436520217
3.028	-25.5948543049967
3.029	-25.678821822498
3.03	-25.7816337291881
3.031	-25.6245879140153
3.032	-25.5078779615171
3.033	-25.4282287532319
3.034	-25.3825634411772
3.035	-25.3679909618187
3.036	-25.3817943608615
3.037	-25.4214198764361
3.038	-25.48446673163
3.039	-25.5686775904767
3.04	-25.6719296344741
3.041	-25.5146328409725
3.042	-25.3978473420531
3.043	-25.3182898486491
3.044	-25.2728757978972
3.045	-25.2587068363674
3.046	-25.2730591161301
3.047	-25.3133723511015
3.048	-25.3772395844996
3.049	-25.462397621409
3.05	-25.5667180834176
3.051	-24.9306502052973
3.052	-24.3738141478808
3.053	-23.8906389282582
3.054	-23.4758962998545
3.055	-23.1246788575335
3.056	-22.8323795619572
3.057	-22.5946725915735
3.058	-22.4074954365111
3.059	-22.267032154183
3.06	-22.169697711573
3.061	-21.1196428195285
3.062	-20.1803965922121
3.063	-19.3446270829931
3.064	-18.6054563926845
3.065	-17.9564314758932
3.066	-17.3914968383962
3.067	-16.9049690035391
3.068	-16.4915126335196
3.069	-16.1461181987763
3.07	-15.8640810955856
3.071	-14.6359918958347
3.072	-13.5244148954061
3.073	-12.5218893118241
3.074	-11.6214236061793
3.075	-10.8164652065296
3.076	-10.1008721877691
3.077	-9.46888678178741
3.078	-8.91511059987971
3.079	-8.43448145697763
3.08	-8.02225169439328
3.081	-6.87989828219331
3.082	-5.83935989185627
3.083	-4.89418764224428
3.084	-4.0383429991951
3.085	-3.26617128861549
3.086	-2.57237691891722
3.087	-1.95200020255794
3.088	-1.40039567355825
3.089	-0.91321180451755
3.09	-0.486372032873105
3.091	0.355186855067735
3.092	1.11981647865114
3.093	1.8123706733111
3.094	2.43739334272041
3.095	2.99913846175965
3.096	3.50158878899114
3.097	3.94847337186478
3.098	4.34328392251546
3.099	4.68929013699001
3.1	4.98955402604428
3.101	5.3969150948762
3.102	5.75646800225757
3.103	6.07121143596279
3.104	6.34395327310038
3.105	6.57732289603862
3.106	6.7737827137194
3.107	6.93563893960677
3.108	7.06505167421166
3.109	7.16404433704201
3.11	7.23451248993564
3.111	7.16041326233516
3.112	7.06736309871265
3.113	6.95653534264131
3.114	6.82903081593786
3.115	6.68588250192844
3.116	6.52805992625416
3.117	6.35647325472239
3.118	6.17197712645216
3.119	5.97537423938447
3.12	5.76741870412844
3.121	5.26716432644867
3.122	4.77228520672556
3.123	4.28246032716066
3.124	3.7973938143212
3.125	3.31681331250871
3.126	2.84046846130223
3.127	2.36812947055816
3.128	1.89958578658246
3.129	1.43464484359665
3.13	0.973130894997507
3.131	0.234096933321641
3.132	-0.485464757484564
3.133	-1.18666708158241
3.134	-1.87054547670616
3.135	-2.53806294042644
3.136	-3.19011473339903
3.137	-3.82753278042553
3.138	-4.45108978880849
3.139	-5.06150310222676
3.14	-5.65943830718151
3.141	-6.37345391131162
3.142	-7.06814973501994
3.143	-7.7445249036501
3.144	-8.40350819224204
3.145	-9.04596261913407
3.146	-9.67268974461347
3.147	-10.2844336936255
3.148	-10.8818849203238
3.149	-11.4656837310989
3.15	-12.0364235816469
3.151	-12.5090950200421
3.152	-12.9754313574949
3.153	-13.4355763061257
3.154	-13.889659340445
3.155	-14.3377966717289
3.156	-14.7800921605759
3.157	-15.2166381716184
3.158	-15.6475163741104
3.159	-16.0727984918664
3.16	-16.4925470058085
3.161	-16.6027761337691
3.162	-16.7275834955205
3.163	-16.8658407990671
3.164	-17.0164891380815
3.165	-17.178534547078
3.166	-17.3510438437781
3.167	-17.5331407401397
3.168	-17.7240022047188
3.169	-17.9228550601488
3.17	-18.1289728005696
3.171	-17.8145603806206
3.172	-17.5386529859404
3.173	-17.298687750465
3.174	-17.0922654439594
3.175	-16.9171399259113
3.176	-16.7712082797354
3.177	-16.6525015834081
3.178	-16.559176275489
3.179	-16.4895060781282
3.18	-16.4418744411365
3.181	-15.7045649316273
3.182	-15.0270972625045
3.183	-14.4056001826974
3.184	-13.8364516801437
3.185	-13.3162629078434
3.186	-12.8418631465989
3.187	-12.4102857375808
3.188	-12.0187549221715
3.189	-11.6646735305722
3.19	-11.3456114644353
3.191	-10.3156400248444
3.192	-9.35700920810171
3.193	-8.46511962929821
3.194	-7.63566850789666
3.195	-6.86463053857139
3.196	-6.14823999576095
3.197	-5.48297399236702
3.198	-4.86553681816391
3.199	-4.29284528828411
3.2	-3.76201503663631
3.201	-2.82880287614053
3.202	-1.95617604138551
3.203	-1.14022718088382
3.204	-0.377300943183362
3.205	0.336022275579428
3.206	1.0029415359438
3.207	1.6264495788077
3.208	2.2093461317711
3.209	2.75425035730225
3.21	3.26361249807407
3.211	3.62088381098704
3.212	3.95350732803747
3.213	4.2630723213074
3.214	4.55106556565737
3.215	4.81887794916475
3.216	5.06781065722956
3.217	5.29908095784372
3.218	5.51382761374607
3.219	5.71311594552678
3.22	5.89794256819281
3.221	6.07163647074273
3.222	6.23254313559019
3.223	6.3814869210276
3.224	6.51923902030058
3.225	6.64652089042565
3.226	6.76400745987007
3.227	6.87233012935637
3.228	6.97207957913332
3.229	7.06380839519541
3.23	7.1480335261272
3.231	7.30522955813413
3.232	7.45151237832672
3.233	7.58758572905329
3.234	7.71410796574078
3.235	7.83169498407116
3.236	7.9409229583728
3.237	8.04233090340263
3.238	8.13642307090911
3.239	8.22367119163174
3.24	8.30451657270536
3.241	8.37440471471635
3.242	8.43895926538611
3.243	8.49852410593853
3.244	8.55342093952141
3.245	8.60395072155534
3.246	8.65039499783421
3.247	8.69301715632622
3.248	8.73206359824164
3.249	8.76776483357382
3.25	8.80033650598463
3.251	8.49541171895563
3.252	8.20590028388493
3.253	7.9308070545122
3.254	7.66920108314982
3.255	7.42021148027565
3.256	7.18302354115648
3.257	6.95687512228018
3.258	6.74105325148573
3.259	6.53489095671868
3.26	6.33776429931225
3.261	5.77268637392115
3.262	5.23602090159255
3.263	4.72593788194996
3.264	4.24072545692677
3.265	3.77878229127899
3.266	3.33861044450608
3.267	2.91880870248711
3.268	2.51806633918347
3.269	2.13515728067159
3.27	1.76893464555767
3.271	1.09673556491962
3.272	0.456972373727315
3.273	-0.152430204219952
3.274	-0.733413283897629
3.275	-1.28779247212259
3.276	-1.81726596255973
3.277	-2.32342210865998
3.278	-2.80774650819971
3.279	-3.27162863092044
3.28	-3.71636801873589
3.281	-4.30186374881098
3.282	-4.86156297050929
3.283	-5.39709703461243
3.284	-5.90999161854424
3.285	-6.40167354291914
3.286	-6.87347714848302
3.287	-7.32665026179845
3.288	-7.76235977619784
3.289	-8.18169687281704
3.29	-8.58568190492223
3.291	-8.92855546541725
3.292	-9.26061011365762
3.293	-9.58251124728268
3.294	-9.8948809485379
3.295	-10.1983007790177
3.296	-10.4933143941792
3.297	-10.7804299892494
3.298	-11.0601225874019
3.299	-11.3328361803733
3.3	-11.5989857310375
3.301	-11.6076237317976
3.302	-11.624778415679
3.303	-11.6498839780019
3.304	-11.6824109094722
3.305	-11.7218636557139
3.306	-11.7677784277522
3.307	-11.8197211537103
3.308	-11.8772855626139
3.309	-11.9400913917825
3.31	-12.0077827098371
3.311	-11.6558171933004
3.312	-11.3317184467107
3.313	-11.033686525194
3.314	-10.7600375364788
3.315	-10.5091961562369
3.316	-10.2796886261386
3.317	-10.0701362034908
3.318	-9.87924903333272
3.319	-9.70582041574427
3.32	-9.5487214428776
3.321	-8.89522745851915
3.322	-8.28399851864798
3.323	-7.71230878891045
3.324	-7.17760823444225
3.325	-6.67751128188642
3.326	-6.20978621264145
3.327	-5.77234524017915
3.328	-5.3632352273145
3.329	-4.98062900215407
3.33	-4.62281723411239
3.331	-4.45750859415319
3.332	-4.30467036962257
3.333	-4.16349819499965
3.334	-4.03323958002147
3.335	-3.91319056404915
3.336	-3.80269258620678
3.337	-3.70112955737705
3.338	-3.60792512103506
3.339	-3.52254009074148
3.34	-3.44447005290152
3.341	-3.49226065134978
3.342	-3.5399528225655
3.343	-3.5875523520136
3.344	-3.63506464588384
3.345	-3.68249475555299
3.346	-3.72984740046925
3.347	-3.77712698956079
3.348	-3.82433764126359
3.349	-3.87148320225755
3.35	-3.91856726499438
3.351	-4.03412322874905
3.352	-4.14587167224075
3.353	-4.25405699602216
3.354	-4.35890782694399
3.355	-4.46063803546499
3.356	-4.55944768735179
3.357	-4.6555239340002
3.358	-4.74904184533606
3.359	-4.84016518899928
3.36	-4.92904715927538
3.361	-5.07907446602569
3.362	-5.22366509008327
3.363	-5.36316763038504
3.364	-5.49790818513952
3.365	-5.62819180299383
3.366	-5.75430384060933
3.367	-5.87651123268209
3.368	-5.99506368005511
3.369	-6.11019476120455
3.37	-6.22212297204212
3.371	-6.40644952856226
3.372	-6.58381319079964
3.373	-6.75465948353196
3.374	-6.91940516844585
3.375	-7.07844009920022
3.376	-7.23212895684949
3.377	-7.38081287334285
3.378	-7.5248109503182
3.379	-7.66442167994322
3.38	-7.79992427412134
3.381	-8.02474760570126
3.382	-8.24080390140693
3.383	-8.4486523342193
3.384	-8.64881596515253
3.385	-8.84178407230645
3.386	-9.02801432971006
3.387	-9.20793484564342
3.388	-9.38194606950086
3.389	-9.55042257567357
3.39	-9.71371473238331
3.391	-9.98560625274024
3.392	-10.2466025697481
3.393	-10.4973952119192
3.394	-10.7386310268118
3.395	-10.970915062814
3.396	-11.1948132650719
3.397	-11.410854997547
3.398	-11.6195354024187
3.399	-11.8213176073196
3.4	-12.0166347902199
3.401	-12.340562451494
3.402	-12.651170334744
3.403	-12.9492975196339
3.404	-13.2357288341207
3.405	-13.5111983537169
3.406	-13.7763926750757
3.407	-14.031953978451
3.408	-14.2784828926515
3.409	-14.5165411752249
3.41	-14.7466542197887
3.411	-15.1232753927553
3.412	-15.4839644651597
3.413	-15.8297133333676
3.414	-16.1614497006449
3.415	-16.4800412181724
3.416	-16.7862993589959
3.417	-17.0809830421376
3.418	-17.3648020229787
3.419	-17.6384200649909
3.42	-17.9024579069154
3.421	-18.323195969589
3.422	-18.7254677120795
3.423	-19.1104013849988
3.424	-19.479052133036
3.425	-19.8324067123342
3.426	-20.1713879036397
3.427	-20.4968586408427
3.428	-20.8096258732671
3.429	-21.110444178878
3.43	-21.4000191444742
3.431	-21.8390563788741
3.432	-22.2577086516749
3.433	-22.65718322006
3.434	-23.0386090205486
3.435	-23.4030417265403
3.436	-23.7514684797066
3.437	-24.0848123162625
3.438	-24.4039363077979
3.439	-24.7096474350753
3.44	-25.0027002120174
3.441	-25.4060650392492
3.442	-25.7886814359355
3.443	-26.1517117974982
3.444	-26.4962431093946
3.445	-26.8232918259157
3.446	-27.1338084343693
3.447	-27.4286817249365
3.448	-27.7087427851848
3.449	-27.9747687369915
3.45	-28.2274862324909
3.451	-28.5029032950647
3.452	-28.7601572739612
3.453	-29.0001529453138
3.454	-29.2237368176501
3.455	-29.4317009237078
3.456	-29.6247863676872
3.457	-29.8036866437073
3.458	-29.9690507402192
3.459	-30.1214860441751
3.46	-30.2615610578653
3.461	-30.2801155743286
3.462	-30.2876224018956
3.463	-30.28443563703
3.464	-30.2708884057201
3.465	-30.2472942811306
3.466	-30.2139486094715
3.467	-30.1711297499924
3.468	-30.1191002346271
3.469	-30.0581078524602
3.47	-29.9883866638523
3.471	-29.6169539269077
3.472	-29.246951052136
3.473	-28.8778924552789
3.474	-28.5093297230308
3.475	-28.140849314718
3.476	-27.7720704106858
3.477	-27.4026428979061
3.478	-27.0322454839301
3.479	-26.660583930887
3.48	-26.2873894017594
3.481	-25.4628162220687
3.482	-24.6559799911979
3.483	-23.8654505093329
3.484	-23.0899020600686
3.485	-22.3281067657843
3.486	-21.5789283673286
3.487	-20.8413164006157
3.488	-20.1143007445088
3.489	-19.3969865160139
3.49	-18.6885492903599
3.491	-17.499153606211
3.492	-16.3427237601654
3.493	-15.2171457852839
3.494	-14.1204610983268
3.495	-13.0508564648881
3.496	-12.0066546034281
3.497	-10.9863053870073
3.498	-9.98837760418875
3.499	-9.01155124306114
3.5	-8.05461026466534
3.501	-6.74098815359667
3.502	-5.47163702556714
3.503	-4.24406775815495
3.504	-3.05596934389622
3.505	-1.90519723468166
3.506	-0.789762430229543
3.507	0.29217873727615
3.508	1.34233416720048
3.509	2.36228494504912
3.51	3.35349372685373
3.511	4.50066026157895
3.512	5.60688276816326
3.513	6.67418933819164
3.514	7.70446303961108
3.515	8.69945154478189
3.516	9.66077614369791
3.517	10.5899401819049
3.518	11.4883369600947
3.519	12.3572571299655
3.52	13.1978956187045
3.521	14.032986826721
3.522	14.8399222654907
3.523	15.6197668788698
3.524	16.3735059838441
3.525	17.1020507401536
3.526	17.8062432718145
3.527	18.4868614628397
3.528	19.1446234480203
3.529	19.7801918182807
3.53	20.3941775588635
3.531	20.920098520759
3.532	21.4326743156463
3.533	21.9319489804713
3.534	22.4179550460641
3.535	22.8907146412199
3.536	23.3502405292172
3.537	23.7965370809682
3.538	24.2296011887275
3.539	24.6494231240288
3.54	25.0559873432821
3.541	25.3441835134393
3.542	25.631723740117
3.543	25.9178072382206
3.544	26.2016773730588
3.545	26.4826191860101
3.546	26.7599570828922
3.547	27.0330526743758
3.548	27.3013027584721
3.549	27.5641374357616
3.55	27.8210183486359
3.551	27.9464504425714
3.552	28.0802083534755
3.553	28.2209835263603
3.554	28.3675455655483
3.555	28.5187375038602
3.556	28.6734713792716
3.557	28.8307240990849
3.558	28.9895335729473
3.559	29.1489950972507
3.56	29.3082579745733
3.561	29.3186969466991
3.562	29.3438452508726
3.563	29.3821508542479
3.564	29.4321571664207
3.565	29.4924970754526
3.566	29.5618873699396
3.567	29.6391235221684
3.568	29.7230748090094
3.569	29.8126797487043
3.57	29.9069418331128
3.571	29.8207660749936
3.572	29.7552711277438
3.573	29.7086851797911
3.574	29.6793472280149
3.575	29.6657000353808
3.576	29.6662835435552
3.577	29.6797287111341
3.578	29.7047517500086
3.579	29.7401487341678
3.58	29.7847905568921
3.581	29.604759542372
3.582	29.4512314042385
3.583	29.3222055384864
3.584	29.2158079450924
3.585	29.1302831115812
3.586	29.0639864204455
3.587	29.0153770466263
3.588	28.9830113134392
3.589	28.9655364773722
3.59	28.9616849140855
3.591	28.6821691487121
3.592	28.4348061703627
3.593	28.2173493039767
3.594	28.0276952646805
3.595	27.863874928849
3.596	27.7240447005375
3.597	27.606478434884
3.598	27.5095598825588
3.599	27.4317756216545
3.6	27.3717084455784
3.601	26.9870537268062
3.602	26.6396910917629
3.603	26.3271275220703
3.604	26.0470300014181
3.605	25.797215202015
3.606	25.5756398362486
3.607	25.3803916306528
3.608	25.2096808820465
3.609	25.0618325582972
3.61	24.9352789085843
3.611	24.4480056547514
3.612	24.0020608655742
3.613	23.5947436377906
3.614	23.2235269502097
3.615	22.8860464505142
3.616	22.5800899652542
3.617	22.3035876863916
3.618	22.054602990761
3.619	21.8313238516286
3.62	21.6320548041619
3.621	21.059184221684
3.622	20.5298678827027
3.623	20.0412870577731
3.624	19.5908047304925
3.625	19.1759538782464
3.626	18.7944265087749
3.627	18.444063403814
3.628	18.1228445242096
3.629	17.8288800338431
3.63	17.5604019024598
3.631	16.9354102457334
3.632	16.353779101121
3.633	15.8127108325387
3.634	15.3095882272841
3.635	14.8419628598449
3.636	14.407544206169
3.637	14.0041894599982
3.638	13.6298940059849
3.639	13.2827825072339
3.64	12.9611005676429
3.641	12.4144030167251
3.642	11.9035652041359
3.643	11.4262743738096
3.644	10.9803669281198
3.645	10.5638188080814
3.646	10.1747364939689
3.647	9.81134858634065
3.648	9.47199793003378
3.649	9.15513424611379
3.65	8.85930723901746
3.651	9.20923536589278
3.652	9.54304243213519
3.653	9.86175724925131
3.654	10.1663422011555
3.655	10.4576975284685
3.656	10.7366653365059
3.657	11.0040333447771
3.658	11.2605383946659
3.659	11.5068697308877
3.66	11.7436720713141
3.661	12.357347562584
3.662	12.9404023924433
3.663	13.4947671343099
3.664	14.0222475656
3.665	14.524532717729
3.666	15.0032024069467
3.667	15.4597342794884
3.668	15.895510402367
3.669	16.3118234291084
3.67	16.7098823678439
3.671	17.3817936205084
3.672	18.0193701824602
3.673	18.624718244259
3.674	19.1998076132034
3.675	19.7464805158985
3.676	20.2664598331452
3.677	20.7613568037629
3.678	21.2326782315956
3.679	21.6818332277426
3.68	22.1101395179885
3.681	22.7373455334825
3.682	23.3285619527943
3.683	23.8858669943308
3.684	24.4112043462857
3.685	24.906391871738
3.686	25.3731297523805
3.687	25.8130081070799
3.688	26.2275141191359
3.689	26.6180387039208
3.69	26.9858827465391
3.691	27.2368913801571
3.692	27.4616944848508
3.693	27.6615376993264
3.694	27.8375886729236
3.695	27.9909421946189
3.696	28.1226249906914
3.697	28.2336002123978
3.698	28.3247716336278
3.699	28.3969875772217
3.7	28.451044587428
3.701	27.7728612693386
3.702	27.1029294974592
3.703	26.440261017115
3.704	25.783945930289
3.705	25.1331478216713
3.706	24.4870991930272
3.707	23.8450971859305
3.708	23.206499574195
3.709	22.5707210085448
3.71	21.9372294971929
3.711	20.1030945664743
3.712	18.3443329873237
3.713	16.6562863958513
3.714	15.0346155997765
3.715	13.4752798966777
3.716	11.9745177179114
3.717	10.5288285127496
3.718	9.13495579279927
3.719	7.78987126192512
3.72	6.49075996172573
3.721	4.38244274188934
3.722	2.38449481864786
3.723	0.490550444188065
3.724	-1.30533467706108
3.725	-3.00871090430132
3.726	-4.62476040626856
3.727	-6.1583212511703
3.728	-7.61390994730559
3.729	-8.99574253413618
3.73	-10.3077543171414
3.731	-11.6919951848536
3.732	-12.9957574578072
3.733	-14.2233288790569
3.734	-15.3787171962307
3.735	-16.4656686169488
3.736	-17.4876850753255
3.737	-18.4480403860588
3.738	-19.3497953576739
3.739	-20.1958119318753
3.74	-20.9887664116386
3.741	-21.7305183783001
3.742	-22.4250667771672
3.743	-23.074536557768
3.744	-23.6809157483089
3.745	-24.2460646894744
3.746	-24.7717246724725
3.747	-25.2595260195703
3.748	-25.7109956429011
3.749	-26.1275641150129
3.75	-26.510572282473
3.751	-26.8827731177613
3.752	-27.2355921482729
3.753	-27.5693641325818
3.754	-27.8844006131231
3.755	-28.1809918156617
3.756	-28.459408426795
3.757	-28.7199032571766
3.758	-28.9627127976571
3.759	-29.1880586750687
3.76	-29.396149013952
3.761	-29.4218746745283
3.762	-29.4630526036902
3.763	-29.5178358444328
3.764	-29.5844894244501
3.765	-29.661383509947
3.766	-29.7469870039523
3.767	-29.8398615602969
3.768	-29.9386559862854
3.769	-30.0421010088197
3.77	-30.1490043803688
3.771	-29.6797655843917
3.772	-29.2691622300311
3.773	-28.9128562042838
3.774	-28.6067788805673
3.775	-28.3471139482843
3.776	-28.1302813535069
3.777	-27.9529222790412
3.778	-27.8118850967586
3.779	-27.7042122294066
3.78	-27.62712786316
3.781	-26.5662243220262
3.782	-25.599303462453
3.783	-24.7201774771612
3.784	-23.9230533236699
3.785	-23.2025072865738
3.786	-22.5534611811242
3.787	-21.9711600922537
3.788	-21.4511515500169
3.789	-20.9892660488
3.79	-20.5815988236326
3.791	-19.0111270261629
3.792	-17.556610501631
3.793	-16.210582182162
3.794	-14.9660558513657
3.795	-13.8164951318575
3.796	-12.75578447293
3.797	-11.7782020093761
3.798	-10.8783941707867
3.799	-10.0513519284288
3.8	-9.29238857408924
3.801	-7.61889723225927
3.802	-6.05715504521296
3.803	-4.59995969585232
3.804	-3.24057335487598
3.805	-1.97269272416197
3.806	-0.790421012167412
3.807	0.311758283257883
3.808	1.33900590121117
3.809	2.29614976227885
3.81	3.1877064332972
3.811	4.32466966891522
3.812	5.38776224976066
3.813	6.38174822409336
3.814	7.31108438853008
3.815	8.17994010387889
3.816	8.99221583297456
3.817	9.75156048293797
3.818	10.4613876289669
3.819	11.1248906917923
3.82	11.7450571362826
3.821	12.2928956443085
3.822	12.8045276831527
3.823	13.2822879760278
3.824	13.7283606711596
3.825	14.1447890529444
3.826	14.5334846267962
3.827	14.8962356180783
3.828	15.2347149229052
3.829	15.5504875461674
3.83	15.8450175598499
3.831	16.1516397863878
3.832	16.4379397339705
3.833	16.7052279129942
3.834	16.9547303140861
3.835	17.1875938591081
3.836	17.4048915006042
3.837	17.6076269923647
3.838	17.796739352319
3.839	17.9731070375985
3.84	18.1375518503349
3.841	17.7633333356563
3.842	17.4068934855414
3.843	17.0670772188388
3.844	16.7428040182858
3.845	16.4330631216879
3.846	16.1369090232369
3.847	15.8534572649655
3.848	15.5818804996261
3.849	15.3214048074893
3.85	15.0713062506851
3.851	14.0949801114593
3.852	13.1672390217396
3.853	12.2849504262449
3.854	11.4451844772491
3.855	10.6452009611224
3.856	9.882437067997
3.857	9.15449595018247
3.858	8.45913601846104
3.859	7.79426092867359
3.86	7.15791021407729
3.861	5.84918479124403
3.862	4.60513275661477
3.863	3.42167530583009
3.864	2.29499878185084
3.865	1.22153756455709
3.866	0.197958063640868
3.867	-0.778856256361523
3.868	-1.71181888546326
3.869	-2.60365337431939
3.87	-3.45690559527382
3.871	-4.65560084835825
3.872	-5.79624646692743
3.873	-6.88235837097975
3.874	-7.91722271505749
3.875	-8.9039107432297
3.876	-9.84529268649069
3.877	-10.7440507643267
3.878	-11.6026913482202
3.879	-12.4235563411365
3.88	-13.2088338235494
3.881	-14.0002396510764
3.882	-14.7572221520951
3.883	-15.4817262081227
3.884	-16.1755685583058
3.885	-16.8404461098906
3.886	-17.4779437131616
3.887	-18.0895414353777
3.888	-18.6766213660109
3.889	-19.2404739835074
3.89	-19.7823041118418
3.891	-20.0774493861545
3.892	-20.3687977167179
3.893	-20.6564002696465
3.894	-20.940303073896
3.895	-21.2205473764594
3.896	-21.4971699748764
3.897	-21.7702035285171
3.898	-22.0396768500051
3.899	-22.3056151780578
3.9	-22.5680404329402
3.901	-22.3089667876912
3.902	-22.079557437349
3.903	-21.8778303233109
3.904	-21.7019304834013
3.905	-21.5501218589027
3.906	-21.4207796300254
3.907	-21.3123830457322
3.908	-21.2235087160374
3.909	-21.1528243369512
3.91	-21.0990828201675
3.911	-20.2341279110445
3.912	-19.4312807387714
3.913	-18.6865308930677
3.914	-17.9961265493968
3.915	-17.3565577918293
3.916	-16.7645410114791
3.917	-16.2170043111441
3.918	-15.711073851259
3.919	-15.24406107645
3.92	-14.8134507658981
3.921	-13.9043479235693
3.922	-13.0551931325761
3.923	-12.2621200948729
3.924	-11.5215118642525
3.925	-10.8299847646914
3.926	-10.1843733458634
3.927	-9.58171630892866
3.928	-9.01924334002338
3.929	-8.49436279290767
3.93	-8.00465016600671
3.931	-7.85424880838425
3.932	-7.71787879397202
3.933	-7.59463355671394
3.934	-7.4836649793913
3.935	-7.38417962404094
3.936	-7.29543520548811
3.937	-7.21673729231475
3.938	-7.14743622059517
3.939	-7.08692420667673
3.94	-7.03463264616844
3.941	-7.17784867816169
3.942	-7.31789837421277
3.943	-7.454980435022
3.944	-7.58928069091772
3.945	-7.72097293196657
3.946	-7.85021968454744
3.947	-7.97717293784164
3.948	-8.10197482346939
3.949	-8.22475825129456
3.95	-8.34564750422433
3.951	-8.58728585429893
3.952	-8.82042619848346
3.953	-9.04560615063078
3.954	-9.26332855781596
3.955	-9.47406374271906
3.956	-9.67825160138919
3.957	-9.87630356571704
3.958	-10.0686044393413
3.959	-10.2555141151516
3.96	-10.4373691820245
3.961	-10.7363913674415
3.962	-11.0240875596774
3.963	-11.3011701693758
3.964	-11.5683055148811
3.965	-11.8261167952431
3.966	-12.0751868714827
3.967	-12.3160608684857
3.968	-12.5492486090942
3.969	-12.7752268912157
3.97	-12.994441618076
3.971	-13.347403389076
3.972	-13.6863518684589
3.973	-14.0121598364879
3.974	-14.3256435592569
3.975	-14.6275664343126
3.976	-14.9186424011611
3.977	-15.1995391318244
3.978	-15.470881015631
3.979	-15.7332519515119
3.98	-15.9871979602161
3.981	-16.3909038182933
3.982	-16.7778218277458
3.983	-17.1489814946486
3.984	-17.5053455894742
3.985	-17.8478144531002
3.986	-18.1772300251181
3.987	-18.4943796123536
3.988	-18.7999994143524
3.989	-19.0947778215065
3.99	-19.379358500484
3.991	-19.8182398135158
3.992	-20.2378246105717
3.993	-20.6392671294249
3.994	-21.0236466924503
3.995	-21.3919725430303
3.996	-21.7451883700669
3.997	-22.0841765407151
3.998	-22.4097620601563
3.999	-22.7227162760144
4	-23.0237603438841
