0	0
0.001	-0.00670631881428579
0.002	-0.0142544331829436
0.003	-0.0226503355003259
0.004	-0.0319148706497935
0.005	-0.0420820720526073
0.006	-0.0531975779512001
0.007	-0.0652622887202471
0.008	-0.0781768705574574
0.009	-0.0918451521617831
0.01	-0.106186050341576
0.011	-0.121131253866935
0.012	-0.136623262788809
0.013	-0.152613728645365
0.014	-0.169062049354258
0.015	-0.185934179681256
0.016	-0.203201624178794
0.017	-0.220840584569373
0.018	-0.238831237850048
0.019	-0.257157125035053
0.02	-0.275804633535491
0.021	-0.294762558783652
0.022	-0.314021732917607
0.023	-0.333574710210741
0.024	-0.353415500512911
0.025	-0.373539343308926
0.026	-0.393733636129105
0.027	-0.411242511659864
0.028	-0.425410014084518
0.029	-0.436749898649453
0.03	-0.445696994406489
0.031	-0.452619320889203
0.032	-0.457828344662523
0.033	-0.461587661308919
0.034	-0.464120344575362
0.035	-0.465615167296102
0.036	-0.466231867294186
0.037	-0.466105604874812
0.038	-0.465350736015826
0.039	-0.464064006308222
0.04	-0.462327254571996
0.041	-0.460209701420999
0.042	-0.4577698864946
0.043	-0.455057308292074
0.044	-0.452113812265514
0.045	-0.448974765818057
0.046	-0.445670052921219
0.047	-0.442224916042981
0.048	-0.438660668827075
0.049	-0.434994267089831
0.05	-0.431220966294816
0.051	-0.427320018946843
0.052	-0.423272857651
0.053	-0.419063318085097
0.054	-0.414677268798244
0.055	-0.410102297856379
0.056	-0.405327447609321
0.057	-0.400342990193861
0.058	-0.395140237521777
0.059	-0.38971138046191
0.06	-0.384049352738291
0.061	-0.378147715754507
0.062	-0.372000561137053
0.063	-0.365602428283609
0.064	-0.358948234619788
0.065	-0.352033216621398
0.066	-0.344852879958625
0.067	-0.33740295737203
0.068	-0.329679373104868
0.069	-0.321678212898095
0.07	-0.313395698708337
0.071	-0.304828167439616
0.072	-0.295972053090138
0.073	-0.286823871809112
0.074	-0.277380209438034
0.075	-0.267637711178208
0.076	-0.257593073083421
0.077	-0.24724303512523
0.078	-0.23658437561953
0.079	-0.225613906838114
0.08	-0.214328471658767
0.081	-0.202724941132849
0.082	-0.190800212871013
0.083	-0.178551210166226
0.084	-0.165974881789178
0.085	-0.153068202404757
0.086	-0.139828173570047
0.087	-0.126251825284431
0.088	-0.112336218071214
0.089	-0.0980784455778093
0.09	-0.0834756376883028
0.091	-0.0685249641480808
0.092	-0.0535967910281626
0.093	-0.0414076934181447
0.094	-0.033307493174999
0.095	-0.0286279344672195
0.096	-0.0267636475373838
0.097	-0.0272459503497446
0.098	-0.029714520866201
0.099	-0.0335410334674144
0.1	-0.0366139111877273
0.101	-0.0372380299363803
0.102	-0.035489513643128
0.103	-0.0317099023582065
0.104	-0.0262203154134109
0.105	-0.0193202813421158
0.106	-0.0116280209821671
0.107	-0.00492282394331811
0.108	-0.000578967875627612
0.109	0.00147564886486806
0.11	0.00159701240227694
0.111	8.48622904352503e-05
0.112	-0.00279255083746732
0.113	-0.00681954800909845
0.114	-0.0111665260049402
0.115	-0.0144006769119502
0.116	-0.015488447113607
0.117	-0.0144492859071744
0.118	-0.0115875395194128
0.119	-0.00721374202490677
0.12	-0.00216795810684278
0.121	0.0022150375240888
0.122	0.00487196338313889
0.123	0.00553050257249632
0.124	0.00447247374647541
0.125	0.00198296202253712
0.126	-0.00153981274148784
0.127	-0.00517408645154438
0.128	-0.00791994387578021
0.129	-0.00900953979688845
0.13	-0.00819081646436692
0.131	-0.00571791273104405
0.132	-0.00222923522186069
0.133	0.00132706535162153
0.134	0.00405299318098351
0.135	0.0052959176915448
0.136	0.00485185195414339
0.137	0.00296455700284526
0.138	0.000190309697021274
0.139	-0.00270889307290179
0.14	-0.00501106507976368
0.141	-0.0061545253009877
0.142	-0.00587578786832166
0.143	-0.00428791730188893
0.144	-0.00184159380852222
0.145	0.000821820371268656
0.146	0.00305626393261282
0.147	0.00434775859229164
0.148	0.00443057301738925
0.149	0.00335506929639118
0.15	0.00145373455683107
0.151	-0.000775183618500375
0.152	-0.00281022411581755
0.153	-0.00420468551238939
0.154	-0.00466496798560423
0.155	-0.00412130836208402
0.156	-0.00274244305937177
0.157	-0.000882525802217704
0.158	0.00102085766565296
0.159	0.00255494169024317
0.16	0.0034062575978393
0.161	0.00342398478850658
0.162	0.00265031567929463
0.163	0.00129663936145041
0.164	-0.000322570107776698
0.165	-0.00187066499238098
0.166	-0.00304903015520408
0.167	-0.00364185898241054
0.168	-0.0035586885618899
0.169	-0.00285089706012109
0.17	-0.00169401711879158
0.171	-0.000340926741453917
0.172	0.000938761433317503
0.173	0.00191276045144195
0.174	0.00241797100249319
0.175	0.0023860711426793
0.176	0.00185183379044651
0.177	0.000937690726812268
0.178	-0.000179211355165521
0.179	-0.00130558860510921
0.18	-0.00226093337943345
0.181	-0.00290107355887048
0.182	-0.00314078297745946
0.183	-0.00296633540729585
0.184	-0.00243420206255696
0.185	-0.00165606841350618
0.186	-0.000774320934904371
0.187	6.53856041054057e-05
0.188	0.000738871931209029
0.189	0.00115953766161747
0.19	0.00128165821614479
0.191	0.00110288243184742
0.192	0.000660754903799021
0.193	2.55620494585829e-05
0.194	-0.000708678366223014
0.195	-0.00143265947231164
0.196	-0.00203618123488003
0.197	-0.00242574521278627
0.198	-0.00254074846794672
0.199	-0.00236497447015283
0.2	-0.00193014879775955
0.201	-0.00131033355572174
0.202	-0.000608428245673198
0.203	6.20579053896009e-05
0.204	0.000597503407300026
0.205	0.00092197974989161
0.206	0.000993375681097475
0.207	0.000810922141609827
0.208	0.000416862836915444
0.209	-0.000110315057084254
0.21	-0.000668150927518596
0.211	-0.00114535062387067
0.212	-0.00144640135227969
0.213	-0.00151252831929627
0.214	-0.00133489621332294
0.215	-0.000956735951553322
0.216	-0.000463454038373889
0.217	3.68054175867716e-05
0.218	0.00043840847136245
0.219	0.000662664427132476
0.22	0.000669569619759836
0.221	0.000466309274320231
0.222	0.00010642540817829
0.223	-0.000321783495714767
0.224	-0.000712171985619681
0.225	-0.000967218332035724
0.226	-0.00102498049043398
0.227	-0.000875531538573893
0.228	-0.000563495211256648
0.229	-0.000175568883807875
0.23	0.000183545316083333
0.231	0.00042175707990999
0.232	0.000482426526827062
0.233	0.000356448293199474
0.234	8.50305593226297e-05
0.235	-0.000251249676316956
0.236	-0.000552130346581192
0.237	-0.000727754785323165
0.238	-0.000727770729631261
0.239	-0.000556902375112966
0.24	-0.000273073828786385
0.241	3.157670456988e-05
0.242	0.000261420250157518
0.243	0.000348947476895956
0.244	0.00027248182250772
0.245	6.2469203004456e-05
0.246	-0.000208090708770481
0.247	-0.000445203862307508
0.248	-0.000566759626572266
0.249	-0.000532824645346985
0.25	-0.000359687897208971
0.251	-0.000113413460837486
0.252	0.000114980278063226
0.253	0.000244730162561879
0.254	0.000233628402210417
0.255	9.09901793619827e-05
0.256	-0.000125895629226713
0.257	-0.000331481292031088
0.258	-0.000444713348799364
0.259	-0.000422737090323699
0.26	-0.000277923296984062
0.261	-7.22372786478021e-05
0.262	0.000108965095134805
0.263	0.000193810274140893
0.264	0.000151946610969178
0.265	5.10146442822546e-06
0.266	-0.00018175941331211
0.267	-0.000326162984464862
0.268	-0.000365276642880552
0.269	-0.000284279983513547
0.27	-0.000122515207554352
0.271	4.50232058535338e-05
0.272	0.000143176258035171
0.273	0.000130990878803305
0.274	1.79693496287214e-05
0.275	-0.000140534329616471
0.276	-0.000267592947470807
0.277	-0.000302283564704409
0.278	-0.000229834088076308
0.279	-8.83660343430348e-05
0.28	5.06860146638477e-05
0.281	0.000119445422605557
0.282	8.70802062262754e-05
0.283	-2.68880891167722e-05
0.284	-0.000162171892902019
0.285	-0.00024749044109651
0.286	-0.000238929140128685
0.287	-0.000143103174572778
0.288	-1.30155153611478e-05
0.289	8.12539565320236e-05
0.29	9.13527946870829e-05
0.291	1.49373348460324e-05
0.292	-0.000103908009843279
0.293	-0.000197710907269721
0.294	-0.000213866966011
0.295	-0.00014478306161636
0.296	-3.16759092953145e-05
0.297	5.98610894907425e-05
0.298	7.88233989208464e-05
0.299	1.70299771459215e-05
0.3	-8.7272262700111e-05
0.301	-0.000170874177099711
0.302	-0.000183679992007191
0.303	-0.000119274599606922
0.304	-1.82986042427391e-05
0.305	5.71551924056779e-05
0.306	6.26045056524305e-05
0.307	-2.84074795675604e-06
0.308	-9.66861420144127e-05
0.309	-0.000158714165750085
0.31	-0.000149772621242605
0.311	-7.68423984872646e-05
0.312	1.20265126754004e-05
0.313	5.96797549343719e-05
0.314	3.72786533435754e-05
0.315	-3.85403394227435e-05
0.316	-0.000116390835537605
0.317	-0.000143859605943764
0.318	-0.000103219130153764
0.319	-2.30284342632725e-05
0.32	4.19013991136419e-05
0.321	4.87215393691898e-05
0.322	-5.21024936983583e-06
0.323	-8.12989593752533e-05
0.324	-0.000125707622468219
0.325	-0.000107542577067243
0.326	-4.05487310757291e-05
0.327	2.71919920169506e-05
0.328	4.83415115347663e-05
0.329	9.67390930106671e-06
0.33	-5.96228147413669e-05
0.331	-0.000108395489471502
0.332	-0.000101023344548201
0.333	-4.36620851936853e-05
0.334	2.08028140502581e-05
0.335	4.53127336261794e-05
0.336	1.33826980112106e-05
0.337	-4.98286432635275e-05
0.338	-9.58857383168699e-05
0.339	-8.98064871525106e-05
0.34	-3.68360828707504e-05
0.341	2.20494318927678e-05
0.342	4.23712508946794e-05
0.343	1.00868961049327e-05
0.344	-4.86655201248354e-05
0.345	-8.73589642162997e-05
0.346	-7.56310938982985e-05
0.347	-2.32536030925212e-05
0.348	2.8093721718081e-05
0.349	3.86186203971128e-05
0.35	1.42825446669548e-06
0.351	-5.27945891721782e-05
0.352	-7.98392597002318e-05
0.353	-5.7933362136442e-05
0.354	-5.31870087139286e-06
0.355	3.5169889167963e-05
0.356	3.16515936980011e-05
0.357	-1.1717401507183e-05
0.358	-5.84849278891797e-05
0.359	-6.95348442233401e-05
0.36	-3.59051129568133e-05
0.361	1.40207334295983e-05
0.362	3.89397827783577e-05
0.363	1.9275344025127e-05
0.364	-2.7448370143901e-05
0.365	-6.11597854702772e-05
0.366	-5.30664320512741e-05
0.367	-1.03560954561877e-05
0.368	3.04140708375922e-05
0.369	3.52781574581851e-05
0.37	1.25643452741908e-06
0.371	-4.16636549295246e-05
0.372	-5.59295344791932e-05
0.373	-2.92213319601498e-05
0.374	1.49704273210149e-05
0.375	3.85262482026638e-05
0.376	2.20398481821649e-05
0.377	-1.91621281016019e-05
0.378	-4.83563709565704e-05
0.379	-3.95768015847286e-05
0.38	-7.90541693107549e-07
0.381	3.36637153749431e-05
0.382	3.4144328810326e-05
0.383	1.25815948526231e-06
0.384	-3.50897646672621e-05
0.385	-4.20035802668473e-05
0.386	-1.33258565493399e-05
0.387	2.50297903968688e-05
0.388	3.91583196786005e-05
0.389	1.73881263018094e-05
0.39	-1.99086677167282e-05
0.391	-3.85357018566346e-05
0.392	-2.14393703782401e-05
0.393	1.56653991090216e-05
0.394	3.93038967175796e-05
0.395	2.89111325588731e-05
0.396	-5.19142632238179e-06
0.397	-3.13519357557634e-05
0.398	-2.5301691196411e-05
0.399	7.30160373141331e-06
0.4	3.65715129541089e-05
0.401	3.64089913509336e-05
0.402	7.86035273347974e-06
0.403	-2.2209159726394e-05
0.404	-2.56643202762863e-05
0.405	7.0639048999066e-07
0.406	3.24280551819989e-05
0.407	4.07445611512181e-05
0.408	1.8839331358822e-05
0.409	-1.23188917108275e-05
0.41	-2.33897261187055e-05
0.411	-3.93437166401611e-06
0.412	2.78208758677234e-05
0.413	4.27399730851263e-05
0.414	2.77621563277153e-05
0.415	-2.42406006756291e-06
0.416	-1.92293123778553e-05
0.417	-6.72480461683111e-06
0.418	2.33000704141229e-05
0.419	4.30525331789888e-05
0.42	3.48176204978401e-05
0.421	7.06479902212731e-06
0.422	-1.37558471818289e-05
0.423	-7.87347535813332e-06
0.424	1.91535855842417e-05
0.425	4.21537850175402e-05
0.426	4.02270132555116e-05
0.427	1.59506692154476e-05
0.428	-7.37299460196184e-06
0.429	-7.59032164987516e-06
0.43	1.55225916653734e-05
0.431	4.03608202426131e-05
0.432	4.41753063453731e-05
0.433	2.41366758295669e-05
0.434	-3.55224559600575e-07
0.435	-6.03616077310409e-06
0.436	1.24883420810629e-05
0.437	3.78830079983405e-05
0.438	4.67818312335777e-05
0.439	3.15467033869532e-05
0.44	7.10213985954944e-06
0.441	-3.31455552921023e-06
0.442	1.01299379571818e-05
0.443	3.48755705762982e-05
0.444	4.81044477936843e-05
0.445	3.8080069588553e-05
0.446	1.48440667375183e-05
0.447	5.15161668934727e-07
0.448	8.56740836419068e-06
0.449	3.1500942307805e-05
0.45	4.81634878921056e-05
0.451	4.35769404758535e-05
0.452	2.26818481496305e-05
0.453	5.40027333645332e-06
0.454	7.95347979881678e-06
0.455	2.7961600209736e-05
0.456	4.69891656694199e-05
0.457	4.78389605955143e-05
0.458	3.03648447569915e-05
0.459	1.12744082338412e-05
0.46	8.44242753864077e-06
0.461	2.44784035091095e-05
0.462	4.46361385741667e-05
0.463	5.06709186869347e-05
0.464	3.76114327873822e-05
0.465	1.80350661098394e-05
0.466	1.02193077827217e-05
0.467	2.13531179679982e-05
0.468	4.12192813275813e-05
0.469	5.18548222965265e-05
0.47	4.40403113908527e-05
0.471	2.54822230193463e-05
0.472	1.34618382519602e-05
0.473	1.8985776575664e-05
0.474	3.69758306785484e-05
0.475	5.12046183056281e-05
0.476	4.91677964060688e-05
0.477	3.32559788684128e-05
0.478	1.82702338555607e-05
0.479	1.78603877338535e-05
0.48	3.23256962470597e-05
0.481	4.86535118871534e-05
0.482	5.24451761733657e-05
0.483	4.07850490487804e-05
0.484	2.45652808988361e-05
0.485	1.84809074285919e-05
0.486	2.79079627187734e-05
0.487	4.43682174118554e-05
0.488	5.33545402030405e-05
0.489	4.72749282649509e-05
0.49	3.19686613344805e-05
0.491	2.12417508003437e-05
0.492	2.45586443081078e-05
0.493	3.88656503308438e-05
0.494	5.15730888388313e-05
0.495	5.17757663723306e-05
0.496	3.97030142093753e-05
0.497	2.62332836953767e-05
0.498	2.3187824148202e-05
0.499	3.30803801650813e-05
0.5	4.71901150474904e-05
0.501	5.33691192053177e-05
0.502	4.65776546215765e-05
0.503	3.30190467136421e-05
0.504	2.45269789971476e-05
0.505	2.83053863302865e-05
0.506	4.09141931290158e-05
0.507	5.14840278723339e-05
0.508	5.11433163814939e-05
0.509	4.04759511107369e-05
0.51	2.87655378893165e-05
0.511	2.59269555502317e-05
0.512	3.41509120325018e-05
0.513	4.62831032783245e-05
0.514	5.20769171417079e-05
0.515	4.68399166630995e-05
0.516	3.51855015138514e-05
0.517	2.69293953071292e-05
0.518	2.87985320713141e-05
0.519	3.89553739336412e-05
0.52	4.87637419999409e-05
0.521	5.00991239200943e-05
0.522	4.20085016410443e-05
0.523	3.12791471180351e-05
0.524	2.66591219486301e-05
0.525	3.16645520501702e-05
0.526	4.18759110479283e-05
0.527	4.87629022763725e-05
0.528	4.67148702142928e-05
0.529	3.74839885749212e-05
0.53	2.85488406852052e-05
0.531	2.69286894074294e-05
0.532	3.35708859905415e-05
0.533	4.27802717382353e-05
0.534	4.69671483351031e-05
0.535	4.27456924996239e-05
0.536	3.34906775384947e-05
0.537	2.64534262397198e-05
0.538	2.69128953378495e-05
0.539	3.40791474912339e-05
0.54	4.19055403541591e-05
0.541	4.39950529163013e-05
0.542	3.86140571504989e-05
0.543	2.98959313427827e-05
0.544	2.44368236280712e-05
0.545	2.6097104559919e-05
0.546	3.31008275541445e-05
0.547	3.9588752103914e-05
0.548	4.02641048409258e-05
0.549	3.44451617823593e-05
0.55	2.6437788752276e-05
0.551	2.20798784113518e-05
0.552	2.42382011285125e-05
0.553	3.0724396634596e-05
0.554	3.61216910563233e-05
0.555	3.59927274810046e-05
0.556	3.01995434726643e-05
0.557	2.28655501300357e-05
0.558	1.91346099550627e-05
0.559	2.1279858062162e-05
0.56	2.70985525591683e-05
0.561	3.17046931812004e-05
0.562	3.12563493700124e-05
0.563	2.57749444329547e-05
0.564	1.90003233116465e-05
0.565	1.55012695340351e-05
0.566	1.72779979148441e-05
0.567	2.23765346769045e-05
0.568	2.64559404829501e-05
0.569	2.6048343316043e-05
0.57	2.10643050821968e-05
0.571	1.47443240894329e-05
0.572	1.11889138733612e-05
0.573	1.23531416708622e-05
0.574	1.67031959141806e-05
0.575	2.04427121420769e-05
0.576	2.03269923485516e-05
0.577	1.59794174877659e-05
0.578	1.00649661380348e-05
0.579	6.27783638385004e-06
0.58	6.6655457164333e-06
0.581	1.02241093606348e-05
0.582	1.37162802817947e-05
0.583	1.40474133124013e-05
0.584	1.04552330379981e-05
0.585	4.97043922542684e-06
0.586	8.8803887043909e-07
0.587	4.02333304116986e-07
0.588	3.10093402056122e-06
0.589	6.34268213606237e-06
0.59	7.18390846743411e-06
0.591	4.44771926111365e-06
0.592	-5.13917319144852e-07
0.593	-4.83073523926958e-06
0.594	-6.13855929632035e-06
0.595	-4.28231595173134e-06
0.596	-1.36168628017685e-06
0.597	-1.65573976862454e-07
0.598	-2.17704520599771e-06
0.599	-6.57263803072183e-06
0.6	-1.08826349712876e-05
0.601	-1.27846686208688e-05
0.602	-1.17285154097591e-05
0.603	-9.25961106679196e-06
0.604	-7.86413186260049e-06
0.605	-9.19870945537138e-06
0.606	-1.29632342807939e-05
0.607	-1.71776649346977e-05
0.608	-1.96174206413824e-05
0.609	-1.93668781258705e-05
0.61	-1.74089135290822e-05
0.611	-1.58780143801884e-05
0.612	-1.65435110859313e-05
0.613	-1.959952782149e-05
0.614	-2.35850830285766e-05
0.615	-2.6447499559823e-05
0.616	-2.69751526771334e-05
0.617	-2.56011881201168e-05
0.618	-2.40494668117819e-05
0.619	-2.41079329981186e-05
0.62	-2.6401504439999e-05
0.621	-3.00039745997349e-05
0.622	-3.31235614696723e-05
0.623	-3.43552503172528e-05
0.624	-3.36255374187022e-05
0.625	-3.21970822967366e-05
0.626	-3.17638791129671e-05
0.627	-3.32847273267767e-05
0.628	-3.63566039676133e-05
0.629	-3.9533773620315e-05
0.63	-4.13426894900759e-05
0.631	-4.12807336792609e-05
0.632	-4.0123565628214e-05
0.633	-3.93576369884796e-05
0.634	-4.01520039413628e-05
0.635	-4.25795839872345e-05
0.636	-4.56042643259824e-05
0.637	-4.78158105985393e-05
0.638	-4.83917571281189e-05
0.639	-4.7631207549248e-05
0.64	-4.67164039955614e-05
0.641	-4.68889103388825e-05
0.642	-4.86137309834156e-05
0.643	-5.12926351120546e-05
0.644	-5.37000914031527e-05
0.645	-5.48250346896761e-05
0.646	-5.4540918136059e-05
0.647	-5.36613636009653e-05
0.648	-5.33649702394445e-05
0.649	-5.43951801655895e-05
0.65	-5.65774525923546e-05
0.651	-5.89655162627212e-05
0.652	-6.04979837187658e-05
0.653	-6.0710197399505e-05
0.654	-6.00247452750002e-05
0.655	-5.94409975597232e-05
0.656	-5.98504847966197e-05
0.657	-6.14464719967955e-05
0.658	-6.36176348320916e-05
0.659	-6.5380602203402e-05
0.66	-6.60459439520977e-05
0.661	-6.5667141776693e-05
0.662	-6.49812402723215e-05
0.663	-6.4897239148376e-05
0.664	-6.58867972342936e-05
0.665	-6.7684945968316e-05
0.666	-6.94893337196412e-05
0.667	-7.05096207231914e-05
0.668	-7.04913024026643e-05
0.669	-6.98674711947511e-05
0.67	-6.94499459940046e-05
0.671	-6.98793189896074e-05
0.672	-7.12060002192594e-05
0.673	-7.28754664426345e-05
0.674	-7.41144716258635e-05
0.675	-7.44497411653278e-05
0.676	-7.4011705533672e-05
0.677	-7.34292461120889e-05
0.678	-7.3398161916205e-05
0.679	-7.42190993577863e-05
0.68	-7.5611304160228e-05
0.681	-7.69164255559618e-05
0.682	-7.75452928888365e-05
0.683	-7.73648750693745e-05
0.684	-7.6771859247593e-05
0.685	-7.64142842284432e-05
0.686	-7.67561413030915e-05
0.687	-7.77771601939703e-05
0.688	-7.90014315094067e-05
0.689	-7.9825501460018e-05
0.69	-7.99201536695326e-05
0.691	-7.94388021456705e-05
0.692	-7.89014015518674e-05
0.693	-7.88406870173564e-05
0.694	-7.94512155923854e-05
0.695	-8.04720633712508e-05
0.696	-8.13728584209139e-05
0.697	-8.17110983976077e-05
0.698	-8.14203666178459e-05
0.699	-8.08422557250221e-05
0.7	-8.04892618441189e-05
0.701	-8.07030135856479e-05
0.702	-8.14355548951484e-05
0.703	-8.22932194076698e-05
0.704	-8.28058348140148e-05
0.705	-8.27374732651487e-05
0.706	-8.22337510472115e-05
0.707	-8.17144920500779e-05
0.708	-8.15903222860515e-05
0.709	-8.19944119850868e-05
0.71	-8.27043409080686e-05
0.711	-8.32989430659126e-05
0.712	-8.34399325945201e-05
0.713	-8.30902758433005e-05
0.714	-8.25288482735331e-05
0.715	-8.21585477170927e-05
0.716	-8.22398230518884e-05
0.717	-8.27257305716644e-05
0.718	-8.33025415313271e-05
0.719	-8.36026050203831e-05
0.72	-8.34452596657487e-05
0.721	-8.29482790516423e-05
0.722	-8.24418368465807e-05
0.723	-8.22475116840637e-05
0.724	-8.24702311692516e-05
0.725	-8.29375319785219e-05
0.726	-8.33204259692577e-05
0.727	-8.33514476300534e-05
0.728	-8.29955869788845e-05
0.729	-8.24653340318893e-05
0.73	-8.20755354451475e-05
0.731	-8.20372209567877e-05
0.732	-8.23253311574845e-05
0.733	-8.27028643503036e-05
0.734	-8.28804048539356e-05
0.735	-8.27037921493634e-05
0.736	-8.22485334837086e-05
0.737	-8.17637845113017e-05
0.738	-8.15071560372749e-05
0.739	-8.15799112884319e-05
0.74	-8.18677957357128e-05
0.741	-8.2121403822577e-05
0.742	-8.21197793100525e-05
0.743	-8.18100838718694e-05
0.744	-8.13354469444416e-05
0.745	-8.0937463393882e-05
0.746	-8.07998159584322e-05
0.747	-8.09342173599958e-05
0.748	-8.11791793752237e-05
0.749	-8.13081187803766e-05
0.75	-8.1174504629189e-05
0.751	-8.08012789693668e-05
0.752	-8.03604971723049e-05
0.753	-8.00602021353569e-05
0.754	-8.00130007836408e-05
0.755	-8.01692504446283e-05
0.756	-8.03540346028253e-05
0.757	-8.03807848176463e-05
0.758	-8.01678092471336e-05
0.759	-7.97852320829628e-05
0.76	-7.94060337308e-05
0.761	-7.91953627795605e-05
0.762	-7.92089980675703e-05
0.763	-7.9363185630732e-05
0.764	-7.94914782418221e-05
0.765	-7.94500800940234e-05
0.766	-7.92051228232227e-05
0.767	-7.88492525526374e-05
0.768	-7.85403778644778e-05
0.769	-7.84031723960465e-05
0.77	-7.8454767457381e-05
0.771	-7.85986488980317e-05
0.772	-7.86875117774199e-05
0.773	-7.86141516131433e-05
0.774	-7.83744450645329e-05
0.775	-7.80658150358882e-05
0.776	-7.78249483514015e-05
0.777	-7.7744692084325e-05
0.778	-7.78206058611453e-05
0.779	-7.79576195961695e-05
0.78	-7.80301269999173e-05
0.781	-7.79575317565451e-05
0.782	-7.77499675574944e-05
0.783	-7.74986675671219e-05
0.784	-7.73192041156889e-05
0.785	-7.72830107386158e-05
0.786	-7.73776880712562e-05
0.787	-7.75178212550909e-05
0.788	-7.75976288978075e-05
0.789	-7.75529935309605e-05
0.79	-7.73966603606624e-05
0.791	-7.72076776409669e-05
0.792	-7.70833656152936e-05
0.793	-7.70830884909701e-05
0.794	-7.71962436174611e-05
0.795	-7.73514231668937e-05
0.796	-7.74595017171142e-05
0.797	-7.74646521356503e-05
0.798	-7.73742316635406e-05
0.799	-7.72518907548037e-05
0.8	-7.71796425045324e-05
0.801	-7.72115838002518e-05
0.802	-7.73453325495499e-05
0.803	-7.75260103741404e-05
0.804	-7.76788607285139e-05
0.805	-7.77511148772891e-05
0.806	-7.77397690986392e-05
0.807	-7.7690936157393e-05
0.808	-7.7672665173667e-05
0.809	-7.77373358460398e-05
0.81	-7.78943972804536e-05
0.811	-7.8107460328547e-05
0.812	-7.83159353661134e-05
0.813	-7.84683603064495e-05
0.814	-7.8549153189833e-05
0.815	-7.85850909328367e-05
0.816	-7.86292808133693e-05
0.817	-7.87322791456768e-05
0.818	-7.89160961124358e-05
0.819	-7.9164353783745e-05
0.82	-7.94327123778693e-05
0.821	-7.96730269750912e-05
0.822	-7.98581030104772e-05
0.823	-7.99944535726516e-05
0.824	-8.0117339194774e-05
0.825	-8.02716582006813e-05
0.826	-8.04891096719551e-05
0.827	-8.07732245753368e-05
0.828	-8.10991915595194e-05
0.829	-8.14276421000626e-05
0.83	-8.17247614640637e-05
0.831	-8.1978516771164e-05
0.832	-8.22033737192251e-05
0.833	-8.24319607551915e-05
0.834	-8.26985228956634e-05
0.835	-8.30225996295564e-05
0.836	-8.34006661545317e-05
0.837	-8.38091650450234e-05
0.838	-8.4216752367694e-05
0.839	-8.45994243506842e-05
0.84	-8.49513037562977e-05
0.841	-8.52863947069515e-05
0.842	-8.56311111746555e-05
0.843	-8.601161997146e-05
0.844	-8.64421003285987e-05
0.845	-8.69191559046412e-05
0.846	-8.74244591864137e-05
0.847	-8.79338739248059e-05
0.848	-8.84285568765186e-05
0.849	-8.89030081796527e-05
0.85	-8.93667633214967e-05
0.851	-8.98394460446816e-05
0.852	-9.03417995875566e-05
0.853	-9.0886840596438e-05
0.854	-9.14749022780104e-05
0.855	-9.209438301927e-05
0.856	-9.272746361777e-05
0.857	-9.3358031392432e-05
0.858	-9.39783523826732e-05
0.859	-9.45918312817984e-05
0.86	-9.52110237125714e-05
0.861	-9.58520722049716e-05
0.862	-9.65280903895138e-05
0.863	-9.72442335316348e-05
0.864	-9.79962903517873e-05
0.865	-9.8773078857417e-05
0.866	-9.95614056574778e-05
0.867	-0.000100351450919023
0.868	-0.000101140459028426
0.869	-0.000101933451302161
0.87	-0.000102740928454859
0.871	-0.000103574677003948
0.872	-0.000104443410890442
0.873	-0.000105349888145811
0.874	-0.00010629044875754
0.875	-0.000107256942900369
0.876	-0.000108240147472682
0.877	-0.000109233310623402
0.878	-0.000110234541865095
0.879	-0.000111247295277117
0.88	-0.000112278938128485
0.881	-0.000113338070773517
0.882	-0.000114431636622503
0.883	-0.000115562836022765
0.884	-0.000116730486461214
0.885	-0.000117929918839854
0.886	-0.000119154973163282
0.887	-0.000120400331610981
0.888	-0.000121663388886195
0.889	-0.000122945089624182
0.89	-0.000124249554940281
0.891	-0.000125582728573992
0.892	-0.000126950564045325
0.893	-0.000128357367799259
0.894	-0.000129804802696976
0.895	-0.000131291799632449
0.896	-0.00013281531965692
0.897	-0.000134371654750165
0.898	-0.000135957824143662
0.899	-0.00013757264017511
0.9	-0.00013921716013543
0.901	-0.000140894451127749
0.902	-0.000142608803068267
0.903	-0.000144364670274677
0.904	-0.000146165669967502
0.905	-0.000148013914855971
0.906	-0.000149909833426554
0.907	-0.000151852479387204
0.908	-0.000153840196983945
0.909	-0.00015587142647866
0.91	-0.000157945420037553
0.911	-0.000160062687561524
0.912	-0.000162225083505163
0.913	-0.000164435549557584
0.914	-0.000166697615577194
0.915	-0.000169014811506885
0.916	-0.000171390148276163
0.917	-0.000174623360977122
0.918	-0.000182277603888559
0.919	-0.000197938160064637
0.92	-0.000224476094275228
0.921	-0.000264113347428319
0.922	-0.000318487885244745
0.923	-0.000388717883211542
0.924	-0.00047546410126198
0.925	-0.00057898975986137
0.926	-0.000699217373757943
0.927	-0.000835782130346741
0.928	-0.000988081516739014
0.929	-0.00115532100317617
0.93	-0.00133655568120816
0.931	-0.00153072783329483
0.932	-0.00173670047719099
0.933	-0.00195328698413039
0.934	-0.0021792769155245
0.935	-0.00241345825916256
0.936	-0.00265463627392709
0.937	-0.00290164917245461
0.938	-0.00315338088485995
0.939	-0.00340877115456439
0.94	-0.00366682321992601
0.941	-0.00392660933388217
0.942	-0.00418727436843119
0.943	-0.00444803774259239
0.944	-0.00470819390172217
0.945	-0.00496711156349877
0.946	-0.00522423193188382
0.947	-0.00547906606541865
0.948	-0.00573119157064411
0.949	-0.00598024877566072
0.95	-0.00622593652304088
0.951	-0.0064680077058058
0.952	-0.0067062646551404
0.953	-0.00694055447411013
0.954	-0.00717076439799008
0.955	-0.00739681724897662
0.956	-0.007618667041217
0.957	-0.00783629478113634
0.958	-0.00804475486679657
0.959	-0.00822111207871418
0.96	-0.00834152615971165
0.961	-0.00838622028330466
0.962	-0.00833918249335214
0.963	-0.0081878610011149
0.964	-0.00792285784334312
0.965	-0.00753762482972128
0.966	-0.00702816516147245
0.967	-0.00639274358740344
0.968	-0.00563160748179276
0.969	-0.00474672078121452
0.97	-0.00374151230583677
0.971	-0.00262063961488845
0.972	-0.00138976920597736
0.973	-5.53735628489871e-05
0.974	0.001381196879741
0.975	0.00294717758039814
0.976	0.00467708357171528
0.977	0.00660354320655299
0.978	0.00875814579080342
0.979	0.0111721612555348
0.98	0.0138771547159222
0.981	0.0169055216815622
0.982	0.0201442791188266
0.983	0.0226936505221267
0.984	0.0235570742857494
0.985	0.0222650636829313
0.986	0.0190422823654427
0.987	0.0143372261820528
0.988	0.00901629748720004
0.989	0.004040334804862
0.99	0.00014685137058891
0.991	-0.00255761243395071
0.992	-0.00419861221319055
0.993	-0.00487885270181131
0.994	-0.00469926514474624
0.995	-0.00375803631269471
0.996	-0.00214977840737124
0.997	3.51474008305139e-05
0.998	0.00272347205869554
0.999	0.00589767310308216
1	0.00922438326881394
1.001	0.0118353457968326
1.002	0.0129717652642112
1.003	0.0122646265506343
1.004	0.00984987595194664
1.005	0.00630020757354875
1.006	0.00241922530229845
1.007	-0.000991359302566511
1.008	-0.00328669740825563
1.009	-0.00425454028534471
1.01	-0.0040310647207191
1.011	-0.00276250103912332
1.012	-0.000588550466863985
1.013	0.00224930626552461
1.014	0.00510064143238211
1.015	0.00722961198059403
1.016	0.00807204143753236
1.017	0.00740903704788388
1.018	0.00543095216450493
1.019	0.00265985231630748
1.02	-0.000224155905197337
1.021	-0.00256289242195062
1.022	-0.00383193167805473
1.023	-0.00376600418820566
1.024	-0.00244755993242393
1.025	-0.00026836520688478
1.026	0.00216516894048341
1.027	0.00421940767146348
1.028	0.00536367974927662
1.029	0.00531271499838987
1.03	0.00411253383480908
1.031	0.00211511832128325
1.032	-0.000142352508963883
1.033	-0.0020926323929796
1.034	-0.00325939347764329
1.035	-0.00336807581075291
1.036	-0.00242862227427271
1.037	-0.000734803853702115
1.038	0.00122786397488273
1.039	0.00292952748358699
1.04	0.00392240168587252
1.041	0.0039573150893536
1.042	0.0030568601392128
1.043	0.0014994096484483
1.044	-0.000276324014602425
1.045	-0.00180048188626558
1.046	-0.00268229917491247
1.047	-0.0027066226674638
1.048	-0.001896988857573
1.049	-0.000507690641969871
1.05	0.00105719658375653
1.051	0.00236556799141296
1.052	0.00306632414438379
1.053	0.00298491595319783
1.054	0.00217264709782566
1.055	0.000882632420113216
1.056	-0.000515026910023975
1.057	-0.00164093457325942
1.058	-0.00219949724764468
1.059	-0.00205634376531511
1.06	-0.00127672934053874
1.061	-0.000103090452458265
1.062	0.00112224827462781
1.063	0.00205718591263537
1.064	0.0024492852063972
1.065	0.00220716294724815
1.066	0.00142346374577801
1.067	0.000339186564557503
1.068	-0.000734254878813956
1.069	-0.00150314329985796
1.07	-0.00176568327403881
1.071	-0.00146675963637993
1.072	-0.000711901499858725
1.073	0.000268030506400785
1.074	0.00118901894798784
1.075	0.0017937536994303
1.076	0.0019217621751208
1.077	0.00155445662797032
1.078	0.000815471367437037
1.079	-7.26385779909466e-05
1.08	-0.000857470941769578
1.081	-0.00132585065971175
1.082	-0.00135892859431747
1.083	-0.000964168599169701
1.084	-0.000270061528146792
1.085	0.000515569336895227
1.086	0.00116794492644356
1.087	0.00150719617090456
1.088	0.00144847827924754
1.089	0.00102382724858507
1.09	0.000367648511295227
1.091	-0.000327469361367183
1.092	-0.000867999884603843
1.093	-0.00111072770255771
1.094	-0.000999991333388461
1.095	-0.000581222542837434
1.096	1.54633921096714e-05
1.097	0.000615907184153164
1.098	0.00105174644071782
1.099	0.00120654447523116
1.1	0.00104746734590078
1.101	0.000631393365340127
1.102	8.42165412550111e-05
1.103	-0.000438478018466082
1.104	-0.000795626753412715
1.105	-0.000896842545636489
1.106	-0.000725319360530774
1.107	-0.000340058096295448
1.108	0.000143716927242798
1.109	0.000588959249938625
1.11	0.000874487867157825
1.111	0.000927654228018437
1.112	0.000742812065423704
1.113	0.000379802043230626
1.114	-5.61208951588288e-05
1.115	-0.00044573106303647
1.116	-0.00068816230999591
1.117	-0.000725819863835686
1.118	-0.000558116441949807
1.119	-0.000239341875541532
1.12	0.000138523787701739
1.121	0.00047210153621069
1.122	0.000673984452582266
1.123	0.000695385124813153
1.124	0.000537545851035937
1.125	0.000248860291039876
1.126	-9.06453733571233e-05
1.127	-0.000392287670188285
1.128	-0.000581725706398473
1.129	-0.000616540963817358
1.13	-0.000495708875183909
1.131	-0.000257967271352633
1.132	3.01571474888851e-05
1.133	0.000292751058697527
1.134	0.000463767765811363
1.135	0.000503195759138819
1.136	0.000405947352962621
1.137	0.000201229455896179
1.138	-5.68302417623956e-05
1.139	-0.000304247856867779
1.14	-0.000483237428875904
1.141	-0.000555279561110011
1.142	-0.000509404910403521
1.143	-0.00036343514001258
1.144	-0.000158115910960932
1.145	5.39704699552557e-05
1.146	0.000221479272529024
1.147	0.000306020648703775
1.148	0.000290418238874102
1.149	0.0001814827731208
1.15	6.91568453670133e-06
1.151	-0.000192469983437027
1.152	-0.000372865186466398
1.153	-0.000497091278582662
1.154	-0.000542364168091614
1.155	-0.000504503803685163
1.156	-0.000397748527463992
1.157	-0.000250484866215039
1.158	-9.81579754264494e-05
1.159	2.48041458548176e-05
1.16	9.21650210418123e-05
1.161	9.07062408260773e-05
1.162	2.2038675747571e-05
1.163	-9.87912135941293e-05
1.164	-0.000247329923452222
1.165	-0.000395196521429053
1.166	-0.000515923442477195
1.167	-0.000590021730120793
1.168	-0.000608321763799435
1.169	-0.000573051089738263
1.17	-0.000496602829796355
1.171	-0.000398428643907933
1.172	-0.000300842729569761
1.173	-0.000224667144068214
1.174	-0.000185570182945627
1.175	-0.000191701312562298
1.176	-0.00024289761621854
1.177	-0.000331415524428946
1.178	-0.00044388740028023
1.179	-0.0005640413841973
1.18	-0.000675656802062385
1.181	-0.000765247372248257
1.182	-0.000824057610611773
1.183	-0.00084910753799905
1.184	-0.000843203164130002
1.185	-0.000814013560088034
1.186	-0.000772465280202805
1.187	-0.000730793791587137
1.188	-0.000700607150819987
1.189	-0.000691265822400755
1.19	-0.000708785548582336
1.191	-0.000755355226463639
1.192	-0.00082784004118841
1.193	-0.000910802270544186
1.194	-0.000984706221336062
1.195	-0.00103203089511161
1.196	-0.00103974912542526
1.197	-0.00100126251981436
1.198	-0.000917436387737336
1.199	-0.00079650197938208
1.2	-0.000652784104948512
1.201	-0.00050442235068171
1.202	-0.000370436304723998
1.203	-0.000267603352939183
1.204	-0.000207655730932732
1.205	-0.000195263853358774
1.206	-0.000227166688447022
1.207	-0.000292648534531814
1.208	-0.000375355187744564
1.209	-0.000456207249229457
1.21	-0.000516936270114843
1.211	-0.000543592005289639
1.212	-0.000529306116006101
1.213	-0.000475693285251544
1.214	-0.00039252723235772
1.215	-0.000295695986653577
1.216	-0.000203827683953217
1.217	-0.00013428683092076
1.218	-9.93981116526044e-05
1.219	-0.000103728939634729
1.22	-0.000143060757576086
1.221	-0.000205337300722697
1.222	-0.000273450173369105
1.223	-0.000329284290885634
1.224	-0.000358097005805469
1.225	-0.000352151745399265
1.226	-0.00031264709522727
1.227	-0.000249379829108998
1.228	-0.000178165422429655
1.229	-0.000116649241192368
1.23	-7.9597542807841e-05
1.231	-7.49278968320555e-05
1.232	-0.000101574386071057
1.233	-0.000149819690304032
1.234	-0.00020406899708536
1.235	-0.000247347074516124
1.236	-0.000266258993179447
1.237	-0.000254947669379058
1.238	-0.000216815087681455
1.239	-0.00016341928390784
1.24	-0.000110832326303045
1.241	-7.45630619028992e-05
1.242	-6.46365938558047e-05
1.243	-8.24122544765826e-05
1.244	-0.000120203537287589
1.245	-0.000163881439008362
1.246	-0.000197657127859241
1.247	-0.000209467064165025
1.248	-0.000195109179195074
1.249	-0.000159647961250564
1.25	-0.000115536421507301
1.251	-7.80799034419966e-05
1.252	-5.9855636475592e-05
1.253	-6.61229473433167e-05
1.254	-9.29384257584154e-05
1.255	-0.000128722415859372
1.256	-0.000158737997777658
1.257	-0.00017080622978749
1.258	-0.000160042376472158
1.259	-0.000130717079122156
1.26	-9.4452646802301e-05
1.261	-6.54410268978722e-05
1.262	-5.46106343956021e-05
1.263	-6.51429017249905e-05
1.264	-9.12241151638238e-05
1.265	-0.000120596694209052
1.266	-0.000139868647316521
1.267	-0.000140320816005346
1.268	-0.000121673360133023
1.269	-9.21165284557546e-05
1.27	-6.45528112247495e-05
1.271	-5.07161337207629e-05
1.272	-5.58338927733049e-05
1.273	-7.62931417260804e-05
1.274	-0.000101421588218686
1.275	-0.000118586006603194
1.276	-0.000119219203697729
1.277	-0.000102888367433662
1.278	-7.74103169285389e-05
1.279	-5.49252770862818e-05
1.28	-4.58441002810783e-05
1.281	-5.36755866878957e-05
1.282	-7.33418601780444e-05
1.283	-9.38603282025774e-05
1.284	-0.000104048948908253
1.285	-9.83224128309201e-05
1.286	-7.95467114445003e-05
1.287	-5.74243857301981e-05
1.288	-4.32455411258914e-05
1.289	-4.38064985760489e-05
1.29	-5.7784521736437e-05
1.291	-7.65586718500799e-05
1.292	-8.90477803201506e-05
1.293	-8.78997711316609e-05
1.294	-7.35689191455613e-05
1.295	-5.39633830938246e-05
1.296	-3.98449485539132e-05
1.297	-3.86100960328983e-05
1.298	-5.00482801528701e-05
1.299	-6.65583060646124e-05
1.3	-7.77113343488622e-05
1.301	-7.6471762744279e-05
1.302	-6.33626501254092e-05
1.303	-4.60572875605747e-05
1.304	-3.46316687045434e-05
1.305	-3.53722089435626e-05
1.306	-4.69500591206984e-05
1.307	-6.13396586285342e-05
1.308	-6.89182916236986e-05
1.309	-6.45463296820026e-05
1.31	-5.07729238606869e-05
1.311	-3.61121691039301e-05
1.312	-2.94914692728909e-05
1.313	-3.44641486469399e-05
1.314	-4.69589442827489e-05
1.315	-5.80464825479243e-05
1.316	-5.9900866731466e-05
1.317	-5.09940529574981e-05
1.318	-3.70420791432347e-05
1.319	-2.70618011051216e-05
1.32	-2.72125689529945e-05
1.321	-3.66267272964294e-05
1.322	-4.80918959553378e-05
1.323	-5.31138135456688e-05
1.324	-4.78401281698293e-05
1.325	-3.56997074304477e-05
1.326	-2.48993372095052e-05
1.327	-2.25534824890294e-05
1.328	-2.96308386207311e-05
1.329	-4.03356500660035e-05
1.33	-4.63651431442669e-05
1.331	-4.29554309724356e-05
1.332	-3.23096261211075e-05
1.333	-2.18988422031607e-05
1.334	-1.8894658749935e-05
1.335	-2.48623786370805e-05
1.336	-3.4664103861104e-05
1.337	-4.03844887068017e-05
1.338	-3.73182694045626e-05
1.339	-2.74891810787548e-05
1.34	-1.80304675019283e-05
1.341	-1.56752049119691e-05
1.342	-2.15943635418769e-05
1.343	-3.05613169330199e-05
1.344	-3.50784136162741e-05
1.345	-3.12410195715263e-05
1.346	-2.17482316661188e-05
1.347	-1.37022267633347e-05
1.348	-1.29493103800948e-05
1.349	-1.9460486616496e-05
1.35	-2.74255492459519e-05
1.351	-2.99690704175237e-05
1.352	-2.46853146017578e-05
1.353	-1.55248419136944e-05
1.354	-9.51788178560342e-06
1.355	-1.10197804219503e-05
1.356	-1.81874023357231e-05
1.357	-2.4564883185807e-05
1.358	-2.44520538912329e-05
1.359	-1.76045980796458e-05
1.36	-9.37068276529729e-06
1.361	-6.17113623713195e-06
1.362	-1.01221613892921e-05
1.363	-1.73133952453552e-05
1.364	-2.11713170765737e-05
1.365	-1.80422470671404e-05
1.366	-1.02528389747114e-05
1.367	-4.05892923294182e-06
1.368	-4.26089439053978e-06
1.369	-1.01133251576568e-05
1.37	-1.60329714892216e-05
1.371	-1.64666542690206e-05
1.372	-1.06887233461972e-05
1.373	-3.37055266530495e-06
1.374	-4.53339070283221e-07
1.375	-3.95310947931549e-06
1.376	-1.02469989620158e-05
1.377	-1.33194460870678e-05
1.378	-1.00805590314001e-05
1.379	-3.05364506858474e-06
1.38	1.92710989732614e-06
1.381	9.51182511199633e-07
1.382	-4.57779002738246e-06
1.383	-9.23561558729968e-06
1.384	-8.43785444137879e-06
1.385	-2.5539204363545e-06
1.386	3.49141217292903e-06
1.387	4.74782198578438e-06
1.388	6.21417213575448e-07
1.389	-4.69642336764498e-06
1.39	-5.96337736125108e-06
1.391	-1.66435517701125e-06
1.392	4.64005061340256e-06
1.393	7.67758527875362e-06
1.394	5.21235158590372e-06
1.395	-2.91302639787716e-08
1.396	-2.85549416267905e-06
1.397	-3.03837449200373e-07
1.398	5.63444221701737e-06
1.399	9.94891965533373e-06
1.4	9.18442368558203e-06
1.401	4.53316486359601e-06
1.402	6.94941799217474e-07
1.403	1.56239213311427e-06
1.404	6.68900167921649e-06
1.405	1.17512238111406e-05
1.406	1.25435789587458e-05
1.407	8.82011132985472e-06
1.408	4.46803620779423e-06
1.409	3.89282325319318e-06
1.41	7.97125109297525e-06
1.411	1.32932121973406e-05
1.412	1.53531143601837e-05
1.413	1.27101409457264e-05
1.414	8.27376147349845e-06
1.415	6.56228957984784e-06
1.416	9.51210579935857e-06
1.417	1.47253979645989e-05
1.418	1.77463786426024e-05
1.419	1.62110576046315e-05
1.42	1.20055347171411e-05
1.421	9.45861107576329e-06
1.422	1.12954625308137e-05
1.423	1.6134289903269e-05
1.424	1.98279654824995e-05
1.425	1.93535232857478e-05
1.426	1.560232570047e-05
1.427	1.24935732297438e-05
1.428	1.32871655168509e-05
1.429	1.75640042546776e-05
1.43	2.16718353046597e-05
1.431	2.21710585459056e-05
1.432	1.90303047742924e-05
1.433	1.56021312591736e-05
1.434	1.54509688866655e-05
1.435	1.90341315296494e-05
1.436	2.33262949251856e-05
1.437	2.46898385607985e-05
1.438	2.22681736276598e-05
1.439	1.87365310584386e-05
1.44	1.7755789676277e-05
1.441	2.05528455180515e-05
1.442	2.48214383478107e-05
1.443	2.69248784970366e-05
1.444	2.52965836810004e-05
1.445	2.18587516105928e-05
1.446	2.01774809252542e-05
1.447	2.21257986761092e-05
1.448	2.61770498822256e-05
1.449	2.88802936996291e-05
1.45	2.80910988733063e-05
1.451	2.49327112889497e-05
1.452	2.26970447266828e-05
1.453	2.37615682353587e-05
1.454	2.74102403390875e-05
1.455	3.05524197928286e-05
1.456	3.06182167270075e-05
1.457	2.79167857032414e-05
1.458	2.52961724486189e-05
1.459	2.54740257154551e-05
1.46	2.8542505946777e-05
1.461	3.19353475497774e-05
1.462	3.28344431596572e-05
1.463	3.07570503936816e-05
1.464	2.795040407369e-05
1.465	2.7281405335422e-05
1.466	2.96057063089994e-05
1.467	3.30287397389273e-05
1.468	3.46889920579962e-05
1.469	3.33820798845696e-05
1.47	3.06201377098525e-05
1.471	2.92013062298258e-05
1.472	3.06458058019488e-05
1.473	3.38475386359727e-05
1.474	3.61310776809953e-05
1.475	3.57009447826129e-05
1.476	3.32403040430307e-05
1.477	3.12406730010872e-05
1.478	3.17222952645468e-05
1.479	3.44322121733909e-05
1.48	3.71226307448735e-05
1.481	3.76069912464694e-05
1.482	3.5710862568511e-05
1.483	3.33803785300124e-05
1.484	3.29003766966068e-05
1.485	3.48564758998055e-05
1.486	3.76561092502864e-05
1.487	3.89905299247317e-05
1.488	3.78922880228394e-05
1.489	3.55558979039106e-05
1.49	3.42329789991547e-05
1.491	3.5227260168913e-05
1.492	3.77744115466483e-05
1.493	3.97627615945431e-05
1.494	3.96122939103211e-05
1.495	3.76390535512874e-05
1.496	3.57316073541988e-05
1.497	3.5670077968699e-05
1.498	3.75856778598912e-05
1.499	3.98898894452843e-05
1.5	4.06906888553372e-05
1.501	3.94304879367665e-05
1.502	3.73300950028237e-05
1.503	3.62938954864452e-05
1.504	3.72611497636496e-05
1.505	3.94295324374141e-05
1.506	4.09860251619834e-05
1.507	4.06762920608997e-05
1.508	3.88537284317231e-05
1.509	3.71358013998985e-05
1.51	3.70024134897645e-05
1.511	3.855218639566e-05
1.512	4.04580635342128e-05
1.513	4.11208102281541e-05
1.514	4.00154158397281e-05
1.515	3.80989207904026e-05
1.516	3.69704282666694e-05
1.517	3.75231714676433e-05
1.518	3.92239697717539e-05
1.519	4.0595633610363e-05
1.52	4.04636954536575e-05
1.521	3.89145836219296e-05
1.522	3.71873894628727e-05
1.523	3.66241975515991e-05
1.524	3.75697137451059e-05
1.525	3.91197748223771e-05
1.526	3.98942438728789e-05
1.527	3.91713432482399e-05
1.528	3.7452026246193e-05
1.529	3.6018178574182e-05
1.53	3.58759833113675e-05
1.531	3.69556398557846e-05
1.532	3.82002506361667e-05
1.533	3.84413260458849e-05
1.534	3.7334269094802e-05
1.535	3.56069128701619e-05
1.536	3.4448281191507e-05
1.537	3.4552638926183e-05
1.538	3.55866059256471e-05
1.539	3.64840748775519e-05
1.54	3.63071133519244e-05
1.541	3.49771128160259e-05
1.542	3.33088726412467e-05
1.543	3.23464722264966e-05
1.544	3.25434982487716e-05
1.545	3.34298796295096e-05
1.546	3.40054761406305e-05
1.547	3.35295408455671e-05
1.548	3.20829640985121e-05
1.549	3.04794284901599e-05
1.55	2.96177887162963e-05
1.551	2.97919190962448e-05
1.552	3.0486277695474e-05
1.553	3.07946766583411e-05
1.554	3.01209616422882e-05
1.555	2.86202465523133e-05
1.556	2.7056983112117e-05
1.557	2.62087811591094e-05
1.558	2.62814248991328e-05
1.559	2.67735100960009e-05
1.56	2.68750472407486e-05
1.561	2.60822816889883e-05
1.562	2.4562614324819e-05
1.563	2.30079020721585e-05
1.564	2.21042706252672e-05
1.565	2.20250894829022e-05
1.566	2.23203227731061e-05
1.567	2.22686657699867e-05
1.568	2.14162969922604e-05
1.569	1.9900395267336e-05
1.57	1.83290775716549e-05
1.571	1.73221917369459e-05
1.572	1.70600484987182e-05
1.573	1.71674551210366e-05
1.574	1.70043224695382e-05
1.575	1.6137325559884e-05
1.576	1.4645521957346e-05
1.577	1.30462589051916e-05
1.578	1.1909004516808e-05
1.579	1.14457038122295e-05
1.58	1.13714906623263e-05
1.581	1.11248996223501e-05
1.582	1.02771437962557e-05
1.583	8.83244481680867e-06
1.584	7.21053514474157e-06
1.585	5.93573220142307e-06
1.586	5.263290596913e-06
1.587	5.00879069109672e-06
1.588	4.69293941762761e-06
1.589	3.88824177177671e-06
1.59	2.51700343234518e-06
1.591	8.94038966525734e-07
1.592	-5.05987398757846e-07
1.593	-1.37695753232858e-06
1.594	-1.79058739402382e-06
1.595	-2.14654105945566e-06
1.596	-2.8784357086753e-06
1.597	-4.1454054746648e-06
1.598	-5.7289386763415e-06
1.599	-7.19989832231871e-06
1.6	-8.22777090958571e-06
1.601	-8.80927527358022e-06
1.602	-9.25891349923269e-06
1.603	-9.97713299433212e-06
1.604	-1.11667839519658e-05
1.605	-1.26979552198536e-05
1.606	-1.42098821919179e-05
1.607	-1.53699929714701e-05
1.608	-1.61039770465443e-05
1.609	-1.66381446414787e-05
1.61	-1.73317205490742e-05
1.611	-1.84230987447798e-05
1.612	-1.98688032835292e-05
1.613	-2.13829600960169e-05
1.614	-2.26426050325967e-05
1.615	-2.35112209481247e-05
1.616	-2.41259927143966e-05
1.617	-2.47938223616462e-05
1.618	-2.57745187923764e-05
1.619	-2.71039651144056e-05
1.62	-2.85769146204373e-05
1.621	-2.98953647883682e-05
1.622	-3.08750986064421e-05
1.623	-3.15672974515735e-05
1.624	-3.22153691655336e-05
1.625	-3.30823416430093e-05
1.626	-3.42709334529845e-05
1.627	-3.56588787125967e-05
1.628	-3.69893055096604e-05
1.629	-3.80493174222396e-05
1.63	-3.88125905717018e-05
1.631	-3.94506894243474e-05
1.632	-4.02100885380507e-05
1.633	-4.1242777906958e-05
1.634	-4.25065084647125e-05
1.635	-4.37995602564634e-05
1.636	-4.49018808662549e-05
1.637	-4.57237771508412e-05
1.638	-4.6361776563586e-05
1.639	-4.70272911723413e-05
1.64	-4.79004493482149e-05
1.641	-4.90098874326161e-05
1.642	-5.02183198074491e-05
1.643	-5.13199396134922e-05
1.644	-5.21805111650675e-05
1.645	-5.28248159117339e-05
1.646	-5.34146778998768e-05
1.647	-5.41359919169482e-05
1.648	-5.5073409716111e-05
1.649	-5.61568829990922e-05
1.65	-5.72133629674898e-05
1.651	-5.80855941868519e-05
1.652	-5.87364563180426e-05
1.653	-5.92697200509917e-05
1.654	-5.98561639519879e-05
1.655	-6.0617450578393e-05
1.656	-6.1546534212642e-05
1.657	-6.25163948063667e-05
1.658	-6.33683642617955e-05
1.659	-6.40186465992176e-05
1.66	-6.45115824072784e-05
1.661	-6.49859920477391e-05
1.662	-6.55798167426003e-05
1.663	-6.63384318425608e-05
1.664	-6.71874044501086e-05
1.665	-6.79856804177703e-05
1.666	-6.86212844992484e-05
1.667	-6.90846596889116e-05
1.668	-6.94717292835101e-05
1.669	-6.99169272931899e-05
1.67	-7.05028509995209e-05
1.671	-7.1207155966091e-05
1.672	-7.19206695174446e-05
1.673	-7.25224336611818e-05
1.674	-7.29601661529911e-05
1.675	-7.3282713183187e-05
1.676	-7.3604562442986e-05
1.677	-7.40280686504224e-05
1.678	-7.45761768636832e-05
1.679	-7.51797836184842e-05
1.68	-7.57263402405561e-05
1.681	-7.61356271896663e-05
1.682	-7.64117781554274e-05
1.683	-7.6637957354464e-05
1.684	-7.69190347600368e-05
1.685	-7.73117539750734e-05
1.686	-7.77888680280059e-05
1.687	-7.82598162464287e-05
1.688	-7.86325025363688e-05
1.689	-7.88741357040657e-05
1.69	-7.90310638403291e-05
1.691	-7.91958435359952e-05
1.692	-7.94449195040681e-05
1.693	-7.97888896570953e-05
1.694	-8.01676917294714e-05
1.695	-8.04924414528063e-05
1.696	-8.07049063199505e-05
1.697	-8.08149388988877e-05
1.698	-8.08919680308495e-05
1.699	-8.10176142473917e-05
1.7	-8.12318065680495e-05
1.701	-8.15079935194696e-05
1.702	-8.17727825522807e-05
1.703	-8.19556877411642e-05
1.704	-8.20353835127019e-05
1.705	-8.20522521197686e-05
1.706	-8.20800945354749e-05
1.707	-8.21768618761709e-05
1.708	-8.23473484150572e-05
1.709	-8.25418715987292e-05
1.71	-8.26906262819671e-05
1.711	-8.27500848268325e-05
1.712	-8.27307268942423e-05
1.713	-8.2688602428882e-05
1.714	-8.26874273858191e-05
1.715	-8.27569144100648e-05
1.716	-8.28746311157813e-05
1.717	-8.29824254966471e-05
1.718	-8.30255699232341e-05
1.719	-8.29883903681328e-05
1.72	-8.29033270445256e-05
1.721	-8.2828431108517e-05
1.722	-8.28089770102958e-05
1.723	-8.28486407330464e-05
1.724	-8.29086098539378e-05
1.725	-8.29342503796404e-05
1.726	-8.28911216935735e-05
1.727	-8.27867185949627e-05
1.728	-8.26643772739999e-05
1.729	-8.25742431979082e-05
1.73	-8.25408312824516e-05
1.731	-8.25482110266007e-05
1.732	-8.25517424489774e-05
1.733	-8.25078785767763e-05
1.734	-8.24022389098733e-05
1.735	-8.22579861936568e-05
1.736	-8.21198328851969e-05
1.737	-8.2024797102398e-05
1.738	-8.19789038692953e-05
1.739	-8.19545150462231e-05
1.74	-8.19092467418958e-05
1.741	-8.18136209105313e-05
1.742	-8.16695136257595e-05
1.743	-8.15079976935751e-05
1.744	-8.13687108427441e-05
1.745	-8.12745301701501e-05
1.746	-8.12177810698422e-05
1.747	-8.11662790435319e-05
1.748	-8.1084638882456e-05
1.749	-8.09568226539659e-05
1.75	-8.07956669852672e-05
1.751	-8.06338910311899e-05
1.752	-8.05029470890561e-05
1.753	-8.04134532881307e-05
1.754	-8.03494045205078e-05
1.755	-8.02792441690903e-05
1.756	-8.01762221535052e-05
1.757	-8.00349833146585e-05
1.758	-7.98742140580844e-05
1.759	-7.97242597393444e-05
1.76	-7.96079932963156e-05
1.761	-7.95270472657705e-05
1.762	-7.94616958307293e-05
1.763	-7.93839021934195e-05
1.764	-7.92749625972977e-05
1.765	-7.91367221607553e-05
1.766	-7.8989756300496e-05
1.767	-7.8860174823614e-05
1.768	-7.87635801922093e-05
1.769	-7.86960692176208e-05
1.77	-7.86374460797212e-05
1.771	-7.85641757909961e-05
1.772	-7.84638230121315e-05
1.773	-7.83421979431154e-05
1.774	-7.82192248933722e-05
1.775	-7.81165099651426e-05
1.776	-7.80444236408995e-05
1.777	-7.79964406973921e-05
1.778	-7.79537875045255e-05
1.779	-7.78971695051256e-05
1.78	-7.7818302332e-05
1.781	-7.77244341957362e-05
1.782	-7.763351282708e-05
1.783	-7.75632721715658e-05
1.784	-7.75209244238129e-05
1.785	-7.74994601071555e-05
1.786	-7.74824040776778e-05
1.787	-7.74538605020636e-05
1.788	-7.74077689813524e-05
1.789	-7.73510571470126e-05
1.79	-7.72991669001355e-05
1.791	-7.72668957739198e-05
1.792	-7.72600297844761e-05
1.793	-7.72725071691571e-05
1.794	-7.72904538464125e-05
1.795	-7.73004582864667e-05
1.796	-7.72971936138234e-05
1.797	-7.72861240332379e-05
1.798	-7.72800253818762e-05
1.799	-7.72915838319621e-05
1.8	-7.73264031578291e-05
1.801	-7.73802859247441e-05
1.802	-7.74420712166268e-05
1.803	-7.75001713417822e-05
1.804	-7.75490186055716e-05
1.805	-7.7591896276541e-05
1.806	-7.76388029366526e-05
1.807	-7.77007787963191e-05
1.808	-7.77839575639705e-05
1.809	-7.78865662133255e-05
1.81	-7.80003219872372e-05
1.811	-7.81152358939607e-05
1.812	-7.82250741862001e-05
1.813	-7.8330543654026e-05
1.814	-7.84386466503584e-05
1.815	-7.85587628857609e-05
1.816	-7.86976973322639e-05
1.817	-7.88563361716621e-05
1.818	-7.90295536934327e-05
1.819	-7.92092286575619e-05
1.82	-7.93886355453521e-05
1.821	-7.95658805872179e-05
1.822	-7.97446876319441e-05
1.823	-7.99322940030489e-05
1.824	-8.01356930751895e-05
1.825	-8.03582124740965e-05
1.826	-8.05981188486404e-05
1.827	-8.08498190933982e-05
1.828	-8.11069025552502e-05
1.829	-8.13654104956374e-05
1.83	-8.16257156008859e-05
1.831	-8.18921825210817e-05
1.832	-8.21709150340411e-05
1.833	-8.24667997156858e-05
1.834	-8.2781310958624e-05
1.835	-8.31120765032445e-05
1.836	-8.34542952307116e-05
1.837	-8.38032159543589e-05
1.838	-8.41564425655417e-05
1.839	-8.45150000217121e-05
1.84	-8.48827487330839e-05
1.841	-8.52645290930765e-05
1.842	-8.56639743902488e-05
1.843	-8.6082013685318e-05
1.844	-8.65166970359654e-05
1.845	-8.69643308555323e-05
1.846	-8.74213230970255e-05
1.847	-8.78858659000281e-05
1.848	-8.83587213070802e-05
1.849	-8.88428275004349e-05
1.85	-8.93419819412156e-05
1.851	-8.98592405140786e-05
1.852	-9.03957453143311e-05
1.853	-9.09504535663297e-05
1.854	-9.15208176605065e-05
1.855	-9.21040582241295e-05
1.856	-9.26984501695705e-05
1.857	-9.3304082691481e-05
1.858	-9.39228167787798e-05
1.859	-9.4557518199534e-05
1.86	-9.52109355103481e-05
1.861	-9.58847070821056e-05
1.862	-9.65788889916164e-05
1.863	-9.72921532103044e-05
1.864	-9.80225252218414e-05
1.865	-9.87683269192408e-05
1.866	-9.95289381736653e-05
1.867	-0.000100305094237862
1.868	-0.00010109864083141
1.869	-0.000101911884534456
1.87	-0.000102746819148569
1.871	-0.000103604531261237
1.872	-0.000104484994038256
1.873	-0.000105387294505377
1.874	-0.000106310174570967
1.875	-0.000107252661127322
1.876	-0.000108214548291241
1.877	-0.000109196569851866
1.878	-0.000110200226417057
1.879	-0.000111227358163934
1.88	-0.000112279635968049
1.881	-0.00011335815620217
1.882	-0.000114463271207565
1.883	-0.000115594693448018
1.884	-0.000116751814075888
1.885	-0.000117934109318485
1.886	-0.000119141490645625
1.887	-0.000120374487304065
1.888	-0.000121634216178945
1.889	-0.000122922168153794
1.89	-0.000124239897121514
1.891	-0.000125588720670256
1.892	-0.000126969527011855
1.893	-0.000128382739558064
1.894	-0.00012982843589604
1.895	-0.000131306570121947
1.896	-0.000132817220805381
1.897	-0.000134360786931964
1.898	-0.000135938077958975
1.899	-0.000137550281398169
1.9	-0.000139198829615772
1.901	-0.000140885214864661
1.902	-0.00014261081162914
1.903	-0.000144376756965992
1.904	-0.000146183917607901
1.905	-0.000148032944885079
1.906	-0.000149924393823331
1.907	-0.000151858867468602
1.908	-0.000153837144835856
1.909	-0.000155860259857921
1.91	-0.000157929515580468
1.911	-0.000160046436864292
1.912	-0.000162212680814511
1.913	-0.000164429933027899
1.914	-0.000166699818351268
1.915	-0.000169023847857441
1.916	-0.000171403412181359
1.917	-0.000174638875010957
1.918	-0.000182294782122949
1.919	-0.000197956480864292
1.92	-0.000224495098502198
1.921	-0.000264132635939995
1.922	-0.000318507115863398
1.923	-0.00038873676726453
1.924	-0.000475482399827643
1.925	-0.000579007279825183
1.926	-0.000699233963759982
1.927	-0.000835797676712713
1.928	-0.000988095939441935
1.929	-0.00115533425190462
1.93	-0.00133656773157753
1.931	-0.0015307386832431
1.932	-0.00173671014357252
1.933	-0.00195329549954881
1.934	-0.00217928432540937
1.935	-0.00241346461908426
1.936	-0.00265464164718854
1.937	-0.00290165362790912
1.938	-0.00315338449500607
1.939	-0.00340877399384543
1.94	-0.00366682536328905
1.941	-0.00392661085553625
1.942	-0.00418727534080909
1.943	-0.0044480382355005
1.944	-0.00470819398166644
1.945	-0.00496711129315791
1.946	-0.00522423136973099
1.947	-0.00547906526545472
1.948	-0.00573119058225585
1.949	-0.00598024764356253
1.95	-0.0062259352872997
1.951	-0.00646800640192952
1.952	-0.00670626331423896
1.953	-0.0069405531230835
1.954	-0.00717076305975983
1.955	-0.00739681594273639
1.956	-0.00761866578272119
1.957	-0.00783629358297455
1.958	-0.00804475373246949
1.959	-0.00822111100442752
1.96	-0.0083415251414721
1.961	-0.00838621931700401
1.962	-0.00833918157482441
1.963	-0.00818786012620074
1.964	-0.00792285700793557
1.965	-0.00753762402980887
1.966	-0.00702816439317924
1.967	-0.00639274284701322
1.968	-0.00563160676577679
1.969	-0.00474672008624755
1.97	-0.00374151162881275
1.971	-0.0026206389529306
1.972	-0.00138976855643713
1.973	-5.53729233070122e-05
1.974	0.00138119751969956
1.975	0.00294717824128041
1.976	0.00467708427168093
1.977	0.00660354396196849
1.978	0.00875814661679183
1.979	0.0111721621664233
1.98	0.0138771557256143
1.981	0.0169055228038442
1.982	0.0201442827265561
1.983	0.0226936614361664
1.984	0.0235570947954432
1.985	0.0222650929786227
1.986	0.0190423186468893
1.987	0.0143372654511956
1.988	0.00901633367470837
1.989	0.00404036320128436
1.99	0.000146870119657236
1.991	-0.00255760203787358
1.992	-0.00419860916703142
1.993	-0.00487885604920276
1.994	-0.00469927397873021
1.995	-0.00375804978018381
1.996	-0.00214979571236932
1.997	3.51269951393979e-05
1.998	0.00272344889254057
1.999	0.00589764752698561
2	0.00922436188243352
