0	0
0.01	0.364827836220723
0.02	1.84719938222086
0.03	4.0513589442853
0.04	6.40652817539401
0.05	8.56210696895996
0.06	10.3725973825152
0.07	11.8158455097291
0.08	12.9283594811272
0.09	13.7671173601547
0.1	14.3897364261385
0.11	14.8471965232053
0.12	15.1809707914389
0.13	15.4251155203289
0.14	15.5968502226796
0.15	15.726058167807
0.16	15.8277317774963
0.17	15.8823157319619
0.18	15.9091805737432
0.19	15.9435321612491
0.2	16.0017383103976
0.21	16.0658631799297
0.22	16.0997592011924
0.23	16.0933612254157
0.24	16.0616211838654
0.25	16.0192897212402
0.26	15.9728654616574
0.27	15.9230162952904
0.28	15.8674931229348
0.29	15.8023475729743
0.3	15.7224981224767
0.31	15.6240747647183
0.32	15.5116993825851
0.33	15.4063900249316
0.34	15.3359364816542
0.35	15.313876052832
0.36	15.3354802955215
0.37	15.3793821370895
0.38	15.4105295956071
0.39	15.404972022368
0.4	15.3631225351941
0.41	15.2934584809694
0.42	15.200700323847
0.43	15.0903361373966
0.44	14.9802583552011
0.45	14.8986849743746
0.46	14.8637367164063
0.47	14.8748907433067
0.48	14.9156507699734
0.49	14.9536212857136
0.5	14.9593402983443
0.51	14.9274370215393
0.52	14.8660241823021
0.53	14.7810824637678
0.54	14.6763894420868
0.55	14.5642394371259
0.56	14.4703658430949
0.57	14.4180215310174
0.58	14.4129365316952
0.59	14.4445843681052
0.6	14.4862556071773
0.61	14.5047602885035
0.62	14.4856200837627
0.63	14.4338734779469
0.64	14.3569356306484
0.65	14.2588234115699
0.66	14.1479675809986
0.67	14.046023558234
0.68	13.9787970200248
0.69	13.9579372236048
0.7	13.9781278033247
0.71	14.0185960492449
0.72	14.0465823283944
0.73	14.039754377793
0.74	13.9979233734636
0.75	13.9288039162189
0.76	13.8373802766456
0.77	13.7298517729562
0.78	13.6235557684233
0.79	13.5444343652981
0.8	13.5090953129115
0.81	13.5170268299329
0.82	13.552703105316
0.83	13.5863940318399
0.84	13.5905552649761
0.85	13.5586504242724
0.86	13.4972472616011
0.87	13.4123653510916
0.88	13.3092401707544
0.89	13.201468600976
0.9	13.1134269415115
0.91	13.0652945451656
0.92	13.0610715506392
0.93	13.0897020117192
0.94	13.1255678715973
0.95	13.1387777769407
0.96	13.1164836124369
0.97	13.0627307190534
0.98	12.9841870271774
0.99	12.8859442254599
1	12.7787500184943
1.01	12.6845072549238
1.02	12.6254625433823
1.03	12.6097191291607
1.04	12.6301060689561
1.05	12.665233429608
1.06	12.6852164882949
1.07	12.6718524576714
1.08	12.6256415222803
1.09	12.5532490340707
1.1	12.4600373033484
1.11	12.3547931770077
1.12	12.2566743571278
1.13	12.188644545425
1.14	12.1623140525476
1.15	12.1739960390114
1.16	12.2062014514318
1.17	12.2306313954033
1.18	12.2251913288117
1.19	12.1863112447717
1.2	12.1199114659608
1.21	12.0317204454186
1.22	11.9292974989882
1.23	11.8291904495314
1.24	11.7540334298255
1.25	11.7182047914809
1.26	11.7211924090306
1.27	11.7489663751436
1.28	11.7756821238511
1.29	11.776924593241
1.3	11.7450309463367
1.31	11.6844814690831
1.32	11.6012409959336
1.33	11.5021722895509
1.34	11.401553863043
1.35	11.3209791893992
1.36	11.2768020140662
1.37	11.2713878328056
1.38	11.293761020156
1.39	11.320888306113
1.4	11.327444226274
1.41	11.3020573838031
1.42	11.2472150033034
1.43	11.1688480034714
1.44	11.0734580195976
1.45	10.9734586998932
1.46	10.888985457385
1.47	10.8376049164023
1.48	10.8242352566628
1.49	10.8406302982055
1.5	10.8666187795173
1.51	10.8770887840508
1.52	10.8576123311139
1.53	10.8083207118686
1.54	10.7347696726669
1.55	10.6432687121883
1.56	10.5447507953852
1.57	10.4576973227756
1.58	10.4002107689471
1.59	10.3794015242975
1.6	10.3895019388034
1.61	10.4131037105939
1.62	10.4261292002075
1.63	10.411878134584
1.64	10.3679622126491
1.65	10.2992022511706
1.66	10.2117523566014
1.67	10.1153864394928
1.68	10.0268837819174
1.69	9.96431565031209
1.7	9.93659836304827
1.71	9.94024484893371
1.72	9.96046098137441
1.73	9.97476365541597
1.74	9.96499237195033
1.75	9.92625772315349
1.76	9.86230353595446
1.77	9.77906397742769
1.78	9.68539662946759
1.79	9.59641746009731
1.8	9.52971050664401
1.81	9.4956002384635
1.82	9.49271427130537
1.83	9.5087295264646
1.84	9.52312168409222
1.85	9.51704385216603
1.86	9.48327704797001
1.87	9.42418678160484
1.88	9.34534586375155
1.89	9.25485667494597
1.9	9.16625313684058
1.91	9.0962745790399
1.92	9.05625550666382
1.93	9.04678707648162
1.94	9.05790551589363
1.95	9.07127704675398
1.96	9.06807182610934
1.97	9.03903645258801
1.98	8.98491229957919
1.99	8.91071002044749
2	8.82385894005055
2.01	8.73640513097214
2.02	8.66396672209775
2.03	8.61849468728342
2.04	8.60239180784924
2.05	8.60798066623078
2.06	8.61926962661102
2.07	8.61807065604535
2.08	8.59349251935542
2.09	8.54447490475928
2.1	8.47521839271682
2.11	8.39248506775478
2.12	8.30692179560584
2.13	8.23281341526906
2.14	8.18233728598499
2.15	8.15953774502165
2.16	8.15898470525231
2.17	8.16713844661655
2.18	8.16700376421411
2.19	8.14653750218261
2.2	8.10278627253898
2.21	8.03885669370819
2.22	7.96077279859419
2.23	7.877853173328
2.24	7.80288972213295
2.25	7.74789553570785
2.26	7.71834553068188
2.27	7.7110356583447
2.28	7.71497047462188
2.29	7.7148339171815
2.3	7.69800209378207
2.31	7.6596533836391
2.32	7.60149821805405
2.33	7.52867134520643
2.34	7.44920519959243
2.35	7.37428551915736
2.36	7.31536832488629
2.37	7.27907777183834
2.38	7.26440121407272
2.39	7.26297235144592
2.4	7.26158203112293
2.41	7.24767857560979
2.42	7.21475983673161
2.43	7.16285647029164
2.44	7.09597887305735
2.45	7.02087107939822
2.46	6.94704381755088
2.47	6.88500972535129
2.48	6.84215870020277
2.49	6.81956920275869
2.5	6.81157210860845
2.51	6.80743255498278
2.52	6.79538979047032
2.53	6.76767013805949
2.54	6.72243388721799
2.55	6.66225860848367
2.56	6.5925294415551
2.57	6.52105239143005
2.58	6.45704311589052
2.59	6.40815292684027
2.6	6.37730875242409
2.61	6.36154882958855
2.62	6.35290446706407
2.63	6.34114599593247
2.64	6.31790401199954
2.65	6.27949731879642
2.66	6.22674387343937
2.67	6.16350525234577
2.68	6.09587013417042
2.69	6.03147848102329
2.7	5.97764155538655
2.71	5.93866485867137
2.72	5.91415546543934
2.73	5.89908670384787
2.74	5.88543847991249
2.75	5.86516865738925
2.76	5.83316359338729
2.77	5.78828415014292
2.78	5.73261748196019
2.79	5.67049049022763
2.8	5.60779662752575
2.81	5.55090214889658
2.82	5.50476027094467
2.83	5.47111967038545
2.84	5.44786142097487
2.85	5.4296707705384
2.86	5.40985856190052
2.87	5.38276398406062
2.88	5.34548257254956
2.89	5.29811773526677
2.9	5.24311414258575
2.91	5.18453333370413
2.92	5.12732719675183
2.93	5.07621646719379
2.94	5.03427038898955
2.95	5.00186462970769
2.96	4.97654038309429
2.97	4.95381332883915
2.98	4.92869319710848
2.99	4.89732955332396
3	4.85800052027983
3.01	4.81116471394552
3.02	4.75898087138403
3.03	4.70472432718826
3.04	4.65211868061262
3.05	4.60446076388616
3.06	4.56369186624697
3.07	4.52980467285927
3.08	4.50086127283044
3.09	4.47363009342998
3.1	4.44463105836764
3.11	4.41118827605587
3.12	4.37206378823827
3.13	4.32753262241032
3.14	4.27908923066464
3.15	4.22901457276537
3.16	4.17987109249114
3.17	4.13392053461425
3.18	4.09255523341638
3.19	4.05593232160039
3.2	4.02296187909516
3.21	3.99166535770895
3.22	3.9597845534889
3.23	3.92542412982739
3.24	3.88750122571203
3.25	3.84589133946421
3.26	3.80131659374185
3.27	3.75508982838799
3.28	3.70879381403708
3.29	3.6639315894663
3.3	3.62159196722019
3.31	3.58220629715039
3.32	3.54547232233985
3.33	3.51047384487742
3.34	3.47595869297699
3.35	3.44068377546941
3.36	3.40371714386918
3.37	3.36461496776835
3.38	3.32345133719435
3.39	3.28073122117163
3.4	3.23723462796363
3.41	3.19383159297733
3.42	3.15129768132906
3.43	3.11015927324749
3.44	3.07059908365475
3.45	3.03244363212532
3.46	2.99523409209768
3.47	2.95835819716906
3.48	2.92120402188622
3.49	2.88329352634074
3.5	2.84436556865278
3.51	2.8043981942159
3.52	2.76357825375026
3.53	2.72223599413147
3.54	2.68076350418926
3.55	2.6395332850341
3.56	2.59883026887907
3.57	2.5588076927791
3.58	2.51947306017962
3.59	2.48070447070751
3.6	2.44229103268259
3.61	2.40398600801231
3.62	2.36555953570567
3.63	2.32683971184905
3.64	2.28773545864432
3.65	2.24824005709818
3.66	2.20841860028266
3.67	2.16838501170143
3.68	2.12827476980378
3.69	2.08821874614758
3.7	2.04832224492108
3.71	2.0086517894014
3.72	1.96923059104604
3.73	1.93004208657747
3.74	1.89103963269338
3.75	1.85215963047439
3.76	1.81333515855572
3.77	1.7745076136077
3.78	1.73563471269199
3.79	1.69669423295995
3.8	1.65768378338077
3.81	1.61861754174501
3.82	1.57952118808237
3.83	1.54042626214899
3.84	1.50136496017562
3.85	1.46236606596727
3.86	1.42345236771717
3.87	1.38463960314581
3.88	1.34593673719057
3.89	1.30734722526938
3.9	1.26887085289287
3.91	1.23050575836379
3.92	1.19225031927594
3.93	1.15410469015581
3.94	1.1160718925183
3.95	1.07815845912686
3.96	1.04037470826741
3.97	1.00273476660963
3.98	0.965256966256809
3.99	0.927976663001904
4	0.890973801723179
4.01	0.854373863189272
4.02	0.818331872565709
4.03	0.783016724431457
4.04	0.748599288846728
4.05	0.715243204027058
4.06	0.683096790559042
4.07	0.652285351354053
4.08	0.622904086331832
4.09	0.595012472471903
4.1	0.568631097102321
4.11	0.543741642413473
4.12	0.520290175990711
4.13	0.498193316841228
4.14	0.477346394289138
4.15	0.457632492785516
4.16	0.438931287463742
4.17	0.42112676995752
4.18	0.404113261700857
4.19	0.387799434836216
4.2	0.372110349602685
4.21	0.356987736129343
4.22	0.342388884691622
4.23	0.328284565747211
4.24	0.314656394447591
4.25	0.301494003590183
4.26	0.288792313717349
4.27	0.27654910554056
4.28	0.264763019717955
4.29	0.253432039394554
4.3	0.242552455357155
4.31	0.232118273125993
4.32	0.222120995111079
4.33	0.212549697410727
4.34	0.203391317672215
4.35	0.194631075170859
4.36	0.186252954387196
4.37	0.17824019655493
4.38	0.170575757935986
4.39	0.163242707407775
4.4	0.156224548241166
4.41	0.149505459068543
4.42	0.143070456732809
4.43	0.136905489008492
4.44	0.130997468337425
4.45	0.125334259085199
4.46	0.119904630811472
4.47	0.114698189063908
4.48	0.109705293619189
4.49	0.104916972212089
4.5	0.1003248358535
4.51	0.0959210000109317
4.52	0.091698014319399
4.53	0.0876488021641826
4.54	0.0837666104468293
4.55	0.0800449691001092
4.56	0.0764776594256133
4.57	0.0730586900481047
4.58	0.0697822791687476
4.59	0.0666428418111861
4.6	0.0636349808507398
4.61	0.0607534807643852
4.62	0.0579933032111895
4.63	0.0553495837295836
4.64	0.052817629005498
4.65	0.0503929143152684
4.66	0.048071080874784
4.67	0.0458479329301343
4.68	0.0437194345057262
4.69	0.0416817057855982
4.7	0.039731019145336
4.71	0.0378637948787747
4.72	0.0360765966787047
4.73	0.0343661269369805
4.74	0.0327292219292947
4.75	0.0311628469455208
4.76	0.0296640914196327
4.77	0.0282301641050449
4.78	0.0268583883327273
4.79	0.0255461973812531
4.8	0.024291129980458
4.81	0.0230908259638233
4.82	0.0219430220791566
4.83	0.0208455479625998
4.84	0.0197963222774057
4.85	0.0187933490161684
4.86	0.017834713963171
4.87	0.0169185813120856
4.88	0.016043190433338
4.89	0.0152068527848932
4.9	0.0144079489599727
4.91	0.0136449258651729
4.92	0.0129162940225747
4.93	0.0122206249896556
4.94	0.0115565488910983
4.95	0.0109227520569184
4.96	0.0103179747616605
4.97	0.0097410090597539
4.98	0.00919069671243751
4.99	0.00866592720197208
5	0.00816563582914315
5.01	0.0076888018903206
5.02	0.00723444693058398
5.03	0.0068016330696429
5.04	0.00638946139748305
5.05	0.00599707043685294
5.06	0.00562363466987434
5.07	0.0052683631262138
5.08	0.00493049803039468
5.09	0.0046093135059614
5.1	0.00430411433432994
5.11	0.00401423476627439
5.12	0.00373903738410763
5.13	0.00347791201271745
5.14	0.00323027467771768
5.15	0.0029955666090685
5.16	0.0027732532886111
5.17	0.002562823540051
5.18	0.00236378866000998
5.19	0.00217568158885153
5.2	0.00199805612006843
5.21	0.00183048614710359
5.22	0.00167256494655782
5.23	0.0015239044968202
5.24	0.00138413483123999
5.25	0.00125290342504249
5.26	0.00112987461527704
5.27	0.00101472905317181
5.28	0.000907163188360148
5.29	0.000806888784535248
5.3	0.000713632466186718
5.31	0.000627135296172961
5.32	0.000547152383989188
5.33	0.000473452524702666
5.34	0.000405817868645749
5.35	0.000344043622084203
5.36	0.000287937779214851
5.37	0.000237320885993461
5.38	0.000192025836453317
5.39	0.00015189770234842
5.4	0.000116793597144936
5.41	8.65825755925027e-05
5.42	6.11455703359917e-05
5.43	4.03753672813777e-05
5.44	2.41766217096729e-05
5.45	1.24659174445e-05
5.46	5.17187172625593e-06
5.47	2.2352888339569e-06
5.48	3.6093659307116e-06
5.49	9.25995509715345e-06
5.5	1.91658860668829e-05
5.51	3.33193547980355e-05
5.52	5.172638371604e-05
5.53	7.44073602566374e-05
5.54	0.000101397661239286
5.55	0.000132748371625828
5.56	0.000168527107386728
5.57	0.000208818953529865
5.58	0.000253727529870762
5.59	0.000303376198869292
5.6	0.000357909431862026
5.61	0.00041749435232419
5.62	0.000482322477450611
5.63	0.000552611682410058
5.64	0.000628608415172214
5.65	0.000710590193913585
5.66	0.00079886842377691
5.67	0.000893791575305127
5.68	0.000995748773335463
5.69	0.00110517385268897
5.7	0.00122254994582649
5.71	0.00134841467800315
5.72	0.00148336605762982
5.73	0.00162806916389039
5.74	0.00178326375058839
5.75	0.0019497729052158
5.76	0.00212851292596902
5.77	0.00232050460763293
5.78	0.00252688616083011
5.79	0.00274892802920281
5.8	0.00298804991702808
5.81	0.00324584039722928
5.82	0.00352407953878944
5.83	0.00382476507570644
5.84	0.00415014273994423
5.85	0.00450274150211949
5.86	0.00488541461057861
5.87	0.00530138749778135
5.88	0.0057543138395128
5.89	0.00624834131593414
5.9	0.00678818894421811
5.91	0.00737923824296981
5.92	0.0080276409636351
5.93	0.00874044670094966
5.94	0.0095257543927968
5.95	0.0103928925608137
5.96	0.0113526341477044
5.97	0.0124174529925798
5.98	0.0136018303579017
5.99	0.0149226214631227
6	0.0163994936266429
6.01	0.018055449218759
6.02	0.0199174478791806
6.03	0.0220171427796748
6.04	0.0243917440808197
6.05	0.0270850173308216
6.06	0.0301484122887056
6.07	0.0336422933499977
6.08	0.0376371979729286
6.09	0.0422149709218623
6.1	0.0474694896810414
6.11	0.0535064820275479
6.12	0.0604416067793241
6.13	0.0683954960500543
6.14	0.0774838572959928
6.15	0.0878001450385144
6.16	0.0993881443835417
6.17	0.112202921389173
6.18	0.126062315958913
6.19	0.140598612235527
6.2	0.155230183876606
6.21	0.169179848935056
6.22	0.181559877088282
6.23	0.191516673533534
6.24	0.198392192896234
6.25	0.201841670601666
6.26	0.201866650311035
6.27	0.198764910287113
6.28	0.193032464655038
6.29	0.185259047474384
6.3	0.17604405530107
6.31	0.165941405500594
6.32	0.155429750842287
6.33	0.144900436421501
6.34	0.134656361854466
6.35	0.124917183183913
6.36	0.11582820507223
6.37	0.107471386816381
6.38	0.099877325700213
6.39	0.0930372520279056
6.4	0.0869142222231345
6.41	0.0814529159328495
6.42	0.0765877075193226
6.43	0.0722489334732603
6.44	0.0683674695372634
6.45	0.064877847765463
6.46	0.061720191376883
6.47	0.0588412431907798
6.48	0.0561947325346744
6.49	0.0537412826221718
6.5	0.0514480165229395
6.51	0.0492879808074569
6.52	0.0472394738902753
6.53	0.0452853410262203
6.54	0.0434122788599126
6.55	0.0416101781490875
6.56	0.0398715226335372
6.57	0.0381908540939368
6.58	0.0365643077695636
6.59	0.0349892180079826
6.6	0.0334637909680722
6.61	0.0319868391431677
6.62	0.0305575712188848
6.63	0.029175430166572
6.64	0.0278399723546658
6.65	0.0265507807089762
6.66	0.0253074054572702
6.67	0.0241093266580697
6.68	0.0229559334601081
6.69	0.02184651580618
6.7	0.0207802650380381
6.71	0.0197562805467292
6.72	0.0187735802266457
6.73	0.0178311130226276
6.74	0.0169277723061037
6.75	0.0160624091820773
6.76	0.0152338451207054
6.77	0.0144408835340911
6.78	0.013682320090246
6.79	0.0129569516814518
6.8	0.012263584052302
6.81	0.0116010381514498
6.82	0.0109681553073743
6.83	0.0103638013480226
6.84	0.00978686979167325
6.85	0.00923628423550432
6.86	0.00871100006201104
6.87	0.0082100055737825
6.88	0.00773232265579385
6.89	0.00727700705243367
6.9	0.00684314833472788
6.91	0.00642986962213146
6.92	0.00603632711312152
6.93	0.00566170946977933
6.94	0.00530523709363023
6.95	0.00496616132318896
6.96	0.00464376357785886
6.97	0.00433735446796351
6.98	0.00404627288663934
6.99	0.00376988509598245
7	0.0035075838171201
7.01	0.00325878733167114
7.02	0.00302293860028716
7.03	0.00279950440255194
7.04	0.00258797450139785
7.05	0.0023878608343199
7.06	0.00219869673298495
7.07	0.00202003617230775
7.08	0.00185145304966664
7.09	0.00169254049463396
7.1	0.00154291020937825
7.11	0.0014021918397426
7.12	0.00127003237690197
7.13	0.00114609558944115
7.14	0.00103006148566752
7.15	0.000921625805971613
7.16	0.000820499545069526
7.17	0.000726408504000511
7.18	0.000639092871808868
7.19	0.000558306836908302
7.2	0.000483818228209525
7.21	0.00041540818618693
7.22	0.000352870864167041
7.23	0.00029601316024128
7.24	0.000244654480338412
7.25	0.00019862653313877
7.26	0.000157773157674845
7.27	0.000121950184641966
7.28	9.10253326411768e-05
7.29	6.48781407959154e-05
7.3	4.33999394276505e-05
7.31	2.64938607463509e-05
7.32	1.40748918132178e-05
7.33	6.0699723697161e-06
7.34	2.41814050357462e-06
7.35	3.0707295446712e-06
7.36	7.99162005810429e-06
7.37	1.71575513358756e-05
7.38	3.0558497391159e-05
7.39	4.81981131402951e-05
7.4	7.00942572291176e-05
7.41	9.62795988356567e-05
7.42	0.000126802316776528
7.43	0.000161726900378062
7.44	0.000201135062866954
7.45	0.000245126779514184
7.46	0.000293821464460076
7.47	0.000347359302092075
7.48	0.000405902751081339
7.49	0.000469638241757716
7.5	0.000538778090472254
7.51	0.000613562658028998
7.52	0.000694262783243759
7.53	0.000781182527301311
7.54	0.00087466226994711
7.55	0.000975082204799741
7.56	0.00108286628836624
7.57	0.0011984867058769
7.58	0.0013224689270605
7.59	0.00145539743673204
7.6	0.00159792223889737
7.61	0.00175076624939838
7.62	0.0019147337114142
7.63	0.0020907197909941
7.64	0.00227972153694353
7.65	0.00248285042169458
7.66	0.00270134671833361
7.67	0.00293659601503754
7.68	0.00319014822338554
7.69	0.00346373950332163
7.7	0.00375931760734964
7.71	0.0040790712427964
7.72	0.00442546416730571
7.73	0.00480127487357971
7.74	0.00520964289023069
7.75	0.00565412293314198
7.76	0.00613874839414026
7.77	0.00666810596099244
7.78	0.00724742353674475
7.79	0.00788267408151542
7.8	0.00858069855280005
7.81	0.00934935179029188
7.82	0.0101976759991147
7.83	0.011136107452482
7.84	0.0121767231795367
7.85	0.0133335357358937
7.86	0.0146228456623003
7.87	0.0160636628694762
7.88	0.0176782098176145
7.89	0.0194925207241218
7.9	0.0215371516312962
7.91	0.0238480150848542
7.92	0.0264673488091343
7.93	0.0294448173579019
7.94	0.0328387246385716
7.95	0.0367172758537472
7.96	0.041159757680641
7.97	0.0462573869644238
7.98	0.0521133845494016
7.99	0.0588415290976466
8	0.0665620053343056
8.01	0.075392783183462
8.02	0.0854341505186565
8.03	0.0967437069251001
8.04	0.109299857651188
8.05	0.122954872814017
8.06	0.137385187679715
8.07	0.152056492556091
8.08	0.166229609506614
8.09	0.179030274799817
8.1	0.189583254120614
8.11	0.197175188524544
8.12	0.201386638695691
8.13	0.202145089514138
8.14	0.199690848216663
8.15	0.194485786152793
8.16	0.187107266254724
8.17	0.178158297392115
8.18	0.168206081999975
8.19	0.157747288974967
8.2	0.147192778728576
8.21	0.136864548581398
8.22	0.126999826614478
8.23	0.117759315547148
8.24	0.109237841887098
8.25	0.10147621242181
8.26	0.0944732826079772
8.27	0.0881973849418404
8.28	0.0825964695193636
8.29	0.0776065683317398
8.3	0.0731584536909526
8.31	0.0691825688056359
8.32	0.0656124416338915
8.33	0.0623868544420154
8.34	0.0594510484682933
8.35	0.0567572168765506
8.36	0.0542644977715022
8.37	0.051938634730438
8.38	0.0497514319209153
8.39	0.0476800972318042
8.4	0.0457065403076431
8.41	0.0438166721090543
8.42	0.0419997374007102
8.43	0.0402477002108737
8.44	0.0385546938479502
8.45	0.0369165407809824
8.46	0.0353303430816691
8.47	0.0337941408247308
8.48	0.0323066335884596
8.49	0.0308669587841429
8.5	0.0294745198024383
8.51	0.0281288567491372
8.52	0.026829552721155
8.53	0.0255761690307077
8.54	0.0243682034224081
8.55	0.0232050660624302
8.56	0.0220860688460542
8.57	0.0210104243212919
8.58	0.01997725122812
8.59	0.018985584283993
8.6	0.0180343863958854
8.61	0.0171225619441059
8.62	0.0162489701661567
8.63	0.015412437976335
8.64	0.0146117717970942
8.65	0.0138457681608664
8.66	0.0131132229756277
8.67	0.0124129394429755
8.68	0.0117437346820338
8.69	0.011104445153173
8.7	0.0104939309983107
8.71	0.009911079424337
8.72	0.0093548072568997
8.73	0.00882406278643888
8.74	0.00831782701928859
8.75	0.00783511443557702
8.76	0.00737497334376935
8.77	0.00693648590984959
8.78	0.00651876792786964
8.79	0.00612096838823079
8.8	0.00574226889077161
8.81	0.00538188294157107
8.82	0.00503905516531855
8.83	0.004713060459087
8.84	0.00440320310828093
8.85	0.00410881588130975
8.86	0.00382925911605511
8.87	0.00356391980835158
8.88	0.0033122107103882
8.89	0.00307356944507774
8.9	0.00284745764095377
8.91	0.00263336009097686
8.92	0.00243078393770455
8.93	0.00223925788655745
8.94	0.00205833144835691
8.95	0.00188757421188431
8.96	0.00172657514689491
8.97	0.0015749419377848
8.98	0.00143230034794415
8.99	0.0012982936147177
9	0.00117258187482448
9.01	0.0010548416200545
9.02	0.000944765183053562
9.03	0.000842060253023874
9.04	0.000746449421203718
9.05	0.000657669756041672
9.06	0.000575472408047278
9.07	0.000499622244379795
9.08	0.000429897513328944
9.09	0.000366089538945806
9.1	0.000308002446199047
9.11	0.000255452917161542
9.12	0.00020826997887603
9.13	0.000166294823707295
9.14	0.000129380663163885
9.15	9.73926163661563e-05
9.16	7.02076345522074e-05
9.17	4.77144632512306e-05
9.18	2.98136440182969e-05
9.19	1.64175579190488e-05
9.2	7.45051328129585e-06
9.21	2.84888059791775e-06
9.22	2.56127787717577e-06
9.23	6.54881019892027e-06
9.24	1.47853677554786e-05
9.25	2.72579872427392e-05
9.26	4.39672821299318e-05
9.27	6.49279480871967e-05
9.28	9.01693507013908e-05
9.29	0.000119736203578111
9.3	0.000153689346029535
9.31	0.00019210663080428
9.32	0.000235083933751566
9.33	0.000282736298956
9.34	0.000335199234765057
9.35	0.000392630178298308
9.36	0.000455210148522091
9.37	0.000523145610850519
9.38	0.000596670579558593
9.39	0.000676048988142383
9.4	0.000761577362226185
9.41	0.000853587834806002
9.42	0.000952451549661784
9.43	0.0010585825058223
9.44	0.00117244190421128
9.45	0.00129454306726332
9.46	0.00142545701363974
9.47	0.00156581878351911
9.48	0.00171633462567204
9.49	0.00187779017612361
9.5	0.00205105978022764
9.51	0.00223711713611443
9.52	0.00243704746856732
9.53	0.00265206147945506
9.54	0.00288351136514884
9.55	0.00313290924441031
9.56	0.00340194840392544
9.57	0.00369252784527404
9.58	0.00400678070948858
9.59	0.00434710726693228
9.6	0.00471621329527414
9.61	0.00511715483208281
9.62	0.00555339048740924
9.63	0.00602884274351059
9.64	0.00654796996311223
9.65	0.00711585118582652
9.66	0.00773828622831561
9.67	0.00842191413371992
9.68	0.00917435365842333
9.69	0.0100043702600337
9.7	0.0109220749809219
9.71	0.0119391617262165
9.72	0.0130691907259035
9.73	0.0143279274425389
9.74	0.0157337477988908
9.75	0.0173081222472902
9.76	0.0190761926582972
9.77	0.0210674568328792
9.78	0.0233165748372063
9.79	0.0258643079009869
9.8	0.028758591855139
9.81	0.032055728870148
9.82	0.0358216467598775
9.83	0.0401331133789266
9.84	0.0450786877657723
9.85	0.0507590151503974
9.86	0.0572857978356373
9.87	0.0647783656681205
9.88	0.0733562183419652
9.89	0.083125288006308
9.9	0.0941552430848237
9.91	0.106445565740539
9.92	0.11988053402991
9.93	0.134178997356977
9.94	0.148854197905406
9.95	0.163208351837409
9.96	0.176387274389014
9.97	0.187502156206844
9.98	0.195790826256453
9.99	0.200761677270927
10	0.202266292898225
