0	0
0.001	-0.0160162074707673
0.002	-0.0327463898451514
0.003	-0.0496934442114275
0.004	-0.0668594721882865
0.005	-0.0842465785857981
0.006	-0.101856870910316
0.007	-0.11969245883037
0.008	-0.137755453599459
0.009	-0.156047967431325
0.01	-0.174572112822976
0.011	-0.19333000182034
0.012	-0.212323745221082
0.013	-0.231555451708718
0.014	-0.251027226911733
0.015	-0.270741172380998
0.016	-0.290699384478314
0.017	-0.310903953168439
0.018	-0.331356960706447
0.019	-0.352060480211775
0.02	-0.373016574119731
0.021	-0.394227292500708
0.022	-0.39262259851906
0.023	-0.388474377112687
0.024	-0.384333348357788
0.025	-0.380199149961679
0.026	-0.376071419985548
0.027	-0.371949796871802
0.028	-0.367833919470473
0.029	-0.363723427064681
0.03	-0.359617959395168
0.031	-0.355517156683915
0.032	-0.351420659656841
0.033	-0.347328109565606
0.034	-0.343239148208519
0.035	-0.339153417950553
0.036	-0.335070561742493
0.037	-0.330990223139206
0.038	-0.326912046317051
0.039	-0.322835676090438
0.04	-0.318760757927534
0.041	-0.314686937965136
0.042	-0.310540466083021
0.043	-0.306161946008297
0.044	-0.301543274937738
0.045	-0.296681616496679
0.046	-0.291574126958468
0.047	-0.286217955440452
0.048	-0.280610244117674
0.049	-0.274748128457596
0.05	-0.268628737479546
0.051	-0.262249194042905
0.052	-0.255606615168418
0.053	-0.248698112397416
0.054	-0.24152079219413
0.055	-0.234071756396719
0.056	-0.226348102723107
0.057	-0.218346925338181
0.058	-0.210065315489443
0.059	-0.206502375281442
0.06	-0.200276333793149
0.061	-0.196376526365192
0.062	-0.189772862780881
0.063	-0.185538859988277
0.064	-0.181150055014942
0.065	-0.176603067126036
0.066	-0.171899491875625
0.067	-0.167043575959416
0.068	-0.162034572199462
0.069	-0.156871750027357
0.07	-0.151557024210358
0.071	-0.146089734996544
0.072	-0.140471924618792
0.073	-0.1347057190364
0.074	-0.131552664493223
0.075	-0.125506794793456
0.076	-0.122107034739709
0.077	-0.115791008463697
0.078	-0.11215156075473
0.079	-0.105564313196178
0.08	-0.10168422269233
0.081	-0.0948277732427318
0.082	-0.0907149776518058
0.083	-0.0864933319616152
0.084	-0.0821657326671282
0.085	-0.07480894966068
0.086	-0.0702573253281719
0.087	-0.0655999127553484
0.088	-0.0608398481832647
0.089	-0.0559803707346046
0.09	-0.0510217264373594
0.091	-0.0459610793840632
0.092	-0.0408049611679822
0.093	-0.0355506008058826
0.094	-0.0302047651442533
0.095	-0.024761523050004
0.096	-0.0192310390793172
0.097	-0.0166687036795197
0.098	-0.0109702749644445
0.099	-0.00518314737335801
0.1	0.000695303978580752
0.101	0.000440925445818863
0.102	0.000200080153592852
0.103	-3.11685580255405e-05
0.104	-0.000249997013421654
0.105	-0.000460386372105104
0.106	-0.000659519229870287
0.107	-0.000851430994441071
0.108	-0.00102984730475586
0.109	-0.00119882368355251
0.11	-0.00136247720355454
0.111	0.00153551987985989
0.112	-0.00167303773561001
0.113	-0.00182131490165005
0.114	0.00107493667326386
0.115	0.000929167610951964
0.116	-0.00224665360064213
0.117	0.000643116276792921
0.118	0.000504898195997194
0.119	0.000365269991846384
0.12	0.000230676363410898
0.121	8.94563387919822e-05
0.122	-5.56077709141789e-05
0.123	-0.000201700722367693
0.124	-0.000353322523037547
0.125	-0.000507659520414427
0.126	-0.000669270117522491
0.127	-0.000839058222253053
0.128	0.00194222989093151
0.129	-0.00118816791938636
0.13	0.00155853657315352
0.131	-0.00157346562624128
0.132	-0.00178299888188294
0.133	0.000900936645678918
0.134	0.000656721206975686
0.135	0.000407904605824627
0.136	0.000142035967990339
0.137	-0.000141935675120997
0.138	-0.000441201937752655
0.139	-0.000756803484158297
0.14	-0.00108589573256979
0.141	0.0013936224375839
0.142	0.001014538632371
0.143	0.000614564367413362
0.144	0.000200488970150237
0.145	-0.000240629449126506
0.146	-0.000702006682035239
0.147	-0.00118475577353783
0.148	0.00104850831137915
0.149	0.000501503798137848
0.15	-6.25467798756052e-05
0.151	-0.0006609003564364
0.152	0.00140727094939275
0.153	0.000741581529993374
0.154	4.98649855881217e-05
0.155	-0.000669054588223084
0.156	0.00121165313692106
0.157	0.000414010608899118
0.158	-0.000410624947280724
0.159	0.00131488790180068
0.16	0.000406758553829101
0.161	-0.00053230569349294
0.162	-0.00150769972039488
0.163	2.89598401903568e-06
0.164	-0.00105945261432405
0.165	0.000332452421645035
0.166	-0.000818901545574624
0.167	0.00044655953808681
0.168	-0.000795847652642512
0.169	0.000339619174876127
0.17	0.00139902046035523
0.171	1.7787417112558e-06
0.172	-0.00142878884191056
0.173	-0.00056389762692699
0.174	0.000220596008071672
0.175	0.000930998983818765
0.176	-0.000723097586943111
0.177	-0.000157426033147834
0.178	0.000323184479092187
0.179	0.000725147941197601
0.18	0.00104175450131672
0.181	0.00127066482063154
0.182	-0.00073977987800522
0.183	-0.000658268472020884
0.184	-0.000662097872995537
0.185	-0.000753547505370267
0.186	-0.00092596036483239
0.187	0.000850398914300055
0.188	0.00048887066763692
0.189	8.17730334675693e-05
0.19	-0.000378385538264303
0.191	-0.000891806187981792
0.192	0.000672031650092553
0.193	7.26960851890057e-05
0.194	0.00159476868706898
0.195	-0.00130239030155699
0.196	0.000152652299139078
0.197	0.00159568699918722
0.198	0.000745286730772343
0.199	-0.000169104082160643
0.2	0.00118257909077546
0.201	0.00016036501053418
0.202	-0.000931027744492052
0.203	0.000321695279615453
0.204	0.00155557666369732
0.205	0.000303271152071405
0.206	-0.00102624677647878
0.207	9.59961005292387e-05
0.208	-0.0013601099797087
0.209	-0.000310970776680852
0.21	0.000715576316899114
0.211	-0.000925483539902072
0.212	2.00086795481003e-05
0.213	0.000941097809778801
0.214	-0.000896067463176276
0.215	-6.26332923611139e-05
0.216	0.00074100733784932
0.217	-0.00130544099569407
0.218	-0.00059086146796572
0.219	8.82598894532682e-05
0.22	0.00073501666905984
0.221	0.00134694220693043
0.222	-0.00105395741845415
0.223	-0.000544683040945126
0.224	-7.23404295417396e-05
0.225	0.0003604454155679
0.226	0.000753022885537025
0.227	0.00110472713227705
0.228	-0.00175638920647081
0.229	0.00168509282907314
0.23	-0.00132917646354913
0.231	-0.00118077913541492
0.232	-0.00107889771197001
0.233	-0.00102420259802749
0.234	-0.00101737146493508
0.235	-0.00105676447703762
0.236	-0.00114759756201632
0.237	-0.0012882309820279
0.238	-0.00148168667082971
0.239	0.00182198108014686
0.24	0.00155911096768957
0.241	0.00124167546873943
0.242	0.000869003641922994
0.243	0.000442957216930884
0.244	-4.20889837190463e-05
0.245	-0.000586837775942706
0.246	-0.00118680146019701
0.247	0.00198934095182768
0.248	0.0013045165476725
0.249	0.000557650085623362
0.25	-0.000254593779764667
0.251	-0.00112747624743847
0.252	-0.0020670083506128
0.253	0.000993618763341031
0.254	-3.66096481991818e-05
0.255	-0.00113793073778623
0.256	0.00187232117411895
0.257	0.000674884361289929
0.258	-0.000589575268839182
0.259	-0.00192735139665201
0.26	0.000996219642681706
0.261	-0.000443955579095379
0.262	-0.00195900372637292
0.263	0.000902549868052716
0.264	-0.000720281169293902
0.265	0.00210678924532592
0.266	0.000374737664912028
0.267	-0.00143134813596046
0.268	0.00132386797144457
0.269	-0.000599765435356892
0.27	0.00212190323361539
0.271	8.25667781804151e-05
0.272	-0.00203903003624595
0.273	0.000600974635152074
0.274	-0.00163824770200938
0.275	0.000963192556888259
0.276	-0.00140449123451225
0.277	0.00115116504468105
0.278	-0.00133956967920712
0.279	0.0011662480931891
0.28	-0.00145181763649516
0.281	0.0010068319178721
0.282	-0.00173939615909235
0.283	0.000671556654406213
0.284	-0.00220351487060122
0.285	0.000155811673939854
0.286	0.00250347029134934
0.287	-0.000552090123734361
0.288	0.00174673012245052
0.289	-0.00144973122889347
0.29	0.000792783957926035
0.291	0.00303034664284807
0.292	-0.000348487014724896
0.293	0.00182873556674457
0.294	-0.00169202585692418
0.295	0.00042814208239772
0.296	0.00253587546809209
0.297	-0.00117176641705852
0.298	0.000878689295865764
0.299	0.00291659813167644
0.3	-0.000985348165227551
0.301	0.000991440568702373
0.302	0.00295561038037995
0.303	-0.00114046179975802
0.304	0.000758793595802332
0.305	0.00264922465413464
0.306	-0.0016441525066937
0.307	0.000181547636894042
0.308	0.00199082436146492
0.309	-0.00249886740702165
0.31	-0.000754043681165717
0.311	0.000978322851112101
0.312	0.00269827748848361
0.313	-0.00204163512313882
0.314	-0.000389348797846134
0.315	0.00125072609736709
0.316	0.00287075286142313
0.317	-0.00212035512610109
0.318	-0.00056316675073298
0.319	0.000978168508777855
0.32	0.00250371443818909
0.321	-0.00273866973686132
0.322	-0.00127868659301211
0.323	0.000165859217659547
0.324	0.00159506376862151
0.325	0.00300902974086548
0.326	-0.00253250289271623
0.327	-0.00118211282146874
0.328	0.000149432921432768
0.329	0.00146632409490277
0.33	0.00276460282802715
0.331	-0.00307547397162711
0.332	-0.00183841843028354
0.333	-0.000619402969547322
0.334	0.000585820150063365
0.335	0.00177327545342632
0.336	0.00294725573667987
0.337	-0.00323396016500521
0.338	-0.0021260116813473
0.339	-0.0010308207514137
0.34	5.1827849576247e-05
0.341	0.00111380661865956
0.342	0.00216360158731432
0.343	0.00320144600217331
0.344	-0.00335777310083518
0.345	-0.0023854178904521
0.346	-0.00142415677109697
0.347	-0.000482123420185165
0.348	0.00044925781993066
0.349	0.00136604766957993
0.35	0.00226850481192165
0.351	0.00315684332305466
0.352	-0.00380356092146694
0.353	-0.00297019090907891
0.354	-0.0021540979655027
0.355	-0.00134663526682199
0.356	-0.000555908858987819
0.357	0.000226736477243916
0.358	0.0009932090072865
0.359	0.0017521689541492
0.36	0.00249554126089491
0.361	0.00323198779425771
0.362	0.0039534524687691
0.363	-0.00349584415185955
0.364	-0.00282350467203996
0.365	-0.00216077783575297
0.366	-0.00150731090340606
0.367	-0.000866983393780107
0.368	-0.000235302418081451
0.369	0.000388051309914594
0.37	0.00100341177366225
0.371	0.00160695954692169
0.372	0.00220319302416228
0.373	0.00279243294607867
0.374	0.00337506185591097
0.375	-0.00452603802041185
0.376	-0.00398410385861581
0.377	-0.00344741163705087
0.378	-0.00291975371307851
0.379	-0.00240079618787126
0.38	-0.00188193202560116
0.381	-0.00137100637714149
0.382	-0.000867677743244366
0.383	-0.000363376522294012
0.384	0.00013410123621882
0.385	0.000625103134572091
0.386	0.00110997908156829
0.387	0.00159724742669698
0.388	0.00207917551033066
0.389	0.00255611734745087
0.39	0.00303247159811182
0.391	0.00350865381243748
0.392	0.0039809973829481
0.393	0.00444986007192594
0.394	-0.00393546580763915
0.395	-0.00348162727265666
0.396	-0.00302975856188792
0.397	-0.00257949995972617
0.398	-0.00212252535667701
0.399	-0.00166636906172424
0.4	-0.00121067301669076
0.401	-0.000755079425031169
0.402	-0.000291350050216188
0.403	0.000173060407754888
0.404	0.000638506199035938
0.405	0.00110534069127821
0.406	0.00158170659895773
0.407	0.00206023158403124
0.408	0.00254126364941876
0.409	0.00302514931969122
0.41	0.00351992889530828
0.411	0.00401831460570146
0.412	0.00452064587798251
0.413	-0.00406933447641655
0.414	-0.00356041441783672
0.415	-0.00304613139301679
0.416	-0.00252240190081177
0.417	-0.00199260107288551
0.418	-0.00145269852819085
0.419	-0.000906081294016148
0.42	-0.000345001264122569
0.421	0.000223477244266745
0.422	0.000799660390746471
0.423	0.00138751310577506
0.424	0.00198737738966681
0.425	0.00259589957120793
0.426	0.0032169896273988
0.427	0.00385097552155095
0.428	0.00449453247676052
0.429	-0.00404503909855763
0.43	-0.00338208200308254
0.431	-0.00270127000847226
0.432	-0.00200585577014034
0.433	-0.00129911706402508
0.434	-0.000577302162724946
0.435	0.000156381482950829
0.436	0.0009090985037431
0.437	0.00167418400146441
0.438	0.00245533770175094
0.439	0.00325276344036896
0.44	0.00406671536980979
0.441	-0.00430968282366428
0.442	-0.00346232714485589
0.443	-0.00260091871177648
0.444	-0.00171853797797472
0.445	-0.000821681416247944
0.446	9.64960419458927e-05
0.447	0.0010295473700429
0.448	0.00198424343236719
0.449	0.0029541861308478
0.45	0.00394607246028383
0.451	-0.00421712981540351
0.452	-0.00318476746925495
0.453	-0.0021330419327476
0.454	-0.00106179531607631
0.455	2.90729466588258e-05
0.456	0.00114286876360914
0.457	0.00227656030920187
0.458	0.00342709719421591
0.459	0.00460083627308661
0.46	-0.00331980381657296
0.461	-0.00209449263786185
0.462	-0.000851677927650951
0.463	0.000414835188422696
0.464	0.00169901341014131
0.465	0.00300698210500697
0.466	0.00433878963410492
0.467	-0.00336041191500927
0.468	-0.00197734345060349
0.469	-0.000570173932331025
0.47	0.000858174392755928
0.471	0.00230769346637497
0.472	0.00378132631677194
0.473	-0.00370730294240496
0.474	-0.00218066840979522
0.475	-0.000629810359556171
0.476	0.000945247387461601
0.477	0.00254447453416354
0.478	0.00416783436347529
0.479	-0.0031016978198814
0.48	-0.00142437894025033
0.481	0.00027703434175616
0.482	0.00200247747386807
0.483	0.00375187980510376
0.484	-0.00332048957962913
0.485	-0.00151401515032779
0.486	0.000316268497691938
0.487	0.00217026382954053
0.488	0.00404786757490835
0.489	-0.00282483376917511
0.49	-0.000887691663211558
0.491	0.00107280142974918
0.492	0.00305651652258242
0.493	-0.00364628988182644
0.494	-0.00160353191848939
0.495	0.000462099679746662
0.496	0.00255302037184808
0.497	-0.00398003347298913
0.498	-0.00183085666130661
0.499	0.00034061256575374
0.5	0.00253419791436961
0.501	-0.00382501117267651
0.502	-0.00157171001232665
0.503	0.000703197209888075
0.504	0.0030019686047006
0.505	-0.00318767599632962
0.506	-0.000830574683343806
0.507	0.00154735366505464
0.508	0.00394827778042225
0.509	-0.0020718523399691
0.51	0.000385785313991666
0.511	0.00286337889113472
0.512	-0.00302143202895314
0.513	-0.000486123032234123
0.514	0.00207074206791955
0.515	-0.00368090088581698
0.516	-0.00107014280890354
0.517	0.0015613896486298
0.518	-0.00405726933441375
0.519	-0.00137119497670871
0.52	0.0013348158275607
0.521	0.00406046785081876
0.522	-0.0013970444895598
0.523	0.00137858471376803
0.524	-0.00398265768122863
0.525	-0.00115392956928362
0.526	0.0016929349455839
0.527	-0.00354433626522263
0.528	-0.000648537657226639
0.529	0.00226656110509374
0.53	-0.00284807075610441
0.531	0.00011599879627211
0.532	0.0030941677139146
0.533	-0.00190153625286149
0.534	0.00112342636363383
0.535	0.00416561342181473
0.536	-0.000713018297955004
0.537	0.00237369139185073
0.538	-0.00242075102918185
0.539	0.000708881656908966
0.54	0.00385191402801424
0.541	-0.000832513791664435
0.542	0.00235303413965066
0.543	-0.00225031396875008
0.544	0.000974098052182348
0.545	-0.00354846122104696
0.546	-0.000286875124635155
0.547	0.00298741348968268
0.548	-0.00143393052484209
0.549	0.00187691635654436
0.55	-0.0024711196758963
0.551	0.000874482161697943
0.552	-0.00340071184289881
0.553	-2.40094200947838e-05
0.554	-0.00423064439371912
0.555	-0.000820981431654821
0.556	0.0025977692513714
0.557	-0.00152068282752077
0.558	0.0019265177948638
0.559	-0.0021274681225576
0.56	0.00134631222660342
0.561	-0.00264394596616513
0.562	0.000856304045988521
0.563	-0.00307450945395038
0.564	0.000448552791555701
0.565	-0.00342536681854566
0.566	0.000118622661409606
0.567	0.00366885137538081
0.568	-0.000134554829992695
0.569	0.0034338440060494
0.57	-0.0003171959271141
0.571	-0.00403247395532941
0.572	-0.000432136403878625
0.573	0.00317183310471431
0.574	-0.000483929096833147
0.575	0.00313408509539681
0.576	-0.000475529395183638
0.577	0.00315298878129655
0.578	-0.000414715464001292
0.579	-0.00395275970425407
0.58	-0.000304425025325961
0.581	0.00334408215543808
0.582	-0.000149206032174387
0.583	0.00350561120596837
0.584	4.79258575369901e-05
0.585	0.00370712890018465
0.586	0.000280904443655472
0.587	-0.00312025456479958
0.588	0.000546699422232622
0.589	-0.00282565717926986
0.59	0.000840795525037685
0.591	-0.00250681817698173
0.592	0.0011601043192746
0.593	-0.00216532328528418
0.594	0.00149729315380798
0.595	-0.0018070993750946
0.596	0.0018493346369195
0.597	-0.00143797321768502
0.598	0.00221043593275494
0.599	-0.00105960028996399
0.6	0.00257894211706711
0.601	-0.000677737546056822
0.602	0.00295042585583394
0.603	-0.000296711187462995
0.604	0.00331921969321114
0.605	7.91616141391227e-05
0.606	0.00367975337123772
0.607	0.000444353761340555
0.608	-0.00278058444855289
0.609	0.00079715298343519
0.61	-0.00242698541079533
0.611	0.00113330114877563
0.612	-0.00209240380696885
0.613	0.00144625070513116
0.614	-0.00178219829518045
0.615	0.00173310232062884
0.616	-0.00150160486734263
0.617	0.00198865605545595
0.618	-0.00125458729528072
0.619	0.00221006404888635
0.62	-0.0010428906927803
0.621	0.0023933726996147
0.622	-0.00087159265914627
0.623	0.0025336076022533
0.624	-0.000745624584426618
0.625	0.00262899500313518
0.626	-0.000667725855518886
0.627	-0.00396932307486053
0.628	-0.000642672906944197
0.629	0.00266491307757344
0.63	-0.000674144103744667
0.631	0.00259709791377993
0.632	-0.000764854693094064
0.633	0.00246761382277483
0.634	-0.00092110289071734
0.635	0.00227202778650148
0.636	-0.00114541240363142
0.637	0.00200690629880673
0.638	-0.00144118772747159
0.639	0.00166806200754477
0.64	-0.00181256344750136
0.641	0.00125302796712468
0.642	-0.00226123552924973
0.643	0.000759295507289481
0.644	0.00375433540718795
0.645	0.000182186322095323
0.646	-0.00340635438200854
0.647	-0.000482064067279575
0.648	0.0024163143906184
0.649	-0.00123511428009782
0.65	0.00161304418503228
0.651	-0.00208179534104991
0.652	0.000714922862766754
0.653	-0.00302316078169018
0.654	-0.000279624980931592
0.655	0.00243610990443344
0.656	-0.00137396772169573
0.657	0.00128697848788306
0.658	-0.00257123070591825
0.659	3.43240900744224e-05
0.66	0.0026103761894205
0.661	-0.00132530618168236
0.662	0.00119378680384119
0.663	-0.00279383848009196
0.664	-0.000333492838536009
0.665	0.00209662197901805
0.666	-0.00197332536659933
0.667	0.000397022185930962
0.668	0.00273619047770901
0.669	-0.00141824521691258
0.67	0.000859596415672681
0.671	0.00310591038249852
0.672	-0.0011358089721476
0.673	0.00104798559402097
0.674	0.00319947831448741
0.675	-0.00113158131131608
0.676	0.000956178330419388
0.677	0.00301123909973711
0.678	-0.00141110418819523
0.679	0.00057924841825574
0.68	0.002536333298368
0.681	-0.00197911133428974
0.682	-8.76299292017491e-05
0.683	0.00177016166176225
0.684	-0.00283991537876593
0.685	-0.00104850461742034
0.686	0.000708889309280147
0.687	0.0024320389549799
0.688	-0.00230696396722385
0.689	-0.000651136187498791
0.69	0.000970263732257393
0.691	0.00255714609644153
0.692	-0.00231232986823338
0.693	-0.000793286864422704
0.694	0.000690712449287201
0.695	0.00213986091537632
0.696	-0.0028608166332561
0.697	-0.00148009422174811
0.698	-0.000134022207253337
0.699	0.00117653250583216
0.7	0.00245234782994241
0.701	-0.00271389587968929
0.702	-0.00150697323358573
0.703	-0.000334844619316876
0.704	0.00080193652148286
0.705	0.0019033196375714
0.706	0.00296925689398564
0.707	-0.00239457485367944
0.708	-0.00139724638878935
0.709	-0.000434119011785583
0.71	0.000493488963779098
0.711	0.00138554419876491
0.712	0.00224347728021135
0.713	0.00306583788920134
0.714	-0.00252659016245971
0.715	-0.00177094945837275
0.716	-0.00105085213017486
0.717	-0.000365459287385628
0.718	0.000286167408868221
0.719	0.000902254989976981
0.72	0.00148375020325586
0.721	0.00203164535234557
0.722	0.00254406024717113
0.723	0.00302300966037294
0.724	0.00346754827111306
0.725	-0.0024690585387902
0.726	-0.00208832924767788
0.727	-0.0017428632870915
0.728	-0.00142922146835445
0.729	-0.00114957459742304
0.73	-0.000902668454812017
0.731	-0.000689615043115044
0.732	-0.000509091986361843
0.733	-0.000360978443458615
0.734	-0.000245136300889626
0.735	-0.000162784351545375
0.736	-0.000111143379063594
0.737	-9.13863720771735e-05
0.738	-0.000104800747475653
0.739	-0.000148444798088176
0.74	-0.00022357473103729
0.741	-0.000330033065545243
0.742	-0.000467688284360612
0.743	-0.000636391675397419
0.744	-0.000835991708216577
0.745	-0.00106476306964964
0.746	-0.00132409789184962
0.747	-0.00161219734368112
0.748	-0.00193051627065699
0.749	-0.00227888931452147
0.75	-0.00265544884140434
0.751	-0.00305997445016104
0.752	0.00271749244326736
0.753	0.00224938167964772
0.754	0.00175384154873637
0.755	0.00122925306949695
0.756	0.000679528320034151
0.757	0.000101180711097881
0.758	-0.000501797232758006
0.759	-0.00113297630538556
0.76	-0.00178825664778759
0.761	-0.00246933502295466
0.762	0.00295510743452765
0.763	0.00221541019972782
0.764	0.00145054031690217
0.765	0.000660734147080122
0.766	-0.000151653450704337
0.767	-0.000988431862496642
0.768	-0.00184720632695301
0.769	-0.00272984708308555
0.77	0.00242304557670414
0.771	0.00148467267573194
0.772	0.000527569465164524
0.773	-0.000452432216093923
0.774	-0.00145277419874856
0.775	0.00352969897070676
0.776	0.00247783607734831
0.777	0.00140643337114876
0.778	0.000313426788710491
0.779	-0.000798507535062387
0.78	-0.00192662401709642
0.781	0.00286191538838887
0.782	0.00168487707271436
0.783	0.000490070651866903
0.784	-0.000719670234477388
0.785	-0.00194902345026338
0.786	0.00268024192135941
0.787	0.00140928919519046
0.788	0.000119520064073342
0.789	-0.0011809663966853
0.79	-0.00249960839098651
0.791	0.00197634248508416
0.792	0.00061861224118942
0.793	-0.000753789137075356
0.794	-0.00213781623108389
0.795	0.00221701891799209
0.796	0.000793216768589677
0.797	-0.000641271349921091
0.798	-0.00208605083983471
0.799	0.002147219840688
0.8	0.000667454698455194
0.801	-0.000824455328292339
0.802	-0.00232247831720411
0.803	0.00179435951512041
0.804	0.000260593592348535
0.805	-0.00127825764673284
0.806	0.00275135104590585
0.807	0.00117823314918786
0.808	-0.00039894244107419
0.809	-0.001982710359967
0.81	0.00193777962239172
0.811	0.000324790234998873
0.812	-0.00129080564173067
0.813	0.00254574201548996
0.814	0.000902488291912973
0.815	-0.000745393855306808
0.816	-0.00239446055072801
0.817	0.00134074737981849
0.818	-0.00033380542764827
0.819	-0.00201161689707974
0.82	0.00164622860819785
0.821	-5.24064049201023e-05
0.822	-0.00174703527234565
0.823	0.00183184404736647
0.824	0.000118035133887084
0.825	-0.00159703763017993
0.826	0.00190755250156427
0.827	0.000174889180083793
0.828	-0.00155165851759176
0.829	0.00188022644028851
0.83	0.000134494884321157
0.831	-0.00160408554714753
0.832	0.00175669573563686
0.833	5.01395829299867e-07
0.834	-0.00174752036162396
0.835	0.00154704662780514
0.836	-0.00021702304195792
0.837	-0.00197192013940539
0.838	0.00125481872928546
0.839	-0.000514573439303279
0.84	-0.0022704933516472
0.841	0.000893380887130535
0.842	-0.000872155979335543
0.843	0.00224367799251624
0.844	0.000469481210664369
0.845	-0.00129296976981785
0.846	0.00176276711290657
0.847	-3.43360600774112e-06
0.848	-0.00175694234347323
0.849	0.00123367209607728
0.85	-0.000525402637907679
0.851	-0.00227086039051061
0.852	0.000666430718377242
0.853	-0.00107970311238803
0.854	0.00181347737172688
0.855	6.4225299498788e-05
0.856	-0.00166655859814502
0.857	0.00117274872285167
0.858	-0.000559675760523404
0.859	0.00223733881129262
0.86	0.000510999687022506
0.861	-0.00120226919054678
0.862	0.00154370851227714
0.863	-0.000162026447067642
0.864	-0.00185727671451041
0.865	0.000842799922105675
0.866	-0.000843501069982877
0.867	0.00181725093660456
0.868	0.000137379960292283
0.869	-0.00152048901373492
0.87	0.00109380509931623
0.871	-0.000559676693111855
0.872	0.00202057241416786
0.873	0.000375751506907163
0.874	-0.0012458463264553
0.875	0.00128739804187883
0.876	-0.000324223914228372
0.877	-0.00191871331600402
0.878	0.000576050065270173
0.879	-0.00100378469564366
0.88	0.00145655790841714
0.881	-0.000107813111438704
0.882	-0.00165731114005163
0.883	0.000764008614352552
0.884	-0.000765422301195251
0.885	0.00162676044826449
0.886	0.00010806044904943
0.887	-0.0013845976415614
0.888	0.000971409695192715
0.889	-0.000509327654105496
0.89	0.00181609177386188
0.891	0.000354751199947989
0.892	-0.00108627503259928
0.893	0.00120915556051859
0.894	-0.000211369936139127
0.895	0.00205208338679974
0.896	0.000649467077481702
0.897	-0.000728602914662813
0.898	0.00150439155047633
0.899	0.000145301520519725
0.9	-0.00119201604070995
0.901	0.00101548456623102
0.902	-0.000305060159545345
0.903	0.00187688714815848
0.904	0.000580344568848035
0.905	-0.000690350179658128
0.906	-0.00194151646923824
0.907	0.00021023089205785
0.908	-0.00101566697241184
0.909	0.00111606581660084
0.91	-9.03329497111693e-05
0.911	-0.00127001686976491
0.912	0.000835941796940465
0.913	-0.000323270406670129
0.914	-0.00145852459653439
0.915	0.000626527611522154
0.916	-0.000484148932777817
0.917	-0.00157046974615371
0.918	0.000492220200332516
0.919	-0.000571735012955321
0.92	0.0014720442952168
0.921	0.000434181543640833
0.922	-0.000581754671701129
0.923	0.0014425599837995
0.924	0.000450535158318388
0.925	-0.000513088966748232
0.926	-0.00145429054473745
0.927	0.000551598019998933
0.928	-0.000364575898062158
0.929	-0.00125794873563678
0.93	0.00073242568083054
0.931	-0.000138019830831837
0.932	-0.000979382555587771
0.933	0.000991300548728646
0.934	0.000173731678875799
0.935	-0.000620339307274231
0.936	0.00133831458858169
0.937	0.000568920604205991
0.938	-0.00017375007287207
0.939	-0.000895378811145153
0.94	0.0010488292796787
0.941	0.000352991861663321
0.942	-0.000318596904780644
0.943	-0.000965855094623935
0.944	0.000969796808840129
0.945	0.000346596308946345
0.946	-0.000251955364525824
0.947	-0.000825796988913774
0.948	0.00109877823218252
0.949	0.000550117066639988
0.95	2.10311929152995e-05
0.951	-0.000480244249254136
0.952	-0.000961754985807917
0.953	0.000958766289394009
0.954	0.000503819038993214
0.955	7.16784817280658e-05
0.956	-0.000337572367245575
0.957	-0.000723852296345029
0.958	0.0011894956073582
0.959	0.000828524862230395
0.96	0.000488268690760574
0.961	0.00017140465174259
0.962	-0.00012455129937336
0.963	-0.000399486461423848
0.964	-0.000650782094555657
0.965	-0.000880871942118694
0.966	0.00104059663109465
0.967	0.000835540123244133
0.968	0.000649588521002636
0.969	0.000485324736593101
0.97	0.000342841562038149
0.971	0.000222227642483086
0.972	0.000122620826041531
0.973	0.000107713390080422
0.974	0.000215646661476998
0.975	0.000449380873612321
0.976	0.000806908378416182
0.977	-0.000827544807300268
0.978	-0.000236636533065715
0.979	0.000478309600016935
0.98	-0.000846536668571957
0.981	0.000103474182304081
0.982	-0.00101963102001167
0.983	0.000166271394212797
0.984	-0.000756604302794797
0.985	0.00066406012255138
0.986	-5.49493360543774e-05
0.987	-0.000679566834962411
0.988	0.00108572855584098
0.989	0.000664761737747266
0.99	0.000336910279313873
0.991	0.00010478581075108
0.992	-3.27421679149759e-05
0.993	-7.6846796897248e-05
0.994	-2.87466523110486e-05
0.995	0.00011609512679131
0.996	0.000354510052282767
0.997	0.000685201434865501
0.998	0.00111076864756591
0.999	-0.000826240335671177
1	-0.000228034565434306
1.001	0.000462887324899172
1.002	-0.00124900749117681
1.003	-0.000388178530787393
1.004	0.000567039935566119
1.005	0.00161514681683722
1.006	0.000206852663545427
1.007	-0.00113488700728986
1.008	0.000159884363262489
1.009	-0.00103765034830431
1.01	0.000427540835384849
1.011	-0.000628433014438101
1.012	0.00100459520132903
1.013	9.16737109771804e-05
1.014	-0.000756334777819029
1.015	-0.00153688944603948
1.016	0.000414124513039821
1.017	-0.000227222619235759
1.018	-0.000806864294657733
1.019	0.00138397043403886
1.02	0.00094530359610423
1.021	0.000569147006036885
1.022	0.000258039421512646
1.023	7.61626063819354e-06
1.024	-0.000177257536558451
1.025	-0.000303353025603526
1.026	-0.000363430920473834
1.027	-0.000364359591849606
1.028	-0.000303592848976714
1.029	-0.000183352657753239
1.03	1.34041475902125e-06
1.031	0.000243401902462331
1.032	0.000545372278476092
1.033	0.000909839020105385
1.034	0.00133201652389761
1.035	-0.00104812057140852
1.036	-0.000520049185192356
1.037	6.85027377255731e-05
1.038	0.000712595221747214
1.039	-0.00147797106499564
1.04	-0.000727290544454001
1.041	7.90535220223654e-05
1.042	0.000941080771326486
1.043	-0.00106607137621134
1.044	-0.000102231867216196
1.045	0.00091468538616607
1.046	-0.00095965083622096
1.047	0.000156474382947136
1.048	-0.00163366030126327
1.049	-0.000421043566287471
1.05	0.000847080168307202
1.051	-0.000817969831125143
1.052	0.000540926231585359
1.053	0.0019523587775474
1.054	0.000409375660642253
1.055	-0.00109282949206468
1.056	0.000449174099316552
1.057	-0.000977386183564077
1.058	0.000654076039031171
1.059	-0.00069437756309465
1.06	0.00102031826380777
1.061	-0.000253214042233496
1.062	0.00154393873756314
1.063	0.000339139280065015
1.064	-0.00082809864521538
1.065	-0.00196357745316794
1.066	-1.24803666556317e-05
1.067	-0.00108039662117704
1.068	0.000950444565010589
1.069	-5.07048379619901e-05
1.07	-0.00102086525633394
1.071	0.0011146418185195
1.072	0.000207004851915216
1.073	-0.000670201009404958
1.074	0.00156712701105088
1.075	0.000747922814140933
1.076	-3.84810693960791e-05
1.077	-0.000801384230286528
1.078	0.0015582192766524
1.079	0.000850966303782397
1.08	0.000172492754720421
1.081	-0.000480535290743989
1.082	-0.00110839140432184
1.083	0.00138865536632854
1.084	-0.00228972475155864
1.085	0.000252236307371478
1.086	-0.000278467220054202
1.087	-0.000788811373769738
1.088	0.00182459569187199
1.089	0.00135924445921454
1.09	-0.00218858351626672
1.091	0.000482294914354475
1.092	7.95939447800764e-05
1.093	-0.000311689071361365
1.094	-0.000682240255960975
1.095	-0.00103575153045521
1.096	-0.00136938367301809
1.097	0.0014060987179898
1.098	0.00109858145189623
1.099	0.00080605452932947
1.1	0.000531367413940442
1.101	0.000267296146203799
1.102	2.00396551387483e-05
1.103	-0.000221084938319405
1.104	-0.000446482156957195
1.105	-0.00066352057641117
1.106	-0.000872809245075601
1.107	0.00200397765501648
1.108	0.00181459921803528
1.109	0.00163091749119426
1.11	-0.00160353882578923
1.111	-0.00176968506967234
1.112	-0.00193195739811436
1.113	0.0009537279988443
1.114	0.000795375775893836
1.115	0.000642113441205017
1.116	0.000496790704608618
1.117	0.000347962942218616
1.118	0.000202009033840156
1.119	5.81772765291255e-05
1.12	-9.15509275565274e-05
1.121	-0.000240757217235599
1.122	-0.00039388621991443
1.123	-0.0005481270049148
1.124	-0.000707978868953574
1.125	0.0021000579093714
1.126	-0.0010369254169309
1.127	-0.0012077559045256
1.128	-0.00138772887374183
1.129	0.0013636178704125
1.13	0.00115744940504992
1.131	-0.00198059351803348
1.132	-0.00219900657485483
1.133	0.000476950900576201
1.134	0.000231302450245829
1.135	-3.04709790992508e-05
1.136	-0.000305560344647238
1.137	-0.000594977630245519
1.138	0.00195496100715542
1.139	-0.00122090908245653
1.14	0.00127631492809033
1.141	-0.00191275662845258
1.142	0.000522524535198077
1.143	0.000120638292818498
1.144	-0.00030328733503926
1.145	-0.000750370280653834
1.146	-0.00121777294603653
1.147	-0.00170660815578905
1.148	0.000513389279692578
1.149	-3.18136196577612e-05
1.15	-0.000610188955620705
1.151	-0.00121084759978862
1.152	0.000847728678166071
1.153	0.000175573679721652
1.154	-0.000522667922223108
1.155	-0.00124816772134795
1.156	0.000622627195187575
1.157	-0.000177602509282782
1.158	0.00158746661943221
1.159	0.000706381172924653
1.16	-0.00020862549767886
1.161	0.00139829269181246
1.162	0.000401788926301494
1.163	-0.000628458772968465
1.164	-0.00169368465895292
1.165	-0.000312341856340437
1.166	0.000997218373773534
1.167	-0.000211892226571031
1.168	0.00097528828243254
1.169	-0.000328437331478026
1.17	0.000724339797487983
1.171	-0.000676048593860723
1.172	0.000243072243184539
1.173	-0.0012516580373001
1.174	-0.000473978826243782
1.175	0.000229555281030525
1.176	-0.00142785209402485
1.177	-0.000869136366676848
1.178	-0.000391153283327506
1.179	3.7655985845042e-06
1.18	0.00031327960503591
1.181	0.000539462218844045
1.182	-0.00147004164974363
1.183	-0.00139572462959148
1.184	-0.00140679339717231
1.185	0.000582519750824018
1.186	0.000379785417019662
1.187	8.44531186547925e-05
1.188	-0.000282655246343189
1.189	-0.00070639377927828
1.19	0.000902140211892499
1.191	0.000395485355710989
1.192	-0.000166733623913951
1.193	-0.000783471878367359
1.194	0.000724975493349267
1.195	1.57094240526012e-05
1.196	-0.000755302761764609
1.197	0.000672360459270438
1.198	-0.000197668599747902
1.199	0.00117698550474576
1.2	0.000202467373835113
1.201	-0.00084006497469602
1.202	0.000437872626298463
1.203	-0.000717240311919332
1.204	0.000499936643301502
1.205	-0.000773560083018432
1.206	0.00037682167085995
1.207	-0.00102105077280623
1.208	5.9298757666415e-05
1.209	0.00111764853445284
1.21	-0.000462011938714091
1.211	0.000520195175316762
1.212	-0.00119658960632207
1.213	-0.000295527386614647
1.214	0.000577031224563873
1.215	-0.00134102785753443
1.216	-0.000554432223217383
1.217	0.000199881853767847
1.218	0.000921287927325376
1.219	-0.00127484995045757
1.22	-0.000649524947094471
1.221	-5.72971904960751e-05
1.222	0.000497385334053413
1.223	0.00101582973692671
1.224	0.00149543098674654
1.225	-0.0011370708131202
1.226	-0.000767126920193317
1.227	-0.000438246751442328
1.228	-0.000148959661384618
1.229	9.58964889152814e-05
1.23	0.000297779808285603
1.231	0.000456071265636848
1.232	0.000565724317934002
1.233	0.000632713797738549
1.234	0.000649712643953859
1.235	0.00062058472313653
1.236	0.000540103803293279
1.237	0.00040990120528539
1.238	0.000226973939113195
1.239	-6.98315981551012e-06
1.24	-0.000294988020442588
1.241	-0.000637729992330249
1.242	-0.00103586740670369
1.243	-0.00149003363321165
1.244	0.00172959611668078
1.245	0.0011959480319863
1.246	0.000604565443653948
1.247	-4.77554520950108e-05
1.248	-0.000761685308570237
1.249	-0.00153518382832107
1.25	0.00158007594074427
1.251	0.000715959303960179
1.252	-0.000212051138021918
1.253	-0.0012073040463243
1.254	0.00183686848838738
1.255	0.00074721737060035
1.256	-0.000408494371011758
1.257	-0.00163650956148143
1.258	0.00132613353248356
1.259	2.24744115429054e-07
1.26	-0.00139663195368056
1.261	0.00150563819846894
1.262	2.62409199591751e-06
1.263	-0.00157578403366743
1.264	0.00126367428739182
1.265	-0.000420233056722341
1.266	-0.00218393788852078
1.267	0.000584325333854108
1.268	-0.00129014859660281
1.269	0.00144179804968614
1.27	-0.00055098083985794
1.271	-0.00262251893234777
1.272	3.14708293310817e-05
1.273	-0.00216040700791731
1.274	0.000452027956735268
1.275	-0.00186135041121382
1.276	0.00070886255595537
1.277	-0.00172703540683816
1.278	0.000797005239815962
1.279	-0.0017656932969039
1.28	0.000714891887105829
1.281	-0.00197888803591983
1.282	0.000450915554720988
1.283	-0.00237489440301752
1.284	3.48151668871921e-06
1.285	0.00237030032744368
1.286	-0.000632206182955564
1.287	0.00168945401066312
1.288	-0.0014501832992867
1.289	0.00081186387231813
1.29	-0.00246194255995169
1.291	-0.000252808853653974
1.292	0.00194411494807611
1.293	-0.00151589231796467
1.294	0.000624079485970541
1.295	0.00275164488934121
1.296	-0.000898871152156699
1.297	0.00117511103018109
1.298	0.0032328897119781
1.299	-0.00060829866150558
1.3	0.00138833579171405
1.301	-0.00259486053467217
1.302	-0.000659371022618371
1.303	0.0012634725741455
1.304	-0.00291741187381511
1.305	-0.00105562521041613
1.306	0.000789709172877351
1.307	0.00262627214622879
1.308	-0.00180355675027866
1.309	-3.15368328505095e-05
1.31	0.00172411254150695
1.311	0.00346338291573023
1.312	-0.00121747694146612
1.313	0.000461681288841609
1.314	0.0021206844149827
1.315	-0.0027573024016071
1.316	-0.00116162608624537
1.317	0.000418029180856538
1.318	0.00198572007932751
1.319	0.00353754672610473
1.32	-0.00164393598932955
1.321	-0.000158024807176971
1.322	0.00130830858983177
1.323	0.00276317704223328
1.324	-0.00267015740921051
1.325	-0.00127969633083969
1.326	9.16632351593005e-05
1.327	0.00144808038517363
1.328	0.00278559601160033
1.329	-0.00294589516023969
1.33	-0.00167062578503652
1.331	-0.000409630958233653
1.332	0.000833132008740578
1.333	0.00206189557992942
1.334	0.00327268318334584
1.335	-0.00280094173499157
1.336	-0.00165327033470819
1.337	-0.000522913656657464
1.338	0.000594434061814253
1.339	0.00169898084717712
1.34	0.00278259929024449
1.341	0.00385376048483055
1.342	-0.00260500928290019
1.343	-0.00159248761260744
1.344	-0.000599907029741664
1.345	0.000381272752676409
1.346	0.00134710047720343
1.347	0.00229781463606626
1.348	0.00323361077590811
1.349	-0.00358873482034561
1.35	-0.00271039959844066
1.351	-0.00184601028228337
1.352	-0.0009952918226378
1.353	-0.000153792718410872
1.354	0.000670375250476418
1.355	0.00148162806447005
1.356	0.00228026412206783
1.357	0.00306653385789857
1.358	0.0038407466132393
1.359	-0.00344634571382862
1.36	-0.00272506807014938
1.361	-0.00201472231190003
1.362	-0.00131497441424844
1.363	-0.00062554151970573
1.364	4.97020336351905e-05
1.365	0.000715251011468854
1.366	0.0013714237470116
1.367	0.00201853156307086
1.368	0.00265272368712
1.369	0.00328267170567575
1.37	0.00390039008209897
1.371	0.00451034648357695
1.372	-0.00329216382593001
1.373	-0.00272623204075306
1.374	-0.002162548546079
1.375	-0.00161319660712189
1.376	-0.00106958707820781
1.377	-0.000527197350569941
1.378	1.94951949838984e-06
1.379	0.00052641546266341
1.38	0.00104659048802991
1.381	0.00156282854525647
1.382	0.00207139685134539
1.383	0.00257263909713479
1.384	0.00307099502042041
1.385	0.00356687501076725
1.386	-0.00465894190325611
1.387	-0.00419128509419708
1.388	-0.00372463938624268
1.389	-0.00326678780800771
1.39	-0.00280520096306991
1.391	-0.00234756734180508
1.392	-0.0018894709606363
1.393	-0.00143862266609873
1.394	-0.000982597449618372
1.395	-0.00052901140323347
1.396	-7.34851588393148e-05
1.397	0.000380358887533294
1.398	0.000832880476205
1.399	0.00128839966801375
1.4	0.00174732995694404
1.401	0.00220211688354477
1.402	0.00266494012326046
1.403	0.0031283395967916
1.404	0.00359660466446343
1.405	0.00406618934728931
1.406	0.00453744597679551
1.407	-0.00402663820599358
1.408	-0.00355539910640068
1.409	-0.00308101577502862
1.41	-0.00260314379166016
1.411	-0.00211376580551625
1.412	-0.00162015248739233
1.413	-0.00112196716320501
1.414	-0.000615090869236168
1.415	-9.91450226859314e-05
1.416	0.000422429369658528
1.417	0.000949957382176014
1.418	0.00148752027006716
1.419	0.00203543086645386
1.42	0.00259031149662686
1.421	0.00315616535014851
1.422	0.00373334425934863
1.423	0.00431847443970745
1.424	-0.00426762701418215
1.425	-0.00366429116978795
1.426	-0.00305173151567811
1.427	-0.00242605619498537
1.428	-0.00178694356481213
1.429	-0.00113771178360172
1.43	-0.000474525855125307
1.431	0.000199367843197129
1.432	0.000891279559615821
1.433	0.00159444454240693
1.434	0.00231264751520049
1.435	0.00304262614028933
1.436	0.00379160093495118
1.437	0.00455287802044418
1.438	-0.00388014310894175
1.439	-0.0030878236563372
1.44	-0.00227877836570228
1.441	-0.00145276105849018
1.442	-0.000612969767368243
1.443	0.000247559542782716
1.444	0.00112230100505534
1.445	0.00201814400471789
1.446	0.00292861242075526
1.447	0.00386052122817732
1.448	-0.0043788648403702
1.449	-0.0034083321580341
1.45	-0.00242217335718559
1.451	-0.00141372650006655
1.452	-0.000386095757914928
1.453	0.000660884629065384
1.454	0.00172732267133702
1.455	0.00281337099332463
1.456	0.00392231404881233
1.457	-0.00408928440990253
1.458	-0.00293632130916671
1.459	-0.00176310014350894
1.46	-0.000566404954232352
1.461	0.000650763611995314
1.462	0.00188845908527863
1.463	0.00314677649855602
1.464	0.00442882027359454
1.465	-0.00334185492232617
1.466	-0.00200614341558641
1.467	-0.000652380600654395
1.468	0.000725442522650249
1.469	0.00212437003428989
1.47	0.00354739193445264
1.471	-0.00401868265116623
1.472	-0.00254306007883967
1.473	-0.00104318349570809
1.474	0.000480936794070491
1.475	0.00202639701653115
1.476	0.00359605091724255
1.477	-0.00375300057912697
1.478	-0.00212670419223962
1.479	-0.000478999095257615
1.48	0.00119285804774474
1.481	0.00288880975291013
1.482	0.00460879235877661
1.483	-0.00251106101582567
1.484	-0.000733975247763682
1.485	0.00106701629959362
1.486	0.00289182270892155
1.487	0.00474034724292766
1.488	-0.00217994438953641
1.489	-0.000274407259919437
1.49	0.00165724720473084
1.491	0.00361226352424378
1.492	-0.00314061175535538
1.493	-0.00112633110887044
1.494	0.00090838507773839
1.495	0.00296856876625165
1.496	-0.00361163003983909
1.497	-0.00149288138502739
1.498	0.000648341959554979
1.499	0.00281439782618078
1.5	-0.00359392989633977
1.501	-0.00137029103219516
1.502	0.000877646909019687
1.503	0.00314473999417472
1.504	-0.00309084203878524
1.505	-0.000764948313390447
1.506	0.00158684415306421
1.507	0.00395948834719368
1.508	-0.0021080801568306
1.509	0.000321778863246476
1.51	0.00277184803808037
1.511	-0.00315956535726031
1.512	-0.000651220058050475
1.513	0.00187896658389156
1.514	-0.00391834696447803
1.515	-0.00133368116284742
1.516	0.00126976322395368
1.517	0.00389628263612771
1.518	-0.00173492946059874
1.519	0.000943956230722409
1.52	0.00364281020514413
1.521	-0.00185796627228402
1.522	0.000893753339400921
1.523	0.00366456251872005
1.524	-0.00170877889334892
1.525	0.001113028096173
1.526	0.00395516499226267
1.527	-0.00129396602362625
1.528	0.00159719698450053
1.529	-0.00355946887404157
1.53	-0.000618556240732177
1.531	0.00233889619444211
1.532	-0.00269953030771791
1.533	0.000305494916433419
1.534	0.00332398773617656
1.535	-0.00159382333889713
1.536	0.00147208060503221
1.537	-0.00336050262274407
1.538	-0.0002528600220979
1.539	0.00287056607537448
1.54	-0.00184846855905199
1.541	0.00131637265396339
1.542	-0.00332247677684394
1.543	-0.000115928680020749
1.544	0.00310256368021788
1.545	-0.00143021019410716
1.546	0.00182749174616825
1.547	-0.00263041266101105
1.548	0.00066473770619413
1.549	-0.00371675827723689
1.55	-0.00038782740637866
1.551	0.00295224356653989
1.552	-0.00133250150156772
1.553	0.00204063921662456
1.554	-0.00217532593782416
1.555	0.00122904228708698
1.556	-0.00291691780254627
1.557	0.000518654710102262
1.558	0.0039607241002359
1.559	-0.000102131380135317
1.56	0.00336663909859064
1.561	-0.000632282638603709
1.562	0.00286307438308692
1.563	-0.00107620757231369
1.564	0.00244381424215134
1.565	-0.0014383642575132
1.566	0.00210268135941971
1.567	-0.00172496749615941
1.568	0.00183688680741123
1.569	-0.00193711094136034
1.57	0.00164195443798187
1.571	-0.00208099377677029
1.572	0.00151502973810119
1.573	-0.00215949006260785
1.574	0.00145155156384513
1.575	-0.00217715318139389
1.576	0.00144857194861864
1.577	-0.00213854547585884
1.578	0.00149830375222337
1.579	-0.00204665627146355
1.58	0.00159780974804541
1.581	-0.00190919352081903
1.582	0.00174408596764952
1.583	-0.00172759470064426
1.584	0.00193101291429754
1.585	-0.00150794237566965
1.586	0.00215407453620287
1.587	-0.00125475010511844
1.588	0.002410246155921
1.589	-0.000968105500030125
1.59	0.00269502021878631
1.591	-0.000656971583747223
1.592	0.00300529632222224
1.593	-0.000324353693607282
1.594	0.00333513511373862
1.595	2.52670751315076e-05
1.596	0.00367867771429842
1.597	0.000386062247379249
1.598	-0.00288988132196788
1.599	0.000756373557451062
1.6	-0.00250497066798339
1.601	0.00113045555645563
1.602	-0.00212014314529985
1.603	0.00150394538352305
1.604	-0.00173707725113037
1.605	0.00187253520662267
1.606	-0.00136267202275775
1.607	0.00223069019036259
1.608	-0.000998634206938243
1.609	0.00257793455787869
1.61	-0.000650437545078209
1.611	-0.00387178001166644
1.612	-0.000322255421942419
1.613	0.00321417546285119
1.614	-1.82160458580549e-05
1.615	0.0034949437407884
1.616	0.000256442475502494
1.617	0.00374464364252602
1.618	0.000497746175072367
1.619	-0.00274654831605647
1.62	0.000705035412544408
1.621	-0.00255236104139245
1.622	0.000869988554767942
1.623	-0.00240058645404539
1.624	0.00099194655561774
1.625	-0.00229405310944564
1.626	0.00106499337527888
1.627	-0.00223962655498
1.628	0.00108539317685963
1.629	-0.00223997595285197
1.63	0.00105040629099362
1.631	-0.00229875287601122
1.632	0.00095449388908897
1.633	-0.00241865977391875
1.634	0.000795047896520407
1.635	-0.00260592415849836
1.636	0.000566830147079256
1.637	-0.00286306848782003
1.638	0.000267326037413973
1.639	-0.00319427273384743
1.64	-0.000106822458423861
1.641	-0.00360200118447651
1.642	-0.000558909148916986
1.643	-0.00408875999211034
1.644	-0.00109141564203108
1.645	0.00188015662235497
1.646	-0.0017103659279657
1.647	0.00121286402582776
1.648	-0.00241668879558266
1.649	0.000457571149891089
1.65	0.00330473782189289
1.651	-0.000391874820103166
1.652	-0.00410657845271678
1.653	-0.00133528675124572
1.654	0.00140734721520697
1.655	-0.00237886152329259
1.656	0.000310550724952563
1.657	0.00297114943126731
1.658	-0.000889025231587071
1.659	0.00171617613745878
1.66	-0.00219391854202322
1.661	0.000354362949618658
1.662	0.00287270317084087
1.663	-0.00111624417226097
1.664	0.00134374059662523
1.665	-0.00269838050707705
1.666	-0.000297723645557024
1.667	0.00207194770493846
1.668	-0.00205414940410364
1.669	0.000254861768842374
1.67	0.002532060706957
1.671	-0.00168035440036285
1.672	0.000534943532532806
1.673	0.00271812965185469
1.674	-0.0015828316103933
1.675	0.000537091736045769
1.676	0.00262438506976348
1.677	-0.00176739256215275
1.678	0.00025557706133561
1.679	0.00224537007661085
1.68	-0.00223897190490685
1.681	-0.000314446659782308
1.682	0.0015764952575722
1.683	-0.00300203879753136
1.684	-0.00117724294879396
1.685	0.000613638251408477
1.686	0.00237039970718611
1.687	-0.00233643864694155
1.688	-0.000646794081024638
1.689	0.0010085126627325
1.69	0.00262918627162889
1.691	-0.00220766359744784
1.692	-0.000654717976452779
1.693	0.000863533153739549
1.694	0.00234700831052792
1.695	-0.00262132769225298
1.696	-0.0012061529792492
1.697	0.000174037868438059
1.698	0.00151917457117878
1.699	0.00282918948714628
1.7	-0.00230462711712798
1.701	-0.00106345520039097
1.702	0.000142912744855006
1.703	0.00131396046989007
1.704	0.00245017154446836
1.705	-0.0028488014058099
1.706	-0.00178172652599573
1.707	-0.000749505287234276
1.708	0.000247851834532353
1.709	0.00120969777563895
1.71	0.0021366814535414
1.711	0.00302810326607039
1.712	-0.00250031230472147
1.713	-0.00167662447601591
1.714	-0.0008877178003035
1.715	-0.000133582778659047
1.716	0.000585817406658196
1.717	0.00127049778656629
1.718	0.00192050080649231
1.719	0.00253586165361819
1.72	-0.00324794440869214
1.721	0.00366180756412915
1.722	-0.00218339078880159
1.723	-0.00170275390138885
1.724	-0.0012564917895419
1.725	-0.000843480763573323
1.726	-0.000464716731385928
1.727	-0.000120130692676246
1.728	0.000192603845042383
1.729	0.000470153037089749
1.73	0.00071491466728546
1.731	0.000927018282473657
1.732	0.00110531806878478
1.733	0.00125242116791369
1.734	0.00136592699796678
1.735	0.00144722523251262
1.736	0.00149644479252697
1.737	0.00151371737626771
1.738	0.00149917746607831
1.739	0.0014529623348789
1.74	0.00137521205233349
1.741	0.00126606949069141
1.742	0.00112568033029792
1.743	0.000955709486124889
1.744	0.000754828002132446
1.745	0.000523175539475895
1.746	0.000260908899064716
1.747	-3.01951576774373e-05
1.748	-0.000349909915058899
1.749	-0.000699708752096906
1.75	-0.00107943800580967
1.751	-0.00148717858267144
1.752	-0.00192272191363829
1.753	-0.00238583224762734
1.754	0.00331890608605323
1.755	-0.00339569777904913
1.756	0.002239482046971
1.757	0.00165945073545504
1.758	0.001052856053261
1.759	0.000419937057339781
1.76	-0.000239081657450124
1.761	-0.000923942498940344
1.762	-0.00163441591506763
1.763	-0.00236822205799514
1.764	0.00298686238122092
1.765	0.00219511429621178
1.766	0.0013786596672215
1.767	0.000537739366260892
1.768	-0.000325242358540256
1.769	-0.00120997893373831
1.77	-0.00211834463818505
1.771	0.00299880158783794
1.772	0.00203725959561263
1.773	0.00105277277085836
1.774	4.78798666557756e-05
1.775	-0.000977102052999834
1.776	-0.0020218543075684
1.777	0.00289620844456517
1.778	0.00180077634384357
1.779	0.000686370838364425
1.78	-0.000446683287484206
1.781	-0.00159805973810823
1.782	-0.00276743073276797
1.783	0.00195827524865788
1.784	0.000743358435467689
1.785	-0.000488696694561752
1.786	-0.00173758534943158
1.787	0.00286000077739113
1.788	0.00156740119699061
1.789	0.000258839058864591
1.79	-0.00106272470023694
1.791	-0.00239692325177632
1.792	0.00204802578948526
1.793	0.000669913886674589
1.794	-0.000719905560475298
1.795	-0.00212103868235625
1.796	0.00220334871778138
1.797	0.000762907389337819
1.798	-0.000687905995107485
1.799	-0.00214869664433415
1.8	0.00205748653312632
1.801	0.000559383251026779
1.802	-0.000944905031832866
1.803	-0.00246067460902166
1.804	0.00162973624725005
1.805	8.44474640917525e-05
1.806	-0.00147139176756994
1.807	0.0025322793937621
1.808	0.000948496101332741
1.809	-0.000641945450115311
1.81	-0.00223867350471674
1.811	0.00165657684821263
1.812	3.11243825994456e-05
1.813	-0.00159661464745897
1.814	0.00221520037213929
1.815	0.000560303453285504
1.816	-0.00109583620006592
1.817	-0.00275589507990182
1.818	0.000955310683478983
1.819	-0.000726634131716142
1.82	-0.00240840521824404
1.821	0.00122284618188839
1.822	-0.000482322038820371
1.823	-0.00218314505698269
1.824	0.00137278930520868
1.825	-0.000353011510378254
1.826	-0.00207342056952453
1.827	0.00140557695503496
1.828	-0.000331883550790724
1.829	-0.00206932352272904
1.83	0.00134071096098709
1.831	-0.000408957025238355
1.832	-0.0021576255015755
1.833	0.00118511120565634
1.834	-0.000574168376148321
1.835	-0.00232495196832849
1.836	0.000948879505662026
1.837	-0.00081415239042637
1.838	0.00240659482847638
1.839	0.000635586583708325
1.84	-0.00112860873846077
1.841	0.00202588483089405
1.842	0.000255318859369025
1.843	-0.00150747627853665
1.844	0.0015857621932559
1.845	-0.000181830496454816
1.846	-0.00194406360192378
1.847	0.00108962827368542
1.848	-0.000672490341729226
1.849	-0.00242497506218731
1.85	0.00055088088326305
1.851	-0.00120330333927277
1.852	0.00172771043043463
1.853	-2.72162528788256e-05
1.854	-0.00176766677874363
1.855	0.00110832155967011
1.856	-0.000634761030351316
1.857	0.00220158816365346
1.858	0.000463594443337212
1.859	-0.00126189673906674
1.86	0.0015188628020435
1.861	-0.000203474311316731
1.862	-0.00190906668314805
1.863	0.000824632357930399
1.864	-0.00087637116932815
1.865	0.00181725023472568
1.866	0.000121735321506278
1.867	-0.00155230740013368
1.868	0.00109369758596134
1.869	-0.000576878837217909
1.87	0.00203432218000221
1.871	0.000371496119149106
1.872	-0.00126860561150555
1.873	0.00129783363427138
1.874	-0.00033658530827585
1.875	0.00219352552048646
1.876	0.000575845266615804
1.877	-0.00102812998838264
1.878	0.00146008141405796
1.879	-0.000125882189959015
1.88	-0.00169405031625069
1.881	0.000753981464877818
1.882	-0.000798329707651591
1.883	0.00161642175398446
1.884	7.7384380039236e-05
1.885	-0.00144276856559267
1.886	0.000938032518644882
1.887	-0.000564276961683818
1.888	0.00178515932986578
1.889	0.000298104767227247
1.89	-0.00116569906942454
1.891	0.00114926972674967
1.892	-0.000298130311376377
1.893	-0.00172503716847539
1.894	0.000560487668940457
1.895	-0.000845577224959704
1.896	0.00141166303939277
1.897	2.38447998359703e-05
1.898	-0.00134255826699803
1.899	0.000884749811289498
1.9	-0.000459052567222451
1.901	0.00174191872776053
1.902	0.000418136395661461
1.903	-0.000886637985721084
1.904	0.0012904954098385
1.905	1.00210837229442e-05
1.906	-0.00124770115560568
1.907	0.000900780915188526
1.908	-0.000338109028696576
1.909	-0.00154736879530326
1.91	0.000577382536135596
1.911	-0.00061207791761031
1.912	0.00149061704584263
1.913	0.000321648103955519
1.914	-0.000820214022659638
1.915	0.00125843180167107
1.916	0.000141145925374619
1.917	-0.000951803426761821
1.918	0.0011045151853375
1.919	3.70343283320196e-05
1.92	-0.00100882097471244
1.921	0.00102688972198317
1.922	7.38681342310477e-06
1.923	-0.000990087491836711
1.924	0.00102673188493135
1.925	5.64681732559413e-05
1.926	-0.000891382901686
1.927	0.00110825898140876
1.928	0.000185451512875079
1.929	-0.000711577762934734
1.93	0.00126961698364214
1.931	0.000395505590459255
1.932	-0.000455452775265375
1.933	-0.00128020565654297
1.934	0.000687827766590432
1.935	-0.000112868028169066
1.936	-0.000887070341965834
1.937	0.00106657422938622
1.938	0.00031727652109681
1.939	-0.000410968734674222
1.94	0.00153006474054057
1.941	0.000827620879332691
1.942	0.000149430462995648
1.943	-0.000504424082476529
1.944	-0.00113387283491062
1.945	0.000798291720303657
1.946	0.000193161681217746
1.947	-0.000387251271495803
1.948	-0.00094562158256728
1.949	0.000978978579267931
1.95	0.000446059715979663
1.951	-6.44677651902015e-05
1.952	-0.000552507496985433
1.953	0.00136492165490198
1.954	0.00090346224634108
1.955	0.000464811480579919
1.956	4.90596217849748e-05
1.957	-0.000343711704454241
1.958	-0.000713422650112705
1.959	-0.00106258349178767
1.96	0.000855027570274391
1.961	0.00053171080426731
1.962	0.000229321315556225
1.963	-4.95029621583876e-05
1.964	-0.000307218772071793
1.965	-0.000543718124942277
1.966	-0.000758903919459319
1.967	-0.00095020289224157
1.968	-0.00112247720859698
1.969	-0.00127315205225717
1.97	0.000658900999860962
1.971	0.000531939034703777
1.972	0.000427433005836558
1.973	0.000401789558050536
1.974	0.000500439790720758
1.975	-0.00135735617379124
1.976	-0.0010271550180076
1.977	-0.0005739035499224
1.978	7.04967125891853e-06
1.979	0.000711865453887434
1.98	-0.000622144875691483
1.981	0.000317381948110942
1.982	-0.000816934844139611
1.983	0.00035462255058831
1.984	-0.000574459502916708
1.985	-0.00141096698137715
1.986	0.000104177882786313
1.987	-0.000528833475569923
1.988	-0.0010686143959244
1.989	0.000793322912986949
1.99	0.000456670589429088
1.991	0.000215608181967281
1.992	6.7117098963905e-05
1.993	1.38050419683927e-05
1.994	5.25641500586441e-05
1.995	0.00018599161017268
1.996	0.000412839311650953
1.997	0.000735726169100268
1.998	0.00114942409565076
1.999	-0.000794097067424465
2	-0.000208048574227624
