0	16
0.01	16.2611458612346
0.02	16.0841993723457
0.03	16.1470027777778
0.04	15.9706801111111
0.05	16.1155857782716
0.06	15.9394352004938
0.07	15.9394352004938
0.08	15.9394352004938
0.09	15.9394352004938
0.1	15.764252622716
0.11	15.8614567708642
0.12	15.8614567708642
0.13	15.6905772844444
0.14	15.6905772844444
0.15	15.6905772844444
0.16	15.5167714177777
0.17	15.6248035204938
0.18	15.6248035204938
0.19	15.451363342716
0.2	15.451363342716
0.21	15.451363342716
0.22	15.2788911649382
0.23	15.3171346612345
0.24	15.3171346612345
0.25	15.1454153723456
0.26	15.3171346612345
0.27	15.1454153723456
0.28	14.9954817599999
0.29	15.1663513599999
0.3	15.1663513599999
0.31	14.9954817599999
0.32	14.9954817599999
0.33	14.9954817599999
0.34	14.8255801599999
0.35	14.8255801599999
0.36	14.8462939856789
0.37	14.6772420745678
0.38	14.8462939856789
0.39	14.6772420745678
0.4	14.6772420745678
0.41	14.6772420745678
0.42	14.5091581634567
0.43	14.5091581634567
0.44	14.5091581634567
0.45	14.3420422523455
0.46	14.3420422523455
0.47	14.5091581634567
0.48	14.1758943412344
0.49	14.3420422523455
0.5	14.3087352301233
0.51	14.1427809190122
0.52	14.3087352301233
0.53	13.9777946079011
0.54	14.1427809190122
0.55	14.0528349945677
0.56	13.8883757056788
0.57	14.0528349945677
0.58	13.8883757056788
0.59	13.8883757056788
0.6	13.8920198399998
0.61	13.7285070399998
0.62	13.851960653827
0.63	13.6886844760492
0.64	13.6886844760492
0.65	13.6687948844442
0.66	13.5066050177776
0.67	13.6074093871603
0.68	13.6074093871603
0.69	13.4455852093825
0.7	13.6074093871603
0.71	13.2847290316047
0.72	13.4455852093825
0.73	13.3203911945677
0.74	13.3203911945677
0.75	13.3203911945677
0.76	13.1602879056788
0.77	13.3203911945677
0.78	12.9923401501232
0.79	13.1514216612343
0.8	12.9923401501232
0.81	12.9923401501232
0.82	12.9923401501232
0.83	12.8342266390121
0.84	12.9923401501232
0.85	12.8342266390121
0.86	12.8342266390121
0.87	12.8342266390121
0.88	12.617966964938
0.89	12.7747467871602
0.9	12.617966964938
0.91	12.617966964938
0.92	12.617966964938
0.93	12.4621551427157
0.94	12.617966964938
0.95	12.3073113204935
0.96	12.4621551427157
0.97	12.3073113204935
0.98	12.3073113204935
0.99	12.3073113204935
1	12.1534354982713
1.01	12.3073113204935
1.02	12.1534354982713
1.03	12.1721906177775
1.04	12.1721906177775
1.05	12.0191644844441
1.06	12.0191644844441
1.07	12.0191644844441
1.08	11.8671063511108
1.09	12.0191644844441
1.1	11.7160162177774
1.11	11.8671063511108
1.12	11.7160162177774
1.13	11.7160162177774
1.14	11.7160162177774
1.15	11.5658940844441
1.16	11.7160162177774
1.17	11.5658940844441
1.18	11.5658940844441
1.19	11.5658940844441
1.2	11.3754800375305
1.21	11.3754800375305
1.22	11.4680059753083
1.23	11.3194864197527
1.24	11.3194864197527
1.25	11.3194864197527
1.26	11.1719348641971
1.27	11.3194864197527
1.28	11.0253513086416
1.29	11.1507018711107
1.3	11.1735690079008
1.31	10.8813483856786
1.32	11.0269746967897
1.33	10.8813483856786
1.34	10.8813483856786
1.35	10.903937790123
1.36	10.7591289012341
1.37	10.7591289012341
1.38	10.8636159999996
1.39	10.679097790123
1.4	10.679097790123
1.41	10.679097790123
1.42	10.5357946790119
1.43	10.6152880123452
1.44	10.4724151234563
1.45	10.5231034711107
1.46	10.380854404444
1.47	10.380854404444
1.48	10.380854404444
1.49	10.2395733377773
1.5	10.2395733377773
1.51	10.32736778716
1.52	10.0465050316045
1.53	10.1864524093822
1.54	10.1225785599995
1.55	9.98307215999951
1.56	10.0279185190119
1.57	9.88906820790074
1.58	10.0279185190119
1.59	9.88906820790074
1.6	9.78174275604888
1.61	9.82000605234518
1.62	9.82000605234518
1.63	9.68260774123406
1.64	9.68260774123406
1.65	9.68260774123406
1.66	9.68260774123406
1.67	9.54617743012294
1.68	9.41071511901182
1.69	9.54617743012294
1.7	9.54617743012294
1.71	9.41071511901182
1.72	9.2762208079007
1.73	9.2762208079007
1.74	9.41071511901182
1.75	9.2762208079007
1.76	9.14269449678958
1.77	9.14269449678958
1.78	9.25241204938218
1.79	9.08218677777723
1.8	9.08218677777723
1.81	9.08218677777723
1.82	8.95006944444389
1.83	8.81892011111055
1.84	8.95006944444389
1.85	8.87417620197475
1.86	8.7435861575303
1.87	8.7435861575303
1.88	8.82472841530808
1.89	8.67577388444388
1.9	8.67577388444388
1.91	8.67577388444388
1.92	8.51096343753029
1.93	8.63981108197474
1.94	8.47961457827102
1.95	8.47961457827102
1.96	8.47961457827102
1.97	8.3519715560488
1.98	8.29132828444385
1.99	8.41850881777719
2	8.16511575111051
2.01	8.22249252790064
2.02	8.22249252790064
2.03	8.09680701678952
2.04	8.13441103012286
2.05	8.00940311901174
2.06	8.00940311901174
2.07	8.024629938271
2.08	7.90047171604877
2.09	7.90047171604877
2.1	7.90047171604877
2.11	7.77728149382654
2.12	7.80184209827099
2.13	7.72284099999938
2.14	7.72284099999938
2.15	7.60374497234505
2.16	7.60374497234505
2.17	7.60374497234505
2.18	7.48289946123393
2.19	7.48289946123393
2.2	7.48289946123393
2.21	7.36302195012282
2.22	7.36302195012282
2.23	7.36302195012282
2.24	7.2441124390117
2.25	7.2441124390117
2.26	7.2441124390117
2.27	7.12617092790058
2.28	7.12617092790058
2.29	7.15098908444379
2.3	7.03381121777712
2.31	7.0364046538265
2.32	7.03121825975243
2.33	6.82533041777711
2.34	6.94076588444378
2.35	6.91245893530798
2.36	6.79726009086353
2.37	6.79726009086353
2.38	6.74002366864131
2.39	6.62627682419686
2.4	6.70833022419686
2.41	6.5948522686413
2.42	6.5948522686413
2.43	6.58355771308574
2.44	6.47114455753018
2.45	6.47114455753018
2.46	6.35969940197462
2.47	6.47114455753018
2.48	6.3153923797524
2.49	6.3153923797524
2.5	6.25166677777709
2.51	6.14213611111042
2.52	6.25166677777709
2.53	6.03357344444375
2.54	6.14213611111042
2.55	6.03357344444375
2.56	6.04679028938202
2.57	5.93907731160424
2.58	5.93907731160424
2.59	5.93907731160424
2.6	5.83233233382646
2.61	5.83233233382646
2.62	5.72655535604868
2.63	5.83233233382646
2.64	5.6217463782709
2.65	5.72655535604868
2.66	5.51790540049311
2.67	5.6217463782709
2.68	5.51790540049311
2.69	5.51790540049311
2.7	5.41503242271533
2.71	5.41503242271533
2.72	5.41503242271533
2.73	5.31312744493755
2.74	5.31312744493755
2.75	5.21219046715977
2.76	5.31312744493755
2.77	5.11222148938199
2.78	5.21219046715977
2.79	5.05490285234496
2.8	5.05490285234496
2.81	5.05490285234496
2.82	4.95646116345607
2.83	4.95646116345607
2.84	4.82026903901162
2.85	4.94884515999928
2.86	4.75501635999927
2.87	4.82456343901162
2.88	4.72840192790051
2.89	4.67116966123384
2.9	4.67116966123384
2.91	4.57655695012273
2.92	4.61008612345606
2.93	4.54002453777705
2.94	4.44675627111038
2.95	4.47980741975235
2.96	4.38716297530791
2.97	4.29548653086346
2.98	4.31374437975235
2.99	4.31374437975235
3	4.17375820049309
3.01	4.24598077827087
3.02	4.24598077827087
3.03	4.15579935604865
3.04	4.06658593382642
3.05	3.9783405116042
3.06	3.9783405116042
3.07	3.9783405116042
3.08	3.9783405116042
3.09	3.89106308938198
3.1	3.80475366715976
3.11	3.80475366715976
3.12	3.80475366715976
3.13	3.80475366715976
3.14	3.68742407111038
3.15	3.65557404641902
3.16	3.65557404641902
3.17	3.49748180197458
3.18	3.56546708197458
3.19	3.5240467041968
3.2	3.44193194864124
3.21	3.44374620444371
3.22	3.36885630864125
3.23	3.31256177975236
3.24	3.27883568197458
3.25	3.32324797827088
3.26	3.16476193382643
3.27	3.20402044493754
3.28	3.11193120444372
3.29	3.07495708641903
3.3	3.07495708641903
3.31	2.95274581530792
3.32	3.02883745975236
3.33	2.95106588444372
3.34	2.87596375111039
3.35	2.87596375111039
3.36	2.87596375111039
3.37	2.7302788819746
3.38	2.7302788819746
3.39	2.7302788819746
3.4	2.58680759308571
3.41	2.58680759308571
3.42	2.58680759308571
3.43	2.51652394864127
3.44	2.51652394864127
3.45	2.51652394864127
3.46	2.37886065975239
3.47	2.39623520049313
3.48	2.32860817827091
3.49	2.32637061530795
3.5	2.27667861777709
3.51	2.21077248444376
3.52	2.20786579012277
3.53	2.07904356790056
3.54	2.14297067901166
3.55	1.9987676049376
3.56	2.0628619377771
3.57	1.96641412790057
3.58	1.96024889678945
3.59	1.83897707456724
3.6	1.90992399999933
3.61	1.79024399999935
3.62	1.79024399999935
3.63	1.73185599999935
3.64	1.67443599999936
3.65	1.67443599999936
3.66	1.56372246123394
3.67	1.61922797234504
3.68	1.50918495012283
3.69	1.50918495012283
3.7	1.45561543901173
3.71	1.40301392790062
3.72	1.40301392790062
3.73	1.3338196745673
3.74	1.25156427111052
3.75	1.30127253777718
3.76	1.18945683160436
3.77	1.19532918567843
3.78	1.1185647649377
3.79	1.11185308641918
3.8	1.02198620444389
3.81	1.03437940197475
3.82	0.944913604443909
3.83	0.913341252345153
3.84	0.913341252345153
3.85	0.831176630122955
3.86	0.822286239999501
3.87	0.778982759999515
3.88	0.740632359999527
3.89	0.729315999999531
3.9	0.636839467160057
3.91	0.623643639011913
3.92	0.55608506123416
3.93	0.566707839999588
3.94	0.499974696789737
3.95	0.45012171901198
3.96	0.410368359999651
3.97	0.3766413279009
3.98	0.323457604444135
3.99	0.298917337777481
4	0.252740804444172
4.01	0.208869311604691
4.02	0.166972120493606
4.03	0.147968444444237
4.04	0.102172570864025
4.05	0.0559480177776506
4.06	0.0160106844443767
4.07	0.000273351111102254
4.08	0.00873601777782785
4.09	0.0413986844445532
4.1	0.098261351111278
4.11	0.0617246419754412
4.12	0.0231445511111926
4.13	0.00177521777780034
4.14	0.00460588444440809
4.15	0.0316365511110157
4.16	0.0828672177776228
4.17	0.0706850844443014
4.18	0.0330431604937296
4.19	0.00515204938267759
4.2	0.00146093827162541
4.21	0.0219698271605732
4.22	0.0666787160495205
4.23	0.0842418375310189
4.24	0.0434120375309756
4.25	0.00967381530869468
4.26	0.000135593086413515
4.27	0.0147973708641324
4.28	0.0536591486418508
4.29	0.102172570864025
4.3	0.0559480177776506
4.31	0.0160106844443767
4.32	0.000273351111102254
4.33	0.00873601777782785
4.34	0.0413986844445532
4.35	0.098261351111278
4.36	0.0617246419754412
4.37	0.0231445511111926
4.38	0.00177521777780034
4.39	0.00460588444440809
4.4	0.0316365511110157
4.41	0.0828672177776228
4.42	0.0706850844443014
4.43	0.0330431604937296
4.44	0.00515204938267759
4.45	0.00146093827162541
4.46	0.0219698271605732
4.47	0.0666787160495205
4.48	0.0842418375310189
4.49	0.0434120375309756
4.5	0.00967381530869468
4.51	0.000135593086413515
4.52	0.0147973708641324
4.53	0.0536591486418508
4.54	0.102172570864025
4.55	0.0559480177776506
4.56	0.0160106844443767
4.57	0.000273351111102254
4.58	0.00873601777782785
4.59	0.0413986844445532
4.6	0.098261351111278
4.61	0.0617246419754412
4.62	0.0231445511111926
4.63	0.00177521777780034
4.64	0.00460588444440809
4.65	0.0316365511110157
4.66	0.0828672177776228
4.67	0.0706850844443014
4.68	0.0330431604937296
4.69	0.00515204938267759
4.7	0.00146093827162541
4.71	0.0219698271605732
4.72	0.0666787160495205
4.73	0.0842418375310189
4.74	0.0434120375309756
4.75	0.00967381530869468
4.76	0.000135593086413515
4.77	0.0147973708641324
4.78	0.0536591486418508
4.79	0.102172570864025
4.8	0.0559480177776506
4.81	0.0160106844443767
4.82	0.000273351111102254
4.83	0.00873601777782785
4.84	0.0413986844445532
4.85	0.098261351111278
4.86	0.0617246419754412
4.87	0.0231445511111926
4.88	0.00177521777780034
4.89	0.00460588444440809
4.9	0.0316365511110157
4.91	0.0828672177776228
4.92	0.0706850844443014
4.93	0.0330431604937296
4.94	0.00515204938267759
4.95	0.00146093827162541
4.96	0.0219698271605732
4.97	0.0666787160495205
4.98	0.0842418375310189
4.99	0.0434120375309756
5	0.00967381530869468
5.01	0.000135593086413515
5.02	0.0147973708641324
5.03	0.0536591486418508
5.04	0.102172570864025
5.05	0.0559480177776506
5.06	0.0160106844443767
5.07	0.000273351111102254
5.08	0.00873601777782785
5.09	0.0413986844445532
5.1	0.098261351111278
5.11	0.0617246419754412
5.12	0.0231445511111926
5.13	0.00177521777780034
5.14	0.00460588444440809
5.15	0.0316365511110157
5.16	0.0828672177776228
5.17	0.0706850844443014
5.18	0.0330431604937296
5.19	0.00515204938267759
5.2	0.00146093827162541
5.21	0.0219698271605732
5.22	0.0666787160495205
5.23	0.0842418375310189
5.24	0.0434120375309756
5.25	0.00967381530869468
5.26	0.000135593086413515
5.27	0.0147973708641324
5.28	0.0536591486418508
5.29	0.102172570864025
5.3	0.0559480177776506
5.31	0.0160106844443767
5.32	0.000273351111102254
5.33	0.00873601777782785
5.34	0.0413986844445532
5.35	0.098261351111278
5.36	0.0617246419754412
5.37	0.0231445511111926
5.38	0.00177521777780034
5.39	0.00460588444440809
5.4	0.0316365511110157
5.41	0.0828672177776228
5.42	0.0706850844443014
5.43	0.0330431604937296
5.44	0.00515204938267759
5.45	0.00146093827162541
5.46	0.0219698271605732
5.47	0.0666787160495205
5.48	0.0842418375310189
5.49	0.0434120375309756
5.5	0.00967381530869468
5.51	0.000135593086413515
5.52	0.0147973708641324
5.53	0.0536591486418508
5.54	0.102172570864025
5.55	0.0559480177776506
5.56	0.0160106844443767
5.57	0.000273351111102254
5.58	0.00873601777782785
5.59	0.0413986844445532
5.6	0.098261351111278
5.61	0.0617246419754412
5.62	0.0231445511111926
5.63	0.00177521777780034
5.64	0.00460588444440809
5.65	0.0316365511110157
5.66	0.0828672177776228
5.67	0.0706850844443014
5.68	0.0330431604937296
5.69	0.00515204938267759
5.7	0.00146093827162541
5.71	0.0219698271605732
5.72	0.0666787160495205
5.73	0.0842418375310189
5.74	0.0434120375309756
5.75	0.00967381530869468
5.76	0.000135593086413515
5.77	0.0147973708641324
5.78	0.0536591486418508
5.79	0.102172570864025
5.8	0.0559480177776506
5.81	0.0160106844443767
5.82	0.000273351111102254
5.83	0.00873601777782785
5.84	0.0413986844445532
5.85	0.098261351111278
5.86	0.0617246419754412
5.87	0.0231445511111926
5.88	0.00177521777780034
5.89	0.00460588444440809
5.9	0.0316365511110157
5.91	0.0828672177776228
5.92	0.0706850844443014
5.93	0.0330431604937296
5.94	0.00515204938267759
5.95	0.00146093827162541
5.96	0.0219698271605732
5.97	0.0666787160495205
5.98	0.0842418375310189
5.99	0.0434120375309756
6	0.00967381530869468
6.01	0.000135593086413515
6.02	0.0147973708641324
6.03	0.0536591486418508
6.04	0.102172570864025
6.05	0.0559480177776506
6.06	0.0160106844443767
6.07	0.000273351111102254
6.08	0.00873601777782785
6.09	0.0413986844445532
6.1	0.098261351111278
6.11	0.0617246419754412
6.12	0.0231445511111926
6.13	0.00177521777780034
6.14	0.00460588444440809
6.15	0.0316365511110157
6.16	0.0828672177776228
6.17	0.0706850844443014
6.18	0.0330431604937296
6.19	0.00515204938267759
6.2	0.00146093827162541
6.21	0.0219698271605732
6.22	0.0666787160495205
6.23	0.0842418375310189
6.24	0.0434120375309756
6.25	0.00967381530869468
6.26	0.000135593086413515
6.27	0.0147973708641324
6.28	0.0536591486418508
6.29	0.102172570864025
6.3	0.0559480177776506
6.31	0.0160106844443767
6.32	0.000273351111102254
6.33	0.00873601777782785
6.34	0.0413986844445532
6.35	0.098261351111278
6.36	0.0617246419754412
6.37	0.0231445511111926
6.38	0.00177521777780034
6.39	0.00460588444440809
6.4	0.0316365511110157
6.41	0.0828672177776228
6.42	0.0706850844443014
6.43	0.0330431604937296
6.44	0.00515204938267759
6.45	0.00146093827162541
6.46	0.0219698271605732
6.47	0.0666787160495205
6.48	0.0842418375310189
6.49	0.0434120375309756
6.5	0.00967381530869468
6.51	0.000135593086413515
6.52	0.0147973708641324
6.53	0.0536591486418508
6.54	0.102172570864025
6.55	0.0559480177776506
6.56	0.0160106844443767
6.57	0.000273351111102254
6.58	0.00873601777782785
6.59	0.0413986844445532
6.6	0.098261351111278
6.61	0.0617246419754412
6.62	0.0231445511111926
6.63	0.00177521777780034
6.64	0.00460588444440809
6.65	0.0316365511110157
6.66	0.0828672177776228
6.67	0.0706850844443014
6.68	0.0330431604937296
6.69	0.00515204938267759
6.7	0.00146093827162541
6.71	0.0219698271605732
6.72	0.0666787160495205
6.73	0.0842418375310189
6.74	0.0434120375309756
6.75	0.00967381530869468
6.76	0.000135593086413515
6.77	0.0147973708641324
6.78	0.0536591486418508
6.79	0.102172570864025
6.8	0.0559480177776506
6.81	0.0160106844443767
6.82	0.000273351111102254
6.83	0.00873601777782785
6.84	0.0413986844445532
6.85	0.098261351111278
6.86	0.0617246419754412
6.87	0.0231445511111926
6.88	0.00177521777780034
6.89	0.00460588444440809
6.9	0.0316365511110157
6.91	0.0828672177776228
6.92	0.0706850844443014
6.93	0.0330431604937296
6.94	0.00515204938267759
6.95	0.00146093827162541
6.96	0.0219698271605732
6.97	0.0666787160495205
6.98	0.0842418375310189
6.99	0.0434120375309756
7	0.00967381530869468
7.01	0.000135593086413515
7.02	0.0147973708641324
7.03	0.0536591486418508
7.04	0.102172570864025
7.05	0.0559480177776506
7.06	0.0160106844443767
7.07	0.000273351111102254
7.08	0.00873601777782785
7.09	0.0413986844445532
7.1	0.098261351111278
7.11	0.0617246419754412
7.12	0.0231445511111926
7.13	0.00177521777780034
7.14	0.00460588444440809
7.15	0.0316365511110157
7.16	0.0828672177776228
7.17	0.0706850844443014
7.18	0.0330431604937296
7.19	0.00515204938267759
7.2	0.00146093827162541
7.21	0.0219698271605732
7.22	0.0666787160495205
7.23	0.0842418375310189
7.24	0.0434120375309756
7.25	0.00967381530869468
7.26	0.000135593086413515
7.27	0.0147973708641324
7.28	0.0536591486418508
7.29	0.102172570864025
7.3	0.0559480177776506
7.31	0.0160106844443767
7.32	0.000273351111102254
7.33	0.00873601777782785
7.34	0.0413986844445532
7.35	0.098261351111278
7.36	0.0617246419754412
7.37	0.0231445511111926
7.38	0.00177521777780034
7.39	0.00460588444440809
7.4	0.0316365511110157
7.41	0.0828672177776228
7.42	0.0706850844443014
7.43	0.0330431604937296
7.44	0.00515204938267759
7.45	0.00146093827162541
7.46	0.0219698271605732
7.47	0.0666787160495205
7.48	0.0842418375310189
7.49	0.0434120375309756
7.5	0.00967381530869468
7.51	0.000135593086413515
7.52	0.0147973708641324
7.53	0.0536591486418508
7.54	0.102172570864025
7.55	0.0559480177776506
7.56	0.0160106844443767
7.57	0.000273351111102254
7.58	0.00873601777782785
7.59	0.0413986844445532
7.6	0.098261351111278
7.61	0.0617246419754412
7.62	0.0231445511111926
7.63	0.00177521777780034
7.64	0.00460588444440809
7.65	0.0316365511110157
7.66	0.0828672177776228
7.67	0.0706850844443014
7.68	0.0330431604937296
7.69	0.00515204938267759
7.7	0.00146093827162541
7.71	0.0219698271605732
7.72	0.0666787160495205
7.73	0.0842418375310189
7.74	0.0434120375309756
7.75	0.00967381530869468
7.76	0.000135593086413515
7.77	0.0147973708641324
7.78	0.0536591486418508
7.79	0.102172570864025
7.8	0.0559480177776506
7.81	0.0160106844443767
7.82	0.000273351111102254
7.83	0.00873601777782785
7.84	0.0413986844445532
7.85	0.098261351111278
7.86	0.0617246419754412
7.87	0.0231445511111926
7.88	0.00177521777780034
7.89	0.00460588444440809
7.9	0.0316365511110157
7.91	0.0828672177776228
7.92	0.0706850844443014
7.93	0.0330431604937296
7.94	0.00515204938267759
7.95	0.00146093827162541
7.96	0.0219698271605732
7.97	0.0666787160495205
7.98	0.0842418375310189
7.99	0.0434120375309756
8	0.00967381530869468
8.01	0.000135593086413515
8.02	0.0147973708641324
8.03	0.0536591486418508
8.04	0.102172570864025
8.05	0.0559480177776506
8.06	0.0160106844443767
8.07	0.000273351111102254
8.08	0.00873601777782785
8.09	0.0413986844445532
8.1	0.098261351111278
8.11	0.0617246419754412
8.12	0.0231445511111926
8.13	0.00177521777780034
8.14	0.00460588444440809
8.15	0.0316365511110157
8.16	0.0828672177776228
8.17	0.0706850844443014
8.18	0.0330431604937296
8.19	0.00515204938267759
8.2	0.00146093827162541
8.21	0.0219698271605732
8.22	0.0666787160495205
8.23	0.0842418375310189
8.24	0.0434120375309756
8.25	0.00967381530869468
8.26	0.000135593086413515
8.27	0.0147973708641324
8.28	0.0536591486418508
8.29	0.102172570864025
8.3	0.0559480177776506
8.31	0.0160106844443767
8.32	0.000273351111102254
8.33	0.00873601777782785
8.34	0.0413986844445532
8.35	0.098261351111278
8.36	0.0617246419754412
8.37	0.0231445511111926
8.38	0.00177521777780034
8.39	0.00460588444440809
8.4	0.0316365511110157
8.41	0.0828672177776228
8.42	0.0706850844443014
8.43	0.0330431604937296
8.44	0.00515204938267759
8.45	0.00146093827162541
8.46	0.0219698271605732
8.47	0.0666787160495205
8.48	0.0842418375310189
8.49	0.0434120375309756
8.5	0.00967381530869468
8.51	0.000135593086413515
8.52	0.0147973708641324
8.53	0.0536591486418508
8.54	0.102172570864025
8.55	0.0559480177776506
8.56	0.0160106844443767
8.57	0.000273351111102254
8.58	0.00873601777782785
8.59	0.0413986844445532
8.6	0.098261351111278
8.61	0.0617246419754412
8.62	0.0231445511111926
8.63	0.00177521777780034
8.64	0.00460588444440809
8.65	0.0316365511110157
8.66	0.0828672177776228
8.67	0.0706850844443014
8.68	0.0330431604937296
8.69	0.00515204938267759
8.7	0.00146093827162541
8.71	0.0219698271605732
8.72	0.0666787160495205
8.73	0.0842418375310189
8.74	0.0434120375309756
8.75	0.00967381530869468
8.76	0.000135593086413515
8.77	0.0147973708641324
8.78	0.0536591486418508
8.79	0.102172570864025
8.8	0.0559480177776506
8.81	0.0160106844443767
8.82	0.000273351111102254
8.83	0.00873601777782785
8.84	0.0413986844445532
8.85	0.098261351111278
8.86	0.0617246419754412
8.87	0.0231445511111926
8.88	0.00177521777780034
8.89	0.00460588444440809
8.9	0.0316365511110157
8.91	0.0828672177776228
8.92	0.0706850844443014
8.93	0.0330431604937296
8.94	0.00515204938267759
8.95	0.00146093827162541
8.96	0.0219698271605732
8.97	0.0666787160495205
8.98	0.0842418375310189
8.99	0.0434120375309756
9	0.00967381530869468
9.01	0.000135593086413515
9.02	0.0147973708641324
9.03	0.0536591486418508
9.04	0.102172570864025
9.05	0.0559480177776506
9.06	0.0160106844443767
9.07	0.000273351111102254
9.08	0.00873601777782785
9.09	0.0413986844445532
9.1	0.098261351111278
9.11	0.0617246419754412
9.12	0.0231445511111926
9.13	0.00177521777780034
9.14	0.00460588444440809
9.15	0.0316365511110157
9.16	0.0828672177776228
9.17	0.0706850844443014
9.18	0.0330431604937296
9.19	0.00515204938267759
9.2	0.00146093827162541
9.21	0.0219698271605732
9.22	0.0666787160495205
9.23	0.0842418375310189
9.24	0.0434120375309756
9.25	0.00967381530869468
9.26	0.000135593086413515
9.27	0.0147973708641324
9.28	0.0536591486418508
9.29	0.102172570864025
9.3	0.0559480177776506
9.31	0.0160106844443767
9.32	0.000273351111102254
9.33	0.00873601777782785
9.34	0.0413986844445532
9.35	0.098261351111278
9.36	0.0617246419754412
9.37	0.0231445511111926
9.38	0.00177521777780034
9.39	0.00460588444440809
9.4	0.0316365511110157
9.41	0.0828672177776228
9.42	0.0706850844443014
9.43	0.0330431604937296
9.44	0.00515204938267759
9.45	0.00146093827162541
9.46	0.0219698271605732
9.47	0.0666787160495205
9.48	0.0842418375310189
9.49	0.0434120375309756
9.5	0.00967381530869468
9.51	0.000135593086413515
9.52	0.0147973708641324
9.53	0.0536591486418508
9.54	0.102172570864025
9.55	0.0559480177776506
9.56	0.0160106844443767
9.57	0.000273351111102254
9.58	0.00873601777782785
9.59	0.0413986844445532
9.6	0.098261351111278
9.61	0.0617246419754412
9.62	0.0231445511111926
9.63	0.00177521777780034
9.64	0.00460588444440809
9.65	0.0316365511110157
9.66	0.0828672177776228
9.67	0.0706850844443014
9.68	0.0330431604937296
9.69	0.00515204938267759
9.7	0.00146093827162541
9.71	0.0219698271605732
9.72	0.0666787160495205
9.73	0.0842418375310189
9.74	0.0434120375309756
9.75	0.00967381530869468
9.76	0.000135593086413515
9.77	0.0147973708641324
9.78	0.0536591486418508
9.79	0.102172570864025
9.8	0.0559480177776506
9.81	0.0160106844443767
9.82	0.000273351111102254
9.83	0.00873601777782785
9.84	0.0413986844445532
9.85	0.098261351111278
9.86	0.0617246419754412
9.87	0.0231445511111926
9.88	0.00177521777780034
9.89	0.00460588444440809
9.9	0.0316365511110157
9.91	0.0828672177776228
9.92	0.0706850844443014
9.93	0.0330431604937296
9.94	0.00515204938267759
9.95	0.00146093827162541
9.96	0.0219698271605732
9.97	0.0666787160495205
9.98	0.0842418375310189
9.99	0.0434120375309756
10	0.00967381530869468
