4	-43.4457605526833
4.001	-36.4516784153103
4.002	-29.9086714024512
4.003	-23.7876479529894
4.004	-18.0613927319226
4.005	-12.7044456253601
4.006	-7.6929885395961
4.007	-3.00473950094363
4.008	1.38114641452464
4.009	5.48416976181505
4.01	9.32257343050984
4.011	12.9134237564236
4.012	16.2726864020587
4.013	19.4152973432395
4.014	22.3552292775471
4.015	25.1055537498199
4.016	27.6784992709426
4.017	30.0855056883327
4.018	32.3372750498654
4.019	34.4438191873901
4.02	36.4145042314034
4.021	38.2580922548003
4.022	39.9827802308611
4.023	41.596236478688
4.024	43.1056347581366
4.025	44.517686165834
4.026	45.8386689741017
4.027	47.074456545451
4.028	48.2305434467666
4.029	49.3120698792863
4.03	50.3238445329975
4.031	51.2703659670669
4.032	52.1558426113637
4.033	52.9842114780086
4.034	53.759155666143
4.035	54.4841207377487
4.036	55.162330037329
4.037	55.7967990235635
4.038	56.3903486766611
4.039	56.9456180410206
4.04	57.4650759589676
4.041	49.5668345168732
4.042	42.1779808932171
4.043	35.2656627180792
4.044	28.7991463966071
4.045	22.7496804611024
4.046	17.0903677360555
4.047	11.796045747745
4.048	6.84317484668055
4.049	2.2097335454576
4.05	-2.12487939332599
4.051	-6.17993655442803
4.052	-9.97346755985603
4.053	-13.522339232292
4.054	-16.8423305884711
4.055	-19.9482029959504
4.056	-22.8537658051992
4.057	-25.5719377488244
4.058	-28.1148043809249
4.059	-30.4936718119626
4.06	-32.7191169780651
4.061	-34.8010346682699
4.062	-36.7486815188003
4.063	-38.5707171699828
4.064	-40.2752427687978
4.065	-41.8698369882521
4.066	-43.3615897237258
4.067	-44.7571336161117
4.068	-37.678476011043
4.069	-31.0563481260838
4.07	-24.861306612372
4.071	-27.4500045661617
4.072	-29.871747481549
4.073	-32.1373029279242
4.074	-34.2567440329183
4.075	-36.2394942696101
4.076	-38.0943693552342
4.077	-31.4454189168176
4.078	-25.225284738775
4.079	-19.4063108193261
4.08	-13.9626247980896
4.081	-17.2542204530868
4.082	-20.3335285068285
4.083	-23.2142401991782
4.084	-25.9091637695423
4.085	-28.4302814049486
4.086	-30.7888025153258
4.087	-32.9952135728559
4.088	-35.0593247369966
4.089	-36.9903134724772
4.09	-38.7967653542029
4.091	-40.4867122404948
4.092	-42.0676679843918
4.093	-43.5466618417935
4.094	-44.9302697249845
4.095	-46.2246434404991
4.096	-47.4355380413242
4.097	-48.5683374150541
4.098	-49.6280782217671
4.099	-50.6194722880571
4.1	-51.5469275567878
4.101	-52.414567685718
4.102	-53.2262503821354
4.103	-53.9855845550209
4.104	-54.6959463610032
4.105	-55.3604942154491
4.106	-55.9821828354305
4.107	-56.5637763770072
4.108	-57.1078607252358
4.109	-57.616854991549
4.11	-58.0930222696249
4.111	-58.5384796975691
4.112	-58.9552078711481
4.113	-59.3450596499274
4.114	-59.7097683954678
4.115	-60.0509556782095
4.116	-60.3701384873087
4.117	-60.6687359754852
4.118	-60.9480757688688
4.119	-61.2093998698988
4.12	-61.4538701795241
4.121	-61.6825736632545
4.122	-61.8965271840342
4.123	-62.0966820234244
4.124	-62.2839281111976
4.125	-62.4590979821495
4.126	-62.6229704777205
4.127	-62.7762742088858
4.128	-62.9196907957103
4.129	-63.0538578979721
4.13	-63.1793720503301
4.131	-63.2967913146396
4.132	-63.4066377612115
4.133	-63.509399790044
4.134	-63.6055343023503
4.135	-63.6954687320358
4.136	-63.7796029461573
4.137	-63.858311022815
4.138	-63.9319429143806
4.139	-64.0008260034581
4.14	-64.0652665584943
4.141	-64.1255510955119
4.142	-64.1819476520187
4.143	-64.2347069787576
4.144	-64.2840636545968
4.145	-64.3302371295151
4.146	-64.3734327003227
4.147	-64.4138424234525
4.148	-64.4516459688832
4.149	-64.4870114189888
4.15	-64.5200960158678
4.151	-56.1668493296099
4.152	-48.3523354913644
4.153	-41.041809557946
4.154	-34.2027674205299
4.155	-27.8048012846675
4.156	-21.8194644709502
4.157	-16.2201449351941
4.158	-10.9819469457935
4.159	-6.08158039215364
4.16	-1.49725723204734
4.161	2.79140538252322
4.162	6.80347573168
4.163	10.5567923091825
4.164	14.068043136057
4.165	17.3528399589858
4.166	20.4257876633594
4.167	23.3005492096138
4.168	25.9899063815765
4.169	28.5058166169178
4.17	30.8594661723897
4.171	33.0613198602346
4.172	35.1211675769029
4.173	37.0481678309555
4.174	38.850888463685
4.175	40.5373447435085
4.176	42.1150350035075
4.177	43.5909739805652
4.178	44.9717240043371
4.179	46.2634241747241
4.18	47.4718176575789
4.181	48.6022772200087
4.182	49.6598291188071
4.183	50.6491754482312
4.184	51.5747150464835
4.185	52.440563053856
4.186	53.2505692094937
4.187	54.0083349681308
4.188	54.7172295129023
4.189	55.3804047354282
4.19	56.0008092497754
4.191	56.5812015026047
4.192	57.1241620377947
4.193	57.6321049700732
4.194	58.10728871867
4.195	58.5518260487153
4.196	58.9676934650302
4.197	59.3567400000757
4.198	59.7206954351325
4.199	60.0611779912667
4.2	60.3797015242744
4.201	60.6776822555977
4.202	60.9564450691379
4.203	61.2172294019629
4.204	61.4611947551005
4.205	61.6894258489197
4.206	61.9029374460215
4.207	62.102678863083
4.208	62.2895381917158
4.209	62.4643462471044
4.21	62.6278802619825
4.211	62.7808673423702
4.212	62.9239877004376
4.213	63.0578776788686
4.214	63.1831325801722
4.215	63.3003093135201
4.216	63.4099288708802
4.217	63.5124786434546
4.218	63.6084145887212
4.219	63.6981632577153
4.22	63.7821236915633
4.221	63.8606691957025
4.222	63.9341489996735
4.223	64.0028898098674
4.224	64.0671972621298
4.225	64.1273572806808
4.226	64.1836373493935
4.227	64.2362877010819
4.228	64.2855424300887
4.229	64.3316205331161
4.23	64.3747268829309
4.231	64.4150531392713
4.232	64.4527786010052
4.233	64.4880710033305
4.234	64.5210872635601
4.235	64.551974178809
4.236	64.5808690786844
4.237	64.6079004358813
4.238	64.6331884373993
4.239	64.6568455189181
4.24	64.6789768647104
4.241	56.3154833444481
4.242	48.4913835297395
4.243	41.1718898561671
4.244	34.3244583424805
4.245	27.9186438933309
4.246	21.9259649340869
4.247	16.3197767758688
4.248	11.075153147756
4.249	6.16877536943649
4.25	1.57882867153604
4.251	-2.71509479735413
4.252	-6.73208670820132
4.253	-10.4900074370452
4.254	-14.0055654759202
4.255	-17.2943917222634
4.256	-20.3711089771139
4.257	-23.2493969611084
4.258	-25.9420531373451
4.259	-28.4610496115489
4.26	-30.8175863625275
4.261	-33.0221410395912
4.262	-35.0845155483465
4.263	-37.0138796319938
4.264	-38.8188116419008
4.265	-40.5073366787244
4.266	-42.0869622736669
4.267	-43.5647117685109
4.268	-44.9471555428479
4.269	-46.2404402273438
4.27	-47.4503160329284
4.271	-48.582162317422
4.272	-49.6410115032712
4.273	-50.6315714527393
4.274	-51.5582464000342
4.275	-52.4251565334443
4.276	-53.2361563145467
4.277	-53.9948516159394
4.278	-54.7046157536965
4.279	-55.3686044858285
4.28	-55.9897700434338
4.281	-56.5708742569289
4.282	-57.1145008357166
4.283	-57.6230668558921
4.284	-58.0988335070627
4.285	-58.543916146064
4.286	-58.9602937022734
4.287	-59.3498174763392
4.288	-59.7142193714454
4.289	-60.0551195937117
4.29	-60.3740338559641
4.291	-60.6723801169079
4.292	-60.9514848856643
4.293	-61.212589119705
4.294	-61.4568537424045
4.295	-61.6853648047462
4.296	-61.899138314129
4.297	-62.0991247517461
4.298	-62.2862132986212
4.299	-62.4612357890904
4.3	-62.62497040931
4.301	-62.778145157233
4.302	-62.9214410794382
4.303	-63.0554952992038
4.304	-63.1809038492897
4.305	-63.2982243220219
4.306	-63.4079783484634
4.307	-63.5106539176933
4.308	-63.6067075465078
4.309	-63.6965663091873
4.31	-63.7806297363578
4.311	-63.8592715913858
4.312	-63.932841532208
4.313	-64.0016666659826
4.314	-64.0660530034753
4.315	-64.1262868196462
4.316	-64.1826359264878
4.317	-64.2353508637721
4.318	-64.2846660130024
4.319	-64.3308006395218
4.32	-64.3739598674124
4.321	-64.4143355915191
4.322	-64.4521073306537
4.323	-64.487443025773
4.324	-64.5204997866787
4.325	-64.5514245905601
4.326	-64.5803549354849
4.327	-64.6074194517445
4.328	-64.6327384737703
4.329	-64.6564245751657
4.33	-64.6785830692315
4.331	-56.3151149463468
4.332	-48.4910388910416
4.333	-41.1715674445379
4.334	-34.3241567244112
4.335	-27.9183617277652
4.336	-21.9257009664585
4.337	-16.3195298325229
4.338	-11.0749221307316
4.339	-6.16855925158413
4.34	-1.5786264919511
4.341	2.71528393760387
4.342	6.73226365007248
4.343	10.4901729672579
4.344	14.005720330456
4.345	17.2945365896375
4.346	11.9870469705725
4.347	7.02185766965553
4.348	2.37689242933108
4.349	-1.96850122561738
4.35	-6.03364381323929
4.351	-9.83660979743235
4.352	-13.3943079507436
4.353	-16.722556534266
4.354	-19.8361536288956
4.355	-22.7489429306567
4.356	-25.4738753026351
4.357	-28.0230663571911
4.358	-30.4078503244754
4.359	-32.6388304467587
4.36	-34.7259261226368
4.361	-36.6784170107275
4.362	-38.5049842889492
4.363	-40.2137492528323
4.364	-41.8123094244768
4.365	-43.3077723327056
4.366	-44.7067871146062
4.367	-46.0155740789679
4.368	-47.2399523630601
4.369	-48.385365805719
4.37	-49.4569071517798
4.371	-50.4593406954725
4.372	-51.3971234634583
4.373	-52.2744250316915
4.374	-53.0951460642155
4.375	-53.8629356563209
4.376	-54.5812075591775
4.377	-55.2531553580769
4.378	-55.8817666717733
4.379	-56.469836436053
4.38	-57.019979330597
4.381	-57.5346414043866
4.382	-58.0161109513432
4.383	-58.4665286845553
4.384	-58.8878972543317
4.385	-59.282090152398
4.386	-59.6508600418285
4.387	-59.9958465497481
4.388	-60.3185835574533
4.389	-60.6205060203652
4.39	-60.9029563481381
4.391	-61.1671903732903
4.392	-61.4143829348944
4.393	-61.645633102155
4.394	-61.8619690610975
4.395	-62.0643526860954
4.396	-62.2536838165625
4.397	-62.4308042578252
4.398	-62.5965015239625
4.399	-62.7515123392566
4.4	-62.8965259138211
4.401	-63.0321870079717
4.402	-63.1590987989637
4.403	-63.2778255628429
4.404	-63.3888951833331
4.405	-63.4928014989167
4.406	-63.5900064985421
4.407	-63.6809423757226
4.408	-63.7660134501574
4.409	-63.8455979654214
4.41	-63.9200497707132
4.411	-63.9896998941428
4.412	-64.0548580145501
4.413	-64.1158138384019
4.414	-64.1728383878857
4.415	-64.2261852059312
4.416	-64.2760914835141
4.417	-64.3227791142563
4.418	-64.366455681011
4.419	-56.0231178479542
4.42	-48.2178738030441
4.421	-40.916019818512
4.422	-34.0850903428094
4.423	-27.6947136520584
4.424	-21.7164768110911
4.425	-16.1237993436696
4.426	-10.8918150501964
4.427	-5.99726144745284
4.428	-1.41837633879243
4.429	2.86519894508228
4.43	6.87251006496982
4.431	10.621374354113
4.432	14.128460037744
4.433	17.4093603434579
4.434	20.4786628319243
4.435	23.3500142561962
4.436	26.0361812379941
4.437	28.5491070307438
4.438	30.8999646217486
4.439	33.0992064096003
4.44	35.1566106777021
4.441	37.0813250705377
4.442	38.8819072659885
4.443	40.5663630245376
4.444	42.1421817845353
4.445	43.6163699617895
4.446	44.9954821015378
4.447	46.2856500213102
4.448	47.4926100742568
4.449	48.6217286541591
4.45	49.6780260555254
4.451	50.6661987948579
4.452	51.5906404923352
4.453	52.4554614067555
4.454	53.2645067105963
4.455	54.0213735864463
4.456	54.7294272208216
4.457	55.3918157664813
4.458	56.011484339764
4.459	56.5911881151847
4.46	57.133504575509
4.461	57.640844971775
4.462	58.1154650442126
4.463	58.5594750517315
4.464	58.974849154568
4.465	59.3634341918092
4.466	59.7269578928214
4.467	60.0670365590918
4.468	60.3851822506388
4.469	60.6828095089432
4.47	60.9612416462924
4.471	61.2217166294994
4.472	61.4653925841598
4.473	61.6933529439172
4.474	61.906611267633
4.475	62.1061157458785
4.476	62.2927534167863
4.477	62.4673541100049
4.478	62.630694136293
4.479	62.7834997391572
4.48	62.9264503238812
4.481	63.0601814783015
4.482	63.1852877987627
4.483	63.3023255338153
4.484	63.4118150574122
4.485	63.5142431825984
4.486	63.6100653259824
4.487	63.6997075326129
4.488	63.7835683702626
4.489	63.8620207015435
4.49	63.9354133417303
4.491	64.0040726096661
4.492	64.0683037786427
4.493	64.128392433709
4.494	64.1846057414412
4.495	64.2371936378203
4.496	64.2863899394997
4.497	64.3324133834016
4.498	64.3754685992671
4.499	64.4157470194823
4.5	64.4534277302258
4.501	64.4886782677233
4.502	64.5216553631482
4.503	64.5525056394805
4.504	64.5813662634231
4.505	64.6083655552735
4.506	64.6336235594617
4.507	64.6572525782935
4.508	64.6793576712687
4.509	64.7000371221983
4.51	64.7193828761938
4.511	64.7374809484748
4.512	64.7544118068102
4.513	64.7702507292944
4.514	64.7850681390496
4.515	64.798929917341
4.516	64.8118976964992
4.517	64.8240291339496
4.518	64.83537816857
4.519	64.8459952605131
4.52	64.8559276155634
4.521	56.4810218641597
4.522	48.6462458367724
4.523	41.3167645003366
4.524	34.459989466389
4.525	28.0454340963591
4.526	22.0445779516754
4.527	16.430739986002
4.528	11.1789599157936
4.529	6.26588724171825
4.53	1.66967742751163
4.531	-2.63010522534418
4.532	-6.65257843895902
4.533	-10.4156269603773
4.534	-13.9359820808586
4.535	-17.2292960266561
4.536	-20.310211552048
4.537	-23.1924270440493
4.538	-25.8887574282701
4.539	-28.4111911467234
4.54	-30.770943460915
4.541	-32.9785063172135
4.542	-35.043694996212
4.543	-36.9756917534933
4.544	-38.7830866458359
4.545	-40.473915724381
4.546	-42.0556967645765
4.547	-43.5354626917599
4.548	-44.9197928509975
4.549	-46.2148422602122
4.55	-47.4263689766646
4.551	-48.5597596984659
4.552	-49.62005371495
4.553	-50.6119653123957
4.554	-51.5399047347173
4.555	-52.4079977923202
4.556	-53.2201042063069
4.557	-53.9798347695939
4.558	-54.6905674012438
4.559	-55.3554621653908
4.56	-55.9774753215389
4.561	-56.5593724687029
4.562	-57.1037408418324
4.563	-57.6130008151938
4.564	-58.0894166638534
4.565	-58.535106631113
4.566	-58.952052346657
4.567	-59.3421076372874
4.568	-59.7070067694209
4.569	-60.0483721599955
4.57	-60.3677215900719
4.571	-60.666474953201
4.572	-60.945960568565
4.573	-61.2074210869578
4.574	-61.452019015868
4.575	-61.6808418882274
4.576	-61.8949070978064
4.577	-62.0951664227577
4.578	-62.2825102574184
4.579	-62.4577715711869
4.58	-62.6217296120772
4.581	-62.7751133714169
4.582	-62.9186048250924
4.583	-63.0528419657556
4.584	-63.1784216394703
4.585	-63.2959021994136
4.586	-63.4058059884292
4.587	-63.5086216614717
4.588	-63.6048063582677
4.589	-63.694787735853
4.59	-63.7789658700246
4.591	-63.8577150341603
4.592	-63.9313853633152
4.593	-64.0003044109947
4.594	-64.0647786055252
4.595	-64.1250946124972
4.596	-64.1815206093406
4.597	-64.2343074776962
4.598	-64.2836899188878
4.599	-64.3298874974523
4.6	-64.3731056173697
4.601	-56.0293389044668
4.602	-48.2236936398133
4.603	-40.9214643117344
4.604	-34.090183699827
4.605	-27.6994785189888
4.606	-21.7209343735172
4.607	-16.1279694208351
4.608	-19.2799137139901
4.609	-22.2285770566829
4.61	-24.9870698153976
4.611	-19.183459288044
4.612	-13.7541458149484
4.613	-8.67498954658683
4.614	-3.92340750471807
4.615	0.5217268262035
4.616	4.68017743188144
4.617	8.57043364294133
4.618	12.2097923423151
4.619	15.6144348707564
4.62	18.7994989724251
4.621	21.7791461004258
4.622	24.5666243815539
4.623	27.1743275202053
4.624	29.6138499033466
4.625	31.8960381515554
4.626	34.0310393453366
4.627	36.0283461411386
4.628	37.8968389776657
4.629	39.6448255601431
4.63	41.2800777980914
4.631	42.8098663608417
4.632	44.2409930044338
4.633	45.5798208136293
4.634	46.8323024935009
4.635	48.0040068363892
4.636	49.1001434819041
4.637	50.1255860800588
4.638	51.0848939605251
4.639	51.982332404355
4.64	52.8218916083013
4.641	45.223106895193
4.642	38.1143968900018
4.643	31.4641547992195
4.644	25.2428122724155
4.645	19.4227079352414
4.646	13.9779644012451
4.647	8.88437321566359
4.648	4.11928721963116
4.649	-0.338480143768258
4.65	-4.50874902931091
4.651	-8.41006131413658
4.652	-12.0597630387656
4.653	-15.474081531179
4.654	-18.6681975568719
4.655	-21.6563128156731
4.656	-24.4517130854376
4.657	-27.0668272933595
4.658	-29.5132827775508
4.659	-31.8019569845887
4.66	-33.9430258328913
4.661	-35.9460089569527
4.662	-37.8198120336056
4.663	-39.5727663784999
4.664	-41.2126659888545
4.665	-42.7468021971782
4.666	-44.1819960900417
4.667	-45.524628836037
4.668	-46.7806700577721
4.669	-47.9557043740462
4.67	-49.0549562302188
4.671	-50.0833131271736
4.672	-51.0453473521568
4.673	-51.9453363081116
4.674	-52.7872815318946
4.675	-53.5749264859364
4.676	-54.3117732024483
4.677	-55.0010978541818
4.678	-55.6459653209689
4.679	-56.2492428168116
4.68	-56.8136126381076
4.681	-57.3415840896943
4.682	-57.8355046417367
4.683	-58.2975703670647
4.684	-58.7298357053666
4.685	-59.1342225976526
4.686	-59.5125290316015
4.687	-59.8664370357857
4.688	-60.1975201583172
4.689	-60.5072504631685
4.69	-60.7970050752723
4.691	-61.0680723035041
4.692	-61.3216573687695
4.693	-61.5588877626651
4.694	-61.7808182605396
4.695	-61.9884356112426
4.696	-62.1826629244138
4.697	-62.3643637748195
4.698	-62.5343460419843
4.699	-62.6933655021901
4.7	-62.8421291888143
4.701	-62.9812985359456
4.702	-63.111492319257
4.703	-63.2332894072101
4.704	-63.3472313348241
4.705	-63.4538247114522
4.706	-63.5535434732716
4.707	-63.6468309905016
4.708	-63.7341020387192
4.709	-63.8157446430368
4.71	-63.8921218033427
4.711	-63.9635731082728
4.712	-64.0304162450923
4.713	-64.092948412199
4.714	-64.1514476405283
4.715	-64.2061740297367
4.716	-64.2573709046583
4.717	-64.3052658971777
4.718	-64.3500719583276
4.719	-64.391988305114
4.72	-64.4312013062755
4.721	-64.4678853109177
4.722	-64.5022034237049
4.723	-64.5343082300576
4.724	-64.5643424745783
4.725	-64.592439695724
4.726	-64.6187248195455
4.727	-64.6433147151343
4.728	-64.6663187142471
4.729	-64.6878390974172
4.73	-64.7079715487146
4.731	-64.7268055811777
4.732	-64.7444249348065
4.733	-64.7609079488876
4.734	-64.7763279103075
4.735	-64.7907533794008
4.736	-64.8042484947836
4.737	-64.8168732585274
4.738	-64.8286838029404
4.739	-64.8397326401434
4.74	-56.4658713646852
4.741	-48.6320724509925
4.742	-41.3035052104494
4.743	-34.4475853188521
4.744	-28.0338299397695
4.745	-22.0337221915553
4.746	-16.4205843553987
4.747	-11.1694592606752
4.748	-6.25699932020892
4.749	-1.66136272207594
4.75	2.63788368360461
4.751	6.65985523467683
4.752	10.4224344476898
4.753	13.942350527261
4.754	17.2352537475769
4.755	20.3157850367455
4.756	23.197641073388
4.757	25.8936351849018
4.758	28.415754318162
4.759	30.7752123359635
4.76	32.9824998761725
4.761	35.0474309952697
4.762	36.9791868036735
4.763	38.7863562868539
4.764	40.4769744937363
4.765	42.0585582621897
4.766	43.5381396404405
4.767	44.9222971530126
4.768	46.217185050206
4.769	47.4285606711655
4.77	48.5618100422005
4.771	49.6219718241702
4.772	50.6137597154113
4.773	51.5415834098149
4.774	52.4095682032363
4.775	53.2215733354127
4.776	53.9812091489412
4.777	54.691853141607
4.778	55.3566649834372
4.779	55.9786005652461
4.78	56.5604251411369
4.781	57.1047256233925
4.782	57.6139220844221
4.783	58.0902785169033
4.784	58.5359128999613
4.785	58.9528066161416
4.786	59.3428132610462
4.787	59.7076668848029
4.788	60.0489897020102
4.789	60.3682993044386
4.79	60.6670154085573
4.791	60.9464661678869
4.792	61.2078940782444
4.793	61.4524615021364
4.794	61.6812558368628
4.795	61.89529434931
4.796	62.0955286989299
4.797	62.2828491690137
4.798	62.4580886250763
4.799	62.6220262179479
4.8	62.7753908480398
4.801	62.918864406186
4.802	63.053084805471
4.803	63.1786488175231
4.804	63.2961147258843
4.805	63.4060048082544
4.806	63.5088076586455
4.807	63.6049803597719
4.808	63.6949505153342
4.809	63.7791181512342
4.81	63.8578574941719
4.811	63.9315186355354
4.812	64.0004290879794
4.813	64.0648952416139
4.814	64.1252037262782
4.815	64.1816226859563
4.816	64.2344029710003
4.817	64.2837792534632
4.818	64.3299710704991
4.819	64.3731838004708
4.82	64.4136095761047
4.821	64.451428138752
4.822	64.4868076375564
4.823	64.5199053770799
4.824	64.5508685167112
4.825	64.5798347249668
4.826	64.6069327915936
4.827	64.632283200195
4.828	64.6559986639256
4.829	64.6781846266374
4.83	64.6989397317046
4.831	56.3341587297488
4.832	48.5088544679684
4.833	41.1882340267256
4.834	34.3397484149279
4.835	27.9329478504886
4.836	21.939346374304
4.837	16.3322951957933
4.838	11.0868642068696
4.839	6.17973113752778
4.84	1.58907786021364
4.841	-2.70550661807964
4.842	-6.72311690730374
4.843	-10.4816161329364
4.844	-13.9977153591283
4.845	-17.2870478895469
4.846	-20.3642387762754
4.847	-23.2429698458154
4.848	-25.9360405313149
4.849	-28.4554247814928
4.85	-30.8123242992889
4.851	-33.0172183469496
4.852	-35.0799103389932
4.853	-37.0095714302167
4.854	-38.8147812925444
4.855	-40.5035662620228
4.856	-42.0834350255684
4.857	-43.5614120061416
4.858	-44.9440685947825
4.859	-46.2375523683734
4.86	-47.4476144230353
4.861	-48.5796349446904
4.862	-49.6386471304798
4.863	-50.6293595673979
4.864	-51.5561771676438
4.865	-52.4232207537701
4.866	-53.2343453807121
4.867	-53.9931574761585
4.868	-54.7030308754739
4.869	-55.3671218224681
4.87	-55.9883830027079
4.871	-56.5695766717678
4.872	-57.1132869367886
4.873	-57.6219312459518
4.874	-58.0977711369536
4.875	-58.5429222922691
4.876	-58.9593639459134
4.877	-59.3489476835251
4.878	-59.7134056748987
4.879	-60.0543583755695
4.88	-60.3733217316932
4.881	-60.6717139202566
4.882	-60.9508616545848
4.883	-61.2120060831829
4.884	-61.4563083081391
4.885	-61.684854547624
4.886	-61.8986609654415
4.887	-62.0986781891024
4.888	-62.2857955365114
4.889	-62.4608449700579
4.89	-62.6246047956927
4.891	-62.7778031234371
4.892	-62.9211211047108
4.893	-63.0551959608711
4.894	-63.1806238164318
4.895	-63.2979623495547
4.896	-63.4077332716032
4.897	-63.5104246467778
4.898	-63.6064930621511
4.899	-63.6963656577476
4.9	-63.7804420256973
4.901	-63.8590959869042
4.902	-63.9326772531315
4.903	-64.0015129818925
4.904	-64.0659092310603
4.905	-64.1261523196646
4.906	-64.1825101009247
4.907	-64.2352331531811
4.908	-64.2845558940179
4.909	-64.3306976225321
4.91	-64.3738634943827
4.911	-56.0300479030906
4.912	-48.2243569124024
4.913	-40.9220848073359
4.914	-34.0907641772924
4.915	-27.7000215592408
4.916	-21.7214423910251
4.917	-16.1284446743496
4.918	-10.8961607857224
4.919	-6.00132690986299
4.92	-1.42217960397257
4.921	2.86164096702932
4.922	6.86918155453844
4.923	10.6182605120581
4.924	14.1255470192804
4.925	17.4066351967036
4.926	20.4761134403137
4.927	23.3476292846076
4.928	26.0339500823509
4.929	28.5470197708669
4.93	30.8980119772496
4.931	33.097379698618
4.932	35.1549017783022
4.933	37.0797263846004
4.934	38.8804116854257
4.935	40.5649638996891
4.936	42.1408728946029
4.937	43.6151454871782
4.938	36.6101390671162
4.939	30.0569123203679
4.94	23.9263282467679
4.941	26.5753265336677
4.942	29.0534807829037
4.943	31.3718093803125
4.944	33.5406200938588
4.945	35.5695559041018
4.946	37.4676378788792
4.947	39.2433052828389
4.948	32.5202555692889
4.949	26.230801061956
4.95	20.3469775465528
4.951	14.8426243279949
4.952	9.69326791454493
4.953	4.87601320361181
4.954	0.369441685393681
4.955	-3.84648378824208
4.956	-7.79050809305965
4.957	-11.4801671760455
4.958	-14.9318660238522
4.959	-18.1609516027583
4.96	-21.181781094452
4.961	-24.0077857310271
4.962	-26.6515305130162
4.963	-29.1247700759792
4.964	-31.438500954042
4.965	-33.6030104727591
4.966	-35.6279224886888
4.967	-37.5222401790479
4.968	-39.2943860716979
4.969	-40.9522394934442
4.97	-42.503171603151
4.971	-43.9540781654367
4.972	-45.3114102106683
4.973	-46.5812027175753
4.974	-47.7691014460122
4.975	-48.8803880391731
4.976	-49.9200035068689
4.977	-50.8925701942777
4.978	-51.8024123338468
4.979	-52.6535752717231
4.98	-53.4498434541986
4.981	-54.1947572541402
4.982	-54.8916287122189
4.983	-55.5435562629271
4.984	-56.1534385108588
4.985	-56.7239871185042
4.986	-57.2577388628614
4.987	-57.7570669144714
4.988	-58.2241913890245
4.989	-58.6611892184534
4.99	-59.0700033854015
4.991	-59.4524515621257
4.992	-59.8102341922425
4.993	-60.1449420512514
4.994	-60.4580633194522
4.995	-60.7509901987014
4.996	-61.0250251024296
4.997	-61.2813864464408
4.998	-61.5212140662407
4.999	-61.7455742849809
5	-61.955464654552
5.001	-62.1518183909054
5.002	-62.335508523324
5.003	-62.5073517760914
5.004	-62.668112199816
5.005	-62.8185045685588
5.006	-62.9591975578655
5.007	-63.0908167178373
5.008	-63.2139472544548
5.009	-63.3291366315255
5.01	-63.4368970048207
5.011	-63.5377074992258
5.012	-63.6320163390289
5.013	-63.7202428408179
5.014	-63.8027792778496
5.015	-63.8799926241769
5.016	-63.9522261862917
5.017	-64.0198011295363
5.018	-64.0830179060709
5.019	-64.1421575907461
5.02	-64.1974831308194
5.021	-64.2492405150737
5.022	-64.2976598675337
5.023	-64.3429564706448
5.024	-64.385331722464
5.025	-64.4249740321164
5.026	-64.4620596575019
5.027	-64.4967534889736
5.028	-64.5292097824749
5.029	-64.5595728453928
5.03	-64.5879776781788
5.031	-56.2303530437244
5.032	-48.4117436079168
5.033	-41.0973862176976
5.034	-34.2547597287933
5.035	-27.8534404099881
5.036	-21.8649666729291
5.037	-16.2627125260232
5.038	-11.0217691897769
5.039	-6.11883434721652
5.04	-1.53210853697134
5.041	2.7588017716353
5.042	6.77297485243749
5.043	10.5282585483741
5.044	14.0413496266864
5.045	17.3278680161949
5.046	20.4024262567307
5.047	23.2786944695065
5.048	25.9694611373003
5.049	28.4866899646922
5.05	30.8415730711668
5.051	33.0445807535894
5.052	35.1055080393085
5.053	37.0335182368721
5.054	38.8371836779904
5.055	40.5245238318938
5.056	42.1030409615504
5.057	43.5797534802771
5.058	44.9612271570553
5.059	46.2536043092966
5.06	47.462631112855
5.061	48.5936831507124
5.062	49.6517893139306
5.063	50.6416541611408
5.064	51.5676788359828
5.065	52.4339806354992
5.066	53.2444113164887
5.067	54.0025742212129
5.068	54.7118402986004
5.069	55.375363092182
5.07	55.9960927613973
5.071	56.5767891986129
5.072	57.120034300174
5.073	57.6282434460492
5.074	58.1036762391089
5.075	58.5484465517866
5.076	58.9645319247924
5.077	59.3537823596675
5.078	59.7179285442736
5.079	60.0585895477886
5.08	60.3772800194226
5.081	60.6754169228613
5.082	60.9543258363795
5.083	61.2152468466357
5.084	61.4593400623539
5.085	61.6876907724066
5.086	61.9013142712331
5.087	62.1011603730489
5.088	62.2881176349154
5.089	62.4630173074488
5.09	62.6266370307314
5.091	62.7797042918605
5.092	62.9228996595064
5.093	63.0568598098612
5.094	63.1821803574326
5.095	63.2994185032693
5.096	63.4090955123918
5.097	63.5116990314445
5.098	63.6076852568733
5.099	63.6974809632695
5.1	63.7814854008977
5.101	55.4758745399805
5.102	47.7059243103897
5.103	40.4370879079517
5.104	33.6370465841105
5.105	27.2755659500933
5.106	21.3243615485712
5.107	15.7569730951177
5.108	10.5486468303165
5.109	5.67622545943288
5.11	1.11804519029612
5.111	5.23803694246764
5.112	9.09231465867195
5.113	12.6980152540188
5.114	16.0711704183769
5.115	19.2267778965794
5.116	22.1788681714963
5.117	24.9405668464605
5.118	27.5241530044123
5.119	29.9411138032388
5.12	32.2021955500522
5.121	34.3174514814908
5.122	36.296286462487
5.123	38.1474988022397
5.124	39.879319373315
5.125	41.4994482078064
5.126	43.0150887332683
5.127	44.4329798006437
5.128	45.7594256465874
5.129	47.000323923405
5.13	48.1611919212338
5.131	40.8629935681903
5.132	34.035483958311
5.133	27.6483065731478
5.134	21.6730627023068
5.135	16.0831851769135
5.136	10.8538202464914
5.137	5.96171707405098
5.138	1.38512435806527
5.139	-2.89630637831168
5.14	-6.90161126077711
5.141	-10.6485987024277
5.142	-14.153928583644
5.143	-17.4331863253606
5.144	-20.5009521850682
5.145	-23.370866083651
5.146	-26.055688251293
5.147	-28.5673559620985
5.148	-30.9170366096787
5.149	-33.1151773596916
5.15	-35.1715516000986
5.151	-37.0953023956676
5.152	-38.8949831399272
5.153	-40.5785955853225
5.154	-42.1536254206593
5.155	-43.6270755540232
5.156	-45.0054972491563
5.157	-46.2950192537292
5.158	-47.5013750490196
5.159	-48.6299283421544
5.16	-49.6856969142604
5.161	-50.6733749305555
5.162	-51.5973538115774
5.163	-52.4617417583468
5.164	-53.2703820182776
5.165	-54.0268699730495
5.166	-54.7345691244172
5.167	-55.3966260490351
5.168	-56.0159843887862
5.169	-56.595397938823
5.17	-57.1374428915093
5.171	-57.6445292907038
5.172	-58.1189117473132
5.173	-58.5626994637581
5.174	-58.9778656119226
5.175	-59.3662561062846
5.176	-59.7295978112323
5.177	-60.069506219061
5.178	-60.3874926327848
5.179	-60.6849708857025
5.18	-60.9632636275925
5.181	-61.223608205487
5.182	-61.4671621651726
5.183	-61.695008397878
5.184	-61.9081599550322
5.185	-62.1075645525002
5.186	-62.2941087843242
5.187	-62.4686220647031
5.188	-62.63188031574
5.189	-62.784609417352
5.19	-62.9274884346823
5.191	-63.061152637364
5.192	-63.1861963240604
5.193	-63.3031754648396
5.194	-63.4126101731319
5.195	-63.5149870182622
5.196	-63.6107611888375
5.197	-63.7003585166093
5.198	-63.7841773698097
5.199	-63.862590424379
5.2	-63.9359463209598
5.201	-55.6203736841611
5.202	-47.8411041517406
5.203	-40.563549483979
5.204	-33.755352169111
5.205	-27.3862415551427
5.206	-21.4278992602777
5.207	-15.8538332635407
5.208	-10.6392601157786
5.209	-5.76099474732391
5.21	-1.19734738238539
5.211	3.07197289817734
5.212	7.06594837447267
5.213	10.8023370867166
5.214	14.2977517911486
5.215	17.5677338237787
5.216	20.6268222003784
5.217	23.4886182599491
5.218	26.1658461390852
5.219	28.6704093461151
5.22	31.0134436865582
5.221	33.2053667752177
5.222	35.2559243550481
5.223	37.1742336287423
5.224	38.9688237956985
5.225	40.6476739746031
5.226	42.218248680241
5.227	43.6875310122709
5.228	45.0620537035289
5.229	46.3479281659087
5.23	47.5508716629617
5.231	48.6762327300319
5.232	49.7290149549494
5.233	50.7138992250154
5.234	51.6352645391946
5.235	52.4972074780495
5.236	53.3035604179837
5.237	54.0579085707794
5.238	54.7636059241899
5.239	55.4237901544619
5.24	56.0413965770926
5.241	48.2349736669848
5.242	40.9320168467833
5.243	34.1000556615043
5.244	27.7087138000759
5.245	21.7295740359821
5.246	16.1360518784023
5.247	10.9032773720717
5.248	6.0079845203223
5.249	1.42840783965361
5.25	-2.8558144141038
5.251	-6.86373077831024
5.252	-10.6131612772498
5.253	-14.1207766536405
5.254	-17.4021724902008
5.255	-20.4719385508328
5.256	-23.3437236497272
5.257	-26.0302963368115
5.258	-28.5436016693608
5.259	-30.8948143221912
5.26	-33.0943882725723
5.261	-35.1521032807709
5.262	-37.0771083728851
5.263	-38.8779625193055
5.264	-40.5626726896653
5.265	-42.1387294534825
5.266	-43.6131402847789
5.267	-44.9924607187581
5.268	-46.2828234990693
5.269	-47.4899658452528
5.27	-48.6192549616034
5.271	-49.6757119008698
5.272	-50.6640338888927
5.273	-51.5886152094412
5.274	-52.4535667421064
5.275	-53.2627342401216
5.276	-54.019715429376
5.277	-54.7278760046469
5.278	-55.3903645941743
5.279	-56.010126759113
5.28	-56.5899180901055
5.281	-57.1323164592079
5.282	-57.6397334816412
5.283	-58.1144252383314
5.284	-58.5585023069111
5.285	-58.9739391457839
5.286	-59.3625828729743
5.287	-59.7261614787963
5.288	-60.0662915088552
5.289	-60.3844852515433
5.29	-60.682157461987
5.291	-60.9606316523398
5.292	-61.2211459763914
5.293	-61.4648587346548
5.294	-61.6928535244099
5.295	-61.906144057601
5.296	-62.1056786680096
5.297	-62.2923445277419
5.298	-62.4669715917799
5.299	-62.6303362881322
5.3	-62.7831649699939
5.301	-62.9261371452625
5.302	-63.0598884977705
5.303	-63.1850137136674
5.304	-63.3020691255168
5.305	-63.4115751858661
5.306	-63.5140187812863
5.307	-63.6098553971698
5.308	-63.6995111429128
5.309	-63.7833846464859
5.31	-63.8618488268163
5.311	-63.9352525518621
5.312	-64.0039221897519
5.313	-64.0681630598844
5.314	-64.128260790442
5.315	-64.1844825883523
5.316	-64.2370784273455
5.317	-64.2862821593892
5.318	-64.332312554443
5.319	-64.3753742731539
5.32	-64.4156587768211
5.321	-64.4533451786716
5.322	-64.4886010402348
5.323	-64.5215831163559
5.324	-64.5524380521603
5.325	-64.5813030350679
5.326	-64.6083064047569
5.327	-64.6335682237884
5.328	-64.6572008114295
5.329	-64.6793092430479
5.33	-64.6999918172987
5.331	-64.7193404931806
5.332	-64.7374412989044
5.333	-64.7543747143923
5.334	-64.7702160291086
5.335	-64.7850356768115
5.336	-64.7988995487169
5.337	-64.8118692864638
5.338	-64.8240025561862
5.339	-64.8353533049082
5.34	-64.845972000404
5.341	-56.4717083247236
5.342	-48.637532963139
5.343	-41.3086135532694
5.344	-34.4523642050931
5.345	-28.0383006173473
5.346	-22.0379045380261
5.347	-16.4244969663391
5.348	-11.1731195323618
5.349	-6.26042352696606
5.35	-1.66456608863432
5.351	2.63488691441538
5.352	6.65705173860173
5.353	10.419811759806
5.354	13.9398969865563
5.355	17.2329584451023
5.356	20.313637767112
5.357	23.1956322893911
5.358	25.8917559550729
5.359	28.4139962870568
5.36	30.7735676870125
5.361	32.9809612969267
5.362	35.0459916448879
5.363	36.9778402825065
5.364	38.7850966079902
5.365	40.4757960563836
5.366	42.0574558267719
5.367	43.537108305302
5.368	44.9213323326243
5.369	46.216282454777
5.37	47.4277162875702
5.371	48.5610201161348
5.372	49.6212328434596
5.373	50.613068394395
5.374	51.5409366747367
5.375	52.4089631785784
5.376	53.2210073311106
5.377	53.9806796484227
5.378	54.6913577906034
5.379	55.3562015795156
5.38	55.978167048017
5.381	56.560019583093
5.382	57.104346221339
5.383	57.613567151459
5.384	58.0899464749254
5.385	58.5356022726413
5.386	58.9525160223663
5.387	59.3425414087757
5.388	59.7074125653257
5.389	60.0487517845694
5.39	60.3680767312041
5.391	60.6668071899225
5.392	60.9462713780687
5.393	61.2077118511671
5.394	61.4522910275807
5.395	61.6810963568637
5.396	61.8951451547864
5.397	62.0953891265321
5.398	62.282718598174
5.399	62.4579664752498
5.4	62.6219119460312
5.401	62.7752839459563
5.402	62.918764398627
5.403	63.0529912477822
5.404	63.1785612937277
5.405	63.2960328468335
5.406	63.4059282098969
5.407	63.5087360004093
5.408	63.6049133230495
5.409	63.6948878020667
5.41	63.7790594825853
5.411	63.8578026092886
5.412	63.9314672903883
5.413	64.0003810542774
5.414	64.0648503057892
5.415	64.1251616885368
5.416	64.1815833593897
5.417	64.2343661807545
5.418	64.2837448359611
5.419	64.3299388727135
5.42	64.3731536792436
5.421	64.4135813975107
5.422	64.4514017775033
5.423	64.4867829764456
5.424	64.5198823064585
5.425	64.5508469340025
5.426	64.5798145342095
5.427	64.6069139030156
5.428	64.6322655298137
5.429	64.6559821331748
5.43	64.678169162018
5.431	56.3147277335935
5.432	48.4906766511208
5.433	41.1712285668559
5.434	34.3238397022478
5.435	27.9180651515744
5.436	21.9254235176013
5.437	16.3192702774044
5.438	11.074679315316
5.439	6.16833209626401
5.44	1.57841398674693
5.441	-2.71548273753413
5.442	-6.7324496286344
5.443	-10.4903469513506
5.444	-14.0058830936487
5.445	-17.2946888556089
5.446	-20.3713869471929
5.447	-23.2496570038332
5.448	-25.9422964089193
5.449	-28.4612771936083
5.45	-30.8177992669489
5.451	-33.0223402129916
5.452	-35.084701876292
5.453	-37.014053942937
5.454	-38.8189747108642
5.455	-40.5074892307462
5.456	-42.087104987025
5.457	-43.5648452777383
5.458	-44.9472804415543
5.459	-46.2405570708546
5.46	-47.450425340754
5.461	-48.5822645755676
5.462	-49.6411071663977
5.463	-50.6316609461846
5.464	-51.5583301217047
5.465	-52.4252348555839
5.466	-53.2362295853917
5.467	-53.9949201612672
5.468	-54.7046798782738
5.469	-55.3686644747664
5.47	-55.9898261634555
5.471	-56.5709267575556
5.472	-57.114549950377
5.473	-57.6231128029601
5.474	-58.0988764908284
5.475	-58.5439563576422
5.476	-58.960331320453
5.477	-59.3498526683784
5.478	-59.7142522938153
5.479	-60.0551503927919
5.48	-60.3740626686938
5.481	-60.6724070713944
5.482	-60.9515101017529
5.483	-61.2126127095114
5.484	-61.456875810814
5.485	-61.6853854498796
5.486	-61.8991576277787
5.487	-62.0991428197847
5.488	-62.2862302013827
5.489	-62.4612516017281
5.49	-62.6249852021303
5.491	-62.7781589960077
5.492	-62.9214540256973
5.493	-63.0555074105091
5.494	-63.1809151794906
5.495	-63.2982349214948
5.496	-63.4079882643357
5.497	-63.5106631940531
5.498	-63.6067162245996
5.499	-63.6965744275958
5.5	-63.780637331179
5.501	-63.8592786963879
5.502	-63.9328481789813
5.503	-64.0016728840801
5.504	-64.0660588205439
5.505	-64.1262922615498
5.506	-64.1826410174222
5.507	-64.2353556263726
5.508	-64.2846704684446
5.509	-64.3308048076155
5.51	-64.3739637666898
5.511	-56.0301417084529
5.512	-48.2244446678979
5.513	-40.9221669031436
5.514	-34.0908409784273
5.515	-27.7000934071766
5.516	-21.7215096052125
5.517	-16.1285075536368
5.518	-10.8962196096838
5.519	-6.00138194004193
5.52	-1.42223108504466
5.521	2.86159280616859
5.522	6.86913649975594
5.523	10.6182183630309
5.524	14.1255075886053
5.525	17.4065983090637
5.526	20.4760789316989
5.527	23.3475970015854
5.528	26.0339198813844
5.529	28.5469915176763
5.53	30.8979855462153
5.531	33.0973549722224
5.532	35.1548786466064
5.533	37.0797047447562
5.534	38.8803914412178
5.535	40.5649449611077
5.536	33.7566576465789
5.537	27.3874628373724
5.538	21.4290417773424
5.539	15.8549020953074
5.54	10.640260014494
5.541	14.1461276896086
5.542	17.4258885408368
5.543	20.4941250625981
5.544	23.3644792684375
5.545	26.049713346236
5.546	28.5617664015356
5.547	22.5276100104044
5.548	16.8826194586223
5.549	11.6016959518094
5.55	6.66135941289272
5.551	10.4238416156958
5.552	13.9436669416168
5.553	17.2364852613328
5.554	20.3169371254661
5.555	23.1987188594978
5.556	25.8946434604605
5.557	20.0325000353069
5.558	14.5484286750051
5.559	9.41804606515046
5.56	4.61854146460298
5.561	0.128575284219206
5.562	-4.07181579337044
5.563	-8.00130757479553
5.564	-11.6773713924408
5.565	-15.1163517855999
5.566	-18.3335391716743
5.567	-21.3432378305283
5.568	-24.158829504273
5.569	-26.7928328952567
5.57	-29.2569593268021
5.571	-31.5621648141698
5.572	-33.7186987772658
5.573	-35.7361496116802
5.574	-37.6234873206751
5.575	-39.3891033976725
5.576	-41.0408481365683
5.577	-42.5860655357605
5.578	-44.0316259510838
5.579	-45.3839566428312
5.58	-46.6490703526812
5.581	-47.8325920375897
5.582	-48.9397838795111
5.583	-49.9755686821461
5.584	-50.9445517587445
5.585	-51.8510414082793
5.586	-52.6990680710342
5.587	-53.4924022487739
5.588	-54.234571269174
5.589	-54.9288749690485
5.59	-55.5784003661064
5.591	-56.1860353844701
5.592	-56.7544816949828
5.593	-57.2862667273953
5.594	-57.7837549078408
5.595	-58.2491581715623
5.596	-58.6845457976334
5.597	-59.0918536094008
5.598	-59.472892581555
5.599	-59.8293568920977
5.6	-60.1628314550073
5.601	-60.4747989670943
5.602	-60.766646500377
5.603	-61.0396716692909
5.604	-61.2950884001505
5.605	-61.5340323285161
5.606	-61.7575658484646
5.607	-61.966682836213
5.608	-62.1623130690973
5.609	-62.3453263595545
5.61	-62.5165364224889
5.611	-62.6767044932163
5.612	-62.8265427120736
5.613	-62.9667172907418
5.614	-63.0978514743611
5.615	-63.2205283126073
5.616	-63.335293252051
5.617	-63.4426565613261
5.618	-63.5430955998895
5.619	-63.6370569404596
5.62	-63.7249583545712
5.621	-63.8071906700739
5.622	-63.8841195088335
5.623	-63.9560869123626
5.624	-64.0234128626073
5.625	-64.0863967046534
5.626	-64.1453184776768
5.627	-64.2004401600548
5.628	-64.2520068341767
5.629	-64.3002477761305
5.63	-64.3453774751119
5.631	-64.3875965870874
5.632	-64.4270928269523
5.633	-64.4640418031498
5.634	-64.4986077984627
5.635	-64.5309445004483
5.636	-64.5611956847651
5.637	-64.5894958544291
5.638	-64.6159708378422
5.639	-64.640738348251
5.64	-64.6639085071243
5.641	-56.3013868029118
5.642	-48.4781961281166
5.643	-41.1595529605452
5.644	-34.3129171004725
5.645	-27.9078469901902
5.646	-21.9158643645512
5.647	-16.3103276307189
5.648	-11.0663134141402
5.649	-6.16050574407272
5.65	-1.57109238596117
5.651	2.72233214026428
5.652	6.73885728716872
5.653	10.4963413554629
5.654	14.0114908956983
5.655	17.2999349890424
5.656	20.3762947374034
5.657	23.2542482718701
5.658	25.946591568509
5.659	28.4652953419177
5.66	30.8215582694958
5.661	33.0258567830779
5.662	35.087991649315
5.663	37.0171315459073
5.664	38.8218538274404
5.665	40.5101826620756
5.666	42.0896247086598
5.667	43.5672024928815
5.668	44.9494856308715
5.669	46.242620039073
5.67	47.4523552602568
5.671	48.5840700271755
5.672	49.6427961775216
5.673	50.633241026517
5.674	51.5598082966093
5.675	52.4266176973317
5.676	53.2375232423828
5.677	53.9961303853679
5.678	54.7058120503906
5.679	55.3697236287703
5.68	55.9908170085642
5.681	56.5718536992711
5.682	57.1154171100737
5.683	57.6239240362092
5.684	58.0996354045406
5.685	58.5446663261045
5.686	58.9609955003321
5.687	59.3504740127551
5.688	59.7148335653152
5.689	60.0556941758682
5.69	60.3745713811184
5.691	60.6728829750077
5.692	60.9519553125208
5.693	61.2130292069331
5.694	61.457265446723
5.695	61.6857499566775
5.696	61.8994986261382
5.697	62.0994618258549
5.698	62.2865286335307
5.699	62.4615307868447
5.7	62.6252463815301
5.701	62.7784033309485
5.702	62.9216826025426
5.703	63.0557212455589
5.704	63.1811152234996
5.705	63.2984220639001
5.706	63.4081633372111
5.707	63.5108269758087
5.708	63.606869443443
5.709	63.6967177647695
5.71	63.7807714239898
5.711	63.8594041410402
5.712	63.9329655332279
5.713	64.0017826697022
5.714	64.066161525671
5.715	64.1263883428302
5.716	64.1827309020531
5.717	64.2354397139997
5.718	64.2847491329388
5.719	64.3308783987354
5.72	64.3740326116367
5.721	64.4144036441899
5.722	64.4521709943474
5.723	64.4875025835514
5.724	64.5205555033481
5.725	64.5514767138482
5.726	64.5804036971427
5.727	64.6074650685764
5.728	64.6327811485981
5.729	64.6564644977305
5.73	64.6786204170373
5.731	56.3151498854496
5.732	48.491071576788
5.733	41.1715980222554
5.734	34.3241853300547
5.735	27.9183884885213
5.736	21.925726001311
5.737	16.319553252782
5.738	11.0749440405285
5.739	6.16857974833439
5.74	1.57864566678749
5.741	-2.71526599942607
5.742	-6.73224686879642
5.743	-10.4901572682706
5.744	-14.0057056439564
5.745	-17.2945228503265
5.746	-20.3712316482264
5.747	-23.2495117206914
5.748	-25.9421604956433
5.749	-28.4611500458996
5.75	-30.8176803194826
5.751	-33.0222289369026
5.752	-35.0845977768239
5.753	-37.013956557242
5.754	-38.8188836059454
5.755	-40.5074040015323
5.756	-42.0870252545693
5.757	-43.5647706875338
5.758	-44.9472106619576
5.759	-46.2404917916111
5.76	-47.4503642716188
5.761	-48.5822074450146
5.762	-49.6410537204127
5.763	-50.6316109471357
5.764	-51.5582833472859
5.765	-52.4251910978263
5.766	-53.2361886497394
5.767	-53.9948818657117
5.768	-54.7046440525453
5.769	-55.3686309595763
5.77	-55.9897948097883
5.771	-56.5708974260064
5.772	-57.1145225105316
5.773	-57.6230871328153
5.774	-58.0988524762496
5.775	-58.5439338918554
5.776	-58.9603103035708
5.777	-59.3498330069553
5.778	-59.7142339004327
5.779	-60.055133185669
5.78	-60.3740465713241
5.781	-60.6723920122056
5.782	-60.9514960137888
5.783	-61.2125995301341
5.784	-61.4568634814252
5.785	-61.6853739156602
5.786	-61.8991468374452
5.787	-62.0991327253611
5.788	-62.2862207579872
5.789	-62.4612427673733
5.79	-62.6249769375368
5.791	-62.7781512644295
5.792	-62.9214467927581
5.793	-63.0555006440499
5.794	-63.1809088494262
5.795	-63.2982289996805
5.796	-63.4079827244419
5.797	-63.5106580114482
5.798	-63.6067113762407
5.799	-63.6965698919262
5.8	-63.7806330880321
5.801	-63.8592747268977
5.802	-63.9328444654988
5.803	-64.0016694100943
5.804	-64.0660555706087
5.805	-64.1262892212154
5.806	-64.1826381731706
5.807	-64.2353529655577
5.808	-64.2846679792358
5.809	-64.3308024789453
5.81	-64.3739615882045
5.811	-56.0301396704664
5.812	-48.224442761349
5.813	-40.9221651195553
5.814	-34.0908393098694
5.815	-27.7000918462304
5.816	-21.7215081449377
5.817	-16.1285061875408
5.818	-10.8962183316925
5.819	-6.00138074447318
5.82	-1.42222996658271
5.821	2.86159385249665
5.822	6.8691374786023
5.823	10.6182192787477
5.824	14.1255084452641
5.825	17.4065991104732
5.826	20.4760796814224
5.827	23.3475977029564
5.828	26.0339205375213
5.829	28.5469921314964
5.83	30.8979861204478
5.831	33.0973555094204
5.832	35.1548791491585
5.833	37.0797052148968
5.834	38.8803918810372
5.835	40.5649453725615
5.836	33.7566580314965
5.837	27.3874631974652
5.838	21.4290421142114
5.839	15.8549024104504
5.84	10.6402603093122
5.841	14.1461279654129
5.842	17.4258887988534
5.843	20.4941253039743
5.844	23.3644794942463
5.845	26.0497135574816
5.846	28.5617665991571
5.847	22.5276101952806
5.848	16.8826196315751
5.849	11.6016961136078
5.85	6.66135956425615
5.851	10.4238417572972
5.852	13.9436670740858
5.853	17.2364853852584
5.854	20.3169372413992
5.855	23.1987189679539
5.856	25.8946435619219
5.857	20.0325001302247
5.858	14.5484287638013
5.859	9.41804614821983
5.86	4.61854154231489
5.861	0.128575356919169
5.862	-4.07181572535917
5.863	-8.00130751117058
5.864	-11.6773713329193
5.865	-15.1163517299172
5.866	-18.3335391195828
5.867	-21.3432377817963
5.868	-24.1588294586839
5.869	-26.7928328526078
5.87	-29.2569592869038
5.871	-31.5621647768448
5.872	-33.718698742348
5.873	-35.7361495790144
5.874	-37.6234872901159
5.875	-39.3891033690843
5.876	-41.0408481098238
5.877	-42.5860655107409
5.878	-44.0316259276778
5.879	-45.3839566209347
5.88	-46.6490703321969
5.881	-47.8325920184266
5.882	-48.9397838615839
5.883	-49.975568665375
5.884	-50.944551743055
5.885	-51.8510413936017
5.886	-52.6990680573033
5.887	-53.4924022359285
5.888	-54.234571257157
5.889	-54.9288749578066
5.89	-55.5784003555895
5.891	-56.1860353746315
5.892	-56.7544816857787
5.893	-57.2862667187848
5.894	-57.7837548997856
5.895	-58.2491581640266
5.896	-58.6845457905837
5.897	-59.0918536028058
5.898	-59.4728925753854
5.899	-59.8293568863259
5.9	-60.1628314496078
5.901	-60.474798962043
5.902	-60.7666464956515
5.903	-61.0396716648702
5.904	-61.2950883960149
5.905	-61.5340323246472
5.906	-61.7575658448453
5.907	-61.9666828328271
5.908	-62.1623130659297
5.909	-62.3453263565912
5.91	-62.5165364197167
5.911	-62.6767044906229
5.912	-62.8265427096474
5.913	-62.9667172884721
5.914	-63.0978514722378
5.915	-63.2205283106209
5.916	-63.3352932501927
5.917	-63.4426565595877
5.918	-63.5430955982632
5.919	-63.6370569389382
5.92	-63.7249583531479
5.921	-63.8071906687424
5.922	-63.8841195075879
5.923	-63.9560869111973
5.924	-64.0234128615172
5.925	-64.0863967036336
5.926	-64.1453184767227
5.927	-64.2004401591623
5.928	-64.2520068333417
5.929	-64.3002477753494
5.93	-64.3453774743812
5.931	-64.3875965864038
5.932	-64.4270928263128
5.933	-64.4640418025516
5.934	-64.4986077979031
5.935	-64.5309444999247
5.936	-64.5611956842753
5.937	-64.5894958539709
5.938	-64.6159708374136
5.939	-64.64073834785
5.94	-64.6639085067492
5.941	-56.3013868025608
5.942	-48.4781961277882
5.943	-41.159552960238
5.944	-34.3129171001852
5.945	-27.9078469899214
5.946	-21.9158643642998
5.947	-16.3103276304837
5.948	-11.0663134139202
5.949	-6.16050574386683
5.95	-1.57109238576856
5.951	2.72233214044447
5.952	6.73885728733728
5.953	10.4963413556206
5.954	14.0114908958458
5.955	17.2999349891804
5.956	20.3762947375325
5.957	23.2542482719909
5.958	25.946591568622
5.959	28.4652953420235
5.96	30.8215582695947
5.961	33.0258567831705
5.962	35.0879916494015
5.963	37.0171315459883
5.964	38.8218538275162
5.965	40.5101826621465
5.966	42.0896247087261
5.967	43.5672024929435
5.968	44.9494856309295
5.969	46.2426200391273
5.97	47.4523552603076
5.971	48.584070027223
5.972	49.6427961775661
5.973	50.6332410265586
5.974	51.5598082966482
5.975	52.4266176973681
5.976	53.2375232424168
5.977	53.9961303853997
5.978	54.7058120504204
5.979	55.3697236287982
5.98	55.9908170085903
5.981	56.5718536992955
5.982	57.1154171100965
5.983	57.6239240362305
5.984	58.0996354045605
5.985	58.5446663261232
5.986	58.9609955003495
5.987	59.3504740127714
5.988	59.7148335653305
5.989	60.0556941758825
5.99	60.3745713811318
5.991	60.6728829750202
5.992	60.9519553125325
5.993	61.213029206944
5.994	61.4572654467332
5.995	61.6857499566871
5.996	61.8994986261472
5.997	62.0994618258633
5.998	62.2865286335385
5.999	62.461530786852
6	62.625246381537
6.001	62.7784033309549
6.002	62.9216826025486
6.003	63.0557212455645
6.004	63.1811152235049
6.005	63.298422063905
6.006	63.4081633372157
6.007	63.510826975813
6.008	63.606869443447
6.009	63.6967177647733
6.01	63.7807714239934
6.011	63.8594041410435
6.012	63.932965533231
6.013	64.0017826697051
6.014	64.0661615256737
6.015	64.1263883428328
6.016	64.1827309020555
6.017	64.2354397140019
6.018	64.2847491329409
6.019	64.3308783987374
6.02	64.3740326116386
6.021	64.4144036441917
6.022	64.452170994349
6.023	64.4875025835529
6.024	64.5205555033495
6.025	64.5514767138495
6.026	64.5804036971439
6.027	64.6074650685775
6.028	64.6327811485991
6.029	64.6564644977314
6.03	64.6786204170383
6.031	56.3151498854505
6.032	48.4910715767889
6.033	41.1715980222562
6.034	34.3241853300554
6.035	27.9183884885219
6.036	21.9257260013116
6.037	16.3195532527825
6.038	11.074944040529
6.039	6.1685797483349
6.04	1.57864566678797
6.041	-2.71526599942562
6.042	-6.732246868796
6.043	-10.4901572682702
6.044	-14.0057056439561
6.045	-17.2945228503261
6.046	-20.3712316482261
6.047	-23.2495117206911
6.048	-25.9421604956431
6.049	-28.4611500458994
6.05	-30.8176803194824
6.051	-33.0222289369024
6.052	-35.0845977768237
6.053	-37.0139565572418
6.054	-38.8188836059452
6.055	-40.5074040015321
6.056	-42.0870252545691
6.057	-43.5647706875337
6.058	-44.9472106619574
6.059	-46.2404917916109
6.06	-47.4503642716186
6.061	-48.5822074450145
6.062	-49.6410537204126
6.063	-50.6316109471356
6.064	-51.5582833472858
6.065	-52.4251910978262
6.066	-53.2361886497393
6.067	-53.9948818657117
6.068	-54.7046440525453
6.069	-55.3686309595762
6.07	-55.9897948097882
6.071	-56.5708974260063
6.072	-57.1145225105315
6.073	-57.6230871328153
6.074	-58.0988524762495
6.075	-58.5439338918553
6.076	-58.9603103035707
6.077	-59.3498330069553
6.078	-59.7142339004326
6.079	-60.0551331856689
6.08	-60.3740465713241
6.081	-60.6723920122056
6.082	-60.9514960137888
6.083	-61.212599530134
6.084	-61.4568634814252
6.085	-61.6853739156602
6.086	-61.8991468374452
6.087	-62.0991327253611
6.088	-62.2862207579872
6.089	-62.4612427673733
6.09	-62.6249769375368
6.091	-62.7781512644295
6.092	-62.9214467927581
6.093	-63.0555006440499
6.094	-63.1809088494262
6.095	-63.2982289996805
6.096	-63.4079827244419
6.097	-63.5106580114482
6.098	-63.6067113762407
6.099	-63.6965698919262
6.1	-63.7806330880321
6.101	-63.8592747268977
6.102	-63.9328444654988
6.103	-64.0016694100943
6.104	-64.0660555706087
6.105	-64.1262892212154
6.106	-64.1826381731706
6.107	-64.2353529655577
6.108	-64.2846679792358
6.109	-64.3308024789453
6.11	-64.3739615882045
6.111	-56.0301396704664
6.112	-48.224442761349
6.113	-40.9221651195553
6.114	-34.0908393098694
6.115	-27.7000918462304
6.116	-21.7215081449377
6.117	-16.1285061875408
6.118	-10.8962183316925
6.119	-6.00138074447318
6.12	-1.42222996658271
6.121	2.86159385249665
6.122	6.8691374786023
6.123	10.6182192787477
6.124	14.1255084452641
6.125	17.4065991104732
6.126	20.4760796814224
6.127	23.3475977029564
6.128	26.0339205375213
6.129	28.5469921314964
6.13	30.8979861204478
6.131	33.0973555094204
6.132	35.1548791491585
6.133	37.0797052148968
6.134	38.8803918810372
6.135	40.5649453725615
6.136	33.7566580314965
6.137	27.3874631974652
6.138	21.4290421142114
6.139	15.8549024104504
6.14	10.6402603093122
6.141	14.1461279654129
6.142	17.4258887988534
6.143	20.4941253039743
6.144	23.3644794942463
6.145	26.0497135574816
6.146	28.5617665991571
6.147	22.5276101952806
6.148	16.8826196315751
6.149	11.6016961136078
6.15	6.66135956425615
6.151	10.4238417572972
6.152	13.9436670740858
6.153	17.2364853852584
6.154	20.3169372413992
6.155	23.1987189679539
6.156	25.8946435619219
6.157	20.0325001302247
6.158	14.5484287638013
6.159	9.41804614821983
6.16	4.61854154231489
6.161	0.128575356919169
6.162	-4.07181572535917
6.163	-8.00130751117058
6.164	-11.6773713329193
6.165	-15.1163517299172
6.166	-18.3335391195828
6.167	-21.3432377817963
6.168	-24.1588294586839
6.169	-26.7928328526078
6.17	-29.2569592869038
6.171	-31.5621647768448
6.172	-33.718698742348
6.173	-35.7361495790144
6.174	-37.6234872901159
6.175	-39.3891033690843
6.176	-41.0408481098238
6.177	-42.5860655107409
6.178	-44.0316259276778
6.179	-45.3839566209347
6.18	-46.6490703321969
6.181	-47.8325920184266
6.182	-48.9397838615839
6.183	-49.975568665375
6.184	-50.944551743055
6.185	-51.8510413936017
6.186	-52.6990680573033
6.187	-53.4924022359285
6.188	-54.234571257157
6.189	-54.9288749578066
6.19	-55.5784003555895
6.191	-56.1860353746315
6.192	-56.7544816857787
6.193	-57.2862667187848
6.194	-57.7837548997856
6.195	-58.2491581640266
6.196	-58.6845457905837
6.197	-59.0918536028058
6.198	-59.4728925753854
6.199	-59.8293568863259
6.2	-60.1628314496078
6.201	-60.474798962043
6.202	-60.7666464956515
6.203	-61.0396716648702
6.204	-61.2950883960149
6.205	-61.5340323246472
6.206	-61.7575658448453
6.207	-61.9666828328271
6.208	-62.1623130659297
6.209	-62.3453263565912
6.21	-62.5165364197167
6.211	-62.6767044906229
6.212	-62.8265427096474
6.213	-62.9667172884721
6.214	-63.0978514722378
6.215	-63.2205283106209
6.216	-63.3352932501927
6.217	-63.4426565595877
6.218	-63.5430955982632
6.219	-63.6370569389382
6.22	-63.7249583531479
6.221	-63.8071906687424
6.222	-63.8841195075879
6.223	-63.9560869111973
6.224	-64.0234128615172
6.225	-64.0863967036336
6.226	-64.1453184767227
6.227	-64.2004401591623
6.228	-64.2520068333417
6.229	-64.3002477753494
6.23	-64.3453774743812
6.231	-64.3875965864038
6.232	-64.4270928263128
6.233	-64.4640418025516
6.234	-64.4986077979031
6.235	-64.5309444999247
6.236	-64.5611956842753
6.237	-64.5894958539709
6.238	-64.6159708374136
6.239	-64.64073834785
6.24	-64.6639085067492
6.241	-56.3013868025608
6.242	-48.4781961277882
6.243	-41.159552960238
6.244	-34.3129171001852
6.245	-27.9078469899214
6.246	-21.9158643642998
6.247	-16.3103276304837
6.248	-11.0663134139202
6.249	-6.16050574386683
6.25	-1.57109238576856
6.251	2.72233214044447
6.252	6.73885728733728
6.253	10.4963413556206
6.254	14.0114908958458
6.255	17.2999349891804
6.256	20.3762947375325
6.257	23.2542482719909
6.258	25.946591568622
6.259	28.4652953420235
6.26	30.8215582695947
6.261	33.0258567831705
6.262	35.0879916494015
6.263	37.0171315459883
6.264	38.8218538275162
6.265	40.5101826621465
6.266	42.0896247087261
6.267	43.5672024929435
6.268	44.9494856309295
6.269	46.2426200391273
6.27	47.4523552603076
6.271	48.584070027223
6.272	49.6427961775661
6.273	50.6332410265586
6.274	51.5598082966482
6.275	52.4266176973681
6.276	53.2375232424168
6.277	53.9961303853997
6.278	54.7058120504204
6.279	55.3697236287982
6.28	55.9908170085903
6.281	56.5718536992955
6.282	57.1154171100965
6.283	57.6239240362305
6.284	58.0996354045605
6.285	58.5446663261232
6.286	58.9609955003495
6.287	59.3504740127714
6.288	59.7148335653305
6.289	60.0556941758825
6.29	60.3745713811318
6.291	60.6728829750202
6.292	60.9519553125325
6.293	61.213029206944
6.294	61.4572654467332
6.295	61.6857499566871
6.296	61.8994986261472
6.297	62.0994618258633
6.298	62.2865286335385
6.299	62.461530786852
6.3	62.625246381537
6.301	62.7784033309549
6.302	62.9216826025486
6.303	63.0557212455645
6.304	63.1811152235049
6.305	63.298422063905
6.306	63.4081633372157
6.307	63.510826975813
6.308	63.606869443447
6.309	63.6967177647733
6.31	63.7807714239934
6.311	63.8594041410435
6.312	63.932965533231
6.313	64.0017826697051
6.314	64.0661615256737
6.315	64.1263883428328
6.316	64.1827309020555
6.317	64.2354397140019
6.318	64.2847491329409
6.319	64.3308783987374
6.32	64.3740326116386
6.321	64.4144036441917
6.322	64.452170994349
6.323	64.4875025835529
6.324	64.5205555033495
6.325	64.5514767138495
6.326	64.5804036971439
6.327	64.6074650685775
6.328	64.6327811485991
6.329	64.6564644977314
6.33	64.6786204170383
6.331	56.3151498854505
6.332	48.4910715767889
6.333	41.1715980222562
6.334	34.3241853300554
6.335	27.9183884885219
6.336	21.9257260013116
6.337	16.3195532527825
6.338	11.074944040529
6.339	6.1685797483349
6.34	1.57864566678797
6.341	-2.71526599942562
6.342	-6.732246868796
6.343	-10.4901572682702
6.344	-14.0057056439561
6.345	-17.2945228503261
6.346	-20.3712316482261
6.347	-23.2495117206911
6.348	-25.9421604956431
6.349	-28.4611500458994
6.35	-30.8176803194824
6.351	-33.0222289369024
6.352	-35.0845977768237
6.353	-37.0139565572418
6.354	-38.8188836059452
6.355	-40.5074040015321
6.356	-42.0870252545691
6.357	-43.5647706875337
6.358	-44.9472106619574
6.359	-46.2404917916109
6.36	-47.4503642716186
6.361	-48.5822074450145
6.362	-49.6410537204126
6.363	-50.6316109471356
6.364	-51.5582833472858
6.365	-52.4251910978262
6.366	-53.2361886497393
6.367	-53.9948818657117
6.368	-54.7046440525453
6.369	-55.3686309595762
6.37	-55.9897948097882
6.371	-56.5708974260063
6.372	-57.1145225105315
6.373	-57.6230871328153
6.374	-58.0988524762495
6.375	-58.5439338918553
6.376	-58.9603103035707
6.377	-59.3498330069553
6.378	-59.7142339004326
6.379	-60.0551331856689
6.38	-60.3740465713241
6.381	-60.6723920122056
6.382	-60.9514960137888
6.383	-61.212599530134
6.384	-61.4568634814252
6.385	-61.6853739156602
6.386	-61.8991468374452
6.387	-62.0991327253611
6.388	-62.2862207579872
6.389	-62.4612427673733
6.39	-62.6249769375368
6.391	-62.7781512644295
6.392	-62.9214467927581
6.393	-63.0555006440499
6.394	-63.1809088494262
6.395	-63.2982289996805
6.396	-63.4079827244419
6.397	-63.5106580114482
6.398	-63.6067113762407
6.399	-63.6965698919262
6.4	-63.7806330880321
6.401	-63.8592747268977
6.402	-63.9328444654988
6.403	-64.0016694100943
6.404	-64.0660555706087
6.405	-64.1262892212154
6.406	-64.1826381731706
6.407	-64.2353529655577
6.408	-64.2846679792358
6.409	-64.3308024789453
6.41	-64.3739615882045
6.411	-56.0301396704664
6.412	-48.224442761349
6.413	-40.9221651195553
6.414	-34.0908393098694
6.415	-27.7000918462304
6.416	-21.7215081449377
6.417	-16.1285061875408
6.418	-10.8962183316925
6.419	-6.00138074447318
6.42	-1.42222996658271
6.421	2.86159385249665
6.422	6.8691374786023
6.423	10.6182192787477
6.424	14.1255084452641
6.425	17.4065991104732
6.426	20.4760796814224
6.427	23.3475977029564
6.428	26.0339205375213
6.429	28.5469921314964
6.43	30.8979861204478
6.431	33.0973555094204
6.432	35.1548791491585
6.433	37.0797052148968
6.434	38.8803918810372
6.435	40.5649453725615
6.436	33.7566580314965
6.437	27.3874631974652
6.438	21.4290421142114
6.439	15.8549024104504
6.44	10.6402603093122
6.441	14.1461279654129
6.442	17.4258887988534
6.443	20.4941253039743
6.444	23.3644794942463
6.445	26.0497135574816
6.446	28.5617665991571
6.447	22.5276101952806
6.448	16.8826196315751
6.449	11.6016961136078
6.45	6.66135956425615
6.451	10.4238417572972
6.452	13.9436670740858
6.453	17.2364853852584
6.454	20.3169372413992
6.455	23.1987189679539
6.456	25.8946435619219
6.457	20.0325001302247
6.458	14.5484287638013
6.459	9.41804614821983
6.46	4.61854154231489
6.461	0.128575356919169
6.462	-4.07181572535917
6.463	-8.00130751117058
6.464	-11.6773713329193
6.465	-15.1163517299172
6.466	-18.3335391195828
6.467	-21.3432377817963
6.468	-24.1588294586839
6.469	-26.7928328526078
6.47	-29.2569592869038
6.471	-31.5621647768448
6.472	-33.718698742348
6.473	-35.7361495790144
6.474	-37.6234872901159
6.475	-39.3891033690843
6.476	-41.0408481098238
6.477	-42.5860655107409
6.478	-44.0316259276778
6.479	-45.3839566209347
6.48	-46.6490703321969
6.481	-47.8325920184266
6.482	-48.9397838615839
6.483	-49.975568665375
6.484	-50.944551743055
6.485	-51.8510413936017
6.486	-52.6990680573033
6.487	-53.4924022359285
6.488	-54.234571257157
6.489	-54.9288749578066
6.49	-55.5784003555895
6.491	-56.1860353746315
6.492	-56.7544816857787
6.493	-57.2862667187848
6.494	-57.7837548997856
6.495	-58.2491581640266
6.496	-58.6845457905837
6.497	-59.0918536028058
6.498	-59.4728925753854
6.499	-59.8293568863259
6.5	-60.1628314496078
6.501	-60.474798962043
6.502	-60.7666464956515
6.503	-61.0396716648702
6.504	-61.2950883960149
6.505	-61.5340323246472
6.506	-61.7575658448453
6.507	-61.9666828328271
6.508	-62.1623130659297
6.509	-62.3453263565912
6.51	-62.5165364197167
6.511	-62.6767044906229
6.512	-62.8265427096474
6.513	-62.9667172884721
6.514	-63.0978514722378
6.515	-63.2205283106209
6.516	-63.3352932501927
6.517	-63.4426565595877
6.518	-63.5430955982632
6.519	-63.6370569389382
6.52	-63.7249583531479
6.521	-63.8071906687424
6.522	-63.8841195075879
6.523	-63.9560869111973
6.524	-64.0234128615172
6.525	-64.0863967036336
6.526	-64.1453184767227
6.527	-64.2004401591623
6.528	-64.2520068333417
6.529	-64.3002477753494
6.53	-64.3453774743812
6.531	-64.3875965864038
6.532	-64.4270928263128
6.533	-64.4640418025516
6.534	-64.4986077979031
6.535	-64.5309444999247
6.536	-64.5611956842753
6.537	-64.5894958539709
6.538	-64.6159708374136
6.539	-64.64073834785
6.54	-64.6639085067492
6.541	-56.3013868025608
6.542	-48.4781961277882
6.543	-41.159552960238
6.544	-34.3129171001852
6.545	-27.9078469899214
6.546	-21.9158643642998
6.547	-16.3103276304837
6.548	-11.0663134139202
6.549	-6.16050574386683
6.55	-1.57109238576856
6.551	2.72233214044447
6.552	6.73885728733728
6.553	10.4963413556206
6.554	14.0114908958458
6.555	17.2999349891804
6.556	20.3762947375325
6.557	23.2542482719909
6.558	25.946591568622
6.559	28.4652953420235
6.56	30.8215582695947
6.561	33.0258567831705
6.562	35.0879916494015
6.563	37.0171315459883
6.564	38.8218538275162
6.565	40.5101826621465
6.566	42.0896247087261
6.567	43.5672024929435
6.568	44.9494856309295
6.569	46.2426200391273
6.57	47.4523552603076
6.571	48.584070027223
6.572	49.6427961775661
6.573	50.6332410265586
6.574	51.5598082966482
6.575	52.4266176973681
6.576	53.2375232424168
6.577	53.9961303853997
6.578	54.7058120504204
6.579	55.3697236287982
6.58	55.9908170085903
6.581	56.5718536992955
6.582	57.1154171100965
6.583	57.6239240362305
6.584	58.0996354045605
6.585	58.5446663261232
6.586	58.9609955003495
6.587	59.3504740127714
6.588	59.7148335653305
6.589	60.0556941758825
6.59	60.3745713811318
6.591	60.6728829750202
6.592	60.9519553125325
6.593	61.213029206944
6.594	61.4572654467332
6.595	61.6857499566871
6.596	61.8994986261472
6.597	62.0994618258633
6.598	62.2865286335385
6.599	62.461530786852
6.6	62.625246381537
6.601	62.7784033309549
6.602	62.9216826025486
6.603	63.0557212455645
6.604	63.1811152235049
6.605	63.298422063905
6.606	63.4081633372157
6.607	63.510826975813
6.608	63.606869443447
6.609	63.6967177647733
6.61	63.7807714239934
6.611	63.8594041410435
6.612	63.932965533231
6.613	64.0017826697051
6.614	64.0661615256737
6.615	64.1263883428328
6.616	64.1827309020555
6.617	64.2354397140019
6.618	64.2847491329409
6.619	64.3308783987374
6.62	64.3740326116386
6.621	64.4144036441917
6.622	64.452170994349
6.623	64.4875025835529
6.624	64.5205555033495
6.625	64.5514767138495
6.626	64.5804036971439
6.627	64.6074650685775
6.628	64.6327811485991
6.629	64.6564644977314
6.63	64.6786204170383
6.631	56.3151498854505
6.632	48.4910715767889
6.633	41.1715980222562
6.634	34.3241853300554
6.635	27.9183884885219
6.636	21.9257260013116
6.637	16.3195532527825
6.638	11.074944040529
6.639	6.1685797483349
6.64	1.57864566678797
6.641	-2.71526599942562
6.642	-6.732246868796
6.643	-10.4901572682702
6.644	-14.0057056439561
6.645	-17.2945228503261
6.646	-20.3712316482261
6.647	-23.2495117206911
6.648	-25.9421604956431
6.649	-28.4611500458994
6.65	-30.8176803194824
6.651	-33.0222289369024
6.652	-35.0845977768237
6.653	-37.0139565572418
6.654	-38.8188836059452
6.655	-40.5074040015321
6.656	-42.0870252545691
6.657	-43.5647706875337
6.658	-44.9472106619574
6.659	-46.2404917916109
6.66	-47.4503642716186
6.661	-48.5822074450145
6.662	-49.6410537204126
6.663	-50.6316109471356
6.664	-51.5582833472858
6.665	-52.4251910978262
6.666	-53.2361886497393
6.667	-53.9948818657117
6.668	-54.7046440525453
6.669	-55.3686309595762
6.67	-55.9897948097882
6.671	-56.5708974260063
6.672	-57.1145225105315
6.673	-57.6230871328153
6.674	-58.0988524762495
6.675	-58.5439338918553
6.676	-58.9603103035707
6.677	-59.3498330069553
6.678	-59.7142339004326
6.679	-60.0551331856689
6.68	-60.3740465713241
6.681	-60.6723920122056
6.682	-60.9514960137888
6.683	-61.212599530134
6.684	-61.4568634814252
6.685	-61.6853739156602
6.686	-61.8991468374452
6.687	-62.0991327253611
6.688	-62.2862207579872
6.689	-62.4612427673733
6.69	-62.6249769375368
6.691	-62.7781512644295
6.692	-62.9214467927581
6.693	-63.0555006440499
6.694	-63.1809088494262
6.695	-63.2982289996805
6.696	-63.4079827244419
6.697	-63.5106580114482
6.698	-63.6067113762407
6.699	-63.6965698919262
6.7	-63.7806330880321
6.701	-63.8592747268977
6.702	-63.9328444654988
6.703	-64.0016694100943
6.704	-64.0660555706087
6.705	-64.1262892212154
6.706	-64.1826381731706
6.707	-64.2353529655577
6.708	-64.2846679792358
6.709	-64.3308024789453
6.71	-64.3739615882045
6.711	-56.0301396704664
6.712	-48.224442761349
6.713	-40.9221651195553
6.714	-34.0908393098694
6.715	-27.7000918462304
6.716	-21.7215081449377
6.717	-16.1285061875408
6.718	-10.8962183316925
6.719	-6.00138074447318
6.72	-1.42222996658271
6.721	2.86159385249665
6.722	6.8691374786023
6.723	10.6182192787477
6.724	14.1255084452641
6.725	17.4065991104732
6.726	20.4760796814224
6.727	23.3475977029564
6.728	26.0339205375213
6.729	28.5469921314964
6.73	30.8979861204478
6.731	33.0973555094204
6.732	35.1548791491585
6.733	37.0797052148968
6.734	38.8803918810372
6.735	40.5649453725615
6.736	42.1408555623607
6.737	35.2309317418944
6.738	28.7666553539974
6.739	22.7192848901791
6.74	17.0619324918298
6.741	20.1536419321098
6.742	23.0459551981179
6.743	25.7517321122541
6.744	28.2830031177552
6.745	30.651022768531
6.746	32.8663197692371
6.747	26.5545462572063
6.748	20.6498431751366
6.749	15.125956993076
6.75	9.95832737169536
6.751	13.5081754928097
6.752	16.8290803227549
6.753	11.551609759717
6.754	6.61450347101625
6.755	1.99581006197194
6.756	-2.32500613264215
6.757	-6.36715635440854
6.758	-10.1486128384156
6.759	-13.6861887215281
6.76	-16.9956127970681
6.761	-20.0915994482794
6.762	-22.9879140715163
6.763	-25.6974342800397
6.764	-28.2322071605468
6.765	-30.6035028370073
6.766	-32.8218645799638
6.767	-34.8971556840906
6.768	-36.8386033224401
6.769	-38.6548395723607
6.77	-40.3539397954964
6.771	-41.9434585425128
6.772	-43.4304631421907
6.773	-44.8215651242302
6.774	-46.1229496154774
6.775	-47.3404028402767
6.776	-48.4793378472198
6.777	-49.5448185766782
6.778	-50.5415823761279
6.779	-51.4740610633762
6.78	-52.3464006313382
6.781	-53.1624796819788
6.782	-53.9259266713781
6.783	-54.6401360425969
6.784	-55.3082833180719
6.785	-55.9333392186446
6.786	-56.5180828720002
6.787	-57.065114169243
6.788	-57.5768653245501
6.789	-58.0556116892976
6.79	-58.5034818687434
6.791	-58.9224671862457
6.792	-59.3144305370982
6.793	-59.6811146713476
6.794	-60.0241499424202
6.795	-60.3450615560103
6.796	-60.6452763514597
6.797	-60.9261291457804
6.798	-61.1888686685266
6.799	-61.4346631139046
6.8	-61.6646053348053
6.801	-61.8797177018544
6.802	-62.080956649083
6.803	-62.269216926431
6.804	-62.4453355779906
6.805	-62.6100956636767
6.806	-62.7642297408737
6.807	-62.9084231215363
6.808	-63.0433169192289
6.809	-63.169510899648
6.81	-63.2875661473052
6.811	-63.3980075602247
6.812	-63.501326183748
6.813	-63.5979813938233
6.814	-63.6884029394859
6.815	-63.7729928536109
6.816	-63.8521272404348
6.817	-63.9261579477924
6.818	-63.9954141315052
6.819	-64.0602037188758
6.82	-64.1208147777967
6.821	-64.1775167975595
6.822	-64.2305618870601
6.823	-64.2801858957268
6.824	-64.3266094621554
6.825	-64.3700389951147
6.826	-64.4106675912816
6.827	-64.4486758937896
6.828	-64.4842328954049
6.829	-64.5174966899038
6.83	-64.5486151749895
6.831	-56.1935291790124
6.832	-48.3772946551709
6.833	-41.0651590097559
6.834	-34.2246109768304
6.835	-27.8252360664235
6.836	-21.8385813354235
6.837	-16.2380288799142
6.838	-10.9986774864738
6.839	-6.09723191623508
6.84	-1.51189932943987
6.841	2.77770761002919
6.842	6.79066138095768
6.843	10.5448044049809
6.844	14.0568283776769
6.845	17.3423484832944
6.846	20.4159728230878
6.847	23.2913673659544
6.848	25.981316710155
6.849	28.4977809262804
6.85	30.8519487341953
6.851	33.0542872503998
6.852	35.1145885269913
6.853	37.0420130891518
6.854	38.8451306647354
6.855	40.5319582870492
6.856	42.10999594024
6.857	43.5862599057732
6.858	44.96731395827
6.859	46.2592985494058
6.86	47.4679581096268
6.861	48.5986665890751
6.862	49.6564513512809
6.863	50.64601552586
6.864	51.5717589195996
6.865	52.4377975789084
6.866	53.2479820906094
6.867	54.0059147024447
6.868	54.7149653394129
6.869	55.3782865871525
6.87	55.9988277089885
6.871	56.5793477589668
6.872	57.1224278491786
6.873	57.630482625918
6.874	58.1057710056983
6.875	58.5504062188617
6.876	58.9663652054378
6.877	59.3554974050279
6.878	59.7195329797949
6.879	60.0600905071227
6.88	60.3786841761448
6.881	60.6767305201426
6.882	60.9555547147448
6.883	61.2163964699321
6.884	61.4604155420441
6.885	61.6886968902955
6.886	61.9022555007288
6.887	62.1020408990522
6.888	62.2889413724269
6.889	62.4637879189755
6.89	62.6273579425715
6.891	62.780378709337
6.892	62.9235305812188
6.893	63.0574500410177
6.894	63.1827325223229
6.895	63.2999350569326
6.896	63.4095787515324
6.897	63.5121511046435
6.898	63.6081081741415
6.899	63.6978766049845
6.9	63.7818555261643
6.901	55.4762207944522
6.902	47.7062482335853
6.903	40.4373909401007
6.904	33.6373300725565
6.905	27.2758311552844
6.906	21.3246096496646
6.907	15.757205195222
6.908	10.5488639613968
6.909	5.67642858689885
6.91	1.11823521729441
6.911	5.23821471389755
6.912	9.09248096494199
6.913	12.698170834561
6.914	16.0713159649345
6.915	19.2269140562825
6.916	22.178995549739
6.917	24.9406860095929
6.918	27.5242644822581
6.919	29.9412180914518
6.92	32.2022931123191
6.921	34.3175427515937
6.922	36.2963718462317
6.923	38.1475786792599
6.924	39.8793940987605
6.925	41.4995181139219
6.926	43.0151541308709
6.927	44.4330409805047
6.928	45.759482880725
6.929	47.000377466294
6.93	48.161242010937
6.931	40.8630404274168
6.932	34.0355277954066
6.933	27.6483475830214
6.934	21.6731010672966
6.935	16.0832210675984
6.936	10.8538538224486
6.937	5.96174848456622
6.938	1.38515374279617
6.939	-2.89627888871454
6.94	-6.90158554408929
6.941	-10.6485746443075
6.942	-14.153906077124
6.943	-17.4331652703722
6.944	-20.5009324879966
6.945	-23.3708476569189
6.946	-26.0556710129715
6.947	-28.5673398355423
6.948	-30.9170215231858
6.949	-33.1151632461843
6.95	-35.1715383968255
6.951	-37.095290043924
6.952	-38.8949715847949
6.953	-40.5785847754249
6.954	-42.1536153079333
6.955	-43.6270660935056
6.956	-45.0054883987837
6.957	-46.2950109741511
6.958	-47.5013673034231
6.959	-48.6299210961011
6.96	-49.6856901355328
6.961	-50.673368589014
6.962	-51.5973478790262
6.963	-52.4617362084085
6.964	-53.2703768262761
6.965	-54.0268651159
6.966	-54.7345645805239
6.967	-55.3966217981948
6.968	-56.0159804120989
6.969	-56.5953942186075
6.97	-57.1374394112247
6.971	-57.6445260348761
6.972	-58.1189087014663
6.973	-58.5626966143495
6.974	-58.9778629462833
6.975	-59.3662536125625
6.976	-59.72959547834
6.977	-60.0695040366258
6.978	-60.3874905911032
6.979	-60.6849689756967
6.98	-60.9632618407703
6.981	-61.2236065339038
6.982	-61.4671606013963
6.983	-61.6950069349556
6.984	-61.9081585864592
6.985	-62.1075632721917
6.986	-62.2941075865877
6.987	-62.4686209442132
6.988	-62.6318792675148
6.989	-62.7846084367309
6.99	-62.9274875173052
6.991	-63.0611517791521
6.992	-63.1861955211979
6.993	-63.3031747137567
6.994	-63.4126094704892
6.995	-63.5149863609357
6.996	-63.6107605739045
6.997	-63.7003579413356
6.998	-63.7841768316376
6.999	-63.8625899209157
7	-63.9359458499668
7.001	-55.6203732435442
7.002	-47.8411037395408
7.003	-40.5635490983635
7.004	-33.7553518083654
7.005	-27.3862412176629
7.006	-21.4278989445632
7.007	-15.853832968188
7.008	-10.6392598394742
7.009	-5.76099448883947
7.01	-1.1973471405716
7.011	3.07197312439563
7.012	7.06594858610127
7.013	10.8023372846964
7.014	14.29775197636
7.015	17.5677339970451
7.016	20.6268223624702
7.017	23.488618411587
7.018	26.1658462809434
7.019	28.6704094788243
7.02	31.0134438107085
7.021	33.2053668913611
7.022	35.2559244637009
7.023	37.1742337303877
7.024	38.9688238907884
7.025	40.6476740635602
7.026	42.218248763461
7.027	43.6875310901237
7.028	45.0620537763607
7.029	46.3479282340433
7.03	47.550871726702
7.031	48.6762327896614
7.032	49.7290150107331
7.033	50.7138992772014
7.034	51.635264588015
7.035	52.4972075237213
7.036	53.3035604607099
7.037	54.05790861075
7.038	54.7636059615827
7.039	55.4237901894431
7.04	56.0413966098177
7.041	48.2349736975994
7.042	40.9320168754233
7.043	34.1000556882973
7.044	27.7087138251409
7.045	21.7295740594306
7.046	16.1360519003384
7.047	10.9032773925931
7.048	6.00798453952022
7.049	1.42840785761339
7.05	-2.85581439730232
7.051	-6.86373076259235
7.052	-10.6131612625457
7.053	-14.1207766398847
7.054	-17.4021724773321
7.055	-20.4719385387941
7.056	-23.3437236384649
7.057	-26.0302963262755
7.058	-28.5436016595044
7.059	-30.8948143129704
7.06	-33.0943882639463
7.061	-35.1521032727011
7.062	-37.0771083653358
7.063	-38.877962512243
7.064	-40.5626726830584
7.065	-42.1387294473016
7.066	-43.6131402789966
7.067	-44.9924607133488
7.068	-46.2828234940088
7.069	-47.4899658405187
7.07	-48.6192549571746
7.071	-49.6757118967267
7.072	-50.6640338850168
7.073	-51.5886152058152
7.074	-52.4535667387143
7.075	-53.2627342369483
7.076	-54.0197154264073
7.077	-54.7278760018697
7.078	-55.3903645915763
7.079	-56.0101267566825
7.08	-56.5899180878318
7.081	-57.1323164570807
7.082	-57.6397334796512
7.083	-58.1144252364698
7.084	-58.5585023051695
7.085	-58.9739391441547
7.086	-59.3625828714502
7.087	-59.7261614773705
7.088	-60.0662915075213
7.089	-60.3844852502955
7.09	-60.6821574608196
7.091	-60.9606316512478
7.092	-61.2211459753698
7.093	-61.464858733699
7.094	-61.6928535235157
7.095	-61.9061440567645
7.096	-62.105678667227
7.097	-62.2923445270098
7.098	-62.466971591095
7.099	-62.6303362874916
7.1	-62.7831649693946
7.101	-62.9261371447018
7.102	-63.0598884972459
7.103	-63.1850137131766
7.104	-63.3020691250577
7.105	-63.4115751854367
7.106	-63.5140187808846
7.107	-63.6098553967939
7.108	-63.6995111425612
7.109	-63.783384646157
7.11	-63.8618488265086
7.111	-63.9352525515742
7.112	-64.0039221894826
7.113	-64.0681630596325
7.114	-64.1282607902063
7.115	-64.1844825881318
7.116	-64.2370784271392
7.117	-64.2862821591963
7.118	-64.3323125542624
7.119	-64.3753742729851
7.12	-64.4156587766632
7.121	-64.4533451785238
7.122	-64.4886010400965
7.123	-64.5215831162266
7.124	-64.5524380520393
7.125	-64.5813030349547
7.126	-64.608306404651
7.127	-64.6335682236893
7.128	-64.6572008113368
7.129	-64.6793092429612
7.13	-64.6999918172176
7.131	-64.7193404931047
7.132	-64.7374412988334
7.133	-64.7543747143259
7.134	-64.7702160290464
7.135	-64.7850356767534
7.136	-64.7988995486625
7.137	-64.811869286413
7.138	-64.8240025561386
7.139	-64.8353533048637
7.14	-64.8459720003624
7.141	-56.4717083246847
7.142	-48.6375329631026
7.143	-41.3086135532353
7.144	-34.4523642050612
7.145	-28.0383006173175
7.146	-22.0379045379982
7.147	-16.4244969663129
7.148	-11.1731195323374
7.149	-6.2604235269432
7.15	-1.66456608861294
7.151	2.63488691443538
7.152	6.65705173862044
7.153	10.4198117598235
7.154	13.9398969865727
7.155	17.2329584451176
7.156	20.3136377671264
7.157	23.1956322894045
7.158	25.8917559550854
7.159	28.4139962870685
7.16	30.7735676870235
7.161	32.980961296937
7.162	35.0459916448975
7.163	36.9778402825155
7.164	38.7850966079987
7.165	40.4757960563914
7.166	42.0574558267792
7.167	43.5371083053089
7.168	44.9213323326307
7.169	46.216282454783
7.17	47.4277162875758
7.171	48.56102011614
7.172	49.6212328434645
7.173	50.6130683943996
7.174	51.5409366747411
7.175	52.4089631785824
7.176	53.2210073311144
7.177	53.9806796484262
7.178	54.6913577906067
7.179	55.3562015795187
7.18	55.9781670480199
7.181	56.5600195830957
7.182	57.1043462213415
7.183	57.6135671514614
7.184	58.0899464749276
7.185	58.5356022726434
7.186	58.9525160223682
7.187	59.3425414087775
7.188	59.7074125653274
7.189	60.048751784571
7.19	60.3680767312056
7.191	60.6668071899239
7.192	60.94627137807
7.193	61.2077118511683
7.194	61.4522910275819
7.195	61.6810963568647
7.196	61.8951451547874
7.197	62.095389126533
7.198	62.2827185981749
7.199	62.4579664752506
7.2	62.621911946032
7.201	62.775283945957
7.202	62.9187643986276
7.203	63.0529912477828
7.204	63.1785612937283
7.205	63.296032846834
7.206	63.4059282098975
7.207	63.5087360004097
7.208	63.60491332305
7.209	63.6948878020671
7.21	63.7790594825856
7.211	63.857802609289
7.212	63.9314672903887
7.213	64.0003810542777
7.214	64.0648503057895
7.215	64.1251616885371
7.216	64.1815833593899
7.217	64.2343661807547
7.218	64.2837448359614
7.219	64.3299388727137
7.22	64.3731536792438
7.221	64.4135813975109
7.222	64.4514017775035
7.223	64.4867829764458
7.224	64.5198823064587
7.225	64.5508469340026
7.226	64.5798145342097
7.227	64.6069139030157
7.228	64.6322655298138
7.229	64.6559821331749
7.23	64.6781691620181
7.231	64.6989252644578
7.232	64.7183427264142
7.233	64.7365078819354
7.234	64.753501497056
7.235	56.385201598036
7.236	48.5566053863306
7.237	41.2329053056121
7.238	34.3815386720749
7.239	27.9720428940142
7.24	21.9759200288496
7.241	16.366510075384
7.242	11.1188724379296
7.243	6.20967503526613
7.244	1.61709056138674
7.245	-2.6793005632143
7.246	-6.69860098121144
7.247	-10.4586813327442
7.248	-13.9762597119756
7.249	-17.2669759991934
7.25	-20.3454613989491
7.251	-23.2254034934169
7.252	-25.9196071002118
7.253	-28.4400512052549
7.254	-30.7979422238197
7.255	-33.0037638265699
7.256	-35.0673235521255
7.257	-36.9977964134057
7.258	-38.8037656916324
7.259	-40.4932610993721
7.26	-42.0737944822965
7.261	-43.5523932184013
7.262	-44.9356314631799
7.263	-46.2296593796781
7.264	-47.4402304833887
7.265	-48.5727272235711
7.266	-49.6321849147324
7.267	-50.6233141246761
7.268	-51.55052161866
7.269	-52.4179299527849
7.27	-53.2293958037312
7.271	-53.98852711634
7.272	-54.6986991452812
7.273	-55.3630694621337
7.274	-55.9845919946005
7.275	-56.5660301602821
7.276	-57.1099691534017
7.277	-57.6188274391131
7.278	-58.0948675064968
7.279	-58.5402059280531
7.28	-58.9568227704216
7.281	-59.3465703981663
7.282	-59.7111817097709
7.283	-60.0522778424642
7.284	-60.3713753801305
7.285	-60.6698930963552
7.286	-60.9491582625853
7.287	-61.2104125494526
7.288	-61.4548175474978
7.289	-61.6834599318419
7.29	-61.8973562937686
7.291	-62.0974576606988
7.292	-62.2846537246557
7.293	-62.4597767980187
7.294	-62.6236055141563
7.295	-62.7768682893915
7.296	-62.9202465616905
7.297	-63.0543778204773
7.298	-63.179858441043
7.299	-63.297246336154
7.3	-63.407063436647
7.301	-63.5097980120415
7.302	-63.6059068414872
7.303	-63.6958172446979
7.304	-63.7799289819041
7.305	-63.8586160312687
7.306	-63.9322282516718
7.307	-64.0010929382553
7.308	-64.0655162776449
7.309	-64.1257847093188
7.31	-64.182166199177
7.311	-64.2349114309733
7.312	-64.2842549209066
7.313	-64.3304160603286
7.314	-64.3736000912032
7.315	-64.4139990186545
7.316	-64.4517924646613
7.317	-64.4871484666935
7.318	-64.5202242248416
7.319	-64.5511668007604
7.32	-64.5801137715361
7.321	-56.2229963105175
7.322	-48.4048613385898
7.323	-41.090947812259
7.324	-34.2487365607622
7.325	-27.847805699115
7.326	-21.8596953661252
7.327	-16.2577811859692
7.328	-11.017155890716
7.329	-6.11451857746789
7.33	-1.52807110773095
7.331	2.76257881161209
7.332	6.77650829665084
7.333	10.5315641072471
7.334	14.0444419974167
7.335	17.3307609481019
7.336	20.4051326123872
7.337	23.2812262819291
7.338	25.9718296634501
7.339	28.4889057355259
7.34	30.8436459384593
7.341	24.6623224028728
7.342	18.8796560790134
7.343	13.4699360375719
7.344	8.40910954546971
7.345	3.67467512243843
7.346	-0.754417505211184
7.347	-4.89786099845534
7.348	-8.77407796319694
7.349	-12.4003028609779
7.35	-15.7926586369563
7.351	-18.9662284058519
7.352	-21.9351225145905
7.353	-24.7125412798224
7.354	-27.310833679257
7.355	-29.7415522577701
7.356	-32.0155044924048
7.357	-34.1428008446477
7.358	-36.13289971363
7.359	-37.9946494901238
7.36	-39.7363278983163
7.361	-41.3656788002816
7.362	-42.8899466267919
7.363	-44.3159085875528
7.364	-45.6499048040791
7.365	-46.8978664991839
7.366	-48.0653423684217
7.367	-49.1575232507349
7.368	-50.1792652079961
7.369	-51.1351111160631
7.37	-52.0293108633432
7.371	-52.8658402466752
7.372	-53.648418648544
7.373	-54.3805255742231
7.374	-55.0654161223744
7.375	-55.7061354578894
7.376	-56.3055323513214
7.377	-56.8662718451077
7.378	-57.3908471028998
7.379	-57.8815904946832
7.38	-58.3406839669767
7.381	-58.7701687442176
7.382	-59.1719544044671
7.383	-59.5478273697888
7.384	-59.8994588490509
7.385	-60.2284122684652
7.386	-60.5361502229039
7.387	-60.8240409788983
7.388	-61.0933645582346
7.389	-61.3453184291949
7.39	-61.581022830749
7.391	-61.8015257533684
7.392	-62.0078075986079
7.393	-62.2007855381742
7.394	-62.3813175918604
7.395	-62.5502064424792
7.396	-62.7082030047568
7.397	-62.8560097640549
7.398	-62.9942838997658
7.399	-63.1236402072673
7.4	-63.2446538314307
7.401	-63.3578628238333
7.402	-63.4637705350468
7.403	-63.5628478526383
7.404	-63.6555352948336
7.405	-63.742244969152
7.406	-63.8233624047217
7.407	-63.8992482664221
7.408	-63.9702399584741
7.409	-64.0366531246091
7.41	-64.0987830514861
7.411	-64.1569059815977
7.412	-64.2112803415006
7.413	-64.2621478908339
7.414	-64.3097347972325
7.415	-64.3542526419147
7.416	-64.3958993604164
7.417	-64.4348601226532
7.418	-64.4713081562243
7.419	-56.1212079857538
7.42	-48.3096377324503
7.421	-41.0018655409155
7.422	-34.1653995460298
7.423	-27.7698434074068
7.424	-21.7867611609835
7.425	-16.1895507868479
7.426	-10.9533259311628
7.427	-6.05480525629376
7.428	-1.47220892717181
7.429	2.81483822635345
7.43	6.82539730173036
7.431	10.577300073283
7.432	14.0872282759641
7.433	17.3707877757957
7.434	20.442577956774
7.435	23.316256632747
7.436	26.004600772877
7.437	28.5195633106855
7.438	30.8723262892655
7.439	33.0733505789554
7.44	35.1324223885299
7.441	37.0586967767067
7.442	38.8607383574287
7.443	40.5465593799076
7.444	42.1236553527393
7.445	43.5990383704836
7.446	44.979268290886
7.447	46.2704819013602
7.448	47.4784202044132
7.449	48.6084539433286
7.45	49.6656074816008
7.451	50.6545811422936
7.452	51.5797721066474
7.453	52.4452939648558
7.454	53.2549950059372
7.455	54.0124753280234
7.456	54.7211028451395
7.457	55.3840282616456
7.458	56.0041990809192
7.459	56.5843727105646
7.46	57.1271287224166
7.461	57.6348803218499
7.462	58.1098850773888
7.463	58.5542549583237
7.464	58.9699657249621
7.465	59.3588657132683
7.466	59.7226840529459
7.467	60.0630383555065
7.468	60.3814419065045
7.469	60.6793103939171
7.47	60.9579682025859
7.471	61.2186543027056
7.472	61.4625277585409
7.473	61.6906728818666
7.474	61.9041040530411
7.475	62.1037702311511
7.476	62.2905591732803
7.477	62.4653013816604
7.478	62.6287737962555
7.479	62.7817032491982
7.48	62.9247696964351
7.481	63.0586092409515
7.482	63.1838169610165
7.483	63.3009495560246
7.484	63.4105278216953
7.485	63.5130389656393
7.486	63.6089387735837
7.487	63.6986536358899
7.488	63.7825824433727
7.489	63.861098360852
7.49	63.93455048632
7.491	64.0032654031035
7.492	64.0675486319206
7.493	64.1276859892891
7.494	64.1839448583256
7.495	64.2365753775862
7.496	64.2858115532342
7.497	64.3318722994799
7.498	64.3749624119184
7.499	64.415273478093
7.5	64.452984729333
7.501	64.4882638376535
7.502	64.5212676612597
7.503	64.5521429419705
7.504	64.5810269576637
7.505	64.608048132641
7.506	64.6333266086297
7.507	64.6569747789571
7.508	64.6790977882747
7.509	64.6997940000532
7.51	64.7191554339263
7.511	64.7372681748296
7.512	64.7542127557517
7.513	64.7700645158005
7.514	64.7848939351765
7.515	64.7987669485424
7.516	64.8117452381821
7.517	64.8238865082529
7.518	64.8352447413503
7.519	64.8458704385254
7.52	64.8558108438235
7.521	56.4809126234762
7.522	48.6461436414387
7.523	41.3166688959711
7.524	34.4599000279149
7.525	28.0453504261145
7.526	22.0444996776451
7.527	16.4306667601634
7.528	11.1788914125697
7.529	6.26582315652936
7.53	1.66961747542184
7.531	-2.63016131089426
7.532	-6.65263090733732
7.533	-10.4156760448691
7.534	-13.9360279997037
7.535	-17.2293389840191
7.536	-20.3102517389263
7.537	-23.192464639122
7.538	-25.8887925986927
7.539	-28.4112240488708
7.54	-30.770974241077
7.541	-32.978535112245
7.542	-35.0437219341417
7.543	-36.9757169540929
7.544	-38.7831102211524
7.545	-40.4739377792351
7.546	-42.0557173970286
7.547	-43.5354819935462
7.548	-44.9198109079377
7.549	-46.2148591525912
7.55	-47.4263847795895
7.551	-48.5597744821997
7.552	-49.6200675452243
7.553	-50.6119782507026
7.554	-51.5399168385832
7.555	-52.4080091155615
7.556	-53.220114799269
7.557	-53.9798446793754
7.558	-54.6905766719056
7.559	-55.3554708381521
7.56	-55.9774834349606
7.561	-56.559380058859
7.562	-57.1037479424703
7.563	-57.6130074578844
7.564	-58.0894228781314
7.565	-58.5351124446085
7.566	-58.9520577852179
7.567	-59.3421127250947
7.568	-59.707011529096
7.569	-60.048376612701
7.57	-60.3677257556053
7.571	-60.6664788500833
7.572	-60.9459642141224
7.573	-61.2074244973992
7.574	-61.4520222063571
7.575	-61.6808448729496
7.576	-61.8949098900324
7.577	-62.0951690349024
7.578	-62.2825127010959
7.579	-62.4577738572622
7.58	-62.6217317507149
7.581	-62.7751153721255
7.582	-62.9186066967677
7.583	-63.0528437167194
7.584	-63.1784232775078
7.585	-63.2959037318078
7.586	-63.4058074219934
7.587	-63.5086230025799
7.588	-63.6048076128826
7.589	-63.694788909553
7.59	-63.7789669680283
7.591	-63.8577160613495
7.592	-63.931386324257
7.593	-64.0003053099617
7.594	-64.0647794465143
7.595	-64.1250953992478
7.596	-64.1815213453506
7.597	-64.2343081662381
7.598	-64.283690563023
7.599	-64.3298881000448
7.6	-64.3731061810987
7.601	-56.0293394318387
7.602	-48.223694133173
7.603	-40.9214647732755
7.604	-34.0901841316015
7.605	-27.6994789229165
7.606	-21.7209347513941
7.607	-16.1279697743412
7.608	-19.2799140446973
7.609	-22.2285773660615
7.61	-24.9870701048232
7.611	-19.1834595588035
7.612	-13.7541460682456
7.613	-8.67498978354785
7.614	-3.92340772639657
7.615	0.521726618821896
7.616	4.68017723787467
7.617	8.5704334614468
7.618	12.2097921725258
7.619	15.6144347119175
7.62	18.7994988238304
7.621	21.7791459614145
7.622	24.5666242515079
7.623	27.1743273985465
7.624	29.613849789534
7.625	31.8960380450831
7.626	34.0310392457311
7.627	36.028346047957
7.628	37.8968388904937
7.629	39.6448254785932
7.63	41.280077721801
7.631	42.8098662894715
7.632	44.2409929376666
7.633	45.5798207511682
7.634	46.8323024350681
7.635	48.004006781725
7.636	49.1001434307653
7.637	50.1255860322182
7.638	51.08489391577
7.639	51.9823323624862
7.64	52.8218915691328
7.641	45.2231068585507
7.642	38.1143968557227
7.643	31.4641547671511
7.644	25.2428122424154
7.645	19.4227079071761
7.646	13.9779643749899
7.647	8.88437319110163
7.648	4.1192871966533
7.649	-0.338480165264192
7.65	-4.50874904942049
7.651	-8.41006133294922
7.652	-12.0597630563649
7.653	-15.4740815476433
7.654	-18.6681975722743
7.655	-21.6563128300822
7.656	-24.4517130989174
7.657	-27.06682730597
7.658	-29.5132827893479
7.659	-31.801956995625
7.66	-33.9430258432158
7.661	-35.9460089666114
7.662	-37.8198120426413
7.663	-39.5727663869529
7.664	-41.2126659967623
7.665	-42.746802204576
7.666	-44.1819960969624
7.667	-45.5246288425114
7.668	-46.7806700638289
7.669	-47.9557043797123
7.67	-49.0549562355195
7.671	-50.0833131321324
7.672	-51.0453473567959
7.673	-51.9453363124514
7.674	-52.7872815359546
7.675	-53.5749264897345
7.676	-54.3117732060015
7.677	-55.0010978575058
7.678	-55.6459653240785
7.679	-56.2492428197206
7.68	-56.813612640829
7.681	-57.3415840922402
7.682	-57.8355046441185
7.683	-58.2975703692929
7.684	-58.7298357074511
7.685	-59.1342225996026
7.686	-59.5125290334258
7.687	-59.8664370374922
7.688	-60.1975201599137
7.689	-60.507250464662
7.69	-60.7970050766695
7.691	-61.0680723048112
7.692	-61.3216573699923
7.693	-61.558887763809
7.694	-61.7808182616098
7.695	-61.9884356122438
7.696	-62.1826629253504
7.697	-62.3643637756957
7.698	-62.5343460428039
7.699	-62.6933655029569
7.7	-62.8421291895316
7.701	-62.9812985366167
7.702	-63.1114923198847
7.703	-63.2332894077974
7.704	-63.3472313353735
7.705	-63.4538247119662
7.706	-63.5535434737525
7.707	-63.6468309909515
7.708	-63.73410203914
7.709	-63.8157446434305
7.71	-63.892121803711
7.711	-63.9635731086173
7.712	-64.0304162454146
7.713	-64.0929484125005
7.714	-64.1514476408103
7.715	-64.2061740300005
7.716	-64.2573709049052
7.717	-64.3052658974086
7.718	-64.3500719585436
7.719	-64.3919883053161
7.72	-64.4312013064646
7.721	-64.4678853110946
7.722	-64.5022034238704
7.723	-64.5343082302124
7.724	-64.5643424747231
7.725	-64.5924396958595
7.726	-64.6187248196722
7.727	-64.6433147152529
7.728	-64.666318714358
7.729	-64.6878390975209
7.73	-64.7079715488117
7.731	-64.7268055812686
7.732	-64.7444249348914
7.733	-64.7609079489671
7.734	-64.7763279103818
7.735	-64.7907533794703
7.736	-64.8042484948487
7.737	-64.8168732585883
7.738	-64.8286838029974
7.739	-56.4555351093325
7.74	-48.6224028203059
7.741	-41.2944592112531
7.742	-34.4391227307643
7.743	-28.0259131363753
7.744	-22.0263159731108
7.745	-16.4136557923265
7.746	-11.1629775471522
7.747	-6.25093563719762
7.748	-1.65569010918872
7.749	2.64319044797673
7.75	6.66481974550475
7.751	10.4270787782144
7.752	13.9466953271355
7.753	17.2393183346793
7.754	20.3195874830698
7.755	23.2011982853963
7.756	25.8969629786937
7.757	28.4188674897962
7.758	30.7781247272444
7.759	32.9852244361935
7.76	35.0499798379876
7.761	36.9815712617698
7.762	38.7885869621218
7.763	40.479061304219
7.764	42.0605104862778
7.765	43.5399659581257
7.766	44.9240056844807
7.767	46.2187833919409
7.768	47.4300559297248
7.769	48.5632088658127
7.77	49.6232804322941
7.771	50.6149839263891
7.772	51.5427286667415
7.773	52.4106395981605
7.774	53.2225756319779
7.775	53.9821468035649
7.776	54.6927303232955
7.777	55.3574855923215
7.778	55.9793682499229
7.779	56.5611433148908
7.78	57.1053974793724
7.781	57.6145506098386
7.782	58.0908665063102
7.783	58.536462967681
7.784	58.9533212078889
7.785	59.3432946648023
7.786	59.7081172409884
7.787	60.0494110130017
7.788	60.3686934434718
7.789	60.6673841280558
7.79	60.9468111072538
7.791	61.2082167711514
7.792	61.4527633833428
7.793	61.6815382485949
7.794	61.8955585472287
7.795	62.0957758577136
7.796	62.2830803875815
7.797	62.4583049314738
7.798	62.622228573918
7.799	62.7755801532989
7.8	62.9190415024244
7.801	63.0532504800952
7.802	63.1788038071568
7.803	63.2962597196433
7.804	63.406140450811
7.805	63.5089345530945
7.806	63.6050990703122
7.807	63.6950615697775
7.808	63.7792220433514
7.809	63.8579546858888
7.81	63.9316095589866
7.811	64.0005141474292
7.812	64.0649748152543
7.813	64.12527816791
7.814	64.1816923265623
7.815	64.2344681202171
7.816	64.2838402009577
7.817	64.3300280872564
7.818	64.3732371399993
7.819	64.4136594755628
7.82	64.451474820003
7.821	64.4868513081549
7.822	64.5199462311944
7.823	64.5509067359875
7.824	64.5798704793357
7.825	64.6069662400264
7.826	64.6323144914104
7.827	64.6560279370508
7.828	64.6782120118267
7.829	64.6989653507182
7.83	64.7183802273584
7.831	56.3523454334359
7.832	48.5258682415313
7.833	41.204150516917
7.834	34.3546383897519
7.835	27.9468775138499
7.836	21.952377660364
7.837	16.3444860443425
7.838	11.0982688209395
7.839	6.19040022438904
7.84	1.59905885683091
7.841	-2.6961693341331
7.842	-6.71438182053419
7.843	-10.4734444053432
7.844	-13.9900706575221
7.845	-17.2798962240048
7.846	-20.3575483490147
7.847	-23.236710909814
7.848	-25.9301852580502
7.849	-28.44994713721
7.85	-30.8071999292497
7.851	-33.012424467146
7.852	-35.0754256348452
7.853	-37.0053759618028
7.854	-38.8108564059453
7.855	-40.4998945063816
7.856	-42.0800000755009
7.857	-43.5581985891501
7.858	-44.9410624233511
7.859	-46.2347400764426
7.86	-47.4449835065742
7.861	-48.5771737061009
7.862	-49.6363446265864
7.863	-50.6272055607927
7.864	-51.5541620811683
7.865	-52.4213356279334
7.866	-53.2325818338553
7.867	-53.9915076671879
7.868	-54.7014874689979
7.869	-55.3656779561826
7.87	-55.9870322568851
7.871	-56.5683130407126
7.872	-57.1121048021363
7.873	-57.6208253516874
7.874	-58.0967365660428
7.875	-58.5419544447958
7.876	-58.9584585186277
7.877	-59.3481006507103
7.878	-59.7126132704719
7.879	-60.0536170763368
7.88	-60.3726282416851
7.881	-60.6710651560732
7.882	-60.9502547316865
7.883	-61.2114383030651
7.884	-61.4557771463341
7.885	-61.6843576424767
7.886	-61.8981961076088
7.887	-62.0982433117304
7.888	-62.2853887060455
7.889	-62.4604643776457
7.89	-62.6242487491418
7.891	-62.7774700396909
7.892	-62.9208095028101
7.893	-63.0549044553696
7.894	-63.1803511112357
7.895	-63.2977072321604
7.896	-63.407494607706
7.897	-63.5102013752288
7.898	-63.6062841902387
7.899	-63.6961702567843
7.9	-63.78025922689
7.901	-63.8589249774916
7.902	-63.9325172727704
7.903	-64.0013633192771
7.904	-64.0657692207598
7.905	-64.1260213391641
7.906	-64.182387567858
7.907	-64.2351185227409
7.908	-64.2844486565335
7.909	-64.3305973012035
7.91	-64.3737696431604
7.911	-56.0299601046929
7.912	-48.2242747764594
7.913	-40.9220079686541
7.914	-34.0906922942313
7.915	-27.6999543121935
7.916	-21.7213794809972
7.917	-16.1283858216302
7.918	-10.8961057286401
7.919	-6.00127540362261
7.92	-1.42213141956675
7.921	2.86168604383839
7.922	6.86922372417158
7.923	10.6182999620102
7.924	14.1255839249541
7.925	17.4066697221892
7.926	20.4761457391186
7.927	23.3476595003389
7.928	26.0339783493541
7.929	28.5470462148229
7.93	30.8980367157336
7.931	33.0974028416226
7.932	35.1549234287258
7.933	37.0797466387053
7.934	38.8804306332658
7.935	40.5649816255105
7.936	42.1408894772183
7.937	43.6151610003172
7.938	44.9943511106178
7.939	46.2845919723231
7.94	47.4916202628982
7.941	48.6208026795232
7.942	49.6771598005376
7.943	50.6653884079696
7.944	51.5898823703988
7.945	52.4547521790042
7.946	53.2638432236571
7.947	54.020752890319
7.948	54.7288465557631
7.949	55.3912725507346
7.95	56.0109761580799
7.951	48.206515177218
7.952	40.9053937539367
7.953	34.0751495938063
7.954	27.6854140200033
7.955	21.7077769478983
7.956	16.1156605679499
7.957	10.8842011752713
7.958	5.9901386204612
7.959	1.41171289017368
7.96	-2.87143264239752
7.961	-6.87834172728784
7.962	-10.6268299102094
7.963	-14.1335637441485
7.964	-17.4141348923037
7.965	-20.483129451842
7.966	-23.354192806701
7.967	-26.0400902977849
7.968	-28.552763980308
7.969	-30.9033857206397
7.97	-33.1024068687308
7.971	-35.1596047269746
7.972	-37.0841260221139
7.973	-38.8845275734779
7.974	-40.5688143383686
7.975	-42.1444750037558
7.976	-43.6185152825259
7.977	-44.9974890623294
7.978	-46.2875275455195
7.979	-47.4943665097442
7.98	-48.6233718103997
7.981	-49.6795632383315
7.982	-50.6676368388618
7.983	-51.5919857913777
7.984	-52.456719942314
7.985	-53.2656840783801
7.986	-54.0224750212757
7.987	-54.7304576199035
7.988	-55.3927797111828
7.989	-56.0123861159826
7.99	-56.5920317324037
7.991	-57.1342937846249
7.992	-57.6415832817746
7.993	-58.1161557377747
7.994	-58.5601211998224
7.995	-58.9754536300956
7.996	-59.3639996823966
7.997	-59.7274869127566
7.998	-60.0675314605067
7.999	-60.3856452339674
8	-60.6832426327051
