0	4
0.01	4.03251111111111
0.02	4.01051111111111
0.03	4.01833333333333
0.04	3.99633333333333
0.05	4.01442222222222
0.06	3.99242222222222
0.07	3.99242222222222
0.08	3.99242222222222
0.09	3.99242222222222
0.1	3.97042222222222
0.11	3.98264444444444
0.12	3.98264444444444
0.13	3.96113333333333
0.14	3.96113333333333
0.15	3.96113333333333
0.16	3.93913333333333
0.17	3.95282222222222
0.18	3.95282222222222
0.19	3.93082222222222
0.2	3.93082222222222
0.21	3.93082222222222
0.22	3.90882222222221
0.23	3.9137111111111
0.24	3.9137111111111
0.25	3.8917111111111
0.26	3.9137111111111
0.27	3.8917111111111
0.28	3.87239999999999
0.29	3.89439999999999
0.3	3.89439999999999
0.31	3.87239999999999
0.32	3.87239999999999
0.33	3.87239999999999
0.34	3.85039999999999
0.35	3.85039999999999
0.36	3.85308888888888
0.37	3.83108888888887
0.38	3.85308888888888
0.39	3.83108888888887
0.4	3.83108888888887
0.41	3.83108888888887
0.42	3.80908888888887
0.43	3.80908888888887
0.44	3.80908888888887
0.45	3.78708888888887
0.46	3.78708888888887
0.47	3.80908888888887
0.48	3.76508888888887
0.49	3.78708888888887
0.5	3.78268888888887
0.51	3.76068888888887
0.52	3.78268888888887
0.53	3.73868888888886
0.54	3.76068888888887
0.55	3.74871111111109
0.56	3.72671111111109
0.57	3.74871111111109
0.58	3.72671111111109
0.59	3.72671111111109
0.6	3.72719999999997
0.61	3.70519999999997
0.62	3.7218222222222
0.63	3.69982222222219
0.64	3.69982222222219
0.65	3.69713333333331
0.66	3.6751333333333
0.67	3.68882222222219
0.68	3.68882222222219
0.69	3.66682222222219
0.7	3.68882222222219
0.71	3.64482222222219
0.72	3.66682222222219
0.73	3.64971111111108
0.74	3.64971111111108
0.75	3.64971111111108
0.76	3.62771111111108
0.77	3.64971111111108
0.78	3.60448888888885
0.79	3.62648888888885
0.8	3.60448888888885
0.81	3.60448888888885
0.82	3.60448888888885
0.83	3.58248888888885
0.84	3.60448888888885
0.85	3.58248888888885
0.86	3.58248888888885
0.87	3.58248888888885
0.88	3.55217777777774
0.89	3.57417777777774
0.9	3.55217777777774
0.91	3.55217777777774
0.92	3.55217777777774
0.93	3.53017777777773
0.94	3.55217777777774
0.95	3.50817777777773
0.96	3.53017777777773
0.97	3.50817777777773
0.98	3.50817777777773
0.99	3.50817777777773
1	3.48617777777773
1.01	3.50817777777773
1.02	3.48617777777773
1.03	3.48886666666662
1.04	3.48886666666662
1.05	3.46686666666662
1.06	3.46686666666662
1.07	3.46686666666662
1.08	3.44486666666662
1.09	3.46686666666662
1.1	3.42286666666661
1.11	3.44486666666662
1.12	3.42286666666661
1.13	3.42286666666661
1.14	3.42286666666661
1.15	3.40086666666661
1.16	3.42286666666661
1.17	3.40086666666661
1.18	3.40086666666661
1.19	3.40086666666661
1.2	3.3727555555555
1.21	3.3727555555555
1.22	3.38644444444439
1.23	3.36444444444439
1.24	3.36444444444439
1.25	3.36444444444439
1.26	3.34244444444438
1.27	3.36444444444439
1.28	3.32044444444438
1.29	3.33926666666661
1.3	3.34268888888883
1.31	3.29868888888882
1.32	3.32068888888883
1.33	3.29868888888882
1.34	3.29868888888882
1.35	3.30211111111105
1.36	3.28011111111105
1.37	3.28011111111105
1.38	3.29599999999994
1.39	3.26788888888882
1.4	3.26788888888882
1.41	3.26788888888882
1.42	3.24588888888882
1.43	3.25811111111104
1.44	3.23611111111104
1.45	3.24393333333326
1.46	3.22193333333326
1.47	3.22193333333326
1.48	3.22193333333326
1.49	3.19993333333326
1.5	3.19993333333326
1.51	3.21362222222215
1.52	3.16962222222215
1.53	3.19162222222215
1.54	3.18159999999992
1.55	3.15959999999992
1.56	3.16668888888881
1.57	3.14468888888881
1.58	3.16668888888881
1.59	3.14468888888881
1.6	3.1275777777777
1.61	3.13368888888881
1.62	3.13368888888881
1.63	3.11168888888881
1.64	3.11168888888881
1.65	3.11168888888881
1.66	3.11168888888881
1.67	3.08968888888881
1.68	3.0676888888888
1.69	3.08968888888881
1.7	3.08968888888881
1.71	3.0676888888888
1.72	3.0456888888888
1.73	3.0456888888888
1.74	3.0676888888888
1.75	3.0456888888888
1.76	3.0236888888888
1.77	3.0236888888888
1.78	3.04177777777769
1.79	3.01366666666658
1.8	3.01366666666658
1.81	3.01366666666658
1.82	2.99166666666657
1.83	2.96966666666657
1.84	2.99166666666657
1.85	2.97895555555546
1.86	2.95695555555546
1.87	2.95695555555546
1.88	2.97064444444435
1.89	2.94546666666657
1.9	2.94546666666657
1.91	2.94546666666657
1.92	2.91735555555546
1.93	2.93935555555546
1.94	2.91197777777768
1.95	2.91197777777768
1.96	2.91197777777768
1.97	2.88997777777768
1.98	2.87946666666656
1.99	2.90146666666657
2	2.85746666666656
2.01	2.86748888888879
2.02	2.86748888888879
2.03	2.84548888888878
2.04	2.85208888888878
2.05	2.83008888888878
2.06	2.83008888888878
2.07	2.83277777777767
2.08	2.81077777777767
2.09	2.81077777777767
2.1	2.81077777777767
2.11	2.78877777777767
2.12	2.79317777777767
2.13	2.77899999999989
2.14	2.77899999999989
2.15	2.75748888888877
2.16	2.75748888888877
2.17	2.75748888888877
2.18	2.73548888888877
2.19	2.73548888888877
2.2	2.73548888888877
2.21	2.71348888888877
2.22	2.71348888888877
2.23	2.71348888888877
2.24	2.69148888888877
2.25	2.69148888888877
2.26	2.69148888888877
2.27	2.66948888888877
2.28	2.66948888888877
2.29	2.67413333333321
2.3	2.65213333333321
2.31	2.6526222222221
2.32	2.65164444444432
2.33	2.61253333333321
2.34	2.63453333333321
2.35	2.62915555555543
2.36	2.60715555555543
2.37	2.60715555555543
2.38	2.59615555555543
2.39	2.57415555555542
2.4	2.59004444444431
2.41	2.56804444444431
2.42	2.56804444444431
2.43	2.56584444444431
2.44	2.54384444444431
2.45	2.54384444444431
2.46	2.52184444444431
2.47	2.54384444444431
2.48	2.51304444444431
2.49	2.51304444444431
2.5	2.5003333333332
2.51	2.47833333333319
2.52	2.5003333333332
2.53	2.45633333333319
2.54	2.47833333333319
2.55	2.45633333333319
2.56	2.45902222222208
2.57	2.43702222222208
2.58	2.43702222222208
2.59	2.43702222222208
2.6	2.41502222222208
2.61	2.41502222222208
2.62	2.39302222222207
2.63	2.41502222222208
2.64	2.37102222222207
2.65	2.39302222222207
2.66	2.34902222222207
2.67	2.37102222222207
2.68	2.34902222222207
2.69	2.34902222222207
2.7	2.32702222222207
2.71	2.32702222222207
2.72	2.32702222222207
2.73	2.30502222222207
2.74	2.30502222222207
2.75	2.28302222222206
2.76	2.30502222222207
2.77	2.26102222222206
2.78	2.28302222222206
2.79	2.24831111111095
2.8	2.24831111111095
2.81	2.24831111111095
2.82	2.22631111111095
2.83	2.22631111111095
2.84	2.19551111111095
2.85	2.22459999999984
2.86	2.18059999999983
2.87	2.19648888888872
2.88	2.17448888888872
2.89	2.16128888888872
2.9	2.16128888888872
2.91	2.13928888888872
2.92	2.14711111111094
2.93	2.13073333333316
2.94	2.10873333333316
2.95	2.11655555555538
2.96	2.09455555555538
2.97	2.07255555555538
2.98	2.07695555555538
2.99	2.07695555555538
3	2.0429777777776
3.01	2.0605777777776
3.02	2.0605777777776
3.03	2.0385777777776
3.04	2.0165777777776
3.05	1.99457777777759
3.06	1.99457777777759
3.07	1.99457777777759
3.08	1.99457777777759
3.09	1.97257777777759
3.1	1.95057777777759
3.11	1.95057777777759
3.12	1.95057777777759
3.13	1.95057777777759
3.14	1.92026666666648
3.15	1.91195555555536
3.16	1.91195555555536
3.17	1.87015555555536
3.18	1.88824444444425
3.19	1.87724444444425
3.2	1.85524444444425
3.21	1.85573333333314
3.22	1.83544444444425
3.23	1.82004444444424
3.24	1.81075555555535
3.25	1.82297777777758
3.26	1.77897777777757
3.27	1.78997777777757
3.28	1.76406666666646
3.29	1.75355555555535
3.3	1.75355555555535
3.31	1.71835555555535
3.32	1.74035555555535
3.33	1.71786666666646
3.34	1.69586666666646
3.35	1.69586666666646
3.36	1.69586666666646
3.37	1.65235555555534
3.38	1.65235555555534
3.39	1.65235555555534
3.4	1.60835555555534
3.41	1.60835555555534
3.42	1.60835555555534
3.43	1.58635555555533
3.44	1.58635555555533
3.45	1.58635555555533
3.46	1.54235555555533
3.47	1.54797777777755
3.48	1.52597777777755
3.49	1.52524444444422
3.5	1.50886666666644
3.51	1.48686666666644
3.52	1.48588888888866
3.53	1.44188888888865
3.54	1.46388888888866
3.55	1.41377777777754
3.56	1.43626666666643
3.57	1.40228888888865
3.58	1.40008888888865
3.59	1.35608888888865
3.6	1.38199999999976
3.61	1.33799999999976
3.62	1.33799999999976
3.63	1.31599999999975
3.64	1.29399999999975
3.65	1.29399999999975
3.66	1.25048888888864
3.67	1.27248888888864
3.68	1.22848888888863
3.69	1.22848888888863
3.7	1.20648888888863
3.71	1.18448888888863
3.72	1.18448888888863
3.73	1.15491111111085
3.74	1.11873333333307
3.75	1.14073333333307
3.76	1.09062222222195
3.77	1.09331111111084
3.78	1.05762222222195
3.79	1.05444444444417
3.8	1.01093333333306
3.81	1.01704444444417
3.82	0.972066666666391
3.83	0.955688888888613
3.84	0.955688888888613
3.85	0.911688888888614
3.86	0.906799999999725
3.87	0.882599999999725
3.88	0.860599999999725
3.89	0.853999999999726
3.9	0.798022222221948
3.91	0.789711111110837
3.92	0.745711111110838
3.93	0.752799999999726
3.94	0.707088888888616
3.95	0.670911111110838
3.96	0.640599999999727
3.97	0.613711111110839
3.98	0.568733333333062
3.99	0.546733333333062
4	0.502733333333062
4.01	0.457022222221951
4.02	0.408622222221952
4.03	0.384666666666397
4.04	0.319644444444175
4.05	0.236533333333065
4.06	0.126533333333066
4.07	0.0165333333330655
4.08	-0.0934666666669345
4.09	-0.203466666666934
4.1	-0.313466666666933
4.11	-0.248444444444711
4.12	-0.152133333333601
4.13	-0.0421333333336011
4.14	0.0678666666663988
4.15	0.177866666666398
4.16	0.287866666666397
4.17	0.265866666666398
4.18	0.18177777777751
4.19	0.0717777777775099
4.2	-0.03822222222249
4.21	-0.14822222222249
4.22	-0.258222222222489
4.23	-0.290244444444711
4.24	-0.208355555555823
4.25	-0.0983555555558235
4.26	0.0116444444441766
4.27	0.121644444444177
4.28	0.231644444444176
4.29	0.319644444444175
4.3	0.236533333333065
4.31	0.126533333333066
4.32	0.0165333333330655
4.33	-0.0934666666669345
4.34	-0.203466666666934
4.35	-0.313466666666933
4.36	-0.248444444444711
4.37	-0.152133333333601
4.38	-0.0421333333336011
4.39	0.0678666666663988
4.4	0.177866666666398
4.41	0.287866666666397
4.42	0.265866666666398
4.43	0.18177777777751
4.44	0.0717777777775099
4.45	-0.03822222222249
4.46	-0.14822222222249
4.47	-0.258222222222489
4.48	-0.290244444444711
4.49	-0.208355555555823
4.5	-0.0983555555558235
4.51	0.0116444444441766
4.52	0.121644444444177
4.53	0.231644444444176
4.54	0.319644444444175
4.55	0.236533333333065
4.56	0.126533333333066
4.57	0.0165333333330655
4.58	-0.0934666666669345
4.59	-0.203466666666934
4.6	-0.313466666666933
4.61	-0.248444444444711
4.62	-0.152133333333601
4.63	-0.0421333333336011
4.64	0.0678666666663988
4.65	0.177866666666398
4.66	0.287866666666397
4.67	0.265866666666398
4.68	0.18177777777751
4.69	0.0717777777775099
4.7	-0.03822222222249
4.71	-0.14822222222249
4.72	-0.258222222222489
4.73	-0.290244444444711
4.74	-0.208355555555823
4.75	-0.0983555555558235
4.76	0.0116444444441766
4.77	0.121644444444177
4.78	0.231644444444176
4.79	0.319644444444175
4.8	0.236533333333065
4.81	0.126533333333066
4.82	0.0165333333330655
4.83	-0.0934666666669345
4.84	-0.203466666666934
4.85	-0.313466666666933
4.86	-0.248444444444711
4.87	-0.152133333333601
4.88	-0.0421333333336011
4.89	0.0678666666663988
4.9	0.177866666666398
4.91	0.287866666666397
4.92	0.265866666666398
4.93	0.18177777777751
4.94	0.0717777777775099
4.95	-0.03822222222249
4.96	-0.14822222222249
4.97	-0.258222222222489
4.98	-0.290244444444711
4.99	-0.208355555555823
5	-0.0983555555558235
5.01	0.0116444444441766
5.02	0.121644444444177
5.03	0.231644444444176
5.04	0.319644444444175
5.05	0.236533333333065
5.06	0.126533333333066
5.07	0.0165333333330655
5.08	-0.0934666666669345
5.09	-0.203466666666934
5.1	-0.313466666666933
5.11	-0.248444444444711
5.12	-0.152133333333601
5.13	-0.0421333333336011
5.14	0.0678666666663988
5.15	0.177866666666398
5.16	0.287866666666397
5.17	0.265866666666398
5.18	0.18177777777751
5.19	0.0717777777775099
5.2	-0.03822222222249
5.21	-0.14822222222249
5.22	-0.258222222222489
5.23	-0.290244444444711
5.24	-0.208355555555823
5.25	-0.0983555555558235
5.26	0.0116444444441766
5.27	0.121644444444177
5.28	0.231644444444176
5.29	0.319644444444175
5.3	0.236533333333065
5.31	0.126533333333066
5.32	0.0165333333330655
5.33	-0.0934666666669345
5.34	-0.203466666666934
5.35	-0.313466666666933
5.36	-0.248444444444711
5.37	-0.152133333333601
5.38	-0.0421333333336011
5.39	0.0678666666663988
5.4	0.177866666666398
5.41	0.287866666666397
5.42	0.265866666666398
5.43	0.18177777777751
5.44	0.0717777777775099
5.45	-0.03822222222249
5.46	-0.14822222222249
5.47	-0.258222222222489
5.48	-0.290244444444711
5.49	-0.208355555555823
5.5	-0.0983555555558235
5.51	0.0116444444441766
5.52	0.121644444444177
5.53	0.231644444444176
5.54	0.319644444444175
5.55	0.236533333333065
5.56	0.126533333333066
5.57	0.0165333333330655
5.58	-0.0934666666669345
5.59	-0.203466666666934
5.6	-0.313466666666933
5.61	-0.248444444444711
5.62	-0.152133333333601
5.63	-0.0421333333336011
5.64	0.0678666666663988
5.65	0.177866666666398
5.66	0.287866666666397
5.67	0.265866666666398
5.68	0.18177777777751
5.69	0.0717777777775099
5.7	-0.03822222222249
5.71	-0.14822222222249
5.72	-0.258222222222489
5.73	-0.290244444444711
5.74	-0.208355555555823
5.75	-0.0983555555558235
5.76	0.0116444444441766
5.77	0.121644444444177
5.78	0.231644444444176
5.79	0.319644444444175
5.8	0.236533333333065
5.81	0.126533333333066
5.82	0.0165333333330655
5.83	-0.0934666666669345
5.84	-0.203466666666934
5.85	-0.313466666666933
5.86	-0.248444444444711
5.87	-0.152133333333601
5.88	-0.0421333333336011
5.89	0.0678666666663988
5.9	0.177866666666398
5.91	0.287866666666397
5.92	0.265866666666398
5.93	0.18177777777751
5.94	0.0717777777775099
5.95	-0.03822222222249
5.96	-0.14822222222249
5.97	-0.258222222222489
5.98	-0.290244444444711
5.99	-0.208355555555823
6	-0.0983555555558235
6.01	0.0116444444441766
6.02	0.121644444444177
6.03	0.231644444444176
6.04	0.319644444444175
6.05	0.236533333333065
6.06	0.126533333333066
6.07	0.0165333333330655
6.08	-0.0934666666669345
6.09	-0.203466666666934
6.1	-0.313466666666933
6.11	-0.248444444444711
6.12	-0.152133333333601
6.13	-0.0421333333336011
6.14	0.0678666666663988
6.15	0.177866666666398
6.16	0.287866666666397
6.17	0.265866666666398
6.18	0.18177777777751
6.19	0.0717777777775099
6.2	-0.03822222222249
6.21	-0.14822222222249
6.22	-0.258222222222489
6.23	-0.290244444444711
6.24	-0.208355555555823
6.25	-0.0983555555558235
6.26	0.0116444444441766
6.27	0.121644444444177
6.28	0.231644444444176
6.29	0.319644444444175
6.3	0.236533333333065
6.31	0.126533333333066
6.32	0.0165333333330655
6.33	-0.0934666666669345
6.34	-0.203466666666934
6.35	-0.313466666666933
6.36	-0.248444444444711
6.37	-0.152133333333601
6.38	-0.0421333333336011
6.39	0.0678666666663988
6.4	0.177866666666398
6.41	0.287866666666397
6.42	0.265866666666398
6.43	0.18177777777751
6.44	0.0717777777775099
6.45	-0.03822222222249
6.46	-0.14822222222249
6.47	-0.258222222222489
6.48	-0.290244444444711
6.49	-0.208355555555823
6.5	-0.0983555555558235
6.51	0.0116444444441766
6.52	0.121644444444177
6.53	0.231644444444176
6.54	0.319644444444175
6.55	0.236533333333065
6.56	0.126533333333066
6.57	0.0165333333330655
6.58	-0.0934666666669345
6.59	-0.203466666666934
6.6	-0.313466666666933
6.61	-0.248444444444711
6.62	-0.152133333333601
6.63	-0.0421333333336011
6.64	0.0678666666663988
6.65	0.177866666666398
6.66	0.287866666666397
6.67	0.265866666666398
6.68	0.18177777777751
6.69	0.0717777777775099
6.7	-0.03822222222249
6.71	-0.14822222222249
6.72	-0.258222222222489
6.73	-0.290244444444711
6.74	-0.208355555555823
6.75	-0.0983555555558235
6.76	0.0116444444441766
6.77	0.121644444444177
6.78	0.231644444444176
6.79	0.319644444444175
6.8	0.236533333333065
6.81	0.126533333333066
6.82	0.0165333333330655
6.83	-0.0934666666669345
6.84	-0.203466666666934
6.85	-0.313466666666933
6.86	-0.248444444444711
6.87	-0.152133333333601
6.88	-0.0421333333336011
6.89	0.0678666666663988
6.9	0.177866666666398
6.91	0.287866666666397
6.92	0.265866666666398
6.93	0.18177777777751
6.94	0.0717777777775099
6.95	-0.03822222222249
6.96	-0.14822222222249
6.97	-0.258222222222489
6.98	-0.290244444444711
6.99	-0.208355555555823
7	-0.0983555555558235
7.01	0.0116444444441766
7.02	0.121644444444177
7.03	0.231644444444176
7.04	0.319644444444175
7.05	0.236533333333065
7.06	0.126533333333066
7.07	0.0165333333330655
7.08	-0.0934666666669345
7.09	-0.203466666666934
7.1	-0.313466666666933
7.11	-0.248444444444711
7.12	-0.152133333333601
7.13	-0.0421333333336011
7.14	0.0678666666663988
7.15	0.177866666666398
7.16	0.287866666666397
7.17	0.265866666666398
7.18	0.18177777777751
7.19	0.0717777777775099
7.2	-0.03822222222249
7.21	-0.14822222222249
7.22	-0.258222222222489
7.23	-0.290244444444711
7.24	-0.208355555555823
7.25	-0.0983555555558235
7.26	0.0116444444441766
7.27	0.121644444444177
7.28	0.231644444444176
7.29	0.319644444444175
7.3	0.236533333333065
7.31	0.126533333333066
7.32	0.0165333333330655
7.33	-0.0934666666669345
7.34	-0.203466666666934
7.35	-0.313466666666933
7.36	-0.248444444444711
7.37	-0.152133333333601
7.38	-0.0421333333336011
7.39	0.0678666666663988
7.4	0.177866666666398
7.41	0.287866666666397
7.42	0.265866666666398
7.43	0.18177777777751
7.44	0.0717777777775099
7.45	-0.03822222222249
7.46	-0.14822222222249
7.47	-0.258222222222489
7.48	-0.290244444444711
7.49	-0.208355555555823
7.5	-0.0983555555558235
7.51	0.0116444444441766
7.52	0.121644444444177
7.53	0.231644444444176
7.54	0.319644444444175
7.55	0.236533333333065
7.56	0.126533333333066
7.57	0.0165333333330655
7.58	-0.0934666666669345
7.59	-0.203466666666934
7.6	-0.313466666666933
7.61	-0.248444444444711
7.62	-0.152133333333601
7.63	-0.0421333333336011
7.64	0.0678666666663988
7.65	0.177866666666398
7.66	0.287866666666397
7.67	0.265866666666398
7.68	0.18177777777751
7.69	0.0717777777775099
7.7	-0.03822222222249
7.71	-0.14822222222249
7.72	-0.258222222222489
7.73	-0.290244444444711
7.74	-0.208355555555823
7.75	-0.0983555555558235
7.76	0.0116444444441766
7.77	0.121644444444177
7.78	0.231644444444176
7.79	0.319644444444175
7.8	0.236533333333065
7.81	0.126533333333066
7.82	0.0165333333330655
7.83	-0.0934666666669345
7.84	-0.203466666666934
7.85	-0.313466666666933
7.86	-0.248444444444711
7.87	-0.152133333333601
7.88	-0.0421333333336011
7.89	0.0678666666663988
7.9	0.177866666666398
7.91	0.287866666666397
7.92	0.265866666666398
7.93	0.18177777777751
7.94	0.0717777777775099
7.95	-0.03822222222249
7.96	-0.14822222222249
7.97	-0.258222222222489
7.98	-0.290244444444711
7.99	-0.208355555555823
8	-0.0983555555558235
8.01	0.0116444444441766
8.02	0.121644444444177
8.03	0.231644444444176
8.04	0.319644444444175
8.05	0.236533333333065
8.06	0.126533333333066
8.07	0.0165333333330655
8.08	-0.0934666666669345
8.09	-0.203466666666934
8.1	-0.313466666666933
8.11	-0.248444444444711
8.12	-0.152133333333601
8.13	-0.0421333333336011
8.14	0.0678666666663988
8.15	0.177866666666398
8.16	0.287866666666397
8.17	0.265866666666398
8.18	0.18177777777751
8.19	0.0717777777775099
8.2	-0.03822222222249
8.21	-0.14822222222249
8.22	-0.258222222222489
8.23	-0.290244444444711
8.24	-0.208355555555823
8.25	-0.0983555555558235
8.26	0.0116444444441766
8.27	0.121644444444177
8.28	0.231644444444176
8.29	0.319644444444175
8.3	0.236533333333065
8.31	0.126533333333066
8.32	0.0165333333330655
8.33	-0.0934666666669345
8.34	-0.203466666666934
8.35	-0.313466666666933
8.36	-0.248444444444711
8.37	-0.152133333333601
8.38	-0.0421333333336011
8.39	0.0678666666663988
8.4	0.177866666666398
8.41	0.287866666666397
8.42	0.265866666666398
8.43	0.18177777777751
8.44	0.0717777777775099
8.45	-0.03822222222249
8.46	-0.14822222222249
8.47	-0.258222222222489
8.48	-0.290244444444711
8.49	-0.208355555555823
8.5	-0.0983555555558235
8.51	0.0116444444441766
8.52	0.121644444444177
8.53	0.231644444444176
8.54	0.319644444444175
8.55	0.236533333333065
8.56	0.126533333333066
8.57	0.0165333333330655
8.58	-0.0934666666669345
8.59	-0.203466666666934
8.6	-0.313466666666933
8.61	-0.248444444444711
8.62	-0.152133333333601
8.63	-0.0421333333336011
8.64	0.0678666666663988
8.65	0.177866666666398
8.66	0.287866666666397
8.67	0.265866666666398
8.68	0.18177777777751
8.69	0.0717777777775099
8.7	-0.03822222222249
8.71	-0.14822222222249
8.72	-0.258222222222489
8.73	-0.290244444444711
8.74	-0.208355555555823
8.75	-0.0983555555558235
8.76	0.0116444444441766
8.77	0.121644444444177
8.78	0.231644444444176
8.79	0.319644444444175
8.8	0.236533333333065
8.81	0.126533333333066
8.82	0.0165333333330655
8.83	-0.0934666666669345
8.84	-0.203466666666934
8.85	-0.313466666666933
8.86	-0.248444444444711
8.87	-0.152133333333601
8.88	-0.0421333333336011
8.89	0.0678666666663988
8.9	0.177866666666398
8.91	0.287866666666397
8.92	0.265866666666398
8.93	0.18177777777751
8.94	0.0717777777775099
8.95	-0.03822222222249
8.96	-0.14822222222249
8.97	-0.258222222222489
8.98	-0.290244444444711
8.99	-0.208355555555823
9	-0.0983555555558235
9.01	0.0116444444441766
9.02	0.121644444444177
9.03	0.231644444444176
9.04	0.319644444444175
9.05	0.236533333333065
9.06	0.126533333333066
9.07	0.0165333333330655
9.08	-0.0934666666669345
9.09	-0.203466666666934
9.1	-0.313466666666933
9.11	-0.248444444444711
9.12	-0.152133333333601
9.13	-0.0421333333336011
9.14	0.0678666666663988
9.15	0.177866666666398
9.16	0.287866666666397
9.17	0.265866666666398
9.18	0.18177777777751
9.19	0.0717777777775099
9.2	-0.03822222222249
9.21	-0.14822222222249
9.22	-0.258222222222489
9.23	-0.290244444444711
9.24	-0.208355555555823
9.25	-0.0983555555558235
9.26	0.0116444444441766
9.27	0.121644444444177
9.28	0.231644444444176
9.29	0.319644444444175
9.3	0.236533333333065
9.31	0.126533333333066
9.32	0.0165333333330655
9.33	-0.0934666666669345
9.34	-0.203466666666934
9.35	-0.313466666666933
9.36	-0.248444444444711
9.37	-0.152133333333601
9.38	-0.0421333333336011
9.39	0.0678666666663988
9.4	0.177866666666398
9.41	0.287866666666397
9.42	0.265866666666398
9.43	0.18177777777751
9.44	0.0717777777775099
9.45	-0.03822222222249
9.46	-0.14822222222249
9.47	-0.258222222222489
9.48	-0.290244444444711
9.49	-0.208355555555823
9.5	-0.0983555555558235
9.51	0.0116444444441766
9.52	0.121644444444177
9.53	0.231644444444176
9.54	0.319644444444175
9.55	0.236533333333065
9.56	0.126533333333066
9.57	0.0165333333330655
9.58	-0.0934666666669345
9.59	-0.203466666666934
9.6	-0.313466666666933
9.61	-0.248444444444711
9.62	-0.152133333333601
9.63	-0.0421333333336011
9.64	0.0678666666663988
9.65	0.177866666666398
9.66	0.287866666666397
9.67	0.265866666666398
9.68	0.18177777777751
9.69	0.0717777777775099
9.7	-0.03822222222249
9.71	-0.14822222222249
9.72	-0.258222222222489
9.73	-0.290244444444711
9.74	-0.208355555555823
9.75	-0.0983555555558235
9.76	0.0116444444441766
9.77	0.121644444444177
9.78	0.231644444444176
9.79	0.319644444444175
9.8	0.236533333333065
9.81	0.126533333333066
9.82	0.0165333333330655
9.83	-0.0934666666669345
9.84	-0.203466666666934
9.85	-0.313466666666933
9.86	-0.248444444444711
9.87	-0.152133333333601
9.88	-0.0421333333336011
9.89	0.0678666666663988
9.9	0.177866666666398
9.91	0.287866666666397
9.92	0.265866666666398
9.93	0.18177777777751
9.94	0.0717777777775099
9.95	-0.03822222222249
9.96	-0.14822222222249
9.97	-0.258222222222489
9.98	-0.290244444444711
9.99	-0.208355555555823
10	-0.0983555555558235
