0	2
0.01	1.99527007290064
0.02	1.98770071402608
0.03	2.01171435187845
0.04	1.98779490173756
0.05	2.00502630253717
0.06	2.02580949433844
0.07	2.00312296212458
0.08	2.02056784423776
0.09	2.04052607555925
0.1	2.0188937826433
0.11	2.03646858249399
0.12	2.0556663383479
0.13	2.03514077583992
0.14	2.05276720476745
0.15	2.07124635421055
0.16	2.0518805051711
0.17	2.06949352969894
0.18	2.08728979440064
0.19	2.06913174780511
0.2	2.08667825095408
0.21	2.10382313132262
0.22	2.08691619302078
0.23	2.10435351711892
0.24	2.12087579447737
0.25	2.10525858946231
0.26	2.12255334937156
0.27	2.13848045310421
0.28	2.12418696394217
0.29	2.1413141082407
0.3	2.15667331753862
0.31	2.14373294420348
0.32	2.16067501165278
0.33	2.17549448576259
0.34	2.16393219253963
0.35	2.18067871203707
0.36	2.19498836447191
0.37	2.18482495638785
0.38	2.20137194898643
0.39	2.21520419524468
0.4	2.20645674585285
0.41	2.22280630167719
0.42	2.23619671985885
0.43	2.22887915520166
0.44	2.24503907343917
0.45	2.25802702461932
0.46	2.25215085566584
0.47	2.2681343509623
0.48	2.28076361240621
0.49	2.27633880083949
0.5	2.29216429414138
0.51	2.30448376445809
0.52	2.30151970454703
0.53	2.31721073145442
0.54	2.32927527388203
0.55	2.32778187608309
0.56	2.34336716289482
0.57	2.35523866286085
0.58	2.35522753235574
0.59	2.3707413122385
0.6	2.38249004054636
0.61	2.38397575606703
0.62	2.39945842989385
0.63	2.41116482659797
0.64	2.41416634273437
0.65	2.42966563848495
0.66	2.44142266909334
0.67	2.44596489274303
0.68	2.46153775573785
0.69	2.47345404654901
0.7	2.47956968557101
0.71	2.49528525858438
0.72	2.50748929899839
0.73	2.51522117347832
0.74	2.53116543279268
0.75	2.5438112490721
0.76	2.55321545122906
0.77	2.56949840297284
0.78	2.58277327927566
0.79	2.59392399739173
0.8	2.61069088638106
0.81	2.62468751848852
0.82	2.63683150123801
0.83	2.65260643008632
0.84	2.6653543362021
0.85	2.67693449385787
0.86	2.69108138741621
0.87	2.70264975893478
0.88	2.71362156421697
0.89	2.72624869632641
0.9	2.73676865251729
0.91	2.74707882146488
0.92	2.75830216711042
0.93	2.7678906423031
0.94	2.77748142791825
0.95	2.787427794696
0.96	2.79617888794091
0.97	2.80499795669546
0.98	2.81380179043696
0.99	2.8217807937293
1	2.82979372619358
1.01	2.83758721510924
1.02	2.84483192783506
1.03	2.85203099015467
1.04	2.8589316173394
1.05	2.86546148607245
1.06	2.87186583625527
1.07	2.8779677345688
1.08	2.88379623971987
1.09	2.88944409106949
1.1	2.89481698050976
1.11	2.89996120269512
1.12	2.90489895701719
1.13	2.90959351492252
1.14	2.91407775401342
1.15	2.91835137997343
1.16	2.92240684264374
1.17	2.92626126565055
1.18	2.92991219820846
1.19	2.93336243596297
1.2	2.93661977406996
1.21	2.93968448509593
1.22	2.94256118164499
1.23	2.94525395424904
1.24	2.94776511387552
1.25	2.95009869667175
1.26	2.95225781379262
1.27	2.95424547773581
1.28	2.95606505165736
1.29	2.95771947033509
1.3	2.95921175816074
1.31	2.96054489633095
1.32	2.96172172653651
1.33	2.96274509628524
1.34	2.96361776992213
1.35	2.96434245280739
1.36	2.96492180737011
1.37	2.96535843190923
1.38	2.96565487576573
1.39	2.96581363619861
1.4	2.96583715789369
1.41	2.96572783678895
1.42	2.96548801911399
1.43	2.96512000305637
1.44	2.96462603974897
1.45	2.96400833391363
1.46	2.96326904498734
1.47	2.96241028790559
1.48	2.96143413398588
1.49	2.96034261179586
1.5	2.95913770796663
1.51	2.95782136802097
1.52	2.95639549717023
1.53	2.95486196109884
1.54	2.95322258673458
1.55	2.95147916300158
1.56	2.94963344155968
1.57	2.94768713752861
1.58	2.94564193019797
1.59	2.94349946372314
1.6	2.94126134780744
1.61	2.93892915837088
1.62	2.93650443820556
1.63	2.93398869761829
1.64	2.93138341506043
1.65	2.92869003774545
1.66	2.9259099822543
1.67	2.92304463512886
1.68	2.9200953534538
1.69	2.9170634654271
1.7	2.91395027091938
1.71	2.91075704202231
1.72	2.9074850235864
1.73	2.90413543374835
1.74	2.90070946444816
1.75	2.89720828193638
1.76	2.89363302727146
1.77	2.88998481680765
1.78	2.88626474267358
1.79	2.88247387324178
1.8	2.87861325358932
1.81	2.8746839059497
1.82	2.87068683015643
1.83	2.86662300407824
1.84	2.86249338404635
1.85	2.85829890527383
1.86	2.8540404822675
1.87	2.84971900923221
1.88	2.8453353604681
1.89	2.84089039076081
1.9	2.83638493576487
1.91	2.83181981238063
1.92	2.82719581912462
1.93	2.82251373649408
1.94	2.81777432732522
1.95	2.81297833714601
1.96	2.80812649452339
1.97	2.80321951140522
1.98	2.79825808345726
1.99	2.7932428903952
2	2.78817459631232
2.01	2.78305385000274
2.02	2.77788128528063
2.03	2.77265752129567
2.04	2.76738316284496
2.05	2.76205880068178
2.06	2.75668501182131
2.07	2.75126235984381
2.08	2.74579139519555
2.09	2.74027265548772
2.1	2.73470666579375
2.11	2.72909393894549
2.12	2.72343497582853
2.13	2.71773026567719
2.14	2.71198028636959
2.15	2.70618550472328
2.16	2.70034637679194
2.17	2.6944633481638
2.18	2.68853685426227
2.19	2.6825673206494
2.2	2.67655516333307
2.21	2.67050078907848
2.22	2.6644045957248
2.23	2.65826697250785
2.24	2.65208830038993
2.25	2.64586895239763
2.26	2.6396092939689
2.27	2.6333096833107
2.28	2.62697047176837
2.29	2.62059200420859
2.3	2.61417461941737
2.31	2.60771865051492
2.32	2.60122442538946
2.33	2.59469226715232
2.34	2.58812249461677
2.35	2.58151542280315
2.36	2.57487136347376
2.37	2.56819062570055
2.38	2.5614735164697
2.39	2.55472034132722
2.4	2.54793140507039
2.41	2.54110701249039
2.42	2.53424746917211
2.43	2.52735308235802
2.44	2.52042416188353
2.45	2.51346102119261
2.46	2.50646397844348
2.47	2.49943335771527
2.48	2.49236949032826
2.49	2.48527271629217
2.5	2.47814338589874
2.51	2.47098186147727
2.52	2.46378851933451
2.53	2.4565637519039
2.54	2.449307970132
2.55	2.44202160613537
2.56	2.43470511616563
2.57	2.42735898392682
2.58	2.41998372429656
2.59	2.41257988751087
2.6	2.40514806388299
2.61	2.39768888913874
2.62	2.39020305046575
2.63	2.38269129339211
2.64	2.37515442963087
2.65	2.36759334605366
2.66	2.36000901498857
2.67	2.3524025060766
2.68	2.34477499996963
2.69	2.33712780421253
2.7	2.32946237172674
2.71	2.32178032240609
2.72	2.31408346845264
2.73	2.30637384422938
2.74	2.29865374159532
2.75	2.29092575193196
2.76	2.28319281638253
2.77	2.27545828623377
2.78	2.26772599590417
2.79	2.26000035170894
2.8	2.25228644051473
2.81	2.24459016366598
2.82	2.23691840329096
2.83	2.22927923046964
2.84	2.22168216804698
2.85	2.21413852552742
2.86	2.20666183012749
2.87	2.19926838768622
2.88	2.19197802129711
2.89	2.18481505674101
2.9	2.17780965618026
2.91	2.17099965204298
2.92	2.16443311351177
2.93	2.15817200971078
2.94	2.15229755535718
2.95	2.14691820997615
2.96	2.14218199638691
2.97	2.13829610931397
2.98	2.13555935736527
2.99	2.13441834171851
3	2.13557019898403
3.01	2.14016340638078
3.02	2.15022378477976
3.03	2.16965530306675
3.04	2.20689677812741
3.05	2.28267857609842
3.06	2.44011932035325
3.07	2.56823961162855
3.08	2.55971030891283
3.09	2.53855219646975
3.1	2.51714654101773
3.11	2.4958969121045
3.12	2.47481294005025
3.13	2.4538900790066
3.14	2.43312326392193
3.15	2.41250746504216
3.16	2.39203771096869
3.17	2.37170908747963
3.18	2.35151673510997
3.19	2.3314558466506
3.2	2.31152166462791
3.21	2.29170947876452
3.22	2.27201462341807
3.23	2.25243247499371
3.24	2.23295844932681
3.25	2.21358799903106
3.26	2.19431661080756
3.27	2.17513980271018
3.28	2.15605312136144
3.29	2.13705213911375
3.3	2.11813245114985
3.31	2.09928967251583
3.32	2.08051943508008
3.33	2.06181738441058
3.34	2.04317917656223
3.35	2.02460047476604
3.36	2.00607694601034
3.37	1.98760425750398
3.38	1.96917807301054
3.39	1.95079404904142
3.4	1.93244783089484
3.41	1.91413504852632
3.42	1.89585131223554
3.43	1.87759220815192
3.44	1.85935329350086
3.45	1.84113009162991
3.46	1.82291808677247
3.47	1.80471271852444
3.48	1.78650937600634
3.49	1.76830339168094
3.5	1.75009003479318
3.51	1.73186450439525
3.52	1.71362192191594
3.53	1.69535732322874
3.54	1.67706565016765
3.55	1.65874174143416
3.56	1.64038032283144
3.57	1.62197599675483
3.58	1.60352323085819
3.59	1.58501634580587
3.6	1.56644950200838
3.61	1.54781668522616
3.62	1.52911169091055
3.63	1.51032810713267
3.64	1.49145929593055
3.65	1.47249837287955
3.66	1.45343818466314
3.67	1.43427128438725
3.68	1.41498990434174
3.69	1.39558592586565
3.7	1.37605084591769
3.71	1.35637573988669
3.72	1.33655122009799
3.73	1.31656738937626
3.74	1.29641378891051
3.75	1.27607933952762
3.76	1.25555227531125
3.77	1.23482006829454
3.78	1.21386934269924
3.79	1.19268577687624
3.8	1.17125399070671
3.81	1.14955741572663
3.82	1.12757816452315
3.83	1.10534820574747
3.84	1.08308785348584
3.85	1.06098576259936
3.86	1.03914937869546
3.87	1.01763850783344
3.88	0.996485289682765
3.89	0.975705714120587
3.9	0.955306281912728
3.91	0.935287882572021
3.92	0.915648071556061
3.93	0.896382420329942
3.94	0.877485324643868
3.95	0.858950493062895
3.96	0.840771244801646
3.97	0.822940692593374
3.98	0.805451855477519
3.99	0.78829772837811
4	0.771471324722915
4.01	0.754965702024176
4.02	0.738773976532097
4.03	0.722889330754248
4.04	0.707305016208849
4.05	0.692014352892204
4.06	0.677010726381665
4.07	0.662287583136628
4.08	0.647838424325228
4.09	0.633656798346153
4.1	0.61973629210267
4.11	0.606070521002483
4.12	0.592653117587515
4.13	0.57947771863653
4.14	0.566537950522038
4.15	0.553827412537169
4.16	0.541339657833547
4.17	0.529068171522494
4.18	0.51700634538386
4.19	0.505147448492312
4.2	0.493484592902206
4.21	0.482010693317262
4.22	0.470718419395789
4.23	0.459600138985471
4.24	0.448647850116831
4.25	0.43785309897209
4.26	0.427206880233986
4.27	0.416699515130153
4.28	0.406320501016449
4.29	0.396058324328602
4.3	0.38590022594793
4.31	0.375831904131229
4.32	0.365837134632683
4.33	0.355897279707274
4.34	0.345990646099089
4.35	0.336091634927721
4.36	0.326169600415539
4.37	0.316187294384912
4.38	0.3060987104467
4.39	0.295846040174771
4.4	0.285355285204529
4.41	0.274529781821805
4.42	0.263240387281096
4.43	0.251310146556569
4.44	0.238489475176954
4.45	0.224414300433779
4.46	0.208531923630255
4.47	0.189961782213054
4.48	0.167214622786205
4.49	0.137574398254696
4.5	0.0955871336342978
4.51	0.028954294680752
4.52	-0.0916213424527459
4.53	-0.276663549033858
4.54	-0.335390814266284
4.55	-0.332091251651987
4.56	-0.325726508357623
4.57	-0.319365139595553
4.58	-0.31312444234677
4.59	-0.307007143226631
4.6	-0.301011050599087
4.61	-0.295133780107834
4.62	-0.289372981895121
4.63	-0.283726351913813
4.64	-0.278191631733126
4.65	-0.272766607683087
4.66	-0.267449109972845
4.67	-0.262237011823407
4.68	-0.257128228617331
4.69	-0.252120717065308
4.7	-0.247212474389328
4.71	-0.242401537521864
4.72	-0.237685982321263
4.73	-0.233063922802378
4.74	-0.228533510382652
4.75	-0.224092933143159
4.76	-0.219740415104253
4.77	-0.215474215515586
4.78	-0.211292628160309
4.79	-0.207193980673241
4.8	-0.203176633872224
4.81	-0.199238981103025
4.82	-0.195379447597142
4.83	-0.191596489842419
4.84	-0.187888594966322
4.85	-0.184254280131181
4.86	-0.18069209194179
4.87	-0.1772006058645
4.88	-0.173778425657996
4.89	-0.170424182815613
4.9	-0.16713653601845
4.91	-0.163914170599499
4.92	-0.160755798018547
4.93	-0.157660155347434
4.94	-0.154626004765626
4.95	-0.151652133065868
4.96	-0.148737351169624
4.97	-0.145880493652354
4.98	-0.143080418278201
4.99	-0.140336005543947
5	-0.137646158232125
5.01	-0.135009800973062
5.02	-0.13242587981582
5.03	-0.129893361807528
5.04	-0.127411234581334
5.05	-0.124978505952585
5.06	-0.122594203523029
5.07	-0.120257374293054
5.08	-0.117967084281862
5.09	-0.115722418155172
5.1	-0.113522478860363
5.11	-0.111366387269026
5.12	-0.109253281826877
5.13	-0.107182318210606
5.14	-0.105152668991723
5.15	-0.103163523307311
5.16	-0.101214086537362
5.17	-0.0993035799887499
5.18	-0.0974312405856516
5.19	-0.0955963205662576
5.2	-0.0937980871857157
5.21	-0.0920358224251822
5.22	-0.0903088227068275
5.23	-0.0886163986147585
5.24	-0.0869578746216159
5.25	-0.0853325888209164
5.26	-0.0837398926649355
5.27	-0.0821791507080035
5.28	-0.0806497403552362
5.29	-0.0791510516165556
5.3	-0.0776824868657334
5.31	-0.0762434606046485
5.32	-0.074833399232533
5.33	-0.0734517408201363
5.34	-0.0720979348886056
5.35	-0.0707714421931627
5.36	-0.0694717345116204
5.37	-0.0681982944372886
5.38	-0.0669506151764582
5.39	-0.0657282003503514
5.4	-0.0645305638014268
5.41	-0.0633572294040442
5.42	-0.0622077308793354
5.43	-0.0610816116142434
5.44	-0.0599784244847318
5.45	-0.0588977316829971
5.46	-0.0578391045488171
5.47	-0.0568021234046895
5.48	-0.0557863773950114
5.49	-0.0547914643290171
5.5	-0.0538169905276158
5.51	-0.0528625706739349
5.52	-0.0519278276675732
5.53	-0.0510123924826735
5.54	-0.0501159040294417
5.55	-0.0492380090194468
5.56	-0.0483783618344644
5.57	-0.0475366243988432
5.58	-0.0467124660554931
5.59	-0.0459055634452809
5.6	-0.0451156003899262
5.61	-0.0443422677783714
5.62	-0.0435852634567652
5.63	-0.0428442921216971
5.64	-0.0421190652169427
5.65	-0.0414093008337347
5.66	-0.0407147236143298
5.67	-0.0400350646591337
5.68	-0.0393700614372526
5.69	-0.0387194577004348
5.7	-0.0380830034006153
5.71	-0.0374604546108667
5.72	-0.0368515734499244
5.73	-0.0362561280102323
5.74	-0.0356738922896181
5.75	-0.0351046461265531
5.76	-0.034548175139104
5.77	-0.034004270667608
5.78	-0.0334727297211467
5.79	-0.0329533549278431
5.8	-0.0324459544890469
5.81	-0.0319503421375847
5.82	-0.0314663370999877
5.83	-0.0309937640629537
5.84	-0.0305324531439892
5.85	-0.0300822398664901
5.86	-0.0296429651392339
5.87	-0.0292144752404821
5.88	-0.0287966218068028
5.89	-0.028389261826739
5.9	-0.027992257639499
5.91	-0.0276054769387701
5.92	-0.027228792781903
5.93	-0.0268620836045296
5.94	-0.0265052332408102
5.95	-0.0261581309496249
5.96	-0.0258206714466967
5.97	-0.0254927549430453
5.98	-0.0251742871897146
5.99	-0.0248651795292218
6	-0.0245653489538211
6.01	-0.0242747181707366
6.02	-0.0239932156745162
6.03	-0.0237207758267809
6.04	-0.0234573389433656
6.05	-0.0232028513890843
6.06	-0.0229572656801009
6.07	-0.0227205405937726
6.08	-0.0224926412861607
6.09	-0.0222735394167467
6.1	-0.0220632132801773
6.11	-0.0218616479445199
6.12	-0.0216688353953012
6.13	-0.021484774684385
6.14	-0.0213094720824428
6.15	-0.0211429412332538
6.16	-0.0209852033076705
6.17	-0.0208362871543125
6.18	-0.0206962294434315
6.19	-0.0205650747992148
6.2	-0.0204428759145643
6.21	-0.0203296936409847
6.22	-0.0202255970439582
6.23	-0.020130663411957
6.24	-0.0200449782040039
6.25	-0.0199686349168144
6.26	-0.0199017348476488
6.27	-0.0198443867227138
6.28	-0.0197967061529076
6.29	-0.0197588148686533
6.3	-0.0197308396726917
6.31	-0.019712911032985
6.32	-0.0197051612165342
6.33	-0.0197077218371299
6.34	-0.019720720654135
6.35	-0.0197442774125661
6.36	-0.0197784984525869
6.37	-0.019823469735573
6.38	-0.0198792478251886
6.39	-0.0199458482175394
6.4	-0.0200232302195309
6.41	-0.020111277310492
6.42	-0.0202097715611567
6.43	-0.0203183601871103
6.44	-0.0204365116218306
6.45	-0.0205634575242765
6.46	-0.0206981157591135
6.47	-0.0208389874129706
6.48	-0.0209840180438984
6.49	-0.0211304091462732
6.5	-0.0212743595268145
6.51	-0.0214107067665686
6.52	-0.0215324242815874
6.53	-0.0216299064959351
6.54	-0.0216899378310913
6.55	-0.021694180972524
6.56	-0.0216169188075451
6.57	-0.0214216101163383
6.58	-0.0210555089517319
6.59	-0.0204410260008185
6.6	-0.0194614132608058
6.61	-0.0179361480758592
6.62	-0.0155767117600649
6.63	-0.0119028642562417
6.64	-0.00607362439365889
6.65	0.00348229618487681
6.66	0.0199605039168151
6.67	0.0506363963785367
6.68	0.114539697704712
6.69	0.259010908502702
6.7	0.38387891770408
6.71	0.327841105798745
6.72	0.226102188111525
6.73	0.11694997929444
6.74	0.0634451424188151
6.75	0.0492347102506081
6.76	0.0455882495569127
6.77	0.0442322856253273
6.78	0.0433673182925396
6.79	0.0426180245563262
6.8	0.0419051518079767
6.81	0.0412113116459732
6.82	0.0405323913081598
6.83	0.0398672280807972
6.84	0.0392153418088027
6.85	0.0385764190038399
6.86	0.0379501911697303
6.87	0.0373364050304005
6.88	0.0367348149395329
6.89	0.0361451808288469
6.9	0.0355672675869132
6.91	0.0350008448199432
6.92	0.0344456867192355
6.93	0.0339015719595918
6.94	0.0333682836082552
6.95	0.0328456090382081
6.96	0.0323333398439595
6.97	0.0318312717590331
6.98	0.0313392045752533
6.99	0.0308569420637807
7	0.0303842918975101
7.01	0.0299210655751721
7.02	0.0294670783466422
7.03	0.0290221491400914
7.04	0.0285861004903686
7.05	0.0281587584687842
7.06	0.0277399526143757
7.07	0.0273295158664676
7.08	0.0269272844986062
7.09	0.026533098053773
7.1	0.0261467992809049
7.11	0.0257682340725755
7.12	0.0253972514041222
7.13	0.0250337032738482
7.14	0.0246774446444359
7.15	0.0243283333855572
7.16	0.023986230217561
7.17	0.0236509986563777
7.18	0.0233225049594652
7.19	0.0230006180729027
7.2	0.0226852095794036
7.21	0.0223761536476194
7.22	0.0220733269822355
7.23	0.0217766087751535
7.24	0.0214858806577586
7.25	0.0212010266539982
7.26	0.0209219331344721
7.27	0.0206484887714969
7.28	0.0203805844950835
7.29	0.020118113449783
7.3	0.0198609709523939
7.31	0.0196090544505396
7.32	0.0193622634821501
7.33	0.0191204996357546
7.34	0.0188836665115644
7.35	0.0186516696834317
7.36	0.0184244166615488
7.37	0.0182018168559082
7.38	0.0179837815405473
7.39	0.0177702238185528
7.4	0.0175610585878436
7.41	0.0173562025075537
7.42	0.017155573965224
7.43	0.0169590930446412
7.44	0.0167666814944814
7.45	0.0165782626974911
7.46	0.0163937616403651
7.47	0.0162131048842976
7.48	0.0160362205361656
7.49	0.0158630382203335
7.5	0.0156934890511315
7.51	0.0155275056059077
7.52	0.0153650218986665
7.53	0.0152059733542926
7.54	0.0150502967833545
7.55	0.0148979303575709
7.56	0.0147488135856915
7.57	0.0146028872901044
7.58	0.0144600935838156
7.59	0.0143203758481224
7.6	0.0141836787107291
7.61	0.0140499480244111
7.62	0.0139191308461753
7.63	0.0137911754169528
7.64	0.0136660311417791
7.65	0.0135436485705146
7.66	0.0134239793790221
7.67	0.013306976350782
7.68	0.0131925933591259
7.69	0.0130807853498089
7.7	0.0129715083240424
7.71	0.0128647193221754
7.72	0.0127603764076089
7.73	0.0126584386512921
7.74	0.0125588661166469
7.75	0.0124616198449546
7.76	0.0123666618411511
7.77	0.0122739550600584
7.78	0.0121834633930985
7.79	0.0120951516554239
7.8	0.0120089855734767
7.81	0.0119249317729718
7.82	0.0118429577673133
7.83	0.0117630319464984
7.84	0.0116851235663111
7.85	0.011609202738044
7.86	0.0115352404186764
7.87	0.0114632084013371
7.88	0.0113930793063572
7.89	0.011324826572634
7.9	0.0112584244494619
7.91	0.0111938479888413
7.92	0.0111310730381598
7.93	0.0110700762332697
7.94	0.0110108349920566
7.95	0.0109533275084607
7.96	0.0108975327469038
7.97	0.0108434304371862
7.98	0.010791001069832
7.99	0.010740225891861
8	0.0106910869030245
8.01	0.0106435668525383
8.02	0.0105976492362899
8.03	0.0105533182945188
8.04	0.0105105590099222
8.05	0.0104693571063609
8.06	0.0104296990480254
8.07	0.0103915720390768
8.08	0.0103549640238816
8.09	0.0103198636877313
8.1	0.0102862604581278
8.11	0.0102541445066706
8.12	0.0102235067514288
8.13	0.0101943388599655
8.14	0.0101666332529322
8.15	0.0101403831083565
8.16	0.0101155823664565
8.17	0.0100922257351835
8.18	0.0100703086964451
8.19	0.0100498275129144
8.2	0.0100307792357
8.21	0.0100131617126214
8.22	0.00999697359737065
8.23	0.00998221435935964
8.24	0.00996888429436003
8.25	0.00995698453606285
8.26	0.00994651706843785
8.27	0.0099374847389912
8.28	0.00992989127289948
8.29	0.00992374128815944
8.3	0.0099190403117381
8.31	0.00991579479665144
8.32	0.00991401214011654
8.33	0.0099137007027819
8.34	0.00991486982903633
8.35	0.00991752986849418
8.36	0.00992169219869597
8.37	0.00992736924897211
8.38	0.00993457452552229
8.39	0.00994332263781241
8.4	0.00995362932624235
8.41	0.00996551149118046
8.42	0.00997898722331312
8.43	0.00999407583537163
8.44	0.0100107978952475
8.45	0.0100291752604934
8.46	0.010049231114191
8.47	0.0100709900022184
8.48	0.010094477871825
8.49	0.0101197221115118
8.5	0.0101467515921595
8.51	0.0101755967093088
8.52	0.010206289426345
8.53	0.0102388633186666
8.54	0.0102733536185742
8.55	0.0103097972604237
8.56	0.0103482329260251
8.57	0.0103887010897313
8.58	0.0104312440628611
8.59	0.0104759060367183
8.6	0.0105227331237671
8.61	0.0105717733959506
8.62	0.0106230769191455
8.63	0.0106766957825369
8.64	0.0107326841215439
8.65	0.0107910981324004
8.66	0.010851996076245
8.67	0.0109154382701931
8.68	0.0109814870622542
8.69	0.0110502067863245
8.7	0.0111216636928101
8.71	0.0111959258492719
8.72	0.0112730630048505
8.73	0.0113531464100892
8.74	0.01143624858294
8.75	0.0115224430091633
8.76	0.0116118037629399
8.77	0.0117044050307058
8.78	0.0118003205170626
8.79	0.0118996227075205
8.8	0.0120023819566366
8.81	0.0121086653631792
8.82	0.0122185353852143
8.83	0.0123320481368878
8.84	0.012449251294776
8.85	0.0125701815240396
8.86	0.0126948613129225
8.87	0.0128232950755338
8.88	0.012955464347248
8.89	0.0130913218507158
8.9	0.0132307841511548
8.91	0.0133737225422088
8.92	0.0135199517029456
8.93	0.0136692155339705
8.94	0.0138211694056113
8.95	0.0139753578177523
8.96	0.0141311861580647
8.97	0.0142878848220778
8.98	0.0144444633812251
8.99	0.0145996516903976
9	0.0147518237227192
9.01	0.0148988983686916
9.02	0.0150382092354456
9.03	0.0151663323187888
9.04	0.0152788558159022
9.05	0.0153700695487671
9.06	0.0154325412799042
9.07	0.0154565316754129
9.08	0.0154291755772204
9.09	0.0153333191065283
9.1	0.0151458404050369
9.11	0.0148351794868989
9.12	0.0143576283112554
9.13	0.0136516258616011
9.14	0.0126287459121154
9.15	0.0111590111240794
9.16	0.00904607999829804
9.17	0.00598349540602791
9.18	0.00147349771307139
9.19	-0.00533328887307045
9.2	-0.0159797568668118
9.21	-0.0335056742807238
9.22	-0.064577932084758
9.23	-0.125896466592859
9.24	-0.259636859183358
9.25	-0.413594056008134
9.26	-0.388800966662967
9.27	-0.319026432703079
9.28	-0.217573773554856
9.29	-0.108261706179968
9.3	-0.0537575671765834
9.31	-0.039191288187285
9.32	-0.0355941392991369
9.33	-0.0344022999856123
9.34	-0.0337259728141446
9.35	-0.0331678522078634
9.36	-0.0326437736795869
9.37	-0.0321353108075774
9.38	-0.0316381726489855
9.39	-0.0311512104564192
9.4	-0.0306740012371229
9.41	-0.0302062978672865
9.42	-0.0297478994396881
9.43	-0.0292986195735501
9.44	-0.0288582783623038
9.45	-0.0284267002214931
9.46	-0.0280037132594474
9.47	-0.0275891490539732
9.48	-0.0271828425418566
9.49	-0.0267846319408487
9.5	-0.0263943586822685
9.51	-0.0260118673475
9.52	-0.025637005606539
9.53	-0.0252696241580558
9.54	-0.0249095766706663
9.55	-0.0245567197253786
9.56	-0.0242109127592535
9.57	-0.0238720180100682
9.58	-0.0235399004621598
9.59	-0.0232144277932635
9.6	-0.0228954703224405
9.61	-0.0225829009590178
9.62	-0.022276595152541
9.63	-0.0219764308437432
9.64	-0.0216822884164355
9.65	-0.0213940506504065
9.66	-0.0211116026751831
9.67	-0.0208348319247661
9.68	-0.0205636280933018
9.69	-0.0202978830915827
9.7	-0.0200374910043869
9.71	-0.0197823480487611
9.72	-0.0195323525330869
9.73	-0.0192874048169443
9.74	-0.0190474072718684
9.75	-0.0188122642428626
9.76	-0.018581882010621
9.77	-0.0183561687545396
9.78	-0.0181350345165614
9.79	-0.0179183911657541
9.8	-0.0177061523634807
9.81	-0.0174982335293565
9.82	-0.0172945518079399
9.83	-0.0170950260360675
9.84	-0.0168995767108838
9.85	-0.0167081259585277
9.86	-0.016520597503404
9.87	-0.0163369166381717
9.88	-0.0161570101943545
9.89	-0.0159808065135001
9.9	-0.0158082354190014
9.91	-0.0156392281885454
9.92	-0.0154737175270577
9.93	-0.0153116375402721
9.94	-0.015152923708831
9.95	-0.0149975128629722
9.96	-0.0148453431577926
9.97	-0.014696354048931
9.98	-0.0145504862689551
9.99	-0.0144076818040523
10	-0.0142678838713577
