8	-60.6832426327051
8.001	-60.9616468362452
8.002	-61.2220956872014
8.003	-61.4657471949799
8.004	-61.6936846845284
8.005	-61.9069216130225
8.006	-62.1064060759061
8.007	-62.2930250223193
8.008	-62.4676081986576
8.009	-62.630931837796
8.01	-62.7837221103806
8.011	-62.9266583535334
8.012	-63.0603760913252
8.013	-63.1854698604477
8.014	-63.3024958536455
8.015	-63.4119743926647
8.016	-63.5143922417106
8.017	-63.610204771702
8.018	-63.6998379849443
8.019	-63.783690409224
8.02	-63.8621348697451
8.021	-63.9355201467877
8.022	-64.0041725264566
8.023	-64.068397251417
8.024	-64.1284798780664
8.025	-64.1846875461773
8.026	-64.2372701666559
8.027	-64.2864615326977
8.028	-64.3324803592803
8.029	-64.3755312556151
8.03	-64.4158056348826
8.031	-64.4534825652946
8.032	-64.4887295662687
8.033	-64.521703353254
8.034	-64.5525505345207
8.035	-64.5814082630104
8.036	-64.6084048461466
8.037	-64.6336603163161
8.038	-64.6572869645577
8.039	-64.6793898398311
8.04	-64.700067216087
8.041	-56.3352134983482
8.042	-48.5098412105041
8.043	-41.1891571304588
8.044	-34.3406119841684
8.045	-27.9337557248438
8.046	-21.9401021457502
8.047	-16.3330022246465
8.048	-11.0875256367261
8.049	-6.18034990924142
8.05	-1.58965672497133
8.051	2.70496508652558
8.052	6.72261030119213
8.053	10.4811421997918
8.054	13.997271991746
8.055	17.286633116624
8.056	20.3638507536457
8.057	23.24260684825
8.058	25.9357009448518
8.059	28.4551070962604
8.06	30.8120271027929
8.061	33.016940317793
8.062	35.079650241001
8.063	37.0093281069394
8.064	38.8145536621166
8.065	40.5033533123524
8.066	42.0832358098372
8.067	43.5612256385954
8.068	44.9438942467926
8.069	46.2373892647526
8.07	47.4474618385913
8.071	48.5794922010011
8.072	49.6385135928773
8.073	50.6292346421465
8.074	51.5560602993
8.075	52.423111422713
8.076	53.2342431008334
8.077	53.9930617927006
8.078	54.7029413630084
8.079	55.367038083004
8.08	55.9883046639224
8.081	56.5695033853504
8.082	57.1132183768927
8.083	57.621867107746
8.084	58.0977111352662
8.085	58.5428661603201
8.086	58.9593114341286
8.087	59.3488985584263
8.088	59.7133597180655
8.089	60.0543153826683
8.09	60.3732815115688
8.091	60.671676294082
8.092	60.9508264550661
8.093	61.2119731538159
8.094	61.456277502513
8.095	61.6848257287707
8.096	61.8986340052263
8.097	62.0986529676547
8.098	62.2857719416913
8.099	62.4608228969581
8.1	62.6245841461715
8.101	62.7777838056826
8.102	62.9211030328322
8.103	63.0551790545172
8.104	63.1806080004333
8.105	63.2979475535905
8.106	63.4077194298873
8.107	63.5104116977672
8.108	63.6064809482717
8.109	63.6963543251387
8.11	63.7804314239717
8.111	63.8590860689245
8.112	63.9326679748003
8.113	64.0015043019564
8.114	64.0659011109265
8.115	64.1261447232292
8.116	64.1825029944125
8.117	64.2352265049951
8.118	64.2845496745989
8.119	64.3306918042272
8.12	64.3738580513225
8.121	64.4142403419384
8.122	64.452018224083
8.123	64.4873596660261
8.124	64.520421803121
8.125	64.5513516364604
8.126	64.5802866864744
8.127	64.6073556043739
8.128	64.6326787441609
8.129	64.6563686977474
8.13	64.6785307955618
8.131	64.6992635748702
8.132	64.7186592178934
8.133	64.7368039616678
8.134	64.7537784814733
8.135	64.7696582495324
8.136	64.7845138705749
8.137	64.7984113957615
8.138	64.8114126163608
8.139	64.8235753384859
8.14	64.8349536401124
8.141	56.4614005806563
8.142	48.6278900049359
8.143	41.299592506346
8.144	34.4439249600108
8.145	28.0304056514787
8.146	22.0305187487216
8.147	16.4175875148535
8.148	11.1666556978461
8.149	6.25437656987639
8.15	1.65890912295004
8.151	-2.64017904073256
8.152	-6.6620025554389
8.153	-10.4244432795178
8.154	-13.9442298018363
8.155	-17.2370118205425
8.156	-20.3174297248572
8.157	-23.1991796892688
8.158	-25.895074569556
8.159	-28.4171008713911
8.16	-30.7764720448213
8.161	-32.983678341585
8.162	-35.0485334569375
8.163	-36.9802181633691
8.164	-38.7873211302156
8.165	-40.477877110657
8.166	-42.0594026658906
8.167	-43.5389295853152
8.168	-44.923036151319
8.169	-46.2178763876834
8.17	-47.4292074216431
8.171	-48.5624150812646
8.172	-49.6225378419494
8.173	-50.6142892285378
8.174	-51.5420787726133
8.175	-52.4100316181919
8.176	-53.2220068629644
8.177	-53.9816147166418
8.178	-54.6922325526944
8.179	-55.3570199248515
8.18	-55.9789326151302
8.181	-56.5607357758532
8.182	-57.1050162240871
8.183	-57.6141939431657
8.184	-58.0905328424361
8.185	-58.5361508230671
8.186	-58.9530291946757
8.187	-59.3430214846389
8.188	-59.7078616792592
8.189	-60.0491719334265
8.19	-60.3684697830534
8.191	-60.6671748923538
8.192	-60.9466153659629
8.193	-61.2080336539655
8.194	-61.4525920760851
8.195	-61.6813779895978
8.196	-61.8954086239477
8.197	-62.0956356035588
8.198	-62.282949178954
8.199	-62.4581821849928
8.2	-62.6221137438273
8.201	-54.391275198176
8.202	-46.6912749310739
8.203	-39.487877150334
8.204	-32.7490540610335
8.205	-26.4448434633194
8.206	-20.5472155342777
8.207	-15.0299482015485
8.208	-9.86851055457453
8.209	-13.4241513059684
8.21	-16.750475177297
8.211	-11.4780741609242
8.212	-6.54571046442213
8.213	-1.93145377965496
8.214	2.38521183201069
8.215	6.42347915780793
8.216	10.2013031686673
8.217	13.7354808507276
8.218	17.0417258882066
8.219	20.1347385296882
8.22	23.0282709484648
8.221	25.7351883875416
8.222	28.2675263611649
8.223	30.6365441672053
8.224	32.8527749483228
8.225	34.9260725244952
8.226	36.8656552051376
8.227	38.6801467756112
8.228	40.3776148403545
8.229	41.9656066931198
8.23	43.4511828738006
8.231	44.8409485610508
8.232	46.1410829402739
8.233	47.3573666775579
8.234	48.4952076217115
8.235	49.5596648486766
8.236	50.5554711552262
8.237	51.4870541019558
8.238	52.3585556991334
8.239	53.1738508229325
8.24	53.9365644439325
8.241	54.6500877444868
8.242	55.3175931966201
8.243	55.9420486674949
8.244	56.5262306151616
8.245	57.0727364332653
8.246	57.5839959995939
8.247	58.0622824798177
8.248	58.5097224344526
8.249	58.9283052739887
8.25	59.3198921042193
8.251	51.3020264702386
8.252	43.8012636766518
8.253	36.7842537822465
8.254	30.2197977111545
8.255	24.0787085353141
8.256	18.3336817033575
8.257	12.9591736389336
8.258	7.93128816868928
8.259	3.22767027494567
8.26	-1.17259329932984
8.261	-5.28906703518541
8.262	-9.14005362540999
8.263	-12.7426753520873
8.264	-16.1129502157996
8.265	-19.2658631549682
8.266	-22.2154326719861
8.267	-24.9747731623755
8.268	-27.5561532241008
8.269	-29.9710502062897
8.27	-32.2302012398989
8.271	-34.343650977217
8.272	-36.3207962524641
8.273	-38.1704278620583
8.274	-39.9007696503127
8.275	-41.5195150743469
8.276	-43.0338614107865
8.277	-44.4505417563427
8.278	-45.7758549645509
8.279	-38.6314961209112
8.28	-31.9479043217058
8.281	-34.0795604676738
8.282	-36.0737379505982
8.283	-37.9393032956114
8.284	-39.6845511917068
8.285	-41.3172413716392
8.286	-42.8446331133004
8.287	-44.2735175159685
8.288	-45.6102476949387
8.289	-46.8607670287861
8.29	-48.0306355848555
8.291	-49.1250548404692
8.292	-50.1488908097703
8.293	-51.1066956790266
8.294	-52.0027280465916
8.295	-52.8409718575127
8.296	-53.6251541169738
8.297	-54.358761461331
8.298	-55.0450556604175
8.299	-55.6870881200469
8.3	-56.2877134491935
8.301	-56.8496021521739
8.302	-57.3752525022608
8.303	-57.8670016495224
8.304	-58.3270360122742
8.305	-58.7574009983468
8.306	-59.1600100993917
8.307	-59.5366533986606
8.308	-59.8890055300852
8.309	-60.2186331240461
8.31	-60.5270017729348
8.311	-60.8154825474804
8.312	-61.0853580928132
8.313	-61.3378283313706
8.314	-61.5740157979992
8.315	-61.7949706309776
8.316	-62.0016752411477
8.317	-62.1950486799161
8.318	-62.3759507255472
8.319	-62.5451857059144
8.32	-62.7035060747083
8.321	-62.8516157570011
8.322	-62.9901732790434
8.323	-63.1197946962074
8.324	-63.2410563320964
8.325	-63.3544973409992
8.326	-63.460622105081
8.327	-63.5599024769705
8.328	-63.6527798777151
8.329	-63.7396672594288
8.33	-63.8209509413639
8.331	-63.8969923275654
8.332	-63.9681295137481
8.333	-64.0346787905404
8.334	-64.0969360497777
8.335	-64.1551781000982
8.336	-64.2096638976918
8.337	-64.2606356976728
8.338	-64.3083201311957
8.339	-64.3529292131048
8.34	-64.3946612845954
8.341	-56.0495043642161
8.342	-48.2425585518869
8.343	-40.9391125534294
8.344	-34.1066937388724
8.345	-27.7149237624296
8.346	-21.7353834940971
8.347	-16.1414866623296
8.348	-10.9083616459838
8.349	-6.0127408899515
8.35	-1.43285745280203
8.351	2.85165177353671
8.352	6.85983660236441
8.353	10.6095182516144
8.354	14.1173685806708
8.355	17.3989842169001
8.356	20.4689559014793
8.357	23.3409333628456
8.358	26.0276860062097
8.359	28.5411596889697
8.36	30.8925298344614
8.361	33.0922511201993
8.362	35.1501039615336
8.363	37.0752379973972
8.364	38.876212771491
8.365	40.561035789784
8.366	42.1371981235391
8.367	43.6117077161642
8.368	44.991120541976
8.369	46.281569755417
8.37	47.4887929603269
8.371	48.6181577205152
8.372	49.6746854250588
8.373	50.6630736144352
8.374	51.5877168667585
8.375	52.4527263369814
8.376	53.2619480359396
8.377	54.0189799305106
8.378	54.7271879409181
8.379	55.3897209063088
8.38	56.0095245851414
8.381	56.589354752638
8.382	57.1317894535296
8.383	57.639240464576
8.384	58.1139640178236
8.385	58.558070832279
8.386	58.9735354986022
8.387	59.3622052585442
8.388	59.725808218166
8.389	60.0659610313549
8.39	60.3841760878018
8.391	60.6818682373984
8.392	60.9603610809519
8.393	61.2208928551878
8.394	61.4646219382063
8.395	61.6926319998706
8.396	61.9059368200271
8.397	62.1054847959799
8.398	62.2921631592614
8.399	62.4668019204468
8.4	62.6301775595528
8.401	62.7830164784281
8.402	62.925998230486
8.403	63.0597585421396
8.404	63.1848921393725
8.405	63.3019553920134
8.406	63.4114687874717
8.407	63.5139192449316
8.408	63.6097622802955
8.409	63.6994240315021
8.41	63.7833031532235
8.411	63.8617725893662
8.412	63.935181231257
8.413	64.0038554688855
8.414	64.0681006421021
8.415	64.1282023982214
8.416	64.1844279620694
8.417	64.2370273241206
8.418	64.286234352007
8.419	64.3322678303417
8.42	64.3753324334812
8.421	64.415619635549
8.422	64.4533085617699
8.423	64.4885667848972
8.424	64.5215510702762
8.425	64.5524080728549
8.426	64.5812749892427
8.427	64.6082801677142
8.428	64.633543678873
8.429	64.6571778495096
8.43	64.6792877620301
8.431	64.699971721674
8.432	64.7193216935996
8.433	64.7374237117803
8.434	64.7543582615292
8.435	64.7702006373536
8.436	64.7850212777297
8.437	64.798886078287
8.438	64.8118566847935
8.439	64.8239907672458
8.44	64.8353422762817
8.441	56.4617641521916
8.442	48.6282301283515
8.443	41.2999106939008
8.444	34.4442226264324
8.445	28.0306841202536
8.446	22.0307792579795
8.447	16.4178312228723
8.448	11.1668836882021
8.449	6.25458985626176
8.45	1.65910865368013
8.451	-2.63999237850289
8.452	-6.6618279317708
8.453	-10.4242799179983
8.454	-13.9440769761264
8.455	-17.2368688511476
8.456	-20.3172959761057
8.457	-23.1990545664862
8.458	-25.8949575164205
8.459	-28.4169913674603
8.46	-30.7763696032181
8.461	-32.9835825068328
8.462	-35.0484438029353
8.463	-36.9801342914966
8.464	-38.7872426675611
8.465	-40.4778037083594
8.466	-42.0593339975882
8.467	-43.5388653456943
8.468	-44.9229760547572
8.469	-46.2178201669788
8.47	-47.429154826827
8.471	-48.5623658784894
8.472	-49.6224918124495
8.473	-50.6142461676565
8.474	-51.5420384888931
8.475	-52.409993932523
8.476	-53.2219716077884
8.477	-53.9815817352071
8.478	-54.6922016983587
8.479	-55.35699106043
8.48	-55.9789056122857
8.481	-56.5607105145254
8.482	-57.104992591959
8.483	-57.614171835164
8.484	-58.0905121602641
8.485	-58.5361314747675
8.486	-58.953011094222
8.487	-59.3430045515527
8.488	-59.7078458382526
8.489	-60.049157114067
8.49	-60.3684559194511
8.491	-60.6671619228682
8.492	-60.9466032329292
8.493	-61.2080223034376
8.494	-61.4525814575961
8.495	-61.6813680559358
8.496	-61.8953993309456
8.497	-62.0956269098979
8.498	-62.2829410459806
8.499	-62.458174576546
8.5	-62.6221066260784
8.501	-54.391268539478
8.502	-46.6912687018208
8.503	-39.4878713228293
8.504	-32.7490486093668
8.505	-26.4448383632516
8.506	-20.5472107631327
8.507	-15.0299437381129
8.508	-9.86850637900302
8.509	-13.4241473996955
8.51	-16.7504715229546
8.511	-11.4780707422643
8.512	-6.54570726624469
8.513	-1.93145078774022
8.514	2.3852146309654
8.515	6.42348177624733
8.516	10.2013056182336
8.517	13.7354831423119
8.518	17.0417280319979
8.519	20.1347405352182
8.52	23.0282728246505
8.521	25.7351901427249
8.522	28.2675280031497
8.523	30.6365457032922
8.524	32.8527763853416
8.525	34.9260738688351
8.526	36.8656564627759
8.527	38.6801479521396
8.528	40.3776159410041
8.529	41.9656077227843
8.53	43.451183837058
8.531	44.8409494621841
8.532	46.1410837832896
8.533	47.3573674662044
8.534	48.4952083594951
8.535	49.5596655388778
8.536	50.5554718009136
8.537	51.4870547060004
8.538	52.3585562642208
8.539	53.1738513515753
8.54	53.9365649384811
8.541	54.65008820714
8.542	55.3175936294351
8.543	55.942049072396
8.544	56.5262309939491
8.545	57.0727367876233
8.546	57.5839963310981
8.547	58.0622827899418
8.548	58.5097227245757
8.549	58.9283055454006
8.55	59.3198923581269
8.551	51.3020267077706
8.552	43.8012638988645
8.553	36.7842539901279
8.554	30.2197979056288
8.555	24.078708717246
8.556	18.333681873556
8.557	12.9591737981553
8.558	7.93128831764214
8.559	3.22767041429198
8.56	-1.1725931689705
8.561	-5.28906691323344
8.562	-9.14005351132318
8.563	-12.7426752453583
8.564	-16.112950115954
8.565	-19.2658630615621
8.566	-22.2154325846041
8.567	-24.9747730806291
8.568	-27.5561531476266
8.569	-29.9710501347475
8.57	-32.2302011729707
8.571	-34.3436509146053
8.572	-36.3207961938905
8.573	-38.1704278072623
8.574	-39.9007695990507
8.575	-41.519515026391
8.576	-43.0338613659235
8.577	-44.4505417143731
8.578	-45.7758549252881
8.579	-38.6314960841806
8.58	-31.9479042873441
8.581	-34.0795604355282
8.582	-36.0737379205257
8.583	-37.9393032674785
8.584	-39.6845511653883
8.585	-41.317241347018
8.586	-42.8446330902672
8.587	-44.2735174944208
8.588	-45.6102476747806
8.589	-46.8607670099281
8.59	-48.0306355672137
8.591	-49.1250548239653
8.592	-50.1488907943308
8.593	-51.1066956645828
8.594	-52.0027280330794
8.595	-52.8409718448719
8.596	-53.6251541051483
8.597	-54.3587614502681
8.598	-55.0450556500681
8.599	-55.6870881103649
8.6	-56.287713440136
8.601	-56.8496021437005
8.602	-57.375252494334
8.603	-57.8670016421068
8.604	-58.3270360053368
8.605	-58.7574009918568
8.606	-59.1600100933203
8.607	-59.5366533929807
8.608	-59.8890055247717
8.609	-60.2186331190753
8.61	-60.5270017682846
8.611	-60.81548254313
8.612	-61.0853580887435
8.613	-61.3378283275633
8.614	-61.5740157944375
8.615	-61.7949706276456
8.616	-62.0016752380305
8.617	-62.195048677
8.618	-62.3759507228192
8.619	-62.5451857033623
8.62	-62.7035060723208
8.621	-62.8516157547676
8.622	-62.990173276954
8.623	-63.1197946942526
8.624	-63.2410563302678
8.625	-63.3544973392885
8.626	-63.4606221034806
8.627	-63.5599024754734
8.628	-63.6527798763144
8.629	-63.7396672581186
8.63	-63.8209509401382
8.631	-63.8969923264186
8.632	-63.9681295126753
8.633	-64.0346787895368
8.634	-64.0969360488388
8.635	-64.1551780992199
8.636	-64.2096638968702
8.637	-64.2606356969041
8.638	-64.3083201304766
8.639	-64.3529292124321
8.64	-64.3946612839661
8.641	-56.0495043636273
8.642	-48.2425585513361
8.643	-40.9391125529141
8.644	-34.1066937383904
8.645	-27.7149237619786
8.646	-21.7353834936752
8.647	-16.141486661935
8.648	-10.9083616456146
8.649	-6.01274088960611
8.65	-1.43285745247892
8.651	2.85165177383898
8.652	6.85983660264719
8.653	10.6095182518789
8.654	14.1173685809182
8.655	17.3989842171316
8.656	20.4689559016959
8.657	23.3409333630482
8.658	26.0276860063993
8.659	28.5411596891471
8.66	30.8925298346273
8.661	33.0922511203545
8.662	35.1501039616788
8.663	37.075237997533
8.664	38.876212771618
8.665	40.5610357899028
8.666	42.1371981236503
8.667	43.6117077162682
8.668	44.9911205420734
8.669	46.281569755508
8.67	47.4887929604121
8.671	48.6181577205949
8.672	49.6746854251333
8.673	50.6630736145049
8.674	51.5877168668238
8.675	52.4527263370425
8.676	53.2619480359967
8.677	54.018979930564
8.678	54.7271879409681
8.679	55.3897209063555
8.68	56.0095245851852
8.681	56.5893547526789
8.682	57.1317894535679
8.683	57.6392404646118
8.684	58.1139640178571
8.685	58.5580708323104
8.686	58.9735354986315
8.687	59.3622052585716
8.688	59.7258082181916
8.689	60.0659610313789
8.69	60.3841760878243
8.691	60.6818682374194
8.692	60.9603610809715
8.693	61.2208928552061
8.694	61.4646219382235
8.695	61.6926319998867
8.696	61.9059368200421
8.697	62.105484795994
8.698	62.2921631592746
8.699	62.4668019204591
8.7	62.6301775595643
8.701	62.7830164784388
8.702	62.9259982304961
8.703	63.059758542149
8.704	63.1848921393813
8.705	63.3019553920217
8.706	63.4114687874794
8.707	63.5139192449388
8.708	63.6097622803022
8.709	63.6994240315084
8.71	63.7833031532294
8.711	63.8617725893718
8.712	63.9351812312621
8.713	64.0038554688904
8.714	64.0681006421066
8.715	64.1282023982256
8.716	64.1844279620734
8.717	64.2370273241243
8.718	64.2862343520104
8.719	64.332267830345
8.72	64.3753324334842
8.721	64.4156196355518
8.722	64.4533085617725
8.723	64.4885667848997
8.724	64.5215510702785
8.725	64.5524080728571
8.726	64.5812749892447
8.727	64.6082801677161
8.728	64.6335436788748
8.729	64.6571778495113
8.73	64.6792877620317
8.731	64.6999717216755
8.732	64.719321693601
8.733	64.7374237117816
8.734	64.7543582615304
8.735	64.7702006373547
8.736	64.7850212777307
8.737	64.7988860782879
8.738	64.8118566847944
8.739	64.8239907672467
8.74	64.8353422762825
8.741	56.4617641521924
8.742	48.6282301283522
8.743	41.2999106939015
8.744	34.4442226264331
8.745	28.0306841202542
8.746	22.03077925798
8.747	16.4178312228728
8.748	11.1668836882026
8.749	6.25458985626219
8.75	1.65910865368054
8.751	-2.63999237850251
8.752	-6.66182793177045
8.753	-10.424279917998
8.754	-13.9440769761261
8.755	-17.2368688511473
8.756	-20.3172959761054
8.757	-23.199054566486
8.758	-25.8949575164203
8.759	-28.41699136746
8.76	-30.7763696032179
8.761	-32.9835825068326
8.762	-35.0484438029351
8.763	-36.9801342914965
8.764	-38.7872426675609
8.765	-40.4778037083592
8.766	-42.059333997588
8.767	-43.5388653456942
8.768	-44.9229760547571
8.769	-46.2178201669787
8.77	-47.4291548268269
8.771	-48.5623658784893
8.772	-49.6224918124494
8.773	-50.6142461676564
8.774	-51.542038488893
8.775	-52.4099939325229
8.776	-53.2219716077883
8.777	-53.981581735207
8.778	-54.6922016983586
8.779	-55.3569910604299
8.78	-55.9789056122856
8.781	-56.5607105145254
8.782	-57.104992591959
8.783	-57.614171835164
8.784	-58.090512160264
8.785	-58.5361314747675
8.786	-58.953011094222
8.787	-59.3430045515527
8.788	-59.7078458382525
8.789	-60.0491571140669
8.79	-60.3684559194511
8.791	-60.6671619228682
8.792	-60.9466032329291
8.793	-61.2080223034375
8.794	-61.4525814575961
8.795	-61.6813680559358
8.796	-61.8953993309456
8.797	-62.0956269098979
8.798	-62.2829410459805
8.799	-62.458174576546
8.8	-62.6221066260783
8.801	-54.3912685394779
8.802	-46.6912687018207
8.803	-39.4878713228292
8.804	-32.7490486093668
8.805	-26.4448383632516
8.806	-20.5472107631327
8.807	-15.0299437381129
8.808	-9.868506379003
8.809	-13.4241473996954
8.81	-16.7504715229546
8.811	-11.4780707422643
8.812	-6.54570726624468
8.813	-1.9314507877402
8.814	2.38521463096541
8.815	6.42348177624735
8.816	10.2013056182336
8.817	13.7354831423119
8.818	17.0417280319979
8.819	20.1347405352182
8.82	23.0282728246505
8.821	25.7351901427249
8.822	28.2675280031497
8.823	30.6365457032922
8.824	32.8527763853416
8.825	34.9260738688351
8.826	36.8656564627759
8.827	38.6801479521396
8.828	40.3776159410041
8.829	41.9656077227843
8.83	43.451183837058
8.831	44.8409494621841
8.832	46.1410837832896
8.833	47.3573674662044
8.834	48.4952083594951
8.835	49.5596655388778
8.836	50.5554718009136
8.837	51.4870547060004
8.838	52.3585562642208
8.839	53.1738513515753
8.84	53.9365649384811
8.841	54.65008820714
8.842	55.3175936294351
8.843	55.942049072396
8.844	56.5262309939491
8.845	57.0727367876233
8.846	57.5839963310981
8.847	58.0622827899418
8.848	58.5097227245757
8.849	58.9283055454006
8.85	59.3198923581269
8.851	51.3020267077706
8.852	43.8012638988645
8.853	36.7842539901279
8.854	30.2197979056288
8.855	24.078708717246
8.856	18.333681873556
8.857	12.9591737981553
8.858	7.93128831764214
8.859	3.22767041429198
8.86	-1.1725931689705
8.861	-5.28906691323344
8.862	-9.14005351132318
8.863	-12.7426752453583
8.864	-16.112950115954
8.865	-19.2658630615621
8.866	-22.2154325846041
8.867	-24.9747730806291
8.868	-27.5561531476266
8.869	-29.9710501347475
8.87	-32.2302011729707
8.871	-34.3436509146053
8.872	-36.3207961938905
8.873	-38.1704278072623
8.874	-39.9007695990507
8.875	-41.519515026391
8.876	-43.0338613659235
8.877	-44.4505417143731
8.878	-45.7758549252881
8.879	-38.6314960841806
8.88	-31.9479042873441
8.881	-34.0795604355282
8.882	-36.0737379205257
8.883	-37.9393032674785
8.884	-39.6845511653883
8.885	-41.317241347018
8.886	-42.8446330902672
8.887	-44.2735174944208
8.888	-45.6102476747806
8.889	-46.8607670099281
8.89	-48.0306355672137
8.891	-49.1250548239653
8.892	-50.1488907943308
8.893	-51.1066956645828
8.894	-52.0027280330794
8.895	-52.8409718448719
8.896	-53.6251541051483
8.897	-54.3587614502681
8.898	-55.0450556500681
8.899	-55.6870881103649
8.9	-56.287713440136
8.901	-56.8496021437005
8.902	-57.375252494334
8.903	-57.8670016421068
8.904	-58.3270360053368
8.905	-58.7574009918568
8.906	-59.1600100933203
8.907	-59.5366533929807
8.908	-59.8890055247717
8.909	-60.2186331190753
8.91	-60.5270017682846
8.911	-60.81548254313
8.912	-61.0853580887435
8.913	-61.3378283275633
8.914	-61.5740157944375
8.915	-61.7949706276456
8.916	-62.0016752380305
8.917	-62.195048677
8.918	-62.3759507228192
8.919	-62.5451857033623
8.92	-62.7035060723208
8.921	-62.8516157547676
8.922	-62.990173276954
8.923	-63.1197946942526
8.924	-63.2410563302678
8.925	-63.3544973392885
8.926	-63.4606221034806
8.927	-63.5599024754734
8.928	-63.6527798763144
8.929	-63.7396672581186
8.93	-63.8209509401382
8.931	-63.8969923264186
8.932	-63.9681295126753
8.933	-64.0346787895368
8.934	-64.0969360488388
8.935	-64.1551780992199
8.936	-64.2096638968702
8.937	-64.2606356969041
8.938	-64.3083201304766
8.939	-64.3529292124321
8.94	-64.3946612839661
8.941	-56.0495043636273
8.942	-48.2425585513361
8.943	-40.9391125529141
8.944	-34.1066937383904
8.945	-27.7149237619786
8.946	-21.7353834936752
8.947	-16.141486661935
8.948	-10.9083616456146
8.949	-6.01274088960611
8.95	-1.43285745247892
8.951	2.85165177383898
8.952	6.85983660264719
8.953	10.6095182518789
8.954	14.1173685809182
8.955	17.3989842171316
8.956	20.4689559016959
8.957	23.3409333630482
8.958	26.0276860063993
8.959	28.5411596891471
8.96	30.8925298346273
8.961	33.0922511203545
8.962	35.1501039616788
8.963	37.075237997533
8.964	38.876212771618
8.965	40.5610357899028
8.966	42.1371981236503
8.967	43.6117077162682
8.968	44.9911205420734
8.969	46.281569755508
8.97	47.4887929604121
8.971	48.6181577205949
8.972	49.6746854251333
8.973	50.6630736145049
8.974	51.5877168668238
8.975	52.4527263370425
8.976	53.2619480359967
8.977	54.018979930564
8.978	54.7271879409681
8.979	55.3897209063555
8.98	56.0095245851852
8.981	56.5893547526789
8.982	57.1317894535679
8.983	57.6392404646118
8.984	58.1139640178571
8.985	58.5580708323104
8.986	58.9735354986315
8.987	59.3622052585716
8.988	59.7258082181916
8.989	60.0659610313789
8.99	60.3841760878243
8.991	60.6818682374194
8.992	60.9603610809715
8.993	61.2208928552061
8.994	61.4646219382235
8.995	61.6926319998867
8.996	61.9059368200421
8.997	62.105484795994
8.998	62.2921631592746
8.999	62.4668019204591
9	62.6301775595643
9.001	62.7830164784388
9.002	62.9259982304961
9.003	63.059758542149
9.004	63.1848921393813
9.005	63.3019553920217
9.006	63.4114687874794
9.007	63.5139192449388
9.008	63.6097622803022
9.009	63.6994240315084
9.01	63.7833031532294
9.011	63.8617725893718
9.012	63.9351812312621
9.013	64.0038554688904
9.014	64.0681006421066
9.015	64.1282023982256
9.016	64.1844279620734
9.017	64.2370273241243
9.018	64.2862343520104
9.019	64.332267830345
9.02	64.3753324334842
9.021	64.4156196355518
9.022	64.4533085617725
9.023	64.4885667848997
9.024	64.5215510702785
9.025	64.5524080728571
9.026	64.5812749892447
9.027	64.6082801677161
9.028	64.6335436788748
9.029	64.6571778495113
9.03	64.6792877620317
9.031	64.6999717216755
9.032	64.719321693601
9.033	64.7374237117816
9.034	64.7543582615304
9.035	64.7702006373547
9.036	64.7850212777307
9.037	64.7988860782879
9.038	64.8118566847944
9.039	64.8239907672467
9.04	64.8353422762825
9.041	56.4617641521924
9.042	48.6282301283522
9.043	41.2999106939015
9.044	34.4442226264331
9.045	28.0306841202542
9.046	22.03077925798
9.047	16.4178312228728
9.048	11.1668836882026
9.049	6.25458985626219
9.05	1.65910865368054
9.051	-2.63999237850251
9.052	-6.66182793177045
9.053	-10.424279917998
9.054	-13.9440769761261
9.055	-17.2368688511473
9.056	-20.3172959761054
9.057	-23.199054566486
9.058	-25.8949575164203
9.059	-28.41699136746
9.06	-30.7763696032179
9.061	-32.9835825068326
9.062	-35.0484438029351
9.063	-36.9801342914965
9.064	-38.7872426675609
9.065	-40.4778037083592
9.066	-42.059333997588
9.067	-43.5388653456942
9.068	-44.9229760547571
9.069	-46.2178201669787
9.07	-47.4291548268269
9.071	-48.5623658784893
9.072	-49.6224918124494
9.073	-50.6142461676564
9.074	-51.542038488893
9.075	-52.4099939325229
9.076	-53.2219716077883
9.077	-53.981581735207
9.078	-54.6922016983586
9.079	-55.3569910604299
9.08	-55.9789056122856
9.081	-56.5607105145254
9.082	-57.104992591959
9.083	-57.614171835164
9.084	-58.090512160264
9.085	-58.5361314747675
9.086	-58.953011094222
9.087	-59.3430045515527
9.088	-59.7078458382525
9.089	-60.0491571140669
9.09	-60.3684559194511
9.091	-60.6671619228682
9.092	-60.9466032329291
9.093	-61.2080223034375
9.094	-61.4525814575961
9.095	-61.6813680559358
9.096	-61.8953993309456
9.097	-62.0956269098979
9.098	-62.2829410459805
9.099	-62.458174576546
9.1	-62.6221066260783
9.101	-54.3912685394779
9.102	-46.6912687018207
9.103	-39.4878713228292
9.104	-32.7490486093668
9.105	-26.4448383632516
9.106	-20.5472107631327
9.107	-15.0299437381129
9.108	-9.868506379003
9.109	-5.03994986883125
9.11	-0.522805447661196
9.111	3.70301104195093
9.112	7.65628845327004
9.113	11.3546038745061
9.114	14.8144007801799
9.115	18.0510621422088
9.116	21.0789788257779
9.117	23.9116135741006
9.118	26.5615608665561
9.119	29.0406029163476
9.12	31.3597620566563
9.121	33.5293497482122
9.122	35.5590124261793
9.123	37.4577743901996
9.124	39.2340779282934
9.125	40.8958208530168
9.126	42.4503916167679
9.127	43.9047021623729
9.128	45.2652186550119
9.129	46.5379902321257
9.13	47.7286758991304
9.131	48.8425696905247
9.132	49.8846242082617
9.133	50.85947264204
9.134	51.7714493694225
9.135	52.6246092273748
9.136	53.4227455409081
9.137	54.1694069889858
9.138	54.8679133826838
9.139	55.5213704257562
9.14	56.1326835232358
9.141	56.7045706994656
9.142	57.2395746829964
9.143	57.7400742120831
9.144	58.2082946110471
9.145	58.6463176845272
9.146	50.6718934427498
9.147	43.211770339726
9.148	36.2327791267047
9.149	29.7038897667305
9.15	23.5960734686886
9.151	17.8821736193005
9.152	12.5367850392113
9.153	7.53614102631208
9.154	2.8580076840719
9.155	-1.5184149349601
9.156	-5.61258531001897
9.157	-9.44270696854317
9.158	-13.0258094228189
9.159	-16.3778238867101
9.16	-19.5136541091278
9.161	-22.4472426391761
9.162	-25.1916328176075
9.163	-27.7590267702102
9.164	-30.1608396609809
9.165	-32.4077504463023
9.166	-34.5097493557901
9.167	-36.4761823109179
9.168	-38.315792478915
9.169	-40.0367591466946
9.17	-41.6467340876535
9.171	-43.1528755830374
9.172	-44.5618802491388
9.173	-45.8800128118363
9.174	-47.1131339608606
9.175	-48.2667264076318
9.176	-49.3459192625272
9.177	-50.3555108399662
9.178	-51.2999899927072
9.179	-52.1835560702145
9.18	-53.0101375898343
9.181	-53.7834097037936
9.182	-54.5068105396872
9.183	-55.1835564871029
9.184	-55.8166564983545
9.185	-56.4089254669051
9.186	-56.9629967429654
9.187	-57.4813338419129
9.188	-57.96624139759
9.189	-58.4198754091825
9.19	-58.8442528272372
9.191	-59.2412605214411
9.192	-59.6126636700336
9.193	-59.9601136081539
9.194	-60.2851551700181
9.195	-60.5892335575715
9.196	-60.8737007661548
9.197	-61.1398215957549
9.198	-61.3887792745669
9.199	-61.6216807198714
9.2	-61.839561459617
9.201	-62.0433902365918
9.202	-62.2340733156541
9.203	-62.4124585131729
9.204	-62.5793389665949
9.205	-62.7354566608975
9.206	-62.881505727607
9.207	-63.0181355310512
9.208	-63.1459535555671
9.209	-63.2655281065019
9.21	-63.3773908370159
9.211	-63.4820391119225
9.212	-63.5799382190745
9.213	-63.6715234381307
9.214	-63.7572019758987
9.215	-63.8373547768605
9.216	-63.9123382169306
9.217	-63.982485687977
9.218	-64.0481090801499
9.219	-64.1095001686104
9.22	-64.1669319108225
9.221	-64.2206596601788
9.222	-64.2709223013544
9.223	-64.3179433124374
9.224	-64.3619317585588
9.225	-64.4030832214389
9.226	-64.4415806689846
9.227	-64.4775952688022
9.228	-64.5112871492439
9.229	-64.5428061113717
9.23	-64.5722922950037
9.231	-56.2156792709407
9.232	-48.3980162028988
9.233	-41.0845441455662
9.234	-34.2427458910423
9.235	-27.8422013906126
9.236	-21.8544525009267
9.237	-16.2528764532126
9.238	-11.0125674829461
9.239	-6.11022609367562
9.24	-1.52405546264646
9.241	2.76633547237656
9.242	6.78002267598527
9.243	10.5348518308081
9.244	14.0475176831027
9.245	17.3336382710468
9.246	20.4078243657635
9.247	23.2837444338283
9.248	25.974185410096
9.249	28.4911095510547
9.25	30.8457076214904
9.251	33.048448650939
9.252	35.109126481155
9.253	37.0369033115555
9.254	38.8403504362522
9.255	40.5274863537957
9.256	42.1058124190768
9.257	43.5823461959008
9.258	44.9636526585257
9.259	46.2558733808943
9.26	47.4647538433413
9.261	48.5956689781856
9.262	49.65364706779
9.263	50.6433921013439
9.264	51.5693046897708
9.265	52.435501631754
9.266	53.245834217874
9.267	54.0039053542422
9.268	54.7130855817661
9.269	55.3765280622705
9.27	55.9971825981063
9.271	56.5778087475815
9.272	57.1209880945276
9.273	57.6291357265546
9.274	58.1045109730296
9.275	58.5492274505222
9.276	58.9652624603798
9.277	59.354465780219
9.278	59.7185678884182
9.279	60.0591876581825
9.28	60.3778395553881
9.281	60.675940372211
9.282	60.9548155264773
9.283	61.215704954745
9.284	61.4597686253179
9.285	61.6880916957048
9.286	61.9016893374535
9.287	62.1015112498132
9.288	62.2884458822944
9.289	62.4633243848981
9.29	62.6269243035807
9.291	62.7799730373843
9.292	62.9231510726029
9.293	63.0570950083649
9.294	63.1824003870847
9.295	63.299624342367
9.296	63.4092880761383
9.297	63.511879176018
9.298	63.6078537832338
9.299	63.6976386207201
9.3	63.7816328904158
9.301	63.8602100481994
9.302	63.9337194643501
9.303	64.0024879769209
9.304	64.0668213449279
9.305	64.1270056078179
9.306	64.1833083572594
9.307	64.2359799269097
9.308	64.2852545054508
9.309	64.33135117784
9.31	64.3744748994074
9.311	64.4148174071296
9.312	64.4525580721315
9.313	64.4878646972079
9.314	64.5208942629089
9.315	64.5517936255085
9.316	64.5807001699572
9.317	64.6077424207244
9.318	64.6330406132446
9.319	64.6567072285089
9.32	64.6788474931789
9.321	64.699559847446
9.322	64.7189363827169
9.323	64.737063251071
9.324	64.7540210483106
9.325	64.769885172306
9.326	64.7847261582303
9.327	64.7986099921736
9.328	64.8115984045302
9.329	64.8237491444652
9.33	64.835116236679
9.331	64.8457502216121
9.332	64.855698380159
9.333	64.8650049438881
9.334	64.8737112917045
9.335	64.8818561338296
9.336	64.8894756839145
9.337	64.8966038200531
9.338	64.9032722354117
9.339	64.9095105791426
9.34	64.9153465882113
9.341	56.5366086798555
9.342	48.6982476459844
9.343	41.3654125138532
9.344	34.5054999833301
9.345	28.0880094658867
9.346	22.0844074726794
9.347	16.4680007487624
9.348	11.2138175893607
9.349	6.2984968105111
9.35	1.70018388041098
9.351	-2.6015662503454
9.352	-6.62588005168115
9.353	-10.390650454274
9.354	-13.912616405223
9.355	-17.2074372928664
9.356	-20.2897625716573
9.357	-23.1732968966655
9.358	-25.8708610573053
9.359	-28.3944489812144
9.36	-30.7552810617346
9.361	-32.9638540460987
9.362	-35.029987706138
9.363	-36.9628684990162
9.364	-38.7710904121167
9.365	-40.4626931736859
9.366	-42.0451979991262
9.367	-43.5256410318739
9.368	-44.9106046275466
9.369	-46.2062466204565
9.37	-47.4183277026137
9.371	-48.5522370369538
9.372	-49.6130162186692
9.373	-50.6053816911837
9.374	-51.5337457164338
9.375	-52.4022359926974
9.376	-53.214714007193
9.377	-53.9747922050501
9.378	-54.6858500509862
9.379	-55.3510490551053
9.38	-55.9733468296254
9.381	-56.5555102390333
9.382	-57.1001277021356
9.383	-57.609620700704
9.384	-58.0862545458833
9.385	-58.5321484502328
9.386	-58.9492849501832
9.387	-59.3395187208035
9.388	-59.7045848220692
9.389	-60.0461064132977
9.39	-60.36560197005
9.391	-60.6644920355865
9.392	-60.9441055368963
9.393	-61.2056856933809
9.394	-61.4503955444646
9.395	-61.679323120708
9.396	-61.8934862814169
9.397	-62.0938372402549
9.398	-62.2812667989822
9.399	-62.4566083081441
9.4	-62.6206413723201
9.401	-62.7740953164065
9.402	-62.917652428346
9.403	-63.0519509927203
9.404	-63.177588128696
9.405	-63.2951224449391
9.406	-63.405076523305
9.407	-63.5079392423452
9.408	-63.6041679509623
9.409	-63.694190501878
9.41	-63.7784071539544
9.411	-63.8571923518278
9.412	-63.9308963907667
9.413	-63.9998469741573
9.414	-64.06435067054
9.415	-64.124694276677
9.416	-64.1811460927096
9.417	-64.2339571150761
9.418	-64.2833621524939
9.419	-64.3295808699676
9.42	-64.372818765465
9.421	-56.0290705527392
9.422	-48.2234425951156
9.423	-40.9212294578702
9.424	-34.0899639925873
9.425	-27.6992729815098
9.426	-21.7207420919369
9.427	-16.1277895402297
9.428	-10.8955479037092
9.429	-6.00075355495644
9.43	-1.42164322691826
9.431	-5.52205477978961
9.432	-9.35801509868317
9.433	-12.9465796557755
9.434	-16.3037039505685
9.435	-19.4443144513367
9.436	-22.38237496129
9.437	-25.1309487045273
9.438	-27.7022564078304
9.439	-30.1077306365402
9.44	-32.3580666261046
9.441	-34.4632698353049
9.442	-36.4327004325934
9.443	-38.2751149133358
9.444	-39.9987050329992
9.445	-41.6111342293894
9.446	-43.1195716958792
9.447	-44.5307242571227
9.448	-45.8508661889844
9.449	-47.0858671152652
9.45	-48.2412181052634
9.451	-49.3220560882029
9.452	-50.3331866930823
9.453	-51.2791056154939
9.454	-52.1640186064156
9.455	-52.9918601718487
9.456	-53.7663110664446
9.457	-54.4908146589
9.458	-55.1685922418865
9.459	-55.8026573545827
9.46	-56.395829181492
9.461	-56.9507450871203
9.462	-57.4698723422423
9.463	-57.9555190938982
9.464	-58.4098446278917
9.465	-58.8348689694212
9.466	-59.2324818645292
9.467	-59.6044511823033
9.468	-59.9524307751878
9.469	-60.2779678323535
9.47	-60.58250975882
9.471	-60.8674106109178
9.472	-61.1339371167025
9.473	-61.3832743080895
9.474	-61.6165307897505
9.475	-61.8347436681992
9.476	-62.038883162981
9.477	-62.2298569204698
9.478	-62.4085140494508
9.479	-62.5756488964344
9.48	-62.7320045774841
9.481	-62.8782762822646
9.482	-63.0151143649986
9.483	-63.1431272360757
9.484	-63.2628840671713
9.485	-63.3749173219009
9.486	-63.4797251232637
9.487	-63.5777734684004
9.488	-63.6694983005124
9.489	-63.7553074471559
9.49	-63.835582433527
9.491	-55.5264826479376
9.492	-47.7532685077792
9.493	-40.4813786968577
9.494	-33.678480890532
9.495	-27.3143279995179
9.496	-21.3606236850799
9.497	-15.7908965476619
9.498	-10.5803824295757
9.499	-5.70591430843858
9.5	-1.14581929180546
9.501	3.1201777449895
9.502	7.11104430622623
9.503	10.844524609242
9.504	14.3372184788879
9.505	17.6046551537804
9.506	20.6613623325044
9.507	23.5209307667637
9.508	26.1960746886702
9.509	28.6986883408478
9.51	31.0398988606924
9.511	33.2301157539238
9.512	35.2790771773991
9.513	37.1958932369703
9.514	38.9890864928971
9.515	40.6666298529107
9.516	42.2359820214094
9.517	43.704120662399
9.518	45.077573423629
9.519	46.3624469598631
9.52	47.5644540843282
9.521	48.6889391690624
9.522	49.7409019070972
9.523	50.7250195421259
9.524	51.6456676644954
9.525	52.5069396659853
9.526	53.3126649398728
9.527	54.0664259072075
9.528	54.7715739449945
9.529	55.4312442871099
9.53	56.048369964198
9.531	56.6256948445317
9.532	57.1657858338177
9.533	57.6710442881898
9.534	58.1437166911342
9.535	58.5859046418195
9.536	58.999574199241
9.537	59.3865646237245
9.538	59.7485965546586
9.539	60.0872796608125
9.54	60.4041197972559
9.541	60.700525700702
9.542	60.9778152530419
9.543	61.2372213409198
9.544	61.4798973374017
9.545	61.7069222301105
9.546	61.9193054186278
9.547	62.1179912024931
9.548	62.3038629797545
9.549	62.4777471747393
9.55	62.6404169125067
9.551	62.7925954563223
9.552	62.9349594234356
9.553	63.0681417934599
9.554	63.1927347227311
9.555	63.3092921771564
9.556	63.4183323952618
9.557	63.5203401923871
9.558	63.6157691162756
9.559	63.7050434636408
9.56	63.7885601666771
9.561	63.8666905579027
9.562	63.9397820211807
9.563	64.0081595362591
9.564	64.0721271236984
9.565	64.1319691966095
9.566	64.1879518252134
9.567	64.2403239198441
9.568	64.2893183376556
9.569	64.335152917953
9.57	64.3780314507507
9.571	64.4181445828652
9.572	64.4556706655703
9.573	64.4907765475834
9.574	64.5236183169096
9.575	64.5543419948413
9.576	64.5830841851987
9.577	64.6099726816989
9.578	64.6351270361533
9.579	64.6586590900192
9.58	64.6806734716703
9.581	56.317070530732
9.582	56.8770658831697
9.583	57.4009449921366
9.584	57.8910371323969
9.585	58.3495213548704
9.586	58.778436175144
9.587	59.1796886371322
9.588	59.5550627921893
9.589	59.9062276313696
9.59	60.2347445061069
9.591	52.1578765394414
9.592	44.6019166994162
9.593	37.5332696273452
9.594	30.9205066577989
9.595	24.7342260802638
9.596	18.9469224130626
9.597	13.5328641082992
9.598	8.46797914407998
9.599	3.72974799533092
9.6	-0.702896492664247
9.601	3.53453475767746
9.602	7.49867784935515
9.603	11.2071581816387
9.604	14.6764644243439
9.605	17.9220218298652
9.606	20.9582608170354
9.607	23.7986811317491
9.608	26.4559118696224
9.609	28.9417676275618
9.61	31.2673010339028
9.611	33.4428518906792
9.612	35.4780931465199
9.613	37.3820739045764
9.614	39.163259656706
9.615	40.8295699227969
9.616	42.3884134625909
9.617	43.8467212165591
9.618	45.2109771222961
9.619	46.4872469434458
9.62	47.6812052393401
9.621	48.7981605952621
9.622	49.8430792255134
9.623	50.8206070542284
9.624	51.7350903721137
9.625	52.5905951609542
9.626	53.3909251718082
9.627	54.1396388372709
9.628	54.8400650930004
9.629	55.4953181788543
9.63	56.1083114854428
9.631	48.2975729768014
9.632	40.9905788875321
9.633	34.1548408121189
9.634	27.7599656466559
9.635	21.7775204548271
9.636	16.1809060491973
9.637	10.945238725728
9.638	6.04723962568849
9.639	1.46513123303915
9.64	-2.82145945290401
9.641	-6.83159150004018
9.642	-10.5830947840376
9.643	-14.0926492636448
9.644	-17.375859143234
9.645	-20.4473222523172
9.646	-23.3206949505135
9.647	-26.0087528465446
9.648	-28.5234476012316
9.649	-30.8759600670485
9.65	-33.076750000502
9.651	-35.1356025683709
9.652	-37.0616718545787
9.653	-38.8635215611426
9.654	-40.5491630841623
9.655	-42.1260911341417
9.656	-43.6013170590213
9.657	-44.981400018079
9.658	-46.2724761453081
9.659	-47.4802858319366
9.66	-48.6101992493929
9.661	-49.6672402261975
9.662	-50.6561085849425
9.663	-51.5812010386741
9.664	-52.4466307395873
9.665	-53.2562455669502
9.666	-54.0136452355706
9.667	-54.7221973008716
9.668	-55.3850521317388
9.669	-56.0051569177116
9.67	-56.5852687727965
9.671	-57.1279669941658
9.672	-57.6356645302457
9.673	-58.110618709184
9.674	-58.5549412753966
9.675	-58.9706077788204
9.676	-59.359466358616
9.677	-59.7232459603763
9.678	-60.0635640233763
9.679	-60.3819336720415
9.68	-60.6797704436125
9.681	-60.9583985819159
9.682	-61.2190569252254
9.683	-61.4629044143936
9.684	-61.6910252457418
9.685	-61.9044336916214
9.686	-62.1040786100778
9.687	-62.2908476636698
9.688	-62.4655712662005
9.689	-62.6290262749088
9.69	-62.7819394445369
9.691	-54.5407931277682
9.692	-46.8311498771576
9.693	-39.6187310258209
9.694	-32.8714686692914
9.695	-26.5593630849905
9.696	-20.6543493472622
9.697	-15.1301725449153
9.698	-9.96227104646299
9.699	-5.12766729403432
9.7	-0.604865640404252
9.701	3.6262432250954
9.702	7.58447168672628
9.703	11.287418846091
9.704	14.7515487713752
9.705	17.9922636999966
9.706	21.0239725201351
9.707	23.8601548356267
9.708	26.5134208990672
9.709	28.9955676796015
9.71	31.3176313146849
9.711	33.4899361790317
9.712	35.5221407889173
9.713	37.4232807459383
9.714	39.2018089111632
9.715	40.8656329883
9.716	42.4221506829805
9.717	43.8782825944881
9.718	45.2405029861719
9.719	46.5148685713601
9.72	47.7070454427578
9.721	48.8223342650668
9.722	49.8656938428359
9.723	50.84176316833
9.724	51.7548820474491
9.725	52.6091103954012
9.726	53.408246287925
9.727	54.1558428483186
9.728	54.8552240453603
9.729	55.5094994723608
9.73	56.1215781730569
9.731	56.6941815758218
9.732	57.2298555936972
9.733	57.7309819440493
9.734	58.1997887381763
9.735	58.6383603879512
9.736	59.048646873548
9.737	59.4324724134565
9.738	59.7915435753343
9.739	60.1274568637597
9.74	60.4417058186204
9.741	52.3514901248368
9.742	44.7830434036992
9.743	37.702714777268
9.744	31.0790236415094
9.745	24.8825196970249
9.746	19.0856520069353
9.747	13.6626464997226
9.748	8.58939137238243
9.749	3.84332988436606
9.75	-0.596639934349102
9.751	-4.75025910697824
9.752	-8.63599548259732
9.753	-12.271125848016
9.754	-15.6718127439415
9.755	-18.8531763269742
9.756	-21.8293615969481
9.757	-24.6136012885227
9.758	-27.2182747066555
9.759	-29.6549627675497
9.76	-31.9344994898006
9.761	-34.0670201646806
9.762	-36.0620064197388
9.763	-37.9283283760756
9.764	-39.6742840867346
9.765	-41.3076364315605
9.766	-42.835647632567
9.767	-44.2651115432766
9.768	-37.2181863247324
9.769	-30.6257442832459
9.77	-24.4584740593487
9.771	-27.0731522261877
9.772	-29.5191997912544
9.773	-31.8074923874332
9.774	-33.9482042364215
9.775	-35.9508533854207
9.776	-37.8243440263412
9.777	-39.5770060856794
9.778	-41.2166322610919
9.779	-42.7505126693395
9.78	-44.1854672596527
9.781	-45.5278761366351
9.782	-46.7837079275267
9.783	-47.9585463199538
9.784	-49.0576148881583
9.785	-50.0858003180875
9.786	-51.0476741346098
9.787	-51.9475130274592
9.788	-52.7893178662808
9.789	-53.5768314893246
9.79	-54.3135553448773
9.791	-55.002765059425
9.792	-55.6475250017653
9.793	-56.2507019078243
9.794	-56.8149776267567
9.795	-57.3428610450014
9.796	-57.836699241309
9.797	-58.2986879223386
9.798	-58.7308811852239
9.799	-59.1352006505126
9.8	-59.5134440060895
9.801	-59.8672930000671
9.802	-60.1983209181862
9.803	-60.5079995789689
9.804	-60.7977058777277
9.805	-61.0687279085271
9.806	-61.3222706913154
9.807	-61.5594615296928
9.808	-61.7813550231358
9.809	-61.9889377559647
9.81	-62.183132683901
9.811	-62.3648032377195
9.812	-62.5347571622399
9.813	-62.6937501077271
9.814	-62.8424889896682
9.815	-62.9816351318654
9.816	-63.1118072068177
9.817	-63.2335839864669
9.818	-63.3475069155372
9.819	-63.4540825189105
9.82	-63.5537846537403
9.821	-63.6470566163188
9.822	-63.7343131130639
9.823	-63.8159421043892
9.824	-63.8923065296568
9.825	-63.9637459208799
9.826	-64.030577912353
9.827	-64.0930996529193
9.828	-64.1515891271557
9.829	-64.20630639135
9.83	-64.2574947297647
9.831	-64.305381736329
9.832	-64.3501803265687
9.833	-64.3920896842725
9.834	-64.4312961471041
9.835	-64.4679740350983
9.836	-64.5022864257235
9.837	-64.5343858789583
9.838	-64.5644151156043
9.839	-64.5925076518522
9.84	-64.6187883929229
9.841	-56.2591766575571
9.842	-48.4387082765808
9.843	-41.1226118316813
9.844	-34.2783584463887
9.845	-27.8755171559698
9.846	-21.8856196050712
9.847	-16.2820334715293
9.848	-11.039844053563
9.849	-6.13574349386161
9.85	-1.54792714803528
9.851	2.74400336333924
9.852	6.75913085012833
9.853	10.5153073987571
9.854	14.0292337462743
9.855	17.31653353528
9.856	20.3918227798689
9.857	23.2687748514487
9.858	25.960181273375
9.859	28.478008594707
9.86	30.833451595957
9.861	33.036983063398
9.862	35.0984003532351
9.863	37.0268689526758
9.864	38.8309632315798
9.865	40.5187045658789
9.866	42.0975970022721
9.867	43.5746606227675
9.868	44.9564627574177
9.869	46.2491471840257
9.87	47.458461444651
9.871	48.5897824003688
9.872	49.6481401379055
9.873	50.6382403344436
9.874	51.5644851800345
9.875	52.4309929506456
9.876	53.2416163188657
9.877	53.9999594836836
9.878	54.7093941955013
9.879	55.3730747476334
9.88	55.9939520009465
9.881	56.5747865039966
9.882	57.1181607669981
9.883	57.6264907441981
9.884	58.1020365757081
9.885	58.5469126365538
9.886	58.9630969376235
9.887	59.352439920313
9.888	59.7166726839709
9.889	60.0574146827232
9.89	60.3761809259016
9.891	60.6743887140879
9.892	60.953363940725
9.893	61.2143469873133
9.894	61.4584982384031
9.895	61.6869032409042
9.896	61.9005775306513
9.897	62.1004711476868
9.898	62.2874728603348
9.899	62.4624141168485
9.9	62.6260727422014
9.901	62.7791763964574
9.902	62.9224058100982
9.903	63.0563978106914
9.904	63.1817481543574
9.905	63.2990141746245
9.906	63.4087172604488
9.907	63.5113451744169
9.908	63.6073542214396
9.909	63.6971712775779
9.91	63.7811956880215
9.911	63.8598010426607
9.912	63.9333368371439
9.913	64.0021300268076
9.914	64.0664864803874
9.915	64.1266923399733
9.916	64.183015293257
9.917	64.2357057637264
9.918	64.2849980241004
9.919	64.3311112379535
9.92	64.3742504341625
9.921	64.4146074185074
9.922	64.4523616264792
9.923	64.4876809210875
9.924	64.5207223392139
9.925	64.5516327898305
9.926	64.5805497071876
9.927	64.6076016618747
9.928	64.6329089324718
9.929	64.6565840403331
9.93	64.67873224988
9.931	64.6994520366285
9.932	64.7188355250316
9.933	64.7369688980839
9.934	64.7539327805087
9.935	64.7698025972325
9.936	64.7846489087394
9.937	64.7985377247979
9.938	64.8115307979542
9.939	64.823685898096
9.94	64.8350570693102
9.941	64.8456948701734
9.942	64.8556465985464
9.943	64.8649565018698
9.944	64.8736659738973
9.945	64.8818137387413
9.946	64.8894360230477
9.947	64.8965667170674
9.948	64.9032375253395
9.949	64.9094781076559
9.95	64.915316210935
9.951	56.536580261726
9.952	48.6982210606488
9.953	41.3653876431077
9.954	34.5054767165942
9.955	28.0879876997116
9.956	22.0843871102882
9.957	16.4679816996198
9.958	11.2137997687702
9.959	6.29848013923866
9.96	1.7001682843327
9.961	-2.60158084057291
9.962	-6.62589370092904
9.963	-10.3906632232296
9.964	-13.9126283506598
9.965	-17.2074484678963
9.966	-20.2897730259668
9.967	-23.1733066767365
9.968	-25.8708702066221
9.969	-28.3944575404567
9.97	-30.7552890689586
9.971	-32.9638615369063
9.972	-35.0299947138347
9.973	-36.9628750547597
9.974	-38.7710965450552
9.975	-40.4626989110877
9.976	-42.045203366501
9.977	-43.5256460530862
9.978	-44.9106093249217
9.979	-46.2062510148798
9.98	-47.4183318136239
9.981	-48.5522408828292
9.982	-49.6130198165094
9.983	-50.6053850569854
9.984	-51.5337488651621
9.985	-52.4022389383521
9.986	-53.2147167628712
9.987	-53.9747947830041
9.988	-54.685852462678
9.989	-55.3510513112579
9.99	-55.9733489402701
9.991	-56.5555122135544
9.992	-57.1001295493123
9.993	-57.6096224287492
9.994	-58.0862561624803
9.995	-58.5321499625692
9.996	-58.9492863649833
9.997	-59.3395200443577
9.998	-59.7045860602623
9.999	-60.046107571635
10	-60.3656030536817
