4	-23.0237603438841
4.001	-23.4595270202148
4.002	-23.8744867905119
4.003	-24.2698328660862
4.004	-24.6466809520995
4.005	-25.0060742577453
4.006	-25.3489881833454
4.007	-25.6763347051983
4.008	-25.9889664776716
4.009	-26.2876806707743
4.01	-26.573222560267
4.011	-26.9333198726899
4.012	-27.2732889335645
4.013	-27.594195868323
4.014	-27.8970377239745
4.015	-28.1827469501919
4.016	-28.4521955914294
4.017	-28.7061992087037
4.018	-28.9455205484724
4.019	-29.1708729749154
4.02	-29.3829236808777
4.021	-29.5763260861404
4.022	-29.7549972372087
4.023	-29.9195957118413
4.024	-30.0707379698347
4.025	-30.209001110052
4.026	-30.3349254495858
4.027	-30.4490169365198
4.028	-30.5517494070146
4.029	-30.643566696754
4.03	-30.7248846161369
4.031	-30.7084422298128
4.032	-30.6831595940029
4.033	-30.6492589983926
4.034	-30.6069502196623
4.035	-30.5564313900602
4.036	-30.497889809623
4.037	-30.4315027056663
4.038	-30.3574379429364
4.039	-30.2758546875932
4.04	-30.1869040279918
4.041	-29.8990191966616
4.042	-29.6102635791489
4.043	-29.3203231139192
4.044	-29.0289084672181
4.045	-28.7357535208712
4.046	-28.4406139565826
4.047	-28.1432659304907
4.048	-27.8435048321413
4.049	-27.5411441224166
4.05	-27.2360142453093
4.051	-26.64741998047
4.052	-26.0674773445274
4.053	-25.495309047281
4.054	-24.9301026870591
4.055	-24.3711066530249
4.056	-23.817626289404
4.057	-23.2690203047167
4.058	-22.7246974101924
4.059	-22.1841131725604
4.06	-21.6467670673713
4.061	-20.8030849003379
4.062	-19.9766923531976
4.063	-19.1663015115802
4.064	-18.370720033742
4.065	-17.588845040501
4.066	-16.8196573950198
4.067	-16.0622163472758
4.068	-15.3156545196839
4.069	-14.5791732118561
4.07	-13.8520380039022
4.071	-12.8810780096621
4.072	-11.931867929254
4.073	-11.0030501663657
4.074	-10.09337023785
4.075	-9.20167010043483
4.076	-8.32688190189945
4.077	-7.46802212935377
4.078	-6.6241861290228
4.079	-5.79454297359217
4.08	-4.97833065471695
4.081	-4.04538973375643
4.082	-3.13232757450432
4.083	-2.23812718334808
4.084	-1.36185342429556
4.085	-0.502647625319305
4.086	0.340277474007068
4.087	1.16764245554246
4.088	1.98010565682497
4.089	2.77826732574705
4.09	3.56267351363282
4.091	4.32252643029713
4.092	5.07030934295542
4.093	5.80638598753598
4.094	6.5310818876075
4.095	7.24468699233111
4.096	7.94745815017084
4.097	8.63962142888257
4.098	9.32137429162069
4.099	9.99288763836506
4.1	10.6543077212745
4.101	11.1742572123604
4.102	11.6935341287452
4.103	12.2117195495987
4.104	12.7284094924935
4.105	13.243214126836
4.106	13.7557570424631
4.107	14.2656745697803
4.108	14.7726151480474
4.109	15.2762387386361
4.11	15.7762162802864
4.111	16.0482831187092
4.112	16.3321217373404
4.113	16.6265518691804
4.114	16.93046014134
4.115	17.2427958981578
4.116	17.5625672966015
4.117	17.888837656348
4.118	18.2207220480735
4.119	18.5573841045404
4.12	18.8980330400684
4.121	18.9421867484294
4.122	19.0099655384421
4.123	19.099518881722
4.124	19.209108969865
4.125	19.337103529239
4.126	19.4819691008355
4.127	19.6422647551661
4.128	19.8166362141239
4.129	20.0038103535404
4.13	20.2025900618621
4.131	20.043751029667
4.132	19.918998076404
4.133	19.8259156829338
4.134	19.762239723206
4.135	19.7258477415394
4.136	19.7147498577684
4.137	19.7270802597513
4.138	19.7610892453532
4.139	19.815135778458
4.14	19.8876805258472
4.141	19.5493985266251
4.142	19.253781027345
4.143	18.9979559507491
4.144	18.7792338636068
4.145	18.5950962126634
4.146	18.4431843196197
4.147	18.3212890861865
4.148	18.227341363416
4.149	18.1594029424671
4.15	18.1156581267243
4.151	17.6248512327818
4.152	17.1828761294774
4.153	16.7865312083214
4.154	16.4328200565616
4.155	16.1189382273531
4.156	15.842260863267
4.157	15.6003311181025
4.158	15.3908493255166
4.159	15.2116628663064
4.16	15.0607566892838
4.161	14.4547555164686
4.162	13.9007635660063
4.163	13.3954117122421
4.164	12.9355476103818
4.165	12.5182217160684
4.166	12.1406742066277
4.167	11.8003227458344
4.168	11.4947510377941
4.169	11.2216981190493
4.17	10.9790483412982
4.171	10.3081002712597
4.172	9.68894264780069
4.173	9.11823455252052
4.174	8.59285039489554
4.175	8.10986602497504
4.176	7.66654574172492
4.177	7.26033013925523
4.178	6.88882473689339
4.179	6.54978934254982
4.18	6.24112810208313
4.181	5.56338432304457
4.182	4.93384867701087
4.183	4.34941330514431
4.184	3.8071707652432
4.185	3.30440110610012
4.186	2.83855977548441
4.187	2.40726630798523
4.188	2.00829374241903
4.189	1.63955872174898
4.19	1.29911223149863
4.191	0.670072723340437
4.192	0.0828839047244056
4.193	-0.4651531174231
4.194	-0.976563174746084
4.195	-1.45370826334685
4.196	-1.89879804567327
4.197	-2.31389967509934
4.198	-2.70094698688074
4.199	-3.06174909635076
4.2	-3.39799844258532
4.201	-3.59019187822148
4.202	-3.76746960807283
4.203	-3.93079298844199
4.204	-4.08106137787458
4.205	-4.21911613563281
4.206	-4.34574436229217
4.207	-4.46168239909266
4.208	-4.5676191016035
4.209	-4.66419890225673
4.21	-4.75202467536614
4.211	-4.45279694793383
4.212	-4.16648668119757
4.213	-3.892260770639
4.214	-3.62933990097305
4.215	-3.37699507707402
4.216	-3.13454437863487
4.217	-2.90134992413038
4.218	-2.67681503058552
4.219	-2.46038155652058
4.22	-2.25152741625947
4.221	-1.79502338262008
4.222	-1.35912324630625
4.223	-0.942504006579633
4.224	-0.54392814874321
4.225	-0.162238130710573
4.226	0.203648774845617
4.227	0.554745305698468
4.228	0.891998724078648
4.229	1.21629503956332
4.23	1.52846295961752
4.231	2.10824680450117
4.232	2.66181996019015
4.233	3.19085089223408
4.234	3.69690010501022
4.235	4.18142710526333
4.236	4.64579691655178
4.237	5.0912861735631
4.238	5.5190888233953
4.239	5.93032145915181
4.24	6.32602830956365
4.241	7.08537805791191
4.242	7.80910786443948
4.243	8.49944516865177
4.244	9.1584729683558
4.245	9.78813913943408
4.246	10.390265154597
4.247	10.9665542398755
4.248	11.5185990051158
4.249	12.0478885823997
4.25	12.5558153041269
4.251	13.4665223700372
4.252	14.3311389013157
4.253	15.1524411392782
4.254	15.9330248647935
4.255	16.6753170592642
4.256	17.3815868137043
4.257	18.0539555344031
4.258	18.6944064905381
4.259	19.3047937461761
4.26	19.8868505163619
4.261	20.6919363706842
4.262	21.4476366119712
4.263	22.156680737197
4.264	22.821621753872
4.265	23.4448476619173
4.266	24.0285921951049
4.267	24.5749448697979
4.268	25.0858603856429
4.269	25.5631674199867
4.27	26.0085768550997
4.271	26.0447440910579
4.272	26.0536994134284
4.273	26.036500661991
4.274	25.9941480114841
4.275	25.9275879741029
4.276	25.8377171393846
4.277	25.7253856683032
4.278	25.5914005573118
4.279	25.4365286870577
4.28	25.2614996695496
4.281	23.7514783768216
4.282	22.2949926767589
4.283	20.8885568083463
4.284	19.5289290698316
4.285	18.2130960844611
4.286	16.9382580725326
4.287	15.701815064864
4.288	14.5013539969698
4.289	13.3346366271497
4.29	12.1995882253677
4.291	9.91072544457893
4.292	7.73919336401047
4.293	5.67809701775967
4.294	3.72099911264065
4.295	1.86189021059861
4.296	0.0951608286082435
4.297	-1.58442466747525
4.298	-3.18175249067472
4.299	-4.70138229036624
4.3	-6.14756854060309
4.301	-7.73764524177004
4.302	-9.23873805029174
4.303	-10.6557085578364
4.304	-11.99309924764
4.305	-13.2551544622937
4.306	-14.4458400215089
4.307	-15.5688615767593
4.308	-16.6276817840896
4.309	-17.6255363711411
4.31	-18.5654491695353
4.311	-19.4639749473468
4.312	-20.3046453626346
4.313	-21.0902723645176
4.314	-21.823486910785
4.315	-22.5067510438243
4.316	-23.1423691873918
4.317	-23.7324987142981
4.318	-24.2791598318548
4.319	-24.7842448289059
4.32	-25.2495267254418
4.321	-25.686190244796
4.322	-26.08672348025
4.323	-26.4525542851496
4.324	-26.7850223160125
4.325	-27.0853851147627
4.326	-27.3548237968192
4.327	-27.5944483702864
4.328	-27.805302709867
4.329	-27.9883692075951
4.33	-28.1445731210641
4.331	-28.3447723615217
4.332	-28.5195549809438
4.333	-28.6696816802771
4.334	-28.7958699704071
4.335	-28.8987973404209
4.336	-28.9791042187938
4.337	-29.0373967406876
4.338	-29.0742493337009
4.339	-29.090207133615
4.34	-29.0857882409377
4.341	-29.1819179605216
4.342	-29.2565373944428
4.343	-29.3101755618975
4.344	-29.3433344557677
4.345	-29.3564911590028
4.346	-29.3500998212326
4.347	-29.3245935044645
4.348	-29.2803859061466
4.349	-29.2178729673466
4.35	-29.1374343732991
4.351	-29.1907104604405
4.352	-29.223125701469
4.353	-29.2351854941606
4.354	-29.2273706528279
4.355	-29.2001393587386
4.356	-29.1539289810701
4.357	-29.0891577765902
4.358	-29.0062264757304
4.359	-28.9055197622219
4.36	-28.7874076530074
4.361	-28.9836035613868
4.362	-29.1578252747045
4.363	-29.3105936527384
4.364	-29.4424004445879
4.365	-29.553710557332
4.366	-29.644964176235
4.367	-29.7165787459045
4.368	-29.7689508211985
4.369	-29.8024577961154
4.37	-29.8174595183666
4.371	-29.990303357697
4.372	-30.1509919680523
4.373	-30.2993904039192
4.374	-30.4353732680739
4.375	-30.5588244984577
4.376	-30.6696371682509
4.377	-30.7677132981167
4.378	-30.852963679655
4.379	-30.9253077091658
4.38	-30.9846732308843
4.381	-31.0463163158656
4.382	-31.1115802249336
4.383	-31.1793400846689
4.384	-31.2485406783988
4.385	-31.318192339287
4.386	-31.3873671093744
4.387	-31.4551951472509
4.388	-31.5208613681561
4.389	-31.5836023013529
4.39	-31.6427031505908
4.391	-31.5262220018045
4.392	-31.4306774377894
4.393	-31.3541936359438
4.394	-31.2950122542612
4.395	-31.2514849980435
4.396	-31.2220666669247
4.397	-31.2053086511893
4.398	-31.1998528483696
4.399	-31.2044259729768
4.4	-31.2178342339707
4.401	-30.8218036479657
4.402	-30.4672030014362
4.403	-30.1511249687995
4.404	-29.8708474733829
4.405	-29.6238217742527
4.406	-29.4076613216883
4.407	-29.2201313317249
4.408	-29.0591390333844
4.409	-28.9227245452037
4.41	-28.8090523404718
4.411	-28.0556448569095
4.412	-27.3642289756234
4.413	-26.7307430473142
4.414	-26.1513866155487
4.415	-25.6226035750898
4.416	-25.1410664164541
4.417	-24.7036614866406
4.418	-24.3074752004939
4.419	-23.949781141392
4.42	-23.6280279939014
4.421	-22.5548880983357
4.422	-21.5579233877918
4.423	-20.632215731469
4.424	-19.7731641070351
4.425	-18.9764641491507
4.426	-18.2380890169871
4.427	-17.5542714956726
4.428	-16.9214872520866
4.429	-16.3364391705515
4.43	-15.7960426987775
4.431	-14.6085190480983
4.432	-13.4977708545263
4.433	-12.4588465763586
4.434	-11.4871140157657
4.435	-10.5782397230827
4.436	-9.72816972939684
4.437	-8.93311152176435
4.438	-8.18951718091417
4.439	-7.49406760646596
4.44	-6.84365775952419
4.441	-6.38249882375242
4.442	-5.95274277239721
4.443	-5.5523643246407
4.444	-5.179468816733
4.445	-4.83228377799752
4.446	-4.50915105013198
4.447	-4.20851941476597
4.448	-3.92893769649537
4.449	-3.66904831072869
4.45	-3.42758122765721
4.451	-3.2178302460981
4.452	-3.0234127448445
4.453	-2.84333979933451
4.454	-2.6766862631956
4.455	-2.522586654945
4.456	-2.38023130997273
4.457	-2.24886278069783
4.458	-2.12777246889227
4.459	-2.01629747519934
4.46	-1.91381765183843
4.461	-1.73079030224646
4.462	-1.56048287423418
4.463	-1.40207502258857
4.464	-1.25479930912404
4.465	-1.11793779050573
4.466	-0.990818826137176
4.467	-0.872814091919479
4.468	-0.763335786604623
4.469	-0.661834018321713
4.47	-0.567794359656166
4.471	-0.486028232107346
4.472	-0.410504387597651
4.473	-0.340820246847188
4.474	-0.276599194247447
4.475	-0.217488903364773
4.476	-0.163159770438511
4.477	-0.113303448908893
4.478	-0.0676314784587094
4.479	-0.0258740024734991
4.48	0.0122214317824657
4.481	-0.339568416948312
4.482	-0.673450876100141
4.483	-0.990578956642879
4.484	-1.29203128186599
4.485	-1.57881688493517
4.486	-1.85187969703624
4.487	-2.11210274606151
4.488	-2.36031208450712
4.489	-2.59728046404518
4.49	-2.82373077310902
4.491	-3.44984779490743
4.492	-4.04400588651052
4.493	-4.60825068698065
4.494	-5.14449574458729
4.495	-5.65453103614563
4.496	-6.14003093691339
4.497	-6.60256167648149
4.498	-7.04358831380893
4.499	-7.46448126241377
4.5	-7.86652239473277
4.501	-8.57195325247083
4.502	-9.24235234784937
4.503	-9.87993298270525
4.504	-10.486765322533
4.505	-11.0647856296422
4.506	-11.615804900848
4.507	-12.1415169480985
4.508	-12.6435059579658
4.509	-13.1232535636115
4.51	-13.5821454606685
4.511	-14.1675768643206
4.512	-14.7258319955079
4.513	-15.2585900660073
4.514	-15.7674214642304
4.515	-16.2537947773542
4.516	-16.7190833605938
4.517	-17.164571482823
4.518	-17.591460075866
4.519	-18.0008721130211
4.52	-18.3938576407277
4.521	-18.7432475478035
4.522	-19.0798630560144
4.523	-19.4044551726918
4.524	-19.7177260131551
4.525	-20.0203319574018
4.526	-20.3128866032308
4.527	-20.5959635289302
4.528	-20.8700988778088
4.529	-21.1357937760622
4.53	-21.393516594723
4.531	-21.4604081730207
4.532	-21.5314190867046
4.533	-21.606238441166
4.534	-21.6845751318783
4.535	-21.7661565694729
4.536	-21.8507274870473
4.537	-21.9380488244029
4.538	-22.02789668425
4.539	-22.1200613557393
4.54	-22.2143464009778
4.541	-21.9798042373893
4.542	-21.7663747998535
4.543	-21.5726818242536
4.544	-21.3974377344909
4.545	-21.2394379228336
4.546	-21.0975553991484
4.547	-20.9707357852252
4.548	-20.857992631937
4.549	-20.7584030384153
4.55	-20.6711035537629
4.551	-20.1476595000568
4.552	-19.6599417477337
4.553	-19.205645329999
4.554	-18.782613934151
4.555	-18.3888303143102
4.556	-18.0224073224687
4.557	-17.6815795179812
4.558	-17.3646953181927
4.559	-17.0702096553014
4.56	-16.7966771068091
4.561	-16.452484635427
4.562	-16.1315758326795
4.563	-15.8324488189685
4.564	-15.5536985763271
4.565	-15.2940107014419
4.566	-15.0521555615673
4.567	-14.8269828273476
4.568	-14.6174163582374
4.569	-14.4224494177818
4.57	-14.2411401974807
4.571	-14.2100259175241
4.572	-14.1833213466886
4.573	-14.1607406602952
4.574	-14.1420164637446
4.575	-14.1268986038923
4.576	-14.1151530570843
4.577	-14.1065608889063
4.578	-14.1009172810235
4.579	-14.0980306207826
4.58	-14.0977216495294
4.581	-14.1837714079086
4.582	-14.267434770909
4.583	-14.3488627076341
4.584	-14.4281964413106
4.585	-14.5055680778456
4.586	-14.5811011938461
4.587	-14.6549113867151
4.588	-14.7271067892699
4.589	-14.7977885511702
4.59	-14.8670512892979
4.591	-14.9977498089848
4.592	-15.1237099957331
4.593	-15.2452327921348
4.594	-15.3625997161605
4.595	-15.4760741139479
4.596	-15.5859023317925
4.597	-15.6923148125526
4.598	-15.7955271213429
4.599	-15.895740905077
4.6	-15.993144790126
4.601	-16.1537157046704
4.602	-16.3081329326449
4.603	-16.4567862306308
4.604	-16.6000401933532
4.605	-16.738235876508
4.606	-16.8716923149264
4.607	-17.0007079428276
4.608	-17.1255619224742
4.609	-17.2465153871375
4.61	-17.3638126038992
4.611	-17.5538888835363
4.612	-17.736441091218
4.613	-17.9119434505569
4.614	-18.0808395610297
4.615	-18.2435443731377
4.616	-18.4004460361821
4.617	-18.5519076268695
4.618	-18.6982687664334
4.619	-18.8398471334619
4.62	-18.9769398791569
4.621	-19.1975565882931
4.622	-19.4091909493702
4.623	-19.6124049150324
4.624	-19.8077241328606
4.625	-19.9956402870329
4.626	-20.1766132889638
4.627	-20.3510733266615
4.628	-20.5194227819147
4.629	-20.6820380238334
4.63	-20.8392710867184
4.631	-21.0889087231254
4.632	-21.3280805939678
4.633	-21.5574341549128
4.634	-21.7775750082477
4.635	-21.9890696026394
4.636	-22.1924477587783
4.637	-22.3882050321356
4.638	-22.5768049233379
4.639	-22.7586809459896
4.64	-22.9342385611333
4.641	-23.2060563581751
4.642	-23.4660638133938
4.643	-23.714978996788
4.644	-23.9534735263032
4.645	-24.1821755647893
4.646	-24.4016726236763
4.647	-24.6125141858337
4.648	-24.8152141592751
4.649	-25.0102531726175
4.65	-25.1980807225008
4.651	-25.4764145218382
4.652	-25.7420161071938
4.653	-25.9956382605884
4.654	-26.2379850297721
4.655	-26.4697148737392
4.656	-26.6914436053834
4.657	-26.903747144377
4.658	-27.1071640925118
4.659	-27.302198142953
4.66	-27.4893203341174
4.661	-27.7453880638691
4.662	-27.9886606544342
4.663	-28.2198588201666
4.664	-28.4396566079506
4.665	-28.6486844123454
4.666	-28.8475317962813
4.667	-29.036750129847
4.668	-29.2168550589004
4.669	-29.3883288144777
4.67	-29.5516223732677
4.671	-29.7397120062098
4.672	-29.9163890129067
4.673	-30.0822364481513
4.674	-30.2377997220356
4.675	-30.3835890389782
4.676	-30.5200816794524
4.677	-30.6477241345571
4.678	-30.7669341029228
4.679	-30.8781023588283
4.68	-30.9815944998352
4.681	-31.0389925483117
4.682	-31.088438898453
4.683	-31.1302369342191
4.684	-31.1646709285116
4.685	-31.1920072970591
4.686	-31.2124957713865
4.687	-31.2263704960833
4.688	-31.2338510552528
4.689	-31.2351434327063
4.69	-31.2304409101725
4.691	-31.0865012856683
4.692	-30.9405384987212
4.693	-30.792423789169
4.694	-30.6420383140017
4.695	-30.4892725436953
4.696	-30.3340256972471
4.697	-30.1762052134145
4.698	-30.015726255814
4.699	-29.8525112496947
4.7	-29.6864894483369
4.701	-29.2856197022689
4.702	-28.8907723867164
4.703	-28.5012835068083
4.704	-28.11653560043
4.705	-27.7359547873021
4.706	-27.3590080076815
4.707	-26.9852004384472
4.708	-26.6140730751206
4.709	-26.2452004691097
4.71	-25.8781886101588
4.711	-25.213315951739
4.712	-24.5630608655193
4.713	-23.926252242289
4.714	-23.3018011695542
4.715	-22.6886956822376
4.716	-22.0859958503547
4.717	-21.4928291819194
4.718	-20.9083863207391
4.719	-20.331917020068
4.72	-19.7627263743178
4.721	-18.9002478850852
4.722	-18.0588424340664
4.723	-17.2370445778835
4.724	-16.4334931491004
4.725	-15.6469245582819
4.726	-14.8761665252711
4.727	-14.1201322119941
4.728	-13.377814730893
4.729	-12.6482820047527
4.73	-11.9306719552568
4.731	-11.0008180185167
4.732	-10.0936540857442
4.733	-9.20777978386021
4.734	-8.34189691466805
4.735	-7.4948028413518
4.736	-6.66538429773362
4.737	-5.85261159303295
4.738	-5.0555331866302
4.739	-4.27327060898328
4.74	-3.5050137063844
4.741	-2.6536306475724
4.742	-1.82059344611947
4.743	-1.00494128157605
4.744	-0.20578750973191
4.745	0.577685200105475
4.746	1.34622941829245
4.747	2.10053721842614
4.748	2.84124416996542
4.749	3.56893307734024
4.75	4.28413748186738
4.751	4.94935481168036
4.752	5.60545704925598
4.753	6.25271164241722
4.754	6.8913577952909
4.755	7.52160839873209
4.756	8.14365183982457
4.757	8.75765369821903
4.758	9.36375833656938
4.759	9.96209039185785
4.76	10.5527561739606
4.761	10.9837772456853
4.762	11.4174769850337
4.763	11.8533430157659
4.764	12.2908870449198
4.765	12.7296434132447
4.766	13.1691677417573
4.767	13.6090356681884
4.768	14.0488416674922
4.769	14.4881979509614
4.77	14.9267334388464
4.771	15.1213446940324
4.772	15.3308353877749
4.773	15.5539509136656
4.774	15.7895108233782
4.775	16.0364041190557
4.776	16.2935848509726
4.777	16.5600680007652
4.778	16.834925631793
4.779	17.1172832893827
4.78	17.4063166348195
4.781	17.3833013142794
4.782	17.3864226029923
4.783	17.4137784324962
4.784	17.463584702041
4.785	17.5341677129653
4.786	17.6239570919079
4.787	17.7314791713158
4.788	17.8553507977506
4.789	17.9942735403918
4.79	18.1470282739185
4.791	17.9305753063372
4.792	17.7498340971367
4.793	17.6023681372537
4.794	17.4858951033376
4.795	17.3982769323454
4.796	17.3375105366643
4.797	17.3017191184513
4.798	17.2891440445389
4.799	17.2981372457536
4.8	17.3271541068209
4.801	16.9441640746928
4.802	16.6042484168288
4.803	16.304562917278
4.804	16.0424451850522
4.805	15.8154029334978
4.806	15.6211030157168
4.807	15.457361167276
4.808	15.3221324105881
4.809	15.2135020782902
4.81	15.1296774156976
4.811	14.6139730354718
4.812	14.1459767618836
4.813	13.7225879905781
4.814	13.3409053658032
4.815	12.9982139313269
4.816	12.6919731100771
4.817	12.419805459057
4.818	12.1794861495339
4.819	11.9689331257275
4.82	11.7861978982374
4.821	11.182222770461
4.822	10.6274337786186
4.823	10.1186547306542
4.824	9.65291403400581
4.825	9.22743150030268
4.826	8.83960600108419
4.827	8.48700391965405
4.828	8.16734834772473
4.829	7.87850897881752
4.83	7.6184926534817
4.831	6.97966635724624
4.832	6.38822411150132
4.833	5.8411111731238
4.834	5.33546975697837
4.835	4.86862633333279
4.836	4.43807974451192
4.837	4.04149008795466
4.838	3.67666831624562
4.839	3.3415665078809
4.84	3.03426876551014
4.841	2.41546960912834
4.842	1.83931628972267
4.843	1.30305916112507
4.844	0.804125907506445
4.845	0.340110106663311
4.846	-0.0912394690984691
4.847	-0.492028862052833
4.848	-0.864228292618125
4.849	-1.20968091902977
4.85	-1.53011103206791
4.851	-2.08234733462716
4.852	-2.59881899404381
4.853	-3.081832605401
4.854	-3.5335460026381
4.855	-3.95597785272619
4.856	-4.35101663107842
4.857	-4.72042901810189
4.858	-5.06586775422372
4.859	-5.38887898831643
4.86	-5.69090915219518
4.861	-5.5737383782013
4.862	-5.45989922958047
4.863	-5.34917582482852
4.864	-5.24136622288146
4.865	-5.13628152404729
4.866	-5.03374502892188
4.867	-4.93359145154985
4.868	-4.83566618333135
4.869	-4.73982460440241
4.87	-4.64593143942685
4.871	-4.28383947529481
4.872	-3.93814495470868
4.873	-3.60779110883874
4.874	-3.29178940057258
4.875	-2.9892151239812
4.876	-2.69920328759156
4.877	-2.42094476316185
4.878	-2.15368268283608
4.879	-1.89670906865917
4.88	-1.64936167946657
4.881	-1.1994293178717
4.882	-0.769551685075722
4.883	-0.358442003816157
4.884	0.0351033455577322
4.885	0.412210188365389
4.886	0.773931572980192
4.887	1.1212524646273
4.888	1.45509413646377
4.889	1.77631827746424
4.89	2.08573083537659
4.891	2.67733828812594
4.892	3.24217062456662
4.893	3.78192991758818
4.894	4.29820808571098
4.895	4.79249399820693
4.896	5.26618012199648
4.897	5.72056873987458
4.898	6.15687776771215
4.899	6.57624619649658
4.9	6.97973918340699
4.901	7.76181135589791
4.902	8.50690451882971
4.903	9.21732463804831
4.904	9.89522811075043
4.905	10.5426314167959
4.906	11.1614201476236
4.907	11.7533574529105
4.908	12.3200919425272
4.909	12.8631650789175
4.91	13.3840180927678
4.911	14.3025676857221
4.912	15.1739575307659
4.913	16.0010104516874
4.914	16.7863657713968
4.915	17.5324911734375
4.916	18.2416937986761
4.917	18.9161306264938
4.918	19.5578181866217
4.919	20.1686416447862
4.92	20.7503633025453
4.921	21.507855089553
4.922	22.2167789804172
4.923	22.8797754302799
4.924	23.4993146496197
4.925	24.0777076993981
4.926	24.6171168705975
4.927	25.1195653942782
4.928	25.5869465253045
4.929	26.0210320401059
4.93	26.4234801862394
4.931	26.3088200761444
4.932	26.1725913418019
4.933	26.0155005272847
4.934	25.8382216135234
4.935	25.6413984129683
4.936	25.4256468039761
4.937	25.1915568151326
4.938	24.9396945690657
4.939	24.6706040946883
4.94	24.3848090162394
4.941	22.6885510747354
4.942	21.0578984293152
4.943	19.4886933622584
4.944	17.9770654797692
4.945	16.519413140741
4.946	15.1123860748578
4.947	13.7528691133481
4.948	12.4379669606583
4.949	11.1649899399402
4.95	9.93144064958091
4.951	7.71961660570215
4.952	5.62173415270459
4.953	3.63114658070665
4.954	1.74164813576125
4.955	-0.0525547323094319
4.956	-1.75687027299293
4.957	-3.37634660819405
4.958	-4.91569528680153
4.959	-6.3793133249558
4.96	-7.77130382953427
4.961	-9.27868644155906
4.962	-10.7009599034548
4.963	-12.0427268879801
4.964	-13.3082883018437
4.965	-14.5016631386891
4.966	-15.6266070536734
4.967	-16.686629741914
4.968	-17.6850111977756
4.969	-18.6248169270018
4.97	-19.5089121790511
4.971	-20.3467193319829
4.972	-21.1297697118432
4.973	-21.8606757298448
4.974	-22.5418820332344
4.975	-23.175676727848
4.976	-23.7642018763882
4.977	-24.3094633189581
4.978	-24.8133398593863
4.979	-25.2775918580693
4.98	-25.703869269432
4.981	-26.1082652142958
4.982	-26.4782635763768
4.983	-26.8151819139682
4.984	-27.1202568540485
4.985	-27.3946497052317
4.986	-27.63945170677
4.987	-27.8556889369112
4.988	-28.0443269024085
4.989	-28.2062748295771
4.99	-28.3423896759779
4.991	-28.5284492650898
4.992	-28.689903669413
4.993	-28.8274619074019
4.994	-28.9417931844421
4.995	-29.0335298430133
4.996	-29.1032701198234
4.997	-29.1515807221959
4.998	-29.1789992352018
4.999	-29.1860363702903
5	-29.1731780654744
5.001	-29.2638482948685
5.002	-29.3333705741323
5.003	-29.3822504720999
5.004	-29.4109680392426
5.005	-29.4199798268349
5.006	-29.4097207726234
5.007	-29.3806059614476
5.008	-29.3330322687149
5.009	-29.2673798941268
5.01	-29.1840137925765
5.011	-29.2721625948085
5.012	-29.3392208545817
5.013	-29.3856912838855
5.014	-29.4120513063732
5.015	-29.4187550613005
5.016	-29.4062352749311
5.017	-29.3749050077932
5.018	-29.3251592856328
5.019	-29.257376621407
5.02	-29.1719204351853
5.021	-29.362228631762
5.022	-29.533139605574
5.023	-29.6849987588212
5.024	-29.8181327392303
5.025	-29.9328510452832
5.026	-30.0294475261997
5.027	-30.1082017832901
5.028	-30.1693804788654
5.029	-30.2132385584964
5.03	-30.2400203920417
5.031	-30.3838347219368
5.032	-30.519803017401
5.033	-30.6475121269625
5.034	-30.766575321197
5.035	-30.8766309919463
5.036	-30.9773414353501
5.037	-31.0683917131098
5.038	-31.1494885867604
5.039	-31.2203595200674
5.04	-31.2807517449769
5.041	-31.2945029386163
5.042	-31.3172315545575
5.043	-31.347555583375
5.044	-31.3841785816639
5.045	-31.4258844709026
5.046	-31.471532673034
5.047	-31.5200535609241
5.048	-31.570444203265
5.049	-31.621764384805
5.05	-31.6731328840239
5.051	-31.4822574256484
5.052	-31.3186610918745
5.053	-31.1801377073804
5.054	-31.0646199055541
5.055	-30.9701702839764
5.056	-30.8949731311263
5.057	-30.8373266874431
5.058	-30.7956359062564
5.059	-30.7684056823192
5.06	-30.7542345177596
5.061	-30.2580535602986
5.062	-29.8100008326607
5.063	-29.4067911002934
5.064	-29.045349083391
5.065	-28.7227959381953
5.066	-28.4364366103982
5.067	-28.1837480043979
5.068	-27.9623679157892
5.069	-27.7700846778604
5.07	-27.604827476046
5.071	-26.750825707664
5.072	-25.9642371712767
5.073	-25.2406735969887
5.074	-24.576029200325
5.075	-23.9664624654386
5.076	-23.4083791032106
5.077	-22.8984161084719
5.078	-22.4334268454569
5.079	-22.0104670951772
5.08	-21.6267820026749
5.081	-20.4998492677137
5.082	-19.4510379974338
5.083	-18.4753079665947
5.084	-17.567943976094
5.085	-16.7245348908012
5.086	-15.9409540293215
5.087	-15.2133408184995
5.088	-14.5380836310944
5.089	-13.9118037303189
5.09	-13.3313402498575
5.091	-12.2752024790563
5.092	-11.287463949258
5.093	-10.3637133352891
5.094	-9.49982381521389
5.095	-8.69193472163227
5.096	-7.93643437635471
5.097	-7.22994403213533
5.098	-6.5693028500638
5.099	-5.95155384582288
5.1	-5.37393074232543
5.101	-4.95607635699522
5.102	-4.56668120384734
5.103	-4.20390987433452
5.104	-3.86604533164628
5.105	-3.55148127646248
5.106	-3.25871500506882
5.107	-2.98634072807964
5.108	-2.73304332006202
5.109	-2.49759247227044
5.11	-2.27883722249392
5.111	-2.05659706302562
5.112	-1.85000911214775
5.113	-1.65806392834964
5.114	-1.47981717234379
5.115	-1.31438540837447
5.116	-1.16094217631571
5.117	-1.01871431709495
5.118	-0.886978535104087
5.119	-0.765058182313786
5.12	-0.652320249792616
5.121	-0.436733917977716
5.122	-0.235254518754247
5.123	-0.0469722436858029
5.124	0.128964038637864
5.125	0.293350566906853
5.126	0.446932227332691
5.127	0.590405865566299
5.128	0.724423385017519
5.129	0.849594645352266
5.13	0.966490174054455
5.131	0.762870120623101
5.132	0.569055697671559
5.133	0.384414868523474
5.134	0.208356367384058
5.135	0.0403270698689209
5.136	-0.120190466882336
5.137	-0.273680305445243
5.138	-0.420595280933764
5.139	-0.56135901497984
5.14	-0.696367799823731
5.141	-1.26687552252
5.142	-1.80807267636371
5.143	-2.32184091256046
5.144	-2.80994042303178
5.145	-3.27401777391217
5.146	-3.71561323383545
5.147	-4.1361676295932
5.148	-4.53702875964708
5.149	-4.91945739401062
5.15	-5.2846328871772
5.151	-6.03278230467707
5.152	-6.74313292786016
5.153	-7.41808496543635
5.154	-8.05988347148074
5.155	-8.67062835324642
5.156	-9.25228373354749
5.157	-9.80668670933803
5.158	-10.335555545429
5.159	-10.8404973397728
5.16	-11.3230151943964
5.161	-12.0178195674743
5.162	-12.6789574614095
5.163	-13.3085241482749
5.164	-13.9084791822762
5.165	-14.4806551567704
5.166	-15.0267658965411
5.167	-15.5484141217532
5.168	-16.0470986176601
5.169	-16.5242209419396
5.17	-16.9810916994774
5.171	-17.4616452402737
5.172	-17.9216358710536
5.173	-18.3622986721899
5.174	-18.7847884751948
5.175	-19.1901850435423
5.176	-19.5794979193937
5.177	-19.9536709577726
5.178	-20.3135865683464
5.179	-20.6600696836724
5.18	-20.9938914715493
5.181	-21.1936262697122
5.182	-21.3898188874062
5.183	-21.5826283844611
5.184	-21.7722031508001
5.185	-21.958681597681
5.186	-22.1421928043756
5.187	-22.3228571231599
5.188	-22.5007867453042
5.189	-22.6760862305779
5.19	-22.8488530026222
5.191	-22.7422887245424
5.192	-22.6501321673388
5.193	-22.5714230820382
5.194	-22.5052629803497
5.195	-22.4508111521862
5.196	-22.4072809400356
5.197	-22.3739362536162
5.198	-22.3500883093176
5.199	-22.3350925799334
5.2	-22.3283459411192
5.201	-21.9074975135974
5.202	-21.5179093311102
5.203	-21.1575601211761
5.204	-20.8245589500933
5.205	-20.5171368169196
5.206	-20.233638789588
5.207	-19.9725166481954
5.208	-19.7323220027531
5.209	-19.5116998548004
5.21	-19.3093825742543
5.211	-18.722747923141
5.212	-18.1742335617229
5.213	-17.6613809530133
5.214	-17.1818901204792
5.215	-16.7336094218707
5.216	-16.3145259825753
5.217	-15.922756745962
5.218	-15.5565401009227
5.219	-15.2142280493859
5.22	-14.8942788789768
5.221	-14.7693172239226
5.222	-14.6544005340833
5.223	-14.5488800770012
5.224	-14.4521489573387
5.225	-14.3636394186434
5.226	-14.2828203191323
5.227	-14.2091947702726
5.228	-14.1422979276596
5.229	-14.0816949243695
5.23	-14.026978937597
5.231	-14.0862058824639
5.232	-14.1446039965162
5.233	-14.2022242354695
5.234	-14.2591142609869
5.235	-14.3153186531321
5.236	-14.370879109119
5.237	-14.4258346292453
5.238	-14.4802216908327
5.239	-14.5340744109505
5.24	-14.5874246986432
5.241	-14.707581199317
5.242	-14.8235580819194
5.243	-14.9356207500029
5.244	-15.0440174763086
5.245	-15.1489805076145
5.246	-15.2507270983272
5.247	-15.3494604774137
5.248	-15.4453707529723
5.249	-15.5386357584639
5.25	-15.6294218443672
5.251	-15.7816997265729
5.252	-15.9282332960715
5.253	-16.0693866653112
5.254	-16.2055004415012
5.255	-16.3368932425888
5.256	-16.4638631154667
5.257	-16.5866888627135
5.258	-16.7056312837689
5.259	-16.8209343360601
5.26	-16.9328262212433
5.261	-17.1143052583259
5.262	-17.2886823476861
5.263	-17.4564057320985
5.264	-17.6178947102728
5.265	-17.7735415036418
5.266	-17.9237130027549
5.267	-18.0687524010389
5.268	-18.2089807231924
5.269	-18.3446982550084
5.27	-18.4761858809821
5.271	-18.6880452092077
5.272	-18.8913658500406
5.273	-19.086683186347
5.274	-19.2744980165673
5.275	-19.4552787853649
5.276	-19.6294636704127
5.277	-19.797462534595
5.278	-19.9596587523063
5.279	-20.1164109179636
5.28	-20.2680544443331
5.281	-20.5098029551624
5.282	-20.74152083045
5.283	-20.9638307779177
5.284	-21.1773152582687
5.285	-21.3825190812511
5.286	-21.5799518342913
5.287	-21.7700901544972
5.288	-21.9533798541329
5.289	-22.1302379090141
5.29	-22.3010543186662
5.291	-22.5677120205377
5.292	-22.8229272362783
5.293	-23.0673995655038
5.294	-23.3017833597454
5.295	-23.526690641535
5.296	-23.7426938352312
5.297	-23.950328321726
5.298	-24.1500948283914
5.299	-24.3424616648931
5.3	-24.5278668148094
5.301	-24.8067363209682
5.302	-25.0730774487696
5.303	-25.3276378466754
5.304	-25.5711167699071
5.305	-25.8041682034685
5.306	-26.0274037837586
5.307	-26.2413955317636
5.308	-26.4466784099807
5.309	-26.6437527144415
5.31	-26.8330863124697
5.311	-27.099623394041
5.312	-27.3532623160248
5.313	-27.5947419224535
5.314	-27.824753211355
5.315	-28.0439424248559
5.316	-28.2529139400008
5.317	-28.4522329731404
5.318	-28.6424281099123
5.319	-28.8239936720606
5.32	-28.9973919316197
5.321	-29.2110188522833
5.322	-29.4126420004597
5.323	-29.6028974396215
5.324	-29.7823801027543
5.325	-29.9516464541727
5.326	-30.1112169796703
5.327	-30.2615785160777
5.328	-30.4031864305835
5.329	-30.5364666595068
5.33	-30.6618176155864
5.331	-30.764293109471
5.332	-30.8575636369132
5.333	-30.9420295851286
5.334	-31.0180657783326
5.335	-31.0860231443545
5.336	-31.1462302737388
5.337	-31.1989948782668
5.338	-31.2446051553839
5.339	-31.2833310645981
5.34	-31.3154255215271
5.341	-31.2366563928617
5.342	-31.1538890485562
5.343	-31.0671340781855
5.344	-30.976402582039
5.345	-30.8817061696804
5.346	-30.7830569584434
5.347	-30.6804675718642
5.348	-30.5739511380496
5.349	-30.4635212879822
5.35	-30.3491921537613
5.351	-30.0260162954555
5.352	-29.7063783518048
5.353	-29.389773636046
5.354	-29.0757330173607
5.355	-28.7638206745109
5.356	-28.4536319938296
5.357	-28.1447916022472
5.358	-27.8369515266384
5.359	-27.5297894713335
5.36	-27.2230072061668
5.361	-26.6308710367623
5.362	-26.0509501137383
5.363	-25.4822065946793
5.364	-24.9236753353544
5.365	-24.3744592548214
5.366	-23.8337249981743
5.367	-23.3006988777272
5.368	-22.7746630746646
5.369	-22.2549520843503
5.37	-21.7409493895684
5.371	-20.9241295798663
5.372	-20.1269089944485
5.373	-19.3478751108814
5.374	-18.5857154405128
5.375	-17.8392111144355
5.376	-17.1072308807048
5.377	-16.3887254862756
5.378	-15.6827224188395
5.379	-14.9883209853425
5.38	-14.3046877054605
5.381	-13.3786410932187
5.382	-12.4754204758954
5.383	-11.5935662327699
5.384	-10.7317243114874
5.385	-9.88863941212903
5.386	-9.06314860732698
5.387	-8.25417537030544
5.388	-7.460723984543
5.389	-6.68187431045033
5.39	-5.91677688604416
5.391	-5.02906599345923
5.392	-4.16153883042539
5.393	-3.3130749079357
5.394	-2.48263830918187
5.395	-1.66927217059218
5.396	-0.872093514723081
5.397	-0.0902884123355744
5.398	0.676892547549984
5.399	1.43013849945789
5.4	2.17008227367608
5.401	2.89665451395946
5.402	3.61107692013594
5.403	4.31383248895248
5.404	5.00536159032281
5.405	5.68606482058018
5.406	6.35630567550624
5.407	7.01641305472285
5.408	7.66668360828627
5.409	8.3073839356216
5.41	8.9387526462814
5.411	9.43915688371593
5.412	9.9387167435134
5.413	10.4371445203645
5.414	10.9341614671785
5.415	11.4294973259282
5.416	11.9228898916825
5.417	12.4140846076501
5.418	12.9028341892006
5.419	13.3888982749573
5.42	13.8720431031774
5.421	14.1334530494593
5.422	14.4062786203282
5.423	14.6894704600703
5.424	14.9820394973645
5.425	15.283053142049
5.426	15.5916317291032
5.427	15.9069451938818
5.428	16.22820996366
5.429	16.5546860515178
5.43	16.8856743394871
5.431	16.9230456582594
5.432	16.9834576799688
5.433	17.0651834127253
5.434	17.1666019701
5.435	17.2861917795098
5.436	17.4225242297117
5.437	17.5742577290771
5.438	17.7401321481406
5.439	17.9189636216303
5.44	18.1096396867816
5.441	17.9463831158556
5.442	17.8162864140103
5.443	17.7170544317689
5.444	17.646536618053
5.445	17.6027177188541
5.446	17.5837090763008
5.447	17.5877404893978
5.448	17.6131526002066
5.449	17.6583897715775
5.45	17.7219934247257
5.451	17.3839427093626
5.452	17.0871076773631
5.453	16.8287468767479
5.454	16.6062937090193
5.455	16.4173451608046
5.456	16.2596512624359
5.457	16.1311052265822
5.458	16.0297342230732
5.459	15.9536907488837
5.46	15.9012445548941
5.461	15.4196874626466
5.462	14.9848205954453
5.463	14.5935992759908
5.464	14.2431742575531
5.465	13.9308791219608
5.466	13.654218490398
5.467	13.4108569945873
5.468	13.1986089593191
5.469	13.015428750449
5.47	12.8594017454447
5.471	12.2755904419177
5.472	11.7408903827196
5.473	11.2521264026332
5.474	10.8063277677575
5.475	10.4007149911968
5.476	10.0326874990665
5.477	9.69981209197629
5.478	9.39981215068694
5.479	9.13055753794573
5.48	8.89005515160205
5.481	8.25537136153788
5.482	7.66893158122269
5.483	7.1276250274991
5.484	6.6285414545059
5.485	6.1689582202534
5.486	5.74632818732594
5.487	5.35826840391543
5.488	5.00254951485952
5.489	4.67708585560348
5.49	4.37992618504146
5.491	3.74984260518167
5.492	3.16404822330636
5.493	2.61968773329163
5.494	2.11408996722686
5.495	1.64475601963328
5.496	1.20934813759712
5.497	0.805679327420787
5.498	0.431703631580758
5.499	0.085507032761812
5.5	-0.234701055475118
5.501	-0.810289664342566
5.502	-1.34795334390854
5.503	-1.85013792396422
5.504	-2.31913149350501
5.505	-2.75707457403821
5.506	-3.16596963677497
5.507	-3.54769000602238
5.508	-3.90398818836157
5.509	-4.23650366464518
5.51	-4.54677017945926
5.511	-4.61674311562208
5.512	-4.67915854785985
5.513	-4.73450310525263
5.514	-4.78323203893184
5.515	-4.82577124576588
5.516	-4.86251916153067
5.517	-4.89384853198217
5.518	-4.92010806970573
5.519	-4.94162400410898
5.52	-4.95870153144948
5.521	-4.64973074366729
5.522	-4.35436257123747
5.523	-4.07171968837372
5.524	-3.80098140895791
5.525	-3.541380033631
5.526	-3.29219743247342
5.527	-3.05276184808106
5.528	-2.82244490482253
5.529	-2.60065881098035
5.53	-2.3868537413363
5.531	-1.95312453951937
5.532	-1.53884122831668
5.533	-1.14275452863658
5.534	-0.763695875852848
5.535	-0.400572214135555
5.536	-0.0523611265129676
5.537	0.281893720987885
5.538	0.603086841378455
5.539	0.912054913873011
5.54	1.20958051390813
5.541	1.7696112248353
5.542	2.30439453731529
5.543	2.81553948090964
5.544	3.3045509904205
5.545	3.77283661994209
5.546	4.2217128239066
5.547	4.65241083305105
5.548	5.06608215143018
5.549	5.46380369891529
5.55	5.8465826220431
5.551	6.58922626218414
5.552	7.29713858509218
5.553	7.97249671628288
5.554	8.61733664348199
5.555	9.23356232266658
5.556	9.82295419686278
5.557	10.3871771655736
5.558	10.9277880402675
5.559	11.4462425190737
5.56	11.9439017116915
5.561	12.8472992462895
5.562	13.7053593046912
5.563	14.5208264218671
5.564	15.2962667710212
5.565	16.0340796860611
5.566	16.7365084410827
5.567	17.4056503347844
5.568	18.0434661246375
5.569	18.6517888527463
5.57	19.2323321026289
5.571	20.066815263482
5.572	20.8515246484393
5.573	21.5892440703447
5.574	22.2825770612129
5.575	22.9339585867953
5.576	23.5456660057623
5.577	24.1198293222028
5.578	24.6584407769981
5.579	25.1633638206927
5.58	25.6363415077315
5.581	25.7774863431591
5.582	25.8877979940409
5.583	25.9685741178806
5.584	26.0210374191962
5.585	26.0463407493731
5.586	26.0455718740991
5.587	26.019757929718
5.588	25.9698695884643
5.589	25.896824951254
5.59	25.8014931855056
5.591	24.438375504525
5.592	23.1196628839868
5.593	21.8423785622987
5.594	20.6037568940199
5.595	19.401229775306
5.596	18.2324139364176
5.597	17.0950990453596
5.598	15.9872365703259
5.599	14.9069293520057
5.6	13.8524218399657
5.601	11.5182003104416
5.602	9.30295669101631
5.603	7.19966348018767
5.604	5.20175996907319
5.605	3.30312184693242
5.606	1.49803276112333
5.607	-0.218842294426446
5.608	-1.85248188002973
5.609	-3.40753141052748
5.61	-4.8883249581414
5.611	-6.53769115053283
5.612	-8.09555110979443
5.613	-9.56693814868738
5.614	-10.9565548217567
5.615	-12.2687946407417
5.616	-13.507762392002
5.617	-14.6772931459505
5.618	-15.7809700426813
5.619	-16.8221409325483
5.62	-17.8039339453706
5.621	-18.750677329668
5.622	-19.6372994214658
5.623	-20.4667583310199
5.624	-21.2418213806333
5.625	-21.9650778125586
5.626	-22.638950677146
5.627	-23.265707953929
5.628	-23.8474729549419
5.629	-24.3862340563845
5.63	-24.883853801775
5.631	-25.3478877324867
5.632	-25.7744969127293
5.633	-26.1651908134624
5.634	-26.5213852393151
5.635	-26.844408764479
5.636	-27.1355087517365
5.637	-27.3958569813365
5.638	-27.6265549147086
5.639	-27.828638616396
5.64	-28.0030833560794
5.641	-28.2159942428739
5.642	-28.4029338563666
5.643	-28.5646969797126
5.644	-28.7020328923419
5.645	-28.8156486882315
5.646	-28.9062123774763
5.647	-28.9743557849678
5.648	-29.0206772591015
5.649	-29.0457442025987
5.65	-29.0500954367533
5.651	-29.1515231077486
5.652	-29.2312734774431
5.653	-29.2898849457563
5.654	-29.3278682052891
5.655	-29.3457084022693
5.656	-29.3438671548872
5.657	-29.3227844380581
5.658	-29.2828803430627
5.659	-29.2245567199773
5.66	-29.1481987102946
5.661	-29.2036346551544
5.662	-29.2382128210198
5.663	-29.2524370935117
5.664	-29.2467868104437
5.665	-29.2217187105435
5.666	-29.1776687528484
5.667	-29.1150538149534
5.668	-29.0342732777708
5.669	-28.9357105039632
5.67	-28.8197342167552
5.671	-29.0046335130159
5.672	-29.1674008193807
5.673	-29.3085716017826
5.674	-29.4286516603121
5.675	-29.5281194315666
5.676	-29.6074281402073
5.677	-29.6670078092773
5.678	-29.7072671382228
5.679	-29.7285952569815
5.68	-29.7313633639658
5.681	-29.9087995623195
5.682	-30.0728955470525
5.683	-30.2235936079306
5.684	-30.3608409913137
5.685	-30.4845899826418
5.686	-30.5947979828818
5.687	-30.691427579151
5.688	-30.7744466097158
5.689	-30.8438282235529
5.69	-30.8995509346505
5.691	-30.9742944253096
5.692	-31.0509750268385
5.693	-31.1285579372374
5.694	-31.2060725278385
5.695	-31.2826086047459
5.696	-31.3573129123405
5.697	-31.4293858630593
5.698	-31.4980784786823
5.699	-31.5626895293071
5.7	-31.622562857087
5.701	-31.5269595645822
5.702	-31.450480901829
5.703	-31.3913358600687
5.704	-31.347845405865
5.705	-31.3184354192769
5.706	-31.3016300884371
5.707	-31.2960457310548
5.708	-31.3003850152626
5.709	-31.3134315540069
5.71	-31.3340448488424
5.711	-30.9687891300306
5.712	-30.6429333989087
5.713	-30.3536785799246
5.714	-30.0984037147353
5.715	-29.8746545149478
5.716	-29.6801326535038
5.717	-29.5126857470614
5.718	-29.3702979848055
5.719	-29.2510813619874
5.72	-29.1532674791867
5.721	-28.4343662312929
5.722	-27.7756623261569
5.723	-27.1731991649385
5.724	-26.6232744557824
5.725	-26.1224238173323
5.726	-25.6674054397725
5.727	-25.2551857351919
5.728	-24.8829259134641
5.729	-24.5479694239554
5.73	-24.2478302072172
5.731	-23.1982025355401
5.732	-22.2239059423593
5.733	-21.3200746606651
5.734	-20.4821566275281
5.735	-19.7058932522288
5.736	-18.9873004892186
5.737	-18.3226511317597
5.738	-17.7084582475183
5.739	-17.1414596824598
5.74	-16.61860356415
5.741	-15.4289388495994
5.742	-14.3167175885629
5.743	-13.2769451701026
5.744	-12.3049491047706
5.745	-11.3963582497616
5.746	-10.5470833739145
5.747	-9.75329897615167
5.748	-9.01142627651654
5.749	-8.31811730418407
5.75	-7.67024001169663
5.751	-7.13964985178865
5.752	-6.64474618110122
5.753	-6.1832274582348
5.754	-5.7529405762847
5.755	-5.35187128973237
5.756	-4.97813525874328
5.757	-4.62996967105208
5.758	-4.30572540418454
5.759	-4.00385969316791
5.76	-3.72292927112851
5.761	-3.4904699966467
5.762	-3.27475866585071
5.763	-3.07471513315779
5.764	-2.88932891447573
5.765	-2.7176546944668
5.766	-2.55880812356528
5.767	-2.41196188606157
5.768	-2.27634202177058
5.769	-2.15122448492963
5.77	-2.03593192502648
5.771	-1.85023090711092
5.772	-1.67746584614176
5.773	-1.51680246394993
5.774	-1.3674602879573
5.775	-1.22870918104816
5.776	-1.09986609524262
5.777	-0.980292034737981
5.778	-0.869389214815318
5.779	-0.766598403978877
5.78	-0.671396437511163
5.781	-0.568626799787609
5.782	-0.473297835039808
5.783	-0.384929674615202
5.784	-0.303073398304849
5.785	-0.227309038359941
5.786	-0.157243712236815
5.787	-0.0925098757684357
5.788	-0.0327636889954295
5.789	0.0223165126089039
5.79	0.073031648317143
5.791	-0.262175847750368
5.792	-0.580350886398702
5.793	-0.882590310203835
5.794	-1.16992019964813
5.795	-1.44330043684666
5.796	-1.70362897494166
5.797	-1.95174583214735
5.798	-2.18843682820374
5.799	-2.41443707985224
5.8	-2.63043427087492
5.801	-3.24734906272944
5.802	-3.8327422019353
5.803	-4.38863223001433
5.804	-4.91690735542434
5.805	-5.41933385950128
5.806	-5.89756396027261
5.807	-6.353143169106
5.808	-6.7875171729023
5.809	-7.20203827243221
5.81	-7.59797140544271
5.811	-8.30458932211943
5.812	-8.97604383827735
5.813	-9.61455842767382
5.814	-10.2222127829201
5.815	-10.8009520901213
5.816	-11.3525957053728
5.817	-11.8788452716906
5.818	-12.3812923124635
5.819	-12.8614253351877
5.82	-13.3206364770684
5.821	-13.9150431596343
5.822	-14.4817129799069
5.823	-15.0223621913335
5.824	-15.5385958376333
5.825	-16.0319149287647
5.826	-16.503723154112
5.827	-16.9553331627396
5.828	-17.3879724386335
5.829	-17.8027887970503
5.83	-18.2008555264121
5.831	-18.5627741664397
5.832	-18.9111542682956
5.833	-19.2467954472373
5.834	-19.570445285354
5.835	-19.8828026909054
5.836	-20.1845210410263
5.837	-20.4762111217674
5.838	-20.7584438785429
5.839	-21.0317529892134
5.84	-21.2966372712412
5.841	-21.3774267554911
5.842	-21.4615157445698
5.843	-21.548644692285
5.844	-21.6385705211033
5.845	-21.7310655615266
5.846	-21.8259165598797
5.847	-21.9229237500988
5.848	-22.0218999853921
5.849	-22.1226699259111
5.85	-22.2250692788211
5.851	-22.0048726741268
5.852	-21.8050100841088
5.853	-21.6241543539182
5.854	-21.4610638430567
5.855	-21.3145769104324
5.856	-21.1836067550975
5.857	-21.0671365897269
5.858	-20.964215125379
5.859	-20.8739523474624
5.86	-20.7955155641276
5.861	-20.2845653857807
5.862	-19.8087490122316
5.863	-19.3657994607804
5.864	-18.9535959523185
5.865	-18.5701544820999
5.866	-18.2136189986414
5.867	-17.8822531515278
5.868	-17.5744325714336
5.869	-17.2886376480352
5.87	-17.0234467737031
5.871	-16.6533989953487
5.872	-16.3081875537886
5.873	-15.9862104808909
5.874	-15.6859691253427
5.875	-15.4060614893537
5.876	-15.1451759950998
5.877	-14.9020856531941
5.878	-14.6756426072548
5.879	-14.4647730303146
5.88	-14.2684723503807
5.881	-14.2264467747479
5.882	-14.1894551980036
5.883	-14.1571716450571
5.884	-14.1292911607352
5.885	-14.1055284541297
5.886	-14.085616630375
5.887	-14.0693060042194
5.888	-14.0563629901129
5.889	-14.0465690638781
5.89	-14.0397197913464
5.891	-14.121610150649
5.892	-14.2013254071306
5.893	-14.2790030432558
5.894	-14.3547716659512
5.895	-14.4287515790302
5.896	-14.501055318701
5.897	-14.5717881545368
5.898	-14.6410485581373
5.899	-14.7089286415636
5.9	-14.7755145674975
5.901	-14.9035309713609
5.902	-15.0269274624284
5.903	-15.1459975441138
5.904	-15.2610157757628
5.905	-15.3722389944467
5.906	-15.4799074579582
5.907	-15.5842459140907
5.908	-15.6854646009565
5.909	-15.7837601827896
5.91	-15.8793166253966
5.911	-16.037226785264
5.912	-16.1890977222456
5.913	-16.3353121159934
5.914	-16.4762279419161
5.915	-16.6121800644892
5.916	-16.7434817278069
5.917	-16.8704259500029
5.918	-16.9932868277396
5.919	-17.1123207565663
5.92	-17.227767572571
5.921	-17.4149930850077
5.922	-17.5948207236559
5.923	-17.7677170561209
5.924	-17.9341185214956
5.925	-18.0944333735495
5.926	-18.2490434985936
5.927	-18.3983061161057
5.928	-18.5425553696749
5.929	-18.6821038153414
5.93	-18.817243813947
5.931	-19.0349655935822
5.932	-19.2438402480752
5.933	-19.4444217781321
5.934	-19.637228395054
5.935	-19.8227448291254
5.936	-20.0014244891254
5.937	-20.1736914825651
5.938	-20.3399425056329
5.939	-20.5005486112505
5.94	-20.6558568631007
5.941	-20.9029161915601
5.942	-21.1396432736864
5.943	-21.3666781724658
5.944	-21.5846195782416
5.945	-21.794027477433
5.946	-21.9954256491384
5.947	-22.1893040007252
5.948	-22.3761207527902
5.949	-22.5563044832049
5.95	-22.7302560393338
5.951	-23.0004476541259
5.952	-23.2589407702641
5.953	-23.5064481408085
5.954	-23.7436364144476
5.955	-23.9711291099483
5.956	-24.1895093987759
5.957	-24.3993227082551
5.958	-24.601079156847
5.959	-24.7952558323683
5.96	-24.9822989232826
5.961	-25.260966376213
5.962	-25.5269589979274
5.963	-25.7810287185006
5.964	-26.0238787922831
5.965	-26.2561669394562
5.966	-26.4785082849825
5.967	-26.6914781080178
5.968	-26.8956144140095
5.969	-27.0914203409161
5.97	-27.2793664102467
5.971	-27.5391537191346
5.972	-27.7861007466498
5.973	-28.0209351463023
5.974	-28.2443374530416
5.975	-28.4569441271112
5.976	-28.6593504016032
5.977	-28.8521129463711
5.978	-29.0357523601467
5.979	-29.2107555019378
5.98	-29.3775776720743
5.981	-29.57447043983
5.982	-29.7597427642956
5.983	-29.9339962450546
5.984	-30.0977936165201
5.985	-30.2516612649484
5.986	-30.3960915831253
5.987	-30.5315451731916
5.988	-30.6584529074041
5.989	-30.77721785599
5.99	-30.8882170906694
5.991	-30.9609150589992
5.992	-31.0252350121815
5.993	-31.0815133040581
5.994	-31.1300649810342
5.995	-31.1711851764255
5.996	-31.2051504148373
5.997	-31.2322198323777
5.998	-31.2526363181301
5.999	-31.2666275819619
6	-31.2744071534182
6.001	-31.1522752038395
6.002	-31.027460754306
6.003	-30.8998814449154
6.004	-30.7694616930814
6.005	-30.6361322908466
6.006	-30.4998300279641
6.007	-30.3604973390795
6.008	-30.2180819734552
6.009	-30.0725366857783
6.01	-29.9238189466878
6.011	-29.5485019062917
6.012	-29.178393931865
6.013	-28.812882829387
6.014	-28.4513993546139
6.015	-28.0934144921539
6.016	-27.7384369093921
6.017	-27.3860105739804
6.018	-27.0357125243348
6.019	-26.6871507832634
6.02	-26.3399624054862
6.021	-25.6984098713102
6.022	-25.0707111844232
6.023	-24.4557368300168
6.024	-23.8524365028294
6.025	-23.2598340512638
6.026	-22.6770227461069
6.027	-22.1031608529054
6.028	-21.5374674884028
6.029	-20.9792187427053
6.03	-20.4277440500294
6.031	-19.5791362830457
6.032	-18.7511659390301
6.033	-17.9423814079944
6.034	-17.1514341921645
6.035	-16.3770722867119
6.036	-15.6181339847456
6.037	-14.8735420791929
6.038	-14.1422984359667
6.039	-13.4234789144665
6.04	-12.7162286130063
6.041	-11.7863581194389
6.042	-10.8792799682121
6.043	-9.99357059484874
6.044	-9.12790997237078
6.045	-8.28107491541342
6.046	-7.4519328124846
6.047	-6.63943575876482
6.048	-5.84261506362281
6.049	-5.06057610868957
6.05	-4.29249353389229
6.051	-3.4282689098412
6.052	-2.58304015760868
6.053	-1.7557914074842
6.054	-0.945584554935125
6.055	-0.151554170973775
6.056	0.627097263307117
6.057	1.39110381891077
6.058	2.14114029735746
6.059	2.87782614362188
6.06	3.6017291106781
6.061	4.28744458616208
6.062	4.96302495458338
6.063	5.62880946031712
6.064	6.28510431517567
6.065	6.93218493631408
6.066	7.5702980434521
6.067	8.19966362444934
6.068	8.820476777686
6.069	9.4329094391553
6.07	10.0371120016629
6.071	10.4908411610996
6.072	10.9460894955537
6.073	11.4024182280078
6.074	11.8594077139901
6.075	12.3166563130188
6.076	12.7737793355586
6.077	13.2304080605889
6.078	13.6861888191934
6.079	14.1407821398822
6.08	14.5938619516269
6.081	14.8101495444058
6.082	15.0401888382149
6.083	15.2827919160725
6.084	15.5368405152967
6.085	15.8012816134526
6.086	16.0751233007264
6.087	16.3574309202328
6.088	16.6473234589559
6.089	16.9439701731369
6.09	17.2465874329674
6.091	17.2431131453712
6.092	17.2647742438857
6.093	17.309725306355
6.094	17.3762350438739
6.095	17.462678985258
6.096	17.5675326342778
6.097	17.6893650691582
6.098	17.8268329558093
6.099	17.9786749480966
6.1	18.1437064501796
6.101	17.9444340671972
6.102	17.7800540338916
6.103	17.6481753523668
6.104	17.5465581270214
6.105	17.4731038397486
6.106	17.4258462527618
6.107	17.4029428985652
6.108	17.4026671192
6.109	17.4234006193369
6.11	17.4636265000736
6.111	17.0950723535823
6.112	16.7690034972401
6.113	16.4826084120497
6.114	16.2332551882522
6.115	16.0184799483777
6.116	15.8359760170962
6.117	15.6835837897023
6.118	15.5592812541761
6.119	15.461175124669
6.12	15.3874925469787
6.121	14.8826168768809
6.122	14.4251381046753
6.123	14.0119727707921
6.124	13.6402354940957
6.125	13.3072261985049
6.126	13.0104181634573
6.127	12.7474468450879
6.128	12.516099418413
6.129	12.3143049940208
6.13	12.1401254657661
6.131	11.542340410117
6.132	10.9937391020133
6.133	10.4911444150055
6.134	10.0315838521204
6.135	9.61227634866222
6.136	9.23061992615818
6.137	8.88418014255574
6.138	8.57067928731794
6.139	8.28798627337562
6.14	8.0341071809932
6.141	7.39623007674698
6.142	6.80603690170525
6.143	6.26045344368078
6.144	5.75660369417798
6.145	5.291797065468
6.146	4.86351643208442
6.147	4.469406943569
6.148	4.10726555872708
6.149	3.77503125485944
6.15	3.47077586843905
6.151	2.84796410377536
6.152	2.26834709073624
6.153	1.72913989116572
6.154	1.22773717167608
6.155	0.761701620247132
6.156	0.328753109883369
6.157	-0.0732414388516691
6.158	-0.446277541497049
6.159	-0.792222021718446
6.16	-1.11282131114132
6.161	-1.67287391433405
6.162	-2.19645284357872
6.163	-2.68591040591732
6.164	-3.14344719911918
6.165	-3.5711218959925
6.166	-3.97086039766829
6.167	-4.34446439655395
6.168	-4.69361938702928
6.169	-5.01990215950196
6.17	-5.32478781114271
6.171	-5.2674254814251
6.172	-5.2099160622661
6.173	-5.15226807180553
6.174	-5.09448949201641
6.175	-5.03658780328757
6.176	-4.97857001677609
6.177	-4.92044270467299
6.178	-4.86221202851701
6.179	-4.80388376568215
6.18	-4.74546333415704
6.181	-4.40017085788823
6.182	-4.07039290903672
6.183	-3.75512937420262
6.184	-3.45344471129902
6.185	-3.16446378509518
6.186	-2.88736797134079
6.187	-2.62139151214937
6.188	-2.36581810643627
6.189	-2.11997772025168
6.19	-1.8832436028266
6.191	-1.43835375273792
6.192	-1.01333115966666
6.193	-0.606900546225357
6.194	-0.217869042818334
6.195	0.154879127264816
6.196	0.512387619980034
6.197	0.855632621990636
6.198	1.18552720214166
6.199	1.5029253822938
6.2	1.80862594561655
6.201	2.3903652982207
6.202	2.94580843054319
6.203	3.47662835842582
6.204	3.98438983665153
6.205	4.47055634186688
6.206	4.93649660516086
6.207	5.38349072334441
6.208	5.8127358761016
6.209	6.22535167443152
6.21	6.6223851641603
6.211	7.39241204261706
6.212	8.1261570829634
6.213	8.82588663268175
6.214	9.49372006470528
6.215	10.1316392608941
6.216	10.7414974839346
6.217	11.325027677105
6.218	11.8838502288051
6.219	12.4194802363704
6.22	12.9333343014626
6.221	13.8483189790772
6.222	14.7166772156789
6.223	15.5412102508706
6.224	16.3245372381979
6.225	17.0691070128039
6.226	17.777209100308
6.227	18.4509840158393
6.228	19.0924328990043
6.229	19.7034265276138
6.23	20.2857137502316
6.231	21.0701379442809
6.232	21.8055057863116
6.233	22.4945097202416
6.234	23.1396683047598
6.235	23.7433375340071
6.236	24.307721428172
6.237	24.8348819410655
6.238	25.3267482286993
6.239	25.785125320058
6.24	26.2117022285922
6.241	26.1803089441532
6.242	26.1241494916379
6.243	26.044125745492
6.244	25.9410931244147
6.245	25.8158638787272
6.246	25.6692101606134
6.247	25.5018668911145
6.248	25.314534436866
6.249	25.1078811087307
6.25	24.8825454936975
6.251	23.2854064702331
6.252	21.7473753258557
6.253	20.2646558747659
6.254	18.8337160097321
6.255	17.4512706552331
6.256	16.1142658115809
6.257	14.8198636196738
6.258	13.5654283805696
6.259	12.3485134683157
6.26	11.1668490784498
6.261	8.91230483330612
6.262	6.77359547313398
6.263	4.74393635019546
6.264	2.81699305382761
6.265	0.986852066476506
6.266	-0.752006693186714
6.267	-2.4047355616362
6.268	-3.97614317007363
6.269	-5.47071693861131
6.27	-6.89264412458113
6.271	-8.44518540928885
6.272	-9.91048897797749
6.273	-11.2932994873535
6.274	-12.5980503250815
6.275	-13.8288840737421
6.276	-14.9896716571306
6.277	-16.0840302537068
6.278	-17.115340056533
6.279	-18.0867599539229
6.28	-19.0012422002342
6.281	-19.8718130980675
6.282	-20.6859475054639
6.283	-21.4463659652373
6.284	-22.1556140924241
6.285	-22.8160742590314
6.286	-23.4299765247816
6.287	-23.9994088623051
6.288	-24.5263267221092
6.289	-25.0125619797274
6.29	-25.459831304718
6.291	-25.8815177129648
6.292	-26.2678716409994
6.293	-26.6202701826246
6.294	-26.9400055819338
6.295	-27.228291099341
6.296	-27.4862664973757
6.297	-27.7150031705955
6.298	-27.9155089423953
6.299	-28.0887325500286
6.3	-28.2355678377785
6.301	-28.4291672501559
6.302	-28.5977223981386
6.303	-28.7419703120857
6.304	-28.8626063821264
6.305	-28.9602874263073
6.306	-29.0356345581095
6.307	-29.0892358661095
6.308	-29.1216489177336
6.309	-29.1334030982863
6.31	-29.1250017957145
6.311	-29.2185683652033
6.312	-29.2907879806966
6.313	-29.342179143338
6.314	-29.3732340071662
6.315	-29.384420451684
6.316	-29.3761840174853
6.317	-29.3489497136073
6.318	-29.3031237047232
6.319	-29.2390948857626
6.32	-29.1572363510647
6.321	-29.2285543654628
6.322	-29.2788408673855
6.323	-29.3086033520389
6.324	-29.3183241642723
6.325	-29.3084624896547
6.326	-29.2794562136533
6.327	-29.2317236572585
6.328	-29.1656651968668
6.329	-29.081664775728
6.33	-28.9800913137951
6.331	-29.1738484372213
6.332	-29.3468687057691
6.333	-29.4995883235449
6.334	-29.6324193721273
6.335	-29.7457517598563
6.336	-29.839955043474
6.337	-29.9153801301771
6.338	-29.9723608676234
6.339	-30.0112155289495
6.34	-30.0322481993999
6.341	-30.1911709642845
6.342	-30.3400376272471
6.343	-30.4785773651654
6.344	-30.6065371397597
6.345	-30.7236809537114
6.346	-30.8297891544397
6.347	-30.9246577822884
6.348	-31.0080979600802
6.349	-31.0799353211953
6.35	-31.1400094735138
6.351	-31.178427910438
6.352	-31.2231200147221
6.353	-31.2728340910823
6.354	-31.3263959134478
6.355	-31.3827040791033
6.356	-31.4407256636578
6.357	-31.4994921572948
6.358	-31.5580956640171
6.359	-31.615685346778
6.36	-31.6714641024967
6.361	-31.5186314159617
6.362	-31.389894301002
6.363	-31.2832131487796
6.364	-31.1966763850754
6.365	-31.1284923375843
6.366	-31.0769816285828
6.367	-31.0405700590537
6.368	-31.0177819525387
6.369	-31.0072339290374
6.37	-31.0076290811853
6.371	-30.5618079799845
6.372	-30.1607986402138
6.373	-29.8015037065568
6.374	-29.4810234912756
6.375	-29.1966432535128
6.376	-28.9458212992712
6.377	-28.7261778491419
6.378	-28.5354846242593
6.379	-28.3716551041598
6.38	-28.2327354132058
6.381	-27.427870152151
6.382	-26.6878134995641
6.383	-26.0083345637224
6.384	-25.3854746807056
6.385	-24.8155298599564
6.386	-24.2950343620253
6.387	-23.8207453354817
6.388	-23.3896284446797
6.389	-22.9988444244768
6.39	-22.6457365021197
6.391	-21.5429425284774
6.392	-20.5174655705503
6.393	-19.5643158836105
6.394	-18.6788254749629
6.395	-17.8566273529557
6.396	-17.0936361143012
6.397	-16.3860297833957
6.398	-15.7302328228914
6.399	-15.1229002399819
6.4	-14.5609027177353
6.401	-13.4352062950905
6.402	-12.3823049776458
6.403	-11.3975039320885
6.404	-10.4764111128724
6.405	-9.61491773427595
6.406	-8.80918000189206
6.407	-8.05560202232413
6.408	-7.35081981510103
6.409	-6.69168635572504
6.41	-6.07525758335078
6.411	-5.64087008200962
6.412	-5.23611625717489
6.413	-4.85908494405907
6.414	-4.50798823524092
6.415	-4.18115353132624
6.416	-3.87701610429186
6.417	-3.59411214044807
6.418	-3.33107223208705
6.419	-3.08661528887973
6.42	-2.85954284195011
6.421	-2.64607579531552
6.422	-2.44796801476481
6.423	-2.26422893828448
6.424	-2.0939318880778
6.425	-1.93620995042724
6.426	-1.79025212128021
6.427	-1.65529970042076
6.428	-1.53064291819502
6.429	-1.415617779792
6.43	-1.30960311304872
6.431	-1.11156830971848
6.432	-0.926891724104264
6.433	-0.754711842484495
6.434	-0.594222713408718
6.435	-0.444670364274065
6.436	-0.305349449010359
6.437	-0.175600111969002
6.438	-0.0548050540715945
6.439	0.0576132118262429
6.44	0.162194928558769
6.441	0.109172335815502
6.442	0.0574795367101301
6.443	0.00703081216839751
6.444	-0.0422540264545002
6.445	-0.0904499940525247
6.446	-0.137627265443747
6.447	-0.183851487525502
6.448	-0.229184071297385
6.449	-0.273682465050465
6.45	-0.317400409937705
6.451	-0.773775861167543
6.452	-1.20681765442906
6.453	-1.61802635042359
6.454	-2.00880567847357
6.455	-2.38046878158795
6.456	-2.73424405875967
6.457	-3.07128063047174
6.458	-3.39265345171212
6.459	-3.69936809523153
6.46	-3.99236522631078
6.461	-4.67860568430766
6.462	-5.33005682704699
6.463	-5.94893788921384
6.464	-6.53732473618468
6.465	-7.09715911109671
6.466	-7.63025728554462
6.467	-8.13831815236684
6.468	-8.6229307965033
6.469	-9.08558157758577
6.47	-9.5276607557509
6.471	-10.2292656174068
6.472	-10.8964849331674
6.473	-11.5314771958545
6.474	-12.1362612071027
6.475	-12.7127250892379
6.476	-13.2626347159664
6.477	-13.7876415993588
6.478	-14.2892902681916
6.479	-14.7690251704542
6.48	-15.2281971307063
6.481	-15.762383525152
6.482	-16.2726541007054
6.483	-16.7604697243771
6.484	-17.2271964878596
6.485	-17.6741118243367
6.486	-18.102410230826
6.487	-18.513208621494
6.488	-18.907551335746
6.489	-19.2864148233526
6.49	-19.6507120274442
6.491	-19.9263014249263
6.492	-20.1936771520407
6.493	-20.4532979210387
6.494	-20.7055924259844
6.495	-20.9509612820117
6.496	-21.1897788395295
6.497	-21.4223948814429
6.498	-21.6491362109325
6.499	-21.870308136851
6.5	-22.0861958633409
6.501	-22.0686639594019
6.502	-22.0602804192257
6.503	-22.0604173758012
6.504	-22.0684872421747
6.505	-22.0839401146528
6.506	-22.1062613434894
6.507	-22.1349692602532
6.508	-22.1696130517719
6.509	-22.2097707711996
6.51	-22.2550474773635
6.511	-21.9309369346378
6.512	-21.6328512588328
6.513	-21.3591027189874
6.514	-21.1081123898346
6.515	-20.8784031345834
6.516	-20.6685930402679
6.517	-20.4773892764775
6.518	-20.3035823501601
6.519	-20.1460407309562
6.52	-20.0037058231656
6.521	-19.400547174451
6.522	-18.8369764419864
6.523	-18.3104403665543
6.524	-17.8185503583128
6.525	-17.3590718766376
6.526	-16.9299144948979
6.527	-16.529122605994
6.528	-16.1548667273294
6.529	-15.8054353665591
6.53	-15.4792274119465
6.531	-15.2677248675832
6.532	-15.0714588806654
6.533	-14.8894462550703
6.534	-14.7207672036791
6.535	-14.5645612588875
6.536	-14.4200234468643
6.537	-14.2864007085452
6.538	-14.1629885514516
6.539	-14.0491279174458
6.54	-13.944202252497
6.541	-13.967410783521
6.542	-13.9918483193741
6.543	-14.0174336547614
6.544	-14.044090815911
6.545	-14.0717487231769
6.546	-14.1003408754025
6.547	-14.1298050546402
6.548	-14.1600830499151
6.549	-14.1911203988042
6.55	-14.2228661456818
6.551	-14.3267665677599
6.552	-14.4273237649933
6.553	-14.5247499037832
6.554	-14.6192434558096
6.555	-14.7109900812678
6.556	-14.8001634551417
6.557	-14.8869260401879
6.558	-14.9714298100668
6.559	-15.0538169258362
6.56	-15.134220368816
6.561	-15.273990532526
6.562	-15.4086060672581
6.563	-15.5383941093816
6.564	-15.6636606787262
6.565	-15.784692040494
6.566	-15.901755979336
6.567	-16.0151029912595
6.568	-16.1249673986636
6.569	-16.2315683934633
6.57	-16.3351110129379
6.571	-16.5037733108205
6.572	-16.6659311372878
6.573	-16.8219958859722
6.574	-16.972352389313
6.575	-17.1173606316436
6.576	-17.2573573517944
6.577	-17.3926575423386
6.578	-17.5235558521459
6.579	-17.6503278984799
6.58	-17.7732314944748
6.581	-17.9717442655495
6.582	-18.162357771506
6.583	-18.3455688795806
6.584	-18.5218423665284
6.585	-18.6916129883789
6.586	-18.8552874167059
6.587	-19.0132460500202
6.588	-19.1658447083388
6.589	-19.3134162184659
6.59	-19.4562718970326
6.591	-19.6852894170372
6.592	-19.9049279287751
6.593	-20.115772498532
6.594	-20.3183703879354
6.595	-20.5132334923864
6.596	-20.7008406222284
6.597	-20.8816396367962
6.598	-21.0560494408324
6.599	-21.2244618521485
6.6	-21.3872433488342
6.601	-21.6440813178447
6.602	-21.8900699461712
6.603	-22.1258775315627
6.604	-22.3521291619307
6.605	-22.5694095027203
6.606	-22.7782654045154
6.607	-22.9792083424711
6.608	-23.1727166984196
6.609	-23.3592378957973
6.61	-23.539190396883
6.611	-23.8149689330369
6.612	-24.0786311153181
6.613	-24.3309087236574
6.614	-24.572486187642
6.615	-24.8040036416948
6.616	-25.0260597832172
6.617	-25.2392145464041
6.618	-25.4439916036175
6.619	-25.6408807054427
6.62	-25.8303398698274
6.621	-26.1062203847276
6.622	-26.3692441385094
6.623	-26.620162981818
6.624	-26.8596800825749
6.625	-27.0884530687919
6.626	-27.3070969687017
6.627	-27.5161869612752
6.628	-27.7162609493545
6.629	-27.9078219668423
6.63	-28.0913404306493
6.631	-28.3341639711447
6.632	-28.5643979316568
6.633	-28.7827372956683
6.634	-28.9898320565906
6.635	-29.1862901260042
6.636	-29.3726800543451
6.637	-29.5495335761317
6.638	-29.7173479910495
6.639	-29.8765883914785
6.64	-30.0276897463658
6.641	-30.186765637435
6.642	-30.3351433258301
6.643	-30.4733442819818
6.644	-30.6018563935343
6.645	-30.7211361447749
6.646	-30.8316106554976
6.647	-30.9336795883673
6.648	-31.0277169332636
6.649	-31.1140726765365
6.65	-31.1930743625968
6.651	-31.2020261597533
6.652	-31.204400464376
6.653	-31.2003963268674
6.654	-31.1902006558274
6.655	-31.1739890262093
6.656	-31.1519264352749
6.657	-31.1241680097111
6.658	-31.0908596670564
6.659	-31.0521387343801
6.66	-31.0081345269688
6.661	-30.7975079236967
6.662	-30.5868956511011
6.663	-30.3760279608565
6.664	-30.1646545968475
6.665	-29.9525435784233
6.666	-29.7394800618014
6.667	-29.5252652745741
6.668	-29.3097155185982
6.669	-29.0926612368496
6.67	-28.8739461401139
6.671	-28.3980345556838
6.672	-27.9305499212396
6.673	-27.4706784920253
6.674	-27.0176634700968
6.675	-26.5708013842667
6.676	-26.1294387026256
6.677	-25.6929686626294
6.678	-25.2608283047101
6.679	-24.8324956962763
6.68	-24.4074873338125
6.681	-23.6780408289757
6.682	-22.9653274401597
6.683	-22.2680660433292
6.684	-21.5850657055412
6.685	-20.9152199163758
6.686	-20.2575011895159
6.687	-19.6109560105916
6.688	-18.9747001089472
6.689	-18.3479140324281
6.69	-17.7298390056361
6.691	-16.8337736230647
6.692	-15.9597948594096
6.693	-15.1064160934975
6.694	-14.2722570858374
6.695	-13.4560371328323
6.696	-12.6565686594123
6.697	-11.8727512218116
6.698	-11.1035658940326
6.699	-10.3480700132528
6.7	-9.60539226102126
6.701	-8.68321958257711
6.702	-7.78312364923086
6.703	-6.90379151439711
6.704	-6.04400706400378
6.705	-5.20264473128724
6.706	-4.37866361299449
6.707	-3.57110196111877
6.708	-2.7790720259647
6.709	-2.0017552279009
6.71	-1.23839763662045
6.711	-0.429985255243182
6.712	0.362231038649064
6.713	1.13903835468603
6.714	1.90116102227523
6.715	2.64926473027683
6.716	3.38396040371098
6.717	4.10580783442546
6.718	4.81531908155856
6.719	5.51296165660927
6.72	6.19916150697046
6.721	6.8022146788785
6.722	7.39925839758458
6.723	7.99034634403635
6.724	8.57551824403321
6.725	9.15480087926607
6.726	9.72820903649823
6.727	10.2957463988398
6.728	10.8574063828127
6.729	11.4131729246628
6.73	11.9630212191532
6.731	12.3277177720443
6.732	12.6984963082332
6.733	13.0746316241544
6.734	13.4554369282383
6.735	13.8402614610503
6.736	14.2284882712759
6.737	14.619532137471
6.738	15.0128376261498
6.739	15.4078772773845
6.74	15.8041499096649
6.741	15.9364141075609
6.742	16.0868030161332
6.743	16.2538720232656
6.744	16.4362635130219
6.745	16.6327013208783
6.746	16.8419855479887
6.747	17.0629877113109
6.748	17.2946462079163
6.749	17.5359620732048
6.75	17.7859950140519
6.751	17.7070732319305
6.752	17.6571288225642
6.753	17.6340998084068
6.754	17.6360530066958
6.755	17.661175757875
6.756	17.7077681882176
6.757	17.7742359721909
6.758	17.8590835623253
6.759	17.9609078564313
6.76	18.0783922739503
6.761	17.8130513507425
6.762	17.5857053445134
6.763	17.3937910533595
6.764	17.2349080444917
6.765	17.1068081707424
6.766	17.0073857635029
6.767	16.9346684584623
6.768	16.8868086133363
6.769	16.862075279403
6.77	16.8588466911271
6.771	16.4353627802136
6.772	16.0565363953467
6.773	15.7194354036
6.774	15.4213154563682
6.775	15.1596078825073
6.776	14.9319083623938
6.777	14.7359663325367
6.778	14.569675073627
6.779	14.4310624379458
6.78	14.3182821748969
6.781	13.7731973346195
6.782	13.2765691504447
6.783	12.8252561424074
6.784	12.4163188828439
6.785	12.0470069659697
6.786	11.7147468178607
6.787	11.4171302926404
6.788	11.1519040041638
6.789	10.9169593457661
6.79	10.7103231536977
6.791	10.0909977657045
6.792	9.52069811722258
6.793	8.99626083687808
6.794	8.51472640046052
6.795	8.0733259840709
6.796	7.66946916516364
6.797	7.30073241679858
6.798	6.964848343946
6.799	6.65969561398667
6.8	6.3832895366357
6.801	5.74449437764997
6.802	5.15205787207897
6.803	4.60299153382242
6.804	4.09449958403762
6.805	3.6239665227029
6.806	3.18894550173845
6.807	2.78714744798942
6.808	2.41643088770956
6.809	2.07479242730318
6.81	1.76035784800049
6.811	1.15563791919817
6.812	0.591852303039592
6.813	0.0663614294927862
6.814	-0.423304037241902
6.815	-0.879454177789364
6.816	-1.30425008857592
6.817	-1.69971349039077
6.818	-2.0677357172547
6.819	-2.41008612556212
6.82	-2.72841996088549
6.821	-3.11369359371338
6.822	-3.47309216458518
6.823	-3.80828431033553
6.824	-4.12083105128927
6.825	-4.41219273186208
6.826	-4.6837355135352
6.827	-4.93673744907332
6.828	-5.17239416499304
6.829	-5.39182417754706
6.83	-5.5960738658602
6.831	-5.38637703711242
6.832	-5.18508948488061
6.833	-4.99166798834144
6.834	-4.8056043916787
6.835	-4.62642334261193
6.836	-4.45368017677556
6.837	-4.28695893854265
6.838	-4.12587052949294
6.839	-3.97005097629311
6.84	-3.81915981028784
6.841	-3.42408911100047
6.842	-3.04690092531561
6.843	-2.68644400646141
6.844	-2.34164145628321
6.845	-2.01148593018805
6.846	-1.69503515133933
6.847	-1.39140771415697
6.848	-1.09977915846456
6.849	-0.819378296828392
6.85	-0.549483778759222
6.851	-0.0579354934329607
6.852	0.411631620619995
6.853	0.860624685239594
6.854	1.29035985213888
6.855	1.70206817015851
6.856	2.09690107412468
6.857	2.47593551971426
6.858	2.84017878715805
6.859	3.19057297513952
6.86	3.52799920487
6.861	4.17999829229431
6.862	4.8021348042317
6.863	5.39629799380249
6.864	5.96425476890446
6.865	6.50765758425544
6.866	7.02805182446823
6.867	7.52688271098347
6.868	8.00550176356814
6.869	8.46517284510767
6.87	8.90707781656663
6.871	9.74719888971462
6.872	10.5467726450992
6.873	11.308302237699
6.874	12.034128324921
6.875	12.7264395555405
6.876	13.3872823822519
6.877	14.0185702414517
6.878	14.6220921410635
6.879	15.1995206945815
6.88	15.7524196370465
6.881	16.6689078273427
6.882	17.5361192154602
6.883	18.356938545158
6.884	19.134063071708
6.885	19.8700146982554
6.886	20.5671513296698
6.887	21.2276774943473
6.888	21.8536542811683
6.889	22.4470086357747
6.89	23.0095420574766
6.891	23.5805075815578
6.892	24.1073205978494
6.893	24.5922354454729
6.894	25.0373633677156
6.895	25.4446819120302
6.896	25.8160437230779
6.897	26.1531847679112
6.898	26.457732029869
6.899	26.7312107054023
6.9	26.975050935837
6.901	26.384004590425
6.902	25.794107407425
6.903	25.2047976409748
6.904	24.6155662043672
6.905	24.0259534805438
6.906	23.4355463309962
6.907	22.843975290188
6.908	22.250911933452
6.909	21.6560664070902
6.91	21.0591851101402
6.911	18.945718547731
6.912	16.9277756509639
6.913	14.9995449117219
6.914	13.1556073634073
6.915	11.3909111034971
6.916	9.70074745152666
6.917	8.08072863710161
6.918	6.5267669193384
6.919	5.03505504549503
6.92	3.60204796250679
6.921	1.60698199153233
6.922	-0.282778100154494
6.923	-2.07324044061113
6.924	-3.77001576634019
6.925	-5.37834339958372
6.926	-6.90311555443394
6.927	-8.34890007938731
6.928	-9.7199617370251
6.929	-11.0202821150091
6.93	-12.2535782565046
6.931	-13.5253127092471
6.932	-14.7224542306885
6.933	-15.8489058793601
6.934	-16.9083161314405
6.935	-17.9040956991578
6.936	-18.8394332655882
6.937	-19.7173102055604
6.938	-20.5405143578796
6.939	-21.3116529098785
6.94	-22.0331644513697
6.941	-22.7029858672506
6.942	-23.3260518976606
6.943	-23.9044624314102
6.944	-24.4401838888283
6.945	-24.9350582303835
6.946	-25.3908113832683
6.947	-25.80906112331
6.948	-26.1913244471601
6.949	-26.539024467463
6.95	-26.8534968615947
6.951	-27.1689717866746
6.952	-27.4542450903266
6.953	-27.7103708739882
6.954	-27.9383399709947
6.955	-28.1390844169269
6.956	-28.3134816294095
6.957	-28.4623583159293
6.958	-28.5864941270453
6.959	-28.6866250712426
6.96	-28.7634467066367
6.961	-28.9097848639909
6.962	-29.0332044184638
6.963	-29.1343115100801
6.964	-29.2136794821269
6.965	-29.271851376054
6.966	-29.3093422625394
6.967	-29.3266414191235
6.968	-29.3242143641413
6.969	-29.3025047560591
6.97	-29.2619361667352
6.971	-29.3363582146138
6.972	-29.3900839662024
6.973	-29.4235947390874
6.974	-29.437348155945
6.975	-29.431780043853
6.976	-29.4073062077217
6.977	-29.3643240858038
6.978	-29.3032142947275
6.979	-29.2243420710192
6.98	-29.1280586156363
6.981	-29.259504459582
6.982	-29.3695854751836
6.983	-29.4588035510622
6.984	-29.5276342442004
6.985	-29.5765288597695
6.986	-29.6059163940056
6.987	-29.6162053488006
6.988	-29.6077854261162
6.989	-29.5810291098099
6.99	-29.5362931419702
6.991	-29.7186397643746
6.992	-29.884751549037
6.993	-30.0347619663688
6.994	-30.1687982421982
6.995	-30.2869821601964
6.996	-30.3894308113384
6.997	-30.476257293643
6.998	-30.5475713652216
6.999	-30.603480053476
7	-30.6440882230988
7.001	-30.7517506869757
7.002	-30.856709244149
7.003	-30.9582223015259
7.004	-31.0555946363144
7.005	-31.1481748078437
7.006	-31.235352736768
7.007	-31.3165574406835
7.008	-31.3912549158938
7.009	-31.4589461557198
7.01	-31.5191652963735
7.011	-31.4751841592861
7.012	-31.4459430434862
7.013	-31.4298065646859
7.014	-31.4252409711689
7.015	-31.4308078247846
7.016	-31.4451580907125
7.017	-31.4670266095525
7.018	-31.4952269270025
7.019	-31.5286464579788
7.02	-31.5662419635275
7.021	-31.2851509786192
7.022	-31.0381511540815
7.023	-30.8226930078099
7.024	-30.6363883905499
7.025	-30.4770001510401
7.026	-30.3424324682888
7.027	-30.2307218079439
7.028	-30.140028462492
7.029	-30.0686286376186
7.03	-30.0149070494923
7.031	-29.402314907439
7.032	-28.8447424150977
7.033	-28.3385183032257
7.034	-27.8802066647132
7.035	-27.4665917865802
7.036	-27.0946639603447
7.037	-26.7616062076617
7.038	-26.4647818622038
7.039	-26.2017229525579
7.04	-25.9701193344789
7.041	-25.0098281771956
7.042	-24.1218413747256
7.043	-23.3014756186131
7.044	-22.5443493575613
7.045	-21.8463633365249
7.046	-21.2036823909191
7.047	-20.6127184149972
7.048	-20.0701144286716
7.049	-19.5727296719329
7.05	-19.1176256605966
7.051	-17.9498193483928
7.052	-16.8606257409609
7.053	-15.8449746346143
7.054	-14.8981228143459
7.055	-14.0156329650769
7.056	-13.1933539430002
7.057	-12.4274023193004
7.058	-11.71414511419
7.059	-11.0501836444933
7.06	-10.4323384129621
7.061	-9.60871859728061
7.062	-8.83902235106877
7.063	-8.11977195920536
7.064	-7.44771399760766
7.065	-6.81980486784398
7.066	-6.23319726467438
7.067	-5.6852275163515
7.068	-5.17340374139383
7.069	-4.69539476917398
7.07	-4.24901977506064
7.071	-3.90708993675535
7.072	-3.58876842062257
7.073	-3.292532672206
7.074	-3.01695833155491
7.075	-2.76071290028477
7.076	-2.52254981707316
7.077	-2.30130291524979
7.078	-2.09588123783763
7.079	-1.90526418699198
7.08	-1.72849698627069
7.081	-1.5119223337799
7.082	-1.3103428572353
7.083	-1.1227914854194
7.084	-0.94836351699118
7.085	-0.786212598014044
7.086	-0.63554695890838
7.087	-0.495625894097513
7.088	-0.365756468694627
7.089	-0.245290437588235
7.09	-0.133621363227494
7.091	0.0117085796659256
7.092	0.147057753074161
7.093	0.273069843523062
7.094	0.390347023782312
7.095	0.499452630246441
7.096	0.600913667641209
7.097	0.695223152192086
7.098	0.782842303672603
7.099	0.864202596079314
7.1	0.939707676050798
7.101	0.608215492058646
7.102	0.29350920670347
7.103	-0.00549242106908249
7.104	-0.289800876506803
7.105	-0.560362387876517
7.106	-0.818062135143413
7.107	-1.06372818721647
7.108	-1.29813518526609
7.109	-1.52200778849054
7.11	-1.73602389765192
7.111	-2.3838417042456
7.112	-2.9984722276314
7.113	-3.58204094984077
7.114	-4.13653610617134
7.115	-4.66381753704583
7.116	-5.16562496898407
7.117	-5.64358576150659
7.118	-6.09922215441398
7.119	-6.53395804766466
7.12	-6.94912534399553
7.121	-7.70819304727816
7.122	-8.42923127233245
7.123	-9.11464293330574
7.124	-9.76667552702017
7.125	-10.387431158481
7.126	-10.9788759198195
7.127	-11.5428486643698
7.128	-12.08106921489
7.129	-12.5951460424216
7.13	-13.086583449927
7.131	-13.7339760000901
7.132	-14.3506644589335
7.133	-14.9385438475524
7.134	-15.4993863481398
7.135	-16.0348492312054
7.136	-16.546482271571
7.137	-17.0357346861165
7.138	-17.5039616241172
7.139	-17.952430239029
7.14	-18.3823253687149
7.141	-18.7871879946466
7.142	-19.1761005107582
7.143	-19.5500021682093
7.144	-19.909771079503
7.145	-20.2562281665808
7.146	-20.5901408543201
7.147	-20.9122265258555
7.148	-21.2231557550829
7.149	-21.5235553307186
7.15	-21.8140110853541
7.151	-21.927946482949
7.152	-22.0434930262725
7.153	-22.160487397838
7.154	-22.2787764675012
7.155	-22.3982166377605
7.156	-22.5186732312935
7.157	-22.6400199180084
7.158	-22.762138179059
7.159	-22.884916805441
7.16	-23.0082514289389
7.161	-22.8102125107211
7.162	-22.6317128098173
7.163	-22.4714704959821
7.164	-22.3282862960209
7.165	-22.2010381697353
7.166	-22.0886763292384
7.167	-21.9902185794956
7.168	-21.9047459593743
7.169	-21.8313986638198
7.17	-21.7693722290281
7.171	-21.2612300159822
7.172	-20.7886952952164
7.173	-20.349469589742
7.174	-19.9414026537996
7.175	-19.5624829128641
7.176	-19.210828520211
7.177	-18.884678990278
7.178	-18.5823873716245
7.179	-18.3024129246855
7.18	-18.0433142717663
7.181	-17.5932774087107
7.182	-17.1730636914479
7.183	-16.7807495938572
7.184	-16.4145356452476
7.185	-16.072738429549
7.186	-15.7537831005051
7.187	-15.4561963795909
7.188	-15.1786000055211
7.189	-14.9197046062241
7.19	-14.6783039660373
7.191	-14.6102631793281
7.192	-14.5489238482737
7.193	-14.4938524679429
7.194	-14.4446434883785
7.195	-14.4009175116763
7.196	-14.3623196053403
7.197	-14.3285177244176
7.198	-14.2992012353947
7.199	-14.2740795352939
7.2	-14.2528807598291
7.201	-14.3318867524003
7.202	-14.4089893356163
7.203	-14.4843082611619
7.204	-14.5579555479032
7.205	-14.6300359806162
7.206	-14.7006475765496
7.207	-14.7698820218982
7.208	-14.8378250801254
7.209	-14.9045569739522
7.21	-14.9701527427101
7.211	-15.1015967645321
7.212	-15.2283175576699
7.213	-15.3506148724407
7.214	-15.4687691105322
7.215	-15.5830425728915
7.216	-15.6936806271323
7.217	-15.8009127996527
7.218	-15.9049537973173
7.219	-16.0060044632474
7.22	-16.1042526709695
7.221	-16.2672893554562
7.222	-16.4240847586595
7.223	-16.5750339242636
7.224	-16.7205063916108
7.225	-16.8608478406209
7.226	-16.9963816306231
7.227	-17.1274102399438
7.228	-17.2542166126488
7.229	-17.3770654184302
7.23	-17.4962042312378
7.231	-17.6891737902944
7.232	-17.8745036131315
7.233	-18.0526748192701
7.234	-18.2241374570722
7.235	-18.3893125077405
7.236	-18.5485937600729
7.237	-18.7023495643073
7.238	-18.8509244728545
7.239	-18.9946407752143
7.24	-19.1337999338996
7.241	-19.3573575631613
7.242	-19.5718054826393
7.243	-19.7777129818288
7.244	-19.9756125686405
7.245	-20.1660023418135
7.246	-20.3493482103232
7.247	-20.5260859696522
7.248	-20.6966232441553
7.249	-20.8613413041541
7.25	-21.0205967658421
7.251	-21.2728217525641
7.252	-21.5144544104291
7.253	-21.7461489942573
7.254	-21.9685174624073
7.255	-22.1821322051553
7.256	-22.3875285971137
7.257	-22.5852073850344
7.258	-22.7756369216171
7.259	-22.9592552552511
7.26	-23.1364720849846
7.261	-23.4098572764813
7.262	-23.6713272092084
7.263	-23.921604630648
7.264	-24.1613655291804
7.265	-24.3912421509415
7.266	-24.6118258221142
7.267	-24.8236695892042
7.268	-25.0272906890378
7.269	-25.2231728594631
7.27	-25.4117685010293
7.271	-25.6895995043704
7.272	-25.9546491097937
7.273	-26.2076701750056
7.274	-26.4493668146792
7.275	-26.6803975467434
7.276	-26.9013782357631
7.277	-27.1128848464953
7.278	-27.3154560198657
7.279	-27.5095954828167
7.28	-27.6957743027414
7.281	-27.9477968462528
7.282	-28.1870804410785
7.283	-28.4143378570575
7.284	-28.630235713246
7.285	-28.8353974601665
7.286	-29.0304061697299
7.287	-29.2158071452341
7.288	-29.3921103630426
7.289	-29.5597927567978
7.29	-29.7193003543251
7.291	-29.8980823596856
7.292	-30.0656745258639
7.293	-30.2226401055545
7.294	-30.3695060113674
7.295	-30.506765171515
7.296	-30.6348787335722
7.297	-30.7542781261072
7.298	-30.8653669873474
7.299	-30.9685229694562
7.3	-31.0640994264416
7.301	-31.1055662795487
7.302	-31.1395255905257
7.303	-31.1662464349905
7.304	-31.1859810671596
7.305	-31.1989660273508
7.306	-31.2054231780007
7.307	-31.2055606728045
7.308	-31.1995738632889
7.309	-31.1876461468514
7.31	-31.1699497600377
7.311	-31.0036267464132
7.312	-30.8359553165098
7.313	-30.6667593771468
7.314	-30.495875963851
7.315	-30.3231544316564
7.316	-30.1484556978334
7.317	-29.9716515331915
7.318	-29.7926238988188
7.319	-29.6112643253208
7.32	-29.4274733318147
7.321	-29.0008353232811
7.322	-28.5810359481134
7.323	-28.167359630211
7.324	-27.7591409088424
7.325	-27.3557612577174
7.326	-26.9566461084504
7.327	-26.5612620652216
7.328	-26.1691142982965
7.329	-25.7797441048591
7.33	-25.3927266263588
7.331	-24.7049477663325
7.332	-24.0325298679845
7.333	-23.3742621753938
7.334	-22.7290190008618
7.335	-22.0957542894588
7.336	-21.4734965324431
7.337	-20.8613440070408
7.338	-20.2584603215262
7.339	-19.6640702459026
7.34	-19.0774558097533
7.341	-18.2021262617044
7.342	-17.3482602490933
7.343	-16.5143819427765
7.344	-15.6991207316915
7.345	-14.9012044602636
7.346	-14.1194530990809
7.347	-13.352772820887
7.348	-12.6001504557476
7.349	-11.8606483009318
7.35	-11.1333992626271
7.351	-10.2047904486151
7.352	-9.29871247366576
7.353	-8.41379195273357
7.354	-7.54875606155441
7.355	-6.70242602161252
7.356	-5.87371100144232
7.357	-5.06160240742515
7.358	-4.26516853897288
7.359	-3.48354958461071
7.36	-2.71595293698777
7.361	-1.87836510685838
7.362	-1.05842432984646
7.363	-0.25522770370833
7.364	0.532057278040473
7.365	1.30419734949092
7.366	2.06189780159415
7.367	2.80580653624216
7.368	3.53651786289178
7.369	4.25457605430406
7.37	4.96047867690129
7.371	5.60472671998244
7.372	6.24090886608677
7.373	6.86921931676213
7.374	7.48982891380296
7.375	8.1028867558761
7.376	8.70852171438873
7.377	9.30684385505971
7.378	9.89794577123736
7.379	10.4819038346164
7.38	11.0587793686408
7.381	11.466994551155
7.382	11.879058757635
7.383	12.2943856454886
7.384	12.7124179273348
7.385	13.1326255989587
7.386	13.5545042840938
7.387	13.9775736884682
7.388	14.4013761560338
7.389	14.825475320759
7.39	15.2494548477867
7.391	15.4224587016991
7.392	15.6114692480785
7.393	15.8151653453106
7.394	16.0323044997416
7.395	16.261717865438
7.396	16.5023055680136
7.397	16.7530323316058
7.398	17.0129233894304
7.399	17.2810606596079
7.4	17.5565791691337
7.401	17.5141317527444
7.402	17.4988155076959
7.403	17.5086720692388
7.404	17.5418648479226
7.405	17.5966712157293
7.406	17.6714751969947
7.407	17.764760631551
7.408	17.8751047796305
7.409	18.0011723400289
7.41	18.1417098548696
7.411	17.9082070341615
7.412	17.711224171236
7.413	17.5482797559124
7.414	17.4170495096717
7.415	17.3153562621803
7.416	17.2411604810823
7.417	17.1925514129285
7.418	17.167738795823
7.419	17.165045106915
7.42	17.1828983102374
7.421	16.7856634257789
7.422	16.4320762079799
7.423	16.1192605071757
7.424	15.8445241605661
7.425	15.605347131454
7.426	15.3993704135547
7.427	15.224385651035
7.428	15.0783254281204
7.429	14.9592541850878
7.43	14.8653597202438
7.431	14.3391113284661
7.432	13.8608624771187
7.433	13.4274964767999
7.434	13.0360969846285
7.435	12.6839350841498
7.436	12.3684571985394
7.437	12.0872737833616
7.438	11.8381487486057
7.439	11.6189895629675
7.44	11.4278379963729
7.441	10.8180387212334
7.442	10.257406626067
7.443	9.74276769916111
7.444	9.27115241538015
7.445	8.83978254811499
7.446	8.44605883178578
7.447	8.08754942004164
7.448	7.76197908834026
7.449	7.46721913289914
7.45	7.20127792110699
7.451	6.56188661003635
7.452	5.96956040740763
7.453	5.42126522076921
7.454	4.91416259252404
7.455	4.44559708267937
7.456	4.01308446533139
7.457	3.61430068640423
7.458	3.24707153354695
7.459	2.90936297225865
7.46	2.59927210527441
7.461	1.98480564887367
7.462	1.41242303178316
7.463	0.879410744369711
7.464	0.383230278095219
7.465	-0.0784931609746414
7.466	-0.507981210752717
7.467	-0.907312230749165
7.468	-1.27843054264498
7.469	-1.62315507490543
7.47	-1.94318744986935
7.471	-2.47768427202597
7.472	-2.97766068108571
7.473	-3.44534303020952
7.474	-3.88281408652246
7.475	-4.29202229152664
7.476	-4.67479042427469
7.477	-5.03282370582211
7.478	-5.36771738099244
7.479	-5.68096381116527
7.48	-5.97395910962337
7.481	-5.81745081771714
7.482	-5.66659633769326
7.483	-5.52103001507546
7.484	-5.3804097980068
7.485	-5.24441571503106
7.486	-5.11274845104762
7.487	-4.98512801510832
7.488	-4.86129249413326
7.489	-4.74099688700399
7.49	-4.62401201385044
7.491	-4.25493268432269
7.492	-3.90264051635892
7.493	-3.56605371532717
7.494	-3.24416033437456
7.495	-2.936013769666
7.496	-2.64072854615127
7.497	-2.35747637512341
7.498	-2.0854824660391
7.499	-1.82402207620328
7.5	-1.57241728297663
7.501	-1.12355062932845
7.502	-0.694661830987631
7.503	-0.284469158462309
7.504	0.108226285111914
7.505	0.484545906294894
7.506	0.845538619121388
7.507	1.19218552055752
7.508	1.52540426442257
7.509	1.84605315322286
7.51	2.15493496609071
7.511	2.7480262288343
7.512	3.31426555900337
7.513	3.85535964356874
7.514	4.3729047147909
7.515	4.86839367472706
7.516	5.34322276026458
7.517	5.79869777831362
7.518	6.23603993888142
7.519	6.65639131196188
7.52	7.06081993250249
7.521	7.8456328920266
7.522	8.59329624898931
7.523	9.30612583769667
7.524	9.98628728032384
7.525	10.635805679841
7.526	11.2565746878596
7.527	11.8503649877122
7.528	12.4188322304805
7.529	12.9635244592505
7.53	13.4858890546034
7.531	14.4051238216133
7.532	15.2770746401242
7.533	16.1045695860427
7.534	16.8902528934408
7.535	17.6365968386263
7.536	18.3459128579386
7.537	19.0203619486869
7.538	19.6619643994596
7.539	20.2726088930534
7.54	20.8540610224812
7.541	21.6050926687608
7.542	22.3076823744257
7.543	22.9644581968765
7.544	23.5778788186716
7.545	24.1502445885755
7.546	24.6837078504733
7.547	25.1802826060489
7.548	25.6418535541695
7.549	26.0701845471461
7.55	26.4669265014511
7.551	26.3331526058671
7.552	26.1786537243272
7.553	26.004089316986
7.554	25.8100894849303
7.555	25.5972571549097
7.556	25.3661701172618
7.557	25.1173829263722
7.558	24.8514286724141
7.559	24.5688206325478
7.56	24.2700538092394
7.561	22.5532072376585
7.562	20.9033385001208
7.563	19.3162136162517
7.564	17.7878908230888
7.565	16.3147016828811
7.566	14.893233400939
7.567	13.5203122755162
7.568	12.1929882067437
7.569	10.9085201963436
7.57	9.66436277425884
7.571	7.45194249070198
7.572	5.35393445462031
7.573	3.36366922903844
7.574	1.47491960574863
7.575	-0.31812823220529
7.576	-2.020901693367
7.577	-3.63846702550405
7.578	-5.17555293980788
7.579	-6.63657271621365
7.58	-8.02564488765109
7.581	-9.5232463671054
7.582	-10.9358934124991
7.583	-12.2681760224378
7.584	-13.5243834569002
7.585	-14.7085240250516
7.586	-15.8243435987599
7.587	-16.8753429338271
7.588	-17.864793875656
7.589	-18.7957545211262
7.59	-19.6710834038225
7.591	-20.4982315953379
7.592	-21.2709130691484
7.593	-21.9917217916818
7.594	-22.6630853291643
7.595	-23.2872759820306
7.596	-23.8664212006637
7.597	-24.4025133286384
7.598	-24.8974187166652
7.599	-25.3528862476429
7.6	-25.7705553106264
7.601	-26.167847280273
7.602	-26.5308846332202
7.603	-26.8609770751351
7.604	-27.1593540244724
7.605	-27.4271701832224
7.606	-27.6655107463751
7.607	-27.8753962732281
7.608	-28.057787242178
7.609	-28.2135883092374
7.61	-28.3436522892196
7.611	-28.5258866956611
7.612	-28.6834947987365
7.613	-28.8171887385257
7.614	-28.927640757417
7.615	-29.0154861549042
7.616	-29.0813260490059
7.617	-29.1257299566108
7.618	-29.1492382042631
7.619	-29.1523641801596
7.62	-29.1355964374377
7.621	-29.224323957503
7.622	-29.2917781592429
7.623	-29.3384747222021
7.624	-29.3649032645442
7.625	-29.3715293963021
7.626	-29.3587966368876
7.627	-29.32712820545
7.628	-29.276928692126
7.629	-29.2085856177033
7.63	-29.1224708887366
7.631	-29.2061016555333
7.632	-29.2684540868333
7.633	-29.3100469390561
7.634	-29.3313728539761
7.635	-29.3329004141375
7.636	-29.315076062324
7.637	-29.2783258936907
7.638	-29.2230573286091
7.639	-29.1496606737629
7.64	-29.0585105785423
7.641	-29.251919760708
7.642	-29.4251819459878
7.643	-29.5786929816065
7.644	-29.712826947158
7.645	-29.8279379531424
7.646	-29.9243618216843
7.647	-30.0024176568611
7.648	-30.0624093115868
7.649	-30.1046267575532
7.65	-30.1293473643121
7.651	-30.2813876472962
7.652	-30.4244143538903
7.653	-30.5580894339576
7.654	-30.6820966953404
7.655	-30.7961407973974
7.656	-30.8999463092498
7.657	-30.9932568283863
7.658	-31.0758341555588
7.659	-31.14745752216
7.66	-31.207922866524
7.661	-31.2347601562898
7.662	-31.2691133147926
7.663	-31.3096803280667
7.664	-31.3552397914335
7.665	-31.4046460380647
7.666	-31.4568245829344
7.667	-31.5107678616874
7.668	-31.5655312452727
7.669	-31.6202293124246
7.67	-31.6740323632303
7.671	-31.5022734864647
7.672	-31.3561273449462
7.673	-31.2334816560821
7.674	-31.132356929621
7.675	-31.0508980166312
7.676	-30.987366204331
7.677	-30.9401318215356
7.678	-30.9076673217641
7.679	-30.8885408131701
7.68	-30.881410006451
7.681	-30.4091616660659
7.682	-29.9833620317227
7.683	-29.6008248761782
7.684	-29.2585675029737
7.685	-28.9537976438527
7.686	-28.6839012014547
7.687	-28.4464307827674
7.688	-28.2390949723348
7.689	-28.059748297508
7.69	-27.9063818411043
7.691	-27.0741341504198
7.692	-26.3080270431623
7.693	-25.6037506566978
7.694	-24.957272527654
7.695	-24.3648197033992
7.696	-23.8228620072458
7.697	-23.3280963829698
7.698	-22.8774322490372
7.699	-22.4679777974171
7.7	-22.0970271760623
7.701	-20.9787189228344
7.702	-19.9381639797508
7.703	-18.9703454343691
7.704	-18.0705698926384
7.705	-17.234446613977
7.706	-16.4578679920095
7.707	-15.7369912941765
7.708	-15.0682215790264
7.709	-14.4481957152368
7.71	-13.8737674313117
7.711	-12.7985842441382
7.712	-11.7929799126221
7.713	-10.8524670323772
7.714	-9.97284760889721
7.715	-9.15019439240477
7.716	-8.380833416488
7.717	-7.6613276628867
7.718	-6.98846177979928
7.719	-6.35922778576448
7.72	-5.77081169555448
7.721	-5.3517962988095
7.722	-4.96135575176758
7.723	-4.59764717781533
7.724	-4.25894655365564
7.725	-3.94364104400229
7.726	-3.65022183063969
7.727	-3.37727740396383
7.728	-3.12348728717753
7.729	-2.88761616523627
7.73	-2.66850839244088
7.731	-2.45408470989047
7.732	-2.25493106651652
7.733	-2.07006265838162
7.734	-1.89855819464193
7.735	-1.73955580134462
7.736	-1.59224918940525
7.737	-1.45588406972674
7.738	-1.32975479952132
7.739	-1.21320124492371
7.74	-1.10560584594665
7.741	-0.901743045120733
7.742	-0.711421314220213
7.743	-0.53376734249075
7.744	-0.367964142316987
7.745	-0.213247416727765
7.746	-0.0689021611747332
7.747	0.0657405155245614
7.748	0.191306365214122
7.749	0.308380782620629
7.75	0.417511408138302
7.751	0.298025335349524
7.752	0.183641065953896
7.753	0.0740297123308711
7.754	-0.0311163978904359
7.755	-0.132085090084127
7.756	-0.22914562263654
7.757	-0.322549884402598
7.758	-0.412533514933616
7.759	-0.49931695245734
7.76	-0.583106414269774
7.761	-1.08571570142057
7.762	-1.56255846671948
7.763	-2.01529059275702
7.764	-2.44546109626272
7.765	-2.85451902035776
7.766	-3.24381988230092
7.767	-3.61463170539518
7.768	-3.96814066187466
7.769	-4.30545635186062
7.77	-4.62761674185852
7.771	-5.33503457321447
7.772	-6.00666032918408
7.773	-6.64477325720082
7.774	-7.25150532625654
7.775	-7.82885072629463
7.776	-8.37867475495929
7.777	-8.9027221312121
7.778	-9.40262477277971
7.779	-9.8799090720122
7.78	-10.3360027025012
7.781	-11.0284234590317
7.782	-11.6871153083926
7.783	-12.3141889324532
7.784	-12.9116183746796
7.785	-13.4812498555407
7.786	-14.0248100193993
7.787	-14.5439136495536
7.788	-15.040070885729
7.789	-15.5146939761115
7.79	-15.9691035939383
7.791	-16.474574893238
7.792	-16.9578882240192
7.793	-17.4203891988209
7.794	-17.8633360873602
7.795	-18.2879054541394
7.796	-18.6951974324917
7.797	-19.0862406585137
7.798	-19.4619968868186
7.799	-19.8233653086319
7.8	-20.1711865914244
7.801	-20.4096787011475
7.802	-20.6422020208059
7.803	-20.8690732026835
7.804	-21.0905880649
7.805	-21.307022938115
7.806	-21.5186359253971
7.807	-21.7256680808569
7.808	-21.928344512283
7.809	-22.1268754126826
7.81	-22.3214570253116
7.811	-22.2626303941956
7.812	-22.2153393159749
7.813	-22.1788062118304
7.814	-22.1523034654167
7.815	-22.1351502014082
7.816	-22.1267092718148
7.817	-22.1263844366656
7.818	-22.133617726525
7.819	-22.1478869751158
7.82	-22.1687035110763
7.821	-21.8020965163894
7.822	-21.4637465065956
7.823	-21.1518241067778
7.824	-20.864617895325
7.825	-20.6005267967172
7.826	-20.3580529649301
7.827	-20.1357951258157
7.828	-19.9324423488587
7.829	-19.7467682206166
7.83	-19.577625393937
7.831	-18.9395480610878
7.832	-18.3426353472418
7.833	-17.7842323885511
7.834	-17.2618555434982
7.835	-16.7731813501122
7.836	-16.316036195377
7.837	-15.8883866508986
7.838	-15.4883304318625
7.839	-15.1140879390822
7.84	-14.7639943465336
7.841	-14.6171044676454
7.842	-14.4814746600521
7.843	-14.3563780305041
7.844	-14.2411345643565
7.845	-14.1351081021893
7.846	-14.0377035114164
7.847	-13.9483640403093
7.848	-13.8665688426684
7.849	-13.7918306621395
7.85	-13.7236936658761
7.851	-13.7718073863736
7.852	-13.8196358282412
7.853	-13.8671952788258
7.854	-13.9145009686898
7.855	-13.961567139772
7.856	-14.0084071091525
7.857	-14.0550333287051
7.858	-14.1014574409027
7.859	-14.1476903310232
7.86	-14.1937421759892
7.861	-14.304113718795
7.862	-14.4107492923115
7.863	-14.5138863160423
7.864	-14.6137468858182
7.865	-14.7105387620909
7.866	-14.804456294489
7.867	-14.8956812867456
7.868	-14.9843838058432
7.869	-15.0707229389739
7.87	-15.1548475016805
7.871	-15.2963158235264
7.872	-15.4325272044475
7.873	-15.5638153334756
7.874	-15.6904923603547
7.875	-15.8128502847176
7.876	-15.9311622556696
7.877	-16.0456837875566
7.878	-16.1566538973244
7.879	-16.2642961685251
7.88	-16.3688197467013
7.881	-16.5382991217495
7.882	-16.7012264511264
7.883	-16.8580161371667
7.884	-17.0090558267945
7.885	-17.1547081371367
7.886	-17.2953122698454
7.887	-17.4311855213055
7.888	-17.562624695445
7.889	-17.6899074254264
7.89	-17.8132934100988
7.891	-18.0125213095331
7.892	-18.2038091495877
7.893	-18.3876563264024
7.894	-18.5645299822302
7.895	-18.7348670857339
7.896	-18.8990763781157
7.897	-19.057540193735
7.898	-19.2106161633071
7.899	-19.3586388072569
7.9	-19.5019210263119
7.901	-19.7316189538326
7.902	-19.9518979359131
7.903	-20.1633454382953
7.904	-20.3665109668017
7.905	-20.5619085157846
7.906	-20.7500188586671
7.907	-20.9312916907582
7.908	-21.1061476338713
7.909	-21.2749801116578
7.91	-21.4381571039944
7.911	-21.6955427332047
7.912	-21.942042583195
7.913	-22.1783270072313
7.914	-22.4050230154371
7.915	-22.622717070772
7.916	-22.8319577046886
7.917	-23.033257964098
7.918	-23.227097700523
7.919	-23.4139257116172
7.92	-23.5941617445717
7.921	-23.8701674901391
7.922	-24.1340299912468
7.923	-24.3864822900252
7.924	-24.6282099960628
7.925	-24.8598543469096
7.926	-25.0820150712011
7.927	-25.2952530671336
7.928	-25.5000929081974
7.929	-25.6970251873111
7.93	-25.8865087097768
7.931	-26.1620093686358
7.932	-26.4246454679601
7.933	-26.6751686461761
7.934	-26.91428187253
7.935	-27.1426425890814
7.936	-27.3608656500643
7.937	-27.569526071686
7.938	-27.769161604588
7.939	-27.9602751404059
7.94	-28.1433369631285
7.941	-28.3847899898595
7.942	-28.6136779498926
7.943	-28.8306932488487
7.944	-29.0364834709757
7.945	-29.2316542766166
7.946	-29.4167721128178
7.947	-29.5923667491283
7.948	-29.7589336498643
7.949	-29.9169361933851
7.95	-30.0668077482467
7.951	-30.2231078404306
7.952	-30.3687816939075
7.953	-30.5043449220222
7.954	-30.630279942212
7.955	-30.7470381306817
7.956	-30.8550418381104
7.957	-30.9546862753502
7.958	-31.0463412775012
7.959	-31.1303529542054
7.96	-31.2070452334963
7.961	-31.2115556787747
7.962	-31.2096193272198
7.963	-31.2014256426103
7.964	-31.1871525877194
7.965	-31.1669673914469
7.966	-31.1410272663923
7.967	-31.1094800800619
7.968	-31.0724649826984
7.969	-31.0301129945265
7.97	-30.9825475550309
7.971	-30.7660246443601
7.972	-30.549701940267
7.973	-30.333297176422
7.974	-30.1165484290623
7.975	-29.8992128457348
7.976	-29.6810654556948
7.977	-29.4618980566891
7.978	-29.24151817319
7.979	-29.0197480814666
7.98	-28.7964238971772
7.981	-28.3141440369968
7.982	-27.8405012327793
7.983	-27.3746690132847
7.984	-26.9158787391292
7.985	-26.4634159257622
7.986	-26.0166168026749
7.987	-25.5748650935964
7.988	-25.1375890034132
7.989	-24.7042583984707
7.99	-24.274382167775
7.991	-23.5397805766597
7.992	-22.8220859006135
7.993	-22.1200083927414
7.994	-21.4323491250271
7.995	-20.7579941788221
7.996	-20.0959092080985
7.997	-19.4451343514129
7.998	-18.8047794700805
7.999	-18.1740196915108
8	-17.5520912380138
