0	-4.05000000000001
0.01	-4.04990000000001
0.02	-4.04980000000001
0.03	-4.04970000000001
0.04	-4.04960000000001
0.05	-4.04950000000001
0.06	-4.04940000000001
0.07	-4.04930000000001
0.08	-4.04920000000001
0.09	-4.04910000000001
0.1	-4.04900000000001
0.11	-4.04890000000001
0.12	-4.04880000000001
0.13	-4.04870000000001
0.14	-4.04860000000001
0.15	-4.04850000000001
0.16	-4.04840000000001
0.17	-4.04830000000001
0.18	-4.04820000000001
0.19	-4.04810000000001
0.2	-4.04800000000001
0.21	-4.04790000000001
0.22	-4.04780000000001
0.23	-4.04770000000001
0.24	-4.04760000000001
0.25	-4.04750000000001
0.26	-4.04740000000001
0.27	-4.04730000000001
0.28	-4.04720000000001
0.29	-4.04710000000001
0.3	-4.04700000000001
0.31	-4.04690000000001
0.32	-4.04680000000001
0.33	-4.04670000000001
0.34	-4.04660000000001
0.35	-4.04650000000001
0.36	-4.04640000000001
0.37	-4.04630000000001
0.38	-4.04620000000001
0.39	-4.04610000000001
0.4	-4.04600000000001
0.41	-4.04590000000001
0.42	-4.04580000000001
0.43	-4.04570000000001
0.44	-4.04560000000001
0.45	-4.04550000000001
0.46	-4.04540000000001
0.47	-4.04530000000001
0.48	-4.04520000000001
0.49	-4.04510000000001
0.5	-4.04500000000001
0.51	-4.04490000000001
0.52	-4.04480000000001
0.53	-4.04470000000001
0.54	-4.04460000000001
0.55	-4.04450000000001
0.56	-4.04440000000001
0.57	-4.04430000000001
0.58	-4.04420000000001
0.59	-4.04410000000001
0.6	-4.04400000000001
0.61	-4.04390000000001
0.62	-4.04380000000001
0.63	-4.04370000000001
0.64	-4.04360000000001
0.65	-4.04350000000001
0.66	-4.04340000000001
0.67	-4.04330000000001
0.68	-4.04320000000001
0.69	-4.04310000000001
0.7	-4.04300000000001
0.71	-4.04290000000001
0.72	-4.04280000000001
0.73	-4.04270000000001
0.74	-4.04260000000001
0.75	-4.04250000000001
0.76	-4.04240000000001
0.77	-4.04230000000001
0.78	-4.04220000000001
0.79	-4.04210000000001
0.8	-4.04200000000001
0.81	-4.04190000000001
0.82	-4.04180000000001
0.83	-4.04170000000001
0.84	-4.04160000000001
0.85	-4.04150000000001
0.86	-4.04140000000001
0.87	-4.04130000000001
0.88	-4.04120000000001
0.89	-4.04110000000001
0.9	-4.04100000000001
0.91	-4.04090000000001
0.92	-4.04080000000001
0.93	-4.04070000000001
0.94	-4.04060000000001
0.95	-4.04050000000001
0.96	-4.04040000000001
0.97	-4.04030000000001
0.98	-4.04020000000001
0.99	-4.04010000000001
1	-4.04000000000001
1.01	-4.03990000000001
1.02	-4.03980000000001
1.03	-4.03970000000001
1.04	-4.03960000000001
1.05	-4.03950000000001
1.06	-4.03940000000001
1.07	-4.03930000000001
1.08	-4.03920000000001
1.09	-4.03910000000001
1.1	-4.03900000000001
1.11	-4.03890000000001
1.12	-4.03880000000001
1.13	-4.03870000000001
1.14	-4.03860000000001
1.15	-4.03850000000001
1.16	-4.03840000000001
1.17	-4.03830000000001
1.18	-4.03820000000001
1.19	-4.03810000000001
1.2	-4.03800000000001
1.21	-4.03790000000001
1.22	-4.03780000000001
1.23	-4.03770000000001
1.24	-4.03760000000001
1.25	-4.03750000000001
1.26	-4.03740000000001
1.27	-4.03730000000001
1.28	-4.03720000000001
1.29	-4.03710000000001
1.3	-4.03700000000001
1.31	-4.03690000000001
1.32	-4.03680000000001
1.33	-4.03670000000001
1.34	-4.03660000000001
1.35	-4.03650000000001
1.36	-4.03640000000001
1.37	-4.03630000000001
1.38	-4.03620000000001
1.39	-4.03610000000001
1.4	-4.03600000000001
1.41	-4.03590000000001
1.42	-4.03580000000001
1.43	-4.03570000000001
1.44	-4.03560000000001
1.45	-4.03550000000001
1.46	-4.03540000000001
1.47	-4.03530000000001
1.48	-4.03520000000001
1.49	-4.03510000000001
1.5	-4.03500000000001
1.51	-4.03490000000001
1.52	-4.03480000000001
1.53	-4.03470000000001
1.54	-4.03460000000001
1.55	-4.03450000000001
1.56	-4.03440000000001
1.57	-4.03430000000001
1.58	-4.03420000000001
1.59	-4.03410000000001
1.6	-4.03400000000001
1.61	-4.03390000000001
1.62	-4.03380000000001
1.63	-4.03370000000001
1.64	-4.03360000000001
1.65	-4.03350000000001
1.66	-4.03340000000001
1.67	-4.03330000000001
1.68	-4.03320000000001
1.69	-4.03310000000001
1.7	-4.03300000000001
1.71	-4.03290000000001
1.72	-4.03280000000001
1.73	-4.03270000000001
1.74	-4.03260000000001
1.75	-4.03250000000001
1.76	-4.03240000000001
1.77	-4.03230000000001
1.78	-4.03220000000001
1.79	-4.03210000000001
1.8	-4.03200000000001
1.81	-4.03190000000001
1.82	-4.03180000000001
1.83	-4.03170000000001
1.84	-4.03160000000001
1.85	-4.03150000000001
1.86	-4.03140000000001
1.87	-4.03130000000001
1.88	-4.03120000000001
1.89	-4.03110000000001
1.9	-4.03100000000001
1.91	-4.03090000000001
1.92	-4.03080000000001
1.93	-4.03070000000001
1.94	-4.03060000000001
1.95	-4.03050000000001
1.96	-4.03040000000001
1.97	-4.03030000000001
1.98	-4.03020000000001
1.99	-4.03010000000001
2	-4.03000000000001
2.01	-4.02990000000001
2.02	-4.02980000000001
2.03	-4.02970000000001
2.04	-4.02960000000001
2.05	-4.02950000000001
2.06	-4.02940000000001
2.07	-4.02930000000001
2.08	-4.02920000000001
2.09	-4.02910000000001
2.1	-4.02900000000001
2.11	-4.02890000000001
2.12	-4.02880000000001
2.13	-4.02870000000001
2.14	-4.02860000000001
2.15	-4.02850000000001
2.16	-4.02840000000001
2.17	-4.02830000000001
2.18	-4.02820000000001
2.19	-4.02810000000001
2.2	-4.02800000000001
2.21	-4.02790000000001
2.22	-4.02780000000001
2.23	-4.02770000000001
2.24	-4.02760000000001
2.25	-4.02750000000001
2.26	-4.02740000000001
2.27	-4.02730000000001
2.28	-4.02720000000001
2.29	-4.02710000000001
2.3	-4.02700000000001
2.31	-4.02690000000001
2.32	-4.02680000000001
2.33	-4.02670000000001
2.34	-4.02660000000001
2.35	-4.02650000000001
2.36	-4.02640000000001
2.37	-4.02630000000001
2.38	-4.02620000000001
2.39	-4.02610000000001
2.4	-4.02600000000001
2.41	-4.02590000000001
2.42	-4.02580000000001
2.43	-4.02570000000001
2.44	-4.02560000000001
2.45	-4.02550000000001
2.46	-4.02540000000001
2.47	-4.02530000000001
2.48	-4.02520000000001
2.49	-4.02510000000001
2.5	-4.02500000000001
2.51	-4.02490000000001
2.52	-4.02480000000001
2.53	-4.02470000000001
2.54	-4.02460000000001
2.55	-4.02450000000001
2.56	-4.02440000000001
2.57	-4.02430000000001
2.58	-4.02420000000001
2.59	-4.02410000000001
2.6	-4.02400000000001
2.61	-4.02390000000001
2.62	-4.02380000000001
2.63	-4.02370000000001
2.64	-4.02360000000001
2.65	-4.02350000000001
2.66	-4.02340000000001
2.67	-4.02330000000001
2.68	-4.02320000000001
2.69	-4.02310000000001
2.7	-4.02300000000001
2.71	-4.02290000000001
2.72	-4.02280000000001
2.73	-4.02270000000001
2.74	-4.02260000000001
2.75	-4.02250000000001
2.76	-4.02240000000001
2.77	-4.02230000000001
2.78	-4.02220000000001
2.79	-4.02210000000001
2.8	-4.02200000000001
2.81	-4.02190000000001
2.82	-4.02180000000001
2.83	-4.02170000000001
2.84	-4.02160000000001
2.85	-4.02150000000001
2.86	-4.02140000000001
2.87	-4.02130000000001
2.88	-4.02120000000001
2.89	-4.02110000000001
2.9	-4.02100000000001
2.91	-4.02090000000001
2.92	-4.02080000000001
2.93	-4.02070000000001
2.94	-4.02060000000001
2.95	-4.02050000000001
2.96	-4.02040000000001
2.97	-4.02030000000001
2.98	-4.02020000000001
2.99	-4.02010000000001
3	-4.02000000000001
3.01	-4.01990000000001
3.02	-4.01980000000001
3.03	-4.01970000000001
3.04	-4.01960000000001
3.05	-4.01950000000001
3.06	-4.01940000000001
3.07	-4.01930000000001
3.08	-4.01920000000001
3.09	-4.01910000000001
3.1	-4.01900000000001
3.11	-4.01890000000001
3.12	-4.01880000000001
3.13	-4.01870000000001
3.14	-4.01860000000001
3.15	-4.01850000000001
3.16	-4.01840000000001
3.17	-4.01830000000001
3.18	-4.01820000000001
3.19	-4.01810000000001
3.2	-4.01800000000001
3.21	-4.01790000000001
3.22	-4.01780000000001
3.23	-4.01770000000001
3.24	-4.01760000000001
3.25	-4.01750000000001
3.26	-4.01740000000001
3.27	-4.01730000000001
3.28	-4.01720000000001
3.29	-4.01710000000001
3.3	-4.01700000000001
3.31	-4.01690000000001
3.32	-4.01680000000001
3.33	-4.01670000000001
3.34	-4.01660000000001
3.35	-4.01650000000001
3.36	-4.01640000000001
3.37	-4.01630000000001
3.38	-4.01620000000001
3.39	-4.01610000000001
3.4	-4.01600000000001
3.41	-4.01590000000001
3.42	-4.01580000000001
3.43	-4.01570000000001
3.44	-4.01560000000001
3.45	-4.01550000000001
3.46	-4.01540000000001
3.47	-4.01530000000001
3.48	-4.01520000000001
3.49	-4.01510000000001
3.5	-4.01500000000001
3.51	-4.01490000000001
3.52	-4.01480000000001
3.53	-4.01470000000001
3.54	-4.01460000000001
3.55	-4.01450000000001
3.56	-4.01440000000001
3.57	-4.01430000000001
3.58	-4.01420000000001
3.59	-4.01410000000001
3.6	-4.01400000000001
3.61	-4.01390000000001
3.62	-4.01380000000001
3.63	-4.01370000000001
3.64	-4.01360000000001
3.65	-4.01350000000001
3.66	-4.01340000000001
3.67	-4.01330000000001
3.68	-4.01320000000001
3.69	-4.01310000000001
3.7	-4.01300000000001
3.71	-4.01290000000001
3.72	-4.01280000000001
3.73	-4.01270000000001
3.74	-4.01260000000001
3.75	-4.01250000000001
3.76	-4.01240000000001
3.77	-4.01230000000001
3.78	-4.01220000000001
3.79	-4.01210000000001
3.8	-4.01200000000001
3.81	-4.01190000000001
3.82	-4.01180000000001
3.83	-4.01170000000001
3.84	-4.01160000000001
3.85	-4.01150000000001
3.86	-4.01140000000001
3.87	-4.01130000000001
3.88	-4.01120000000001
3.89	-4.01110000000001
3.9	-4.01100000000001
3.91	-4.01090000000001
3.92	-4.01080000000001
3.93	-4.01070000000001
3.94	-4.01060000000001
3.95	-4.01050000000001
3.96	-4.01040000000001
3.97	-4.01030000000001
3.98	-4.01020000000001
3.99	-4.01010000000001
4	-4.01000000000001
4.01	-4.00990000000001
4.02	-4.00980000000001
4.03	-4.00970000000001
4.04	-4.00960000000001
4.05	-4.00950000000001
4.06	-4.00940000000001
4.07	-4.00930000000001
4.08	-4.00920000000001
4.09	-4.00910000000001
4.1	-4.00900000000001
4.11	-4.00890000000001
4.12	-4.00880000000001
4.13	-4.00870000000001
4.14	-4.00860000000001
4.15	-4.00850000000001
4.16	-4.00840000000001
4.17	-4.00830000000001
4.18	-4.00820000000001
4.19	-4.00810000000001
4.2	-4.00800000000001
4.21	-4.00790000000001
4.22	-4.00780000000001
4.23	-4.00770000000001
4.24	-4.00760000000001
4.25	-4.00750000000001
4.26	-4.00740000000001
4.27	-4.00730000000001
4.28	-4.00720000000001
4.29	-4.00710000000001
4.3	-4.00700000000001
4.31	-4.00690000000001
4.32	-4.00680000000001
4.33	-4.00670000000001
4.34	-4.00660000000001
4.35	-4.00650000000001
4.36	-4.00640000000001
4.37	-4.00630000000001
4.38	-4.00620000000001
4.39	-4.00610000000001
4.4	-4.00600000000001
4.41	-4.00590000000001
4.42	-4.00580000000001
4.43	-4.00570000000001
4.44	-4.00560000000001
4.45	-4.00550000000001
4.46	-4.00540000000001
4.47	-4.00530000000001
4.48	-4.00520000000001
4.49	-4.00510000000001
4.5	-4.00500000000001
4.51	-4.00490000000001
4.52	-4.00480000000001
4.53	-4.00470000000001
4.54	-4.00460000000001
4.55	-4.00450000000001
4.56	-4.00440000000001
4.57	-4.00430000000001
4.58	-4.00420000000001
4.59	-4.00410000000001
4.6	-4.00400000000001
4.61	-4.00390000000001
4.62	-4.00380000000001
4.63	-4.00370000000001
4.64	-4.00360000000001
4.65	-4.00350000000001
4.66	-4.00340000000001
4.67	-4.00330000000001
4.68	-4.00320000000001
4.69	-4.00310000000001
4.7	-4.00300000000001
4.71	-4.00290000000001
4.72	-4.00280000000001
4.73	-4.00270000000001
4.74	-4.00260000000001
4.75	-4.00250000000001
4.76	-4.00240000000001
4.77	-4.00230000000001
4.78	-4.00220000000001
4.79	-4.00210000000001
4.8	-4.00200000000001
4.81	-4.00190000000001
4.82	-4.00180000000001
4.83	-4.00170000000001
4.84	-4.00160000000001
4.85	-4.00150000000001
4.86	-4.00140000000001
4.87	-4.00130000000001
4.88	-4.00120000000001
4.89	-4.00110000000001
4.9	-4.00100000000001
4.91	-4.00090000000001
4.92	-4.00080000000001
4.93	-4.00070000000001
4.94	-4.00060000000001
4.95	-4.00050000000001
4.96	-4.00040000000001
4.97	-4.00030000000001
4.98	-4.00020000000001
4.99	-4.00010000000001
5	-4.00000000000001
5.01	-3.99990000000001
5.02	-3.99980000000001
5.03	-3.99970000000001
5.04	-3.99960000000001
5.05	-3.99950000000001
5.06	-3.99940000000001
5.07	-3.99930000000001
5.08	-3.99920000000001
5.09	-3.99910000000001
5.1	-3.99900000000001
5.11	-3.99890000000001
5.12	-3.99880000000001
5.13	-3.99870000000001
5.14	-3.99860000000001
5.15	-3.99850000000001
5.16	-3.99840000000001
5.17	-3.99830000000001
5.18	-3.99820000000001
5.19	-3.99810000000001
5.2	-3.99800000000001
5.21	-3.99790000000001
5.22	-3.99780000000001
5.23	-3.99770000000001
5.24	-3.99760000000001
5.25	-3.99750000000001
5.26	-3.99740000000001
5.27	-3.99730000000001
5.28	-3.99720000000001
5.29	-3.99710000000001
5.3	-3.99700000000001
5.31	-3.99690000000001
5.32	-3.99680000000001
5.33	-3.99670000000001
5.34	-3.99660000000001
5.35	-3.99650000000001
5.36	-3.99640000000001
5.37	-3.99630000000001
5.38	-3.99620000000001
5.39	-3.99610000000001
5.4	-3.99600000000001
5.41	-3.99590000000001
5.42	-3.99580000000001
5.43	-3.99570000000001
5.44	-3.99560000000001
5.45	-3.99550000000001
5.46	-3.99540000000001
5.47	-3.99530000000001
5.48	-3.99520000000001
5.49	-3.99510000000001
5.5	-3.99500000000001
5.51	-3.99490000000001
5.52	-3.99480000000001
5.53	-3.99470000000001
5.54	-3.99460000000001
5.55	-3.99450000000001
5.56	-3.99440000000001
5.57	-3.99430000000001
5.58	-3.99420000000001
5.59	-3.99410000000001
5.6	-3.99400000000001
5.61	-3.99390000000001
5.62	-3.99380000000001
5.63	-3.99370000000001
5.64	-3.99360000000001
5.65	-3.99350000000001
5.66	-3.99340000000001
5.67	-3.99330000000001
5.68	-3.99320000000001
5.69	-3.99310000000001
5.7	-3.99300000000001
5.71	-3.99290000000001
5.72	-3.99280000000001
5.73	-3.99270000000001
5.74	-3.99260000000001
5.75	-3.99250000000001
5.76	-3.99240000000001
5.77	-3.99230000000001
5.78	-3.99220000000001
5.79	-3.99210000000001
5.8	-3.99200000000001
5.81	-3.99190000000001
5.82	-3.99180000000001
5.83	-3.99170000000001
5.84	-3.99160000000001
5.85	-3.99150000000001
5.86	-3.99140000000001
5.87	-3.99130000000001
5.88	-3.99120000000001
5.89	-3.99110000000001
5.9	-3.99100000000001
5.91	-3.99090000000001
5.92	-3.99080000000001
5.93	-3.99070000000001
5.94	-3.99060000000001
5.95	-3.99050000000001
5.96	-3.99040000000001
5.97	-3.99030000000001
5.98	-3.99020000000001
5.99	-3.99010000000001
6	-3.99000000000001
6.01	-3.98990000000001
6.02	-3.98980000000001
6.03	-3.98970000000001
6.04	-3.98960000000001
6.05	-3.98950000000001
6.06	-3.98940000000001
6.07	-3.98930000000001
6.08	-3.98920000000001
6.09	-3.98910000000001
6.1	-3.98900000000001
6.11	-3.98890000000001
6.12	-3.98880000000001
6.13	-3.98870000000001
6.14	-3.98860000000001
6.15	-3.98850000000001
6.16	-3.98840000000001
6.17	-3.98830000000001
6.18	-3.98820000000001
6.19	-3.98810000000001
6.2	-3.98800000000001
6.21	-3.98790000000001
6.22	-3.98780000000001
6.23	-3.98770000000001
6.24	-3.98760000000001
6.25	-3.98750000000001
6.26	-3.98740000000001
6.27	-3.98730000000001
6.28	-3.98720000000001
6.29	-3.98710000000001
6.3	-3.98700000000001
6.31	-3.98690000000001
6.32	-3.98680000000001
6.33	-3.98670000000001
6.34	-3.98660000000001
6.35	-3.98650000000001
6.36	-3.98640000000001
6.37	-3.98630000000001
6.38	-3.98620000000001
6.39	-3.98610000000001
6.4	-3.98600000000001
6.41	-3.98590000000001
6.42	-3.98580000000001
6.43	-3.98570000000001
6.44	-3.98560000000001
6.45	-3.98550000000001
6.46	-3.98540000000001
6.47	-3.98530000000001
6.48	-3.98520000000001
6.49	-3.98510000000001
6.5	-3.98500000000001
6.51	-3.98490000000001
6.52	-3.98480000000001
6.53	-3.98470000000001
6.54	-3.98460000000001
6.55	-3.98450000000001
6.56	-3.98440000000001
6.57	-3.98430000000001
6.58	-3.98420000000001
6.59	-3.98410000000001
6.6	-3.98400000000001
6.61	-3.98390000000001
6.62	-3.98380000000001
6.63	-3.98370000000001
6.64	-3.98360000000001
6.65	-3.98350000000001
6.66	-3.98340000000001
6.67	-3.98330000000001
6.68	-3.98320000000001
6.69	-3.98310000000001
6.7	-3.98300000000001
6.71	-3.98290000000001
6.72	-3.98280000000001
6.73	-3.98270000000001
6.74	-3.98260000000001
6.75	-3.98250000000001
6.76	-3.98240000000001
6.77	-3.98230000000001
6.78	-3.98220000000001
6.79	-3.98210000000001
6.8	-3.98200000000001
6.81	-3.98190000000001
6.82	-3.98180000000001
6.83	-3.98170000000001
6.84	-3.98160000000001
6.85	-3.98150000000001
6.86	-3.98140000000001
6.87	-3.98130000000001
6.88	-3.98120000000001
6.89	-3.98110000000001
6.9	-3.98100000000001
6.91	-3.98090000000001
6.92	-3.98080000000001
6.93	-3.98070000000001
6.94	-3.98060000000001
6.95	-3.98050000000001
6.96	-3.98040000000001
6.97	-3.98030000000001
6.98	-3.98020000000001
6.99	-3.98010000000001
7	-3.98000000000001
7.01	-3.97990000000001
7.02	-3.97980000000001
7.03	-3.97970000000001
7.04	-3.97960000000001
7.05	-3.97950000000001
7.06	-3.97940000000001
7.07	-3.97930000000001
7.08	-3.97920000000001
7.09	-3.97910000000001
7.1	-3.97900000000001
7.11	-3.97890000000001
7.12	-3.97880000000001
7.13	-3.97870000000001
7.14	-3.97860000000001
7.15	-3.97850000000001
7.16	-3.97840000000001
7.17	-3.97830000000001
7.18	-3.97820000000001
7.19	-3.97810000000001
7.2	-3.97800000000001
7.21	-3.97790000000001
7.22	-3.97780000000001
7.23	-3.97770000000001
7.24	-3.97760000000001
7.25	-3.97750000000001
7.26	-3.97740000000001
7.27	-3.97730000000001
7.28	-3.97720000000001
7.29	-3.97710000000001
7.3	-3.97700000000001
7.31	-3.97690000000001
7.32	-3.97680000000001
7.33	-3.97670000000001
7.34	-3.97660000000001
7.35	-3.97650000000001
7.36	-3.97640000000001
7.37	-3.97630000000001
7.38	-3.97620000000001
7.39	-3.97610000000001
7.4	-3.97600000000001
7.41	-3.97590000000001
7.42	-3.97580000000001
7.43	-3.97570000000001
7.44	-3.97560000000001
7.45	-3.97550000000001
7.46	-3.97540000000001
7.47	-3.97530000000001
7.48	-3.97520000000001
7.49	-3.97510000000001
7.5	-3.97500000000001
7.51	-3.97490000000001
7.52	-3.97480000000001
7.53	-3.97470000000001
7.54	-3.97460000000001
7.55	-3.97450000000001
7.56	-3.97440000000001
7.57	-3.97430000000001
7.58	-3.97420000000001
7.59	-3.97410000000001
7.6	-3.97400000000001
7.61	-3.97390000000001
7.62	-3.97380000000001
7.63	-3.97370000000001
7.64	-3.97360000000001
7.65	-3.97350000000001
7.66	-3.97340000000001
7.67	-3.97330000000001
7.68	-3.97320000000001
7.69	-3.97310000000001
7.7	-3.97300000000001
7.71	-3.97290000000001
7.72	-3.97280000000001
7.73	-3.97270000000001
7.74	-3.97260000000001
7.75	-3.97250000000001
7.76	-3.97240000000001
7.77	-3.97230000000001
7.78	-3.97220000000001
7.79	-3.97210000000001
7.8	-3.97200000000001
7.81	-3.97190000000001
7.82	-3.97180000000001
7.83	-3.97170000000001
7.84	-3.97160000000001
7.85	-3.97150000000001
7.86	-3.97140000000001
7.87	-3.97130000000001
7.88	-3.97120000000001
7.89	-3.97110000000001
7.9	-3.97100000000001
7.91	-3.97090000000001
7.92	-3.97080000000001
7.93	-3.97070000000001
7.94	-3.97060000000001
7.95	-3.97050000000001
7.96	-3.97040000000001
7.97	-3.97030000000001
7.98	-3.97020000000001
7.99	-3.97010000000001
8	-3.97000000000001
8.01	-3.96990000000001
8.02	-3.96980000000001
8.03	-3.96970000000001
8.04	-3.96960000000001
8.05	-3.96950000000001
8.06	-3.96940000000001
8.07	-3.96930000000001
8.08	-3.96920000000001
8.09	-3.96910000000001
8.1	-3.96900000000001
8.11	-3.96890000000001
8.12	-3.96880000000001
8.13	-3.96870000000001
8.14	-3.96860000000001
8.15	-3.96850000000001
8.16	-3.96840000000001
8.17	-3.96830000000001
8.18	-3.96820000000001
8.19	-3.96810000000001
8.2	-3.96800000000001
8.21	-3.96790000000001
8.22	-3.96780000000001
8.23	-3.96770000000001
8.24	-3.96760000000001
8.25	-3.96750000000001
8.26	-3.96740000000001
8.27	-3.96730000000001
8.28	-3.96720000000001
8.29	-3.96710000000001
8.3	-3.96700000000001
8.31	-3.96690000000001
8.32	-3.96680000000001
8.33	-3.96670000000001
8.34	-3.96660000000001
8.35	-3.96650000000001
8.36	-3.96640000000001
8.37	-3.96630000000001
8.38	-3.96620000000001
8.39	-3.96610000000001
8.4	-3.96600000000001
8.41	-3.96590000000001
8.42	-3.96580000000001
8.43	-3.96570000000001
8.44	-3.96560000000001
8.45	-3.96550000000001
8.46	-3.96540000000001
8.47	-3.96530000000001
8.48	-3.96520000000001
8.49	-3.96510000000001
8.5	-3.96500000000001
8.51	-3.96490000000001
8.52	-3.96480000000001
8.53	-3.96470000000001
8.54	-3.96460000000001
8.55	-3.96450000000001
8.56	-3.96440000000001
8.57	-3.96430000000001
8.58	-3.96420000000001
8.59	-3.96410000000001
8.6	-3.96400000000001
8.61	-3.96390000000001
8.62	-3.96380000000001
8.63	-3.96370000000001
8.64	-3.96360000000001
8.65	-3.96350000000001
8.66	-3.96340000000001
8.67	-3.96330000000001
8.68	-3.96320000000001
8.69	-3.96310000000001
8.7	-3.96300000000001
8.71	-3.96290000000001
8.72	-3.96280000000001
8.73	-3.96270000000001
8.74	-3.96260000000001
8.75	-3.96250000000001
8.76	-3.96240000000001
8.77	-3.96230000000001
8.78	-3.96220000000001
8.79	-3.96210000000001
8.8	-3.96200000000001
8.81	-3.96190000000001
8.82	-3.96180000000001
8.83	-3.96170000000001
8.84	-3.96160000000001
8.85	-3.96150000000001
8.86	-3.96140000000001
8.87	-3.96130000000001
8.88	-3.96120000000001
8.89	-3.96110000000001
8.9	-3.96100000000001
8.91	-3.96090000000001
8.92	-3.96080000000001
8.93	-3.96070000000001
8.94	-3.96060000000001
8.95	-3.96050000000001
8.96	-3.96040000000001
8.97	-3.96030000000001
8.98	-3.96020000000001
8.99	-3.96010000000001
9	-3.96000000000001
9.01	-3.95990000000001
9.02	-3.95980000000001
9.03	-3.95970000000001
9.04	-3.95960000000001
9.05	-3.95950000000001
9.06	-3.95940000000001
9.07	-3.95930000000001
9.08	-3.95920000000001
9.09	-3.95910000000001
9.1	-3.95900000000001
9.11	-3.95890000000001
9.12	-3.95880000000001
9.13	-3.95870000000001
9.14	-3.95860000000001
9.15	-3.95850000000001
9.16	-3.95840000000001
9.17	-3.95830000000001
9.18	-3.95820000000001
9.19	-3.95810000000001
9.2	-3.95800000000001
9.21	-3.95790000000001
9.22	-3.95780000000001
9.23	-3.95770000000001
9.24	-3.95760000000001
9.25	-3.95750000000001
9.26	-3.95740000000001
9.27	-3.95730000000001
9.28	-3.95720000000001
9.29	-3.95710000000001
9.3	-3.95700000000001
9.31	-3.95690000000001
9.32	-3.95680000000001
9.33	-3.95670000000001
9.34	-3.95660000000001
9.35	-3.95650000000001
9.36	-3.95640000000001
9.37	-3.95630000000001
9.38	-3.95620000000001
9.39	-3.95610000000001
9.4	-3.95600000000001
9.41	-3.95590000000001
9.42	-3.95580000000001
9.43	-3.95570000000001
9.44	-3.95560000000001
9.45	-3.95550000000001
9.46	-3.95540000000001
9.47	-3.95530000000001
9.48	-3.95520000000001
9.49	-3.95510000000001
9.5	-3.95500000000001
9.51	-3.95490000000001
9.52	-3.95480000000001
9.53	-3.95470000000001
9.54	-3.95460000000001
9.55	-3.95450000000001
9.56	-3.95440000000001
9.57	-3.95430000000001
9.58	-3.95420000000001
9.59	-3.95410000000001
9.6	-3.95400000000001
9.61	-3.95390000000001
9.62	-3.95380000000001
9.63	-3.95370000000001
9.64	-3.95360000000001
9.65	-3.95350000000001
9.66	-3.95340000000001
9.67	-3.95330000000001
9.68	-3.95320000000001
9.69	-3.95310000000001
9.7	-3.95300000000001
9.71	-3.95290000000001
9.72	-3.95280000000001
9.73	-3.95270000000001
9.74	-3.95260000000001
9.75	-3.95250000000001
9.76	-3.95240000000001
9.77	-3.95230000000001
9.78	-3.95220000000001
9.79	-3.95210000000001
9.8	-3.95200000000001
9.81	-3.95190000000001
9.82	-3.95180000000001
9.83	-3.95170000000001
9.84	-3.95160000000001
9.85	-3.95150000000001
9.86	-3.95140000000001
9.87	-3.95130000000001
9.88	-3.95120000000001
9.89	-3.95110000000001
9.9	-3.95100000000001
9.91	-3.95090000000001
9.92	-3.95080000000001
9.93	-3.95070000000001
9.94	-3.95060000000001
9.95	-3.95050000000001
9.96	-3.95040000000001
9.97	-3.95030000000001
9.98	-3.95020000000001
9.99	-3.95010000000001
10	-3.95000000000001
