0	-0.707106781186547
0.01	-0.684547105928689
0.02	-0.661311865323652
0.03	-0.63742398974869
0.04	-0.612907053652976
0.05	-0.587785252292473
0.06	-0.562083377852131
0.07	-0.535826794978997
0.08	-0.509041415750371
0.09	-0.481753674101715
0.1	-0.453990499739547
0.11	-0.425779291565073
0.12	-0.397147890634781
0.13	-0.368124552684678
0.14	-0.338737920245291
0.15	-0.309016994374947
0.16	-0.278991106039229
0.17	-0.248689887164855
0.18	-0.218143241396543
0.19	-0.187381314585725
0.2	-0.156434465040231
0.21	-0.125333233564304
0.22	-0.0941083133185143
0.23	-0.0627905195293133
0.24	-0.0314107590781282
0.25	0
0.26	0.0314107590781283
0.27	0.0627905195293135
0.28	0.0941083133185144
0.29	0.125333233564304
0.3	0.156434465040231
0.31	0.187381314585725
0.32	0.218143241396543
0.33	0.248689887164855
0.34	0.278991106039229
0.35	0.309016994374947
0.36	0.338737920245291
0.37	0.368124552684678
0.38	0.397147890634781
0.39	0.425779291565073
0.4	0.453990499739547
0.41	0.481753674101715
0.42	0.509041415750371
0.43	0.535826794978997
0.44	0.562083377852131
0.45	0.587785252292473
0.46	0.612907053652976
0.47	0.63742398974869
0.48	0.661311865323652
0.49	0.684547105928689
0.5	0.707106781186547
0.51	0.728968627421412
0.52	0.75011106963046
0.53	0.770513242775789
0.54	0.79015501237569
0.55	0.809016994374948
0.56	0.827080574274562
0.57	0.844327925502015
0.58	0.860742027003944
0.59	0.876306680043864
0.6	0.891006524188368
0.61	0.90482705246602
0.62	0.917754625683981
0.63	0.929776485888251
0.64	0.940880768954226
0.65	0.951056516295154
0.66	0.960293685676943
0.67	0.968583161128631
0.68	0.975916761938747
0.69	0.982287250728689
0.7	0.987688340595138
0.71	0.992114701314478
0.72	0.99556196460308
0.73	0.998026728428272
0.74	0.999506560365732
0.75	1
0.76	0.999506560365732
0.77	0.998026728428272
0.78	0.99556196460308
0.79	0.992114701314478
0.8	0.987688340595138
0.81	0.982287250728689
0.82	0.975916761938747
0.83	0.968583161128631
0.84	0.960293685676943
0.85	0.951056516295153
0.86	0.940880768954226
0.87	0.929776485888251
0.88	0.917754625683981
0.89	0.904827052466019
0.9	0.891006524188368
0.91	0.876306680043863
0.92	0.860742027003944
0.93	0.844327925502015
0.94	0.827080574274562
0.95	0.809016994374947
0.96	0.79015501237569
0.97	0.770513242775789
0.98	0.750111069630459
0.99	0.728968627421411
1	0.707106781186548
1.01	0.684547105928689
1.02	0.661311865323652
1.03	0.63742398974869
1.04	0.612907053652976
1.05	0.587785252292473
1.06	0.56208337785213
1.07	0.535826794978997
1.08	0.509041415750371
1.09	0.481753674101715
1.1	0.453990499739546
1.11	0.425779291565072
1.12	0.39714789063478
1.13	0.368124552684678
1.14	0.338737920245291
1.15	0.309016994374947
1.16	0.278991106039229
1.17	0.248689887164854
1.18	0.218143241396542
1.19	0.187381314585725
1.2	0.156434465040231
1.21	0.125333233564305
1.22	0.0941083133185144
1.23	0.0627905195293136
1.24	0.0314107590781282
1.25	1.22464679914735e-16
1.26	-0.031410759078128
1.27	-0.0627905195293133
1.28	-0.0941083133185145
1.29	-0.125333233564304
1.3	-0.156434465040231
1.31	-0.187381314585724
1.32	-0.218143241396543
1.33	-0.248689887164855
1.34	-0.278991106039229
1.35	-0.309016994374947
1.36	-0.338737920245292
1.37	-0.368124552684678
1.38	-0.397147890634781
1.39	-0.425779291565073
1.4	-0.453990499739547
1.41	-0.481753674101716
1.42	-0.509041415750372
1.43	-0.535826794978997
1.44	-0.562083377852131
1.45	-0.587785252292474
1.46	-0.612907053652976
1.47	-0.637423989748689
1.48	-0.661311865323652
1.49	-0.684547105928689
1.5	-0.707106781186547
1.51	-0.728968627421411
1.52	-0.750111069630459
1.53	-0.770513242775789
1.54	-0.79015501237569
1.55	-0.809016994374947
1.56	-0.827080574274562
1.57	-0.844327925502015
1.58	-0.860742027003944
1.59	-0.876306680043864
1.6	-0.891006524188368
1.61	-0.90482705246602
1.62	-0.917754625683981
1.63	-0.929776485888251
1.64	-0.940880768954225
1.65	-0.951056516295154
1.66	-0.960293685676943
1.67	-0.968583161128631
1.68	-0.975916761938747
1.69	-0.982287250728689
1.7	-0.987688340595138
1.71	-0.992114701314478
1.72	-0.99556196460308
1.73	-0.998026728428272
1.74	-0.999506560365732
1.75	-1
1.76	-0.999506560365732
1.77	-0.998026728428272
1.78	-0.99556196460308
1.79	-0.992114701314478
1.8	-0.987688340595138
1.81	-0.982287250728689
1.82	-0.975916761938747
1.83	-0.968583161128631
1.84	-0.960293685676943
1.85	-0.951056516295154
1.86	-0.940880768954225
1.87	-0.929776485888251
1.88	-0.917754625683981
1.89	-0.90482705246602
1.9	-0.891006524188368
1.91	-0.876306680043863
1.92	-0.860742027003943
1.93	-0.844327925502015
1.94	-0.827080574274562
1.95	-0.809016994374947
1.96	-0.79015501237569
1.97	-0.770513242775789
1.98	-0.750111069630459
1.99	-0.728968627421412
2	-0.707106781186548
2.01	-0.684547105928688
2.02	-0.661311865323652
2.03	-0.63742398974869
2.04	-0.612907053652976
2.05	-0.587785252292473
2.06	-0.562083377852131
2.07	-0.535826794978996
2.08	-0.509041415750371
2.09	-0.481753674101715
2.1	-0.453990499739547
2.11	-0.425779291565072
2.12	-0.39714789063478
2.13	-0.368124552684679
2.14	-0.338737920245291
2.15	-0.309016994374948
2.16	-0.278991106039229
2.17	-0.248689887164855
2.18	-0.218143241396542
2.19	-0.187381314585725
2.2	-0.15643446504023
2.21	-0.125333233564305
2.22	-0.094108313318514
2.23	-0.0627905195293133
2.24	-0.0314107590781275
2.25	-2.44929359829471e-16
2.26	0.0314107590781288
2.27	0.0627905195293128
2.28	0.0941083133185144
2.29	0.125333233564304
2.3	0.156434465040232
2.31	0.187381314585724
2.32	0.218143241396543
2.33	0.248689887164855
2.34	0.27899110603923
2.35	0.309016994374947
2.36	0.338737920245292
2.37	0.368124552684678
2.38	0.39714789063478
2.39	0.425779291565073
2.4	0.453990499739547
2.41	0.481753674101716
2.42	0.509041415750371
2.43	0.535826794978997
2.44	0.562083377852131
2.45	0.587785252292474
2.46	0.612907053652976
2.47	0.63742398974869
2.48	0.661311865323652
2.49	0.684547105928689
2.5	0.707106781186547
2.51	0.728968627421412
2.52	0.750111069630459
2.53	0.770513242775789
2.54	0.79015501237569
2.55	0.809016994374948
2.56	0.827080574274562
2.57	0.844327925502015
2.58	0.860742027003944
2.59	0.876306680043864
2.6	0.891006524188368
2.61	0.90482705246602
2.62	0.917754625683981
2.63	0.929776485888252
2.64	0.940880768954226
2.65	0.951056516295153
2.66	0.960293685676943
2.67	0.968583161128631
2.68	0.975916761938747
2.69	0.982287250728689
2.7	0.987688340595138
2.71	0.992114701314478
2.72	0.99556196460308
2.73	0.998026728428272
2.74	0.999506560365732
2.75	1
2.76	0.999506560365731
2.77	0.998026728428272
2.78	0.99556196460308
2.79	0.992114701314478
2.8	0.987688340595138
2.81	0.982287250728689
2.82	0.975916761938747
2.83	0.968583161128631
2.84	0.960293685676943
2.85	0.951056516295154
2.86	0.940880768954225
2.87	0.929776485888252
2.88	0.917754625683981
2.89	0.90482705246602
2.9	0.891006524188368
2.91	0.876306680043864
2.92	0.860742027003944
2.93	0.844327925502014
2.94	0.827080574274562
2.95	0.809016994374947
2.96	0.790155012375691
2.97	0.770513242775789
2.98	0.75011106963046
2.99	0.728968627421411
3	0.707106781186548
3.01	0.684547105928688
3.02	0.661311865323653
3.03	0.63742398974869
3.04	0.612907053652978
3.05	0.587785252292473
3.06	0.56208337785213
3.07	0.535826794978997
3.08	0.509041415750371
3.09	0.481753674101716
3.1	0.453990499739546
3.11	0.425779291565071
3.12	0.39714789063478
3.13	0.368124552684676
3.14	0.338737920245292
3.15	0.309016994374946
3.16	0.27899110603923
3.17	0.248689887164854
3.18	0.218143241396543
3.19	0.187381314585724
3.2	0.156434465040232
3.21	0.125333233564304
3.22	0.0941083133185124
3.23	0.0627905195293134
3.24	0.0314107590781267
3.25	3.67394039744206e-16
3.26	-0.0314107590781295
3.27	-0.0627905195293127
3.28	-0.0941083133185152
3.29	-0.125333233564303
3.3	-0.156434465040231
3.31	-0.187381314585723
3.32	-0.218143241396543
3.33	-0.248689887164853
3.34	-0.278991106039229
3.35	-0.309016994374949
3.36	-0.338737920245291
3.37	-0.368124552684679
3.38	-0.39714789063478
3.39	-0.425779291565073
3.4	-0.453990499739549
3.41	-0.481753674101716
3.42	-0.509041415750373
3.43	-0.535826794978997
3.44	-0.562083377852129
3.45	-0.587785252292473
3.46	-0.612907053652977
3.47	-0.637423989748689
3.48	-0.661311865323652
3.49	-0.684547105928688
3.5	-0.707106781186548
3.51	-0.728968627421413
3.52	-0.75011106963046
3.53	-0.77051324277579
3.54	-0.79015501237569
3.55	-0.809016994374948
3.56	-0.827080574274561
3.57	-0.844327925502016
3.58	-0.860742027003943
3.59	-0.876306680043864
3.6	-0.891006524188367
3.61	-0.90482705246602
3.62	-0.91775462568398
3.63	-0.929776485888251
3.64	-0.940880768954226
3.65	-0.951056516295153
3.66	-0.960293685676943
3.67	-0.968583161128631
3.68	-0.975916761938748
3.69	-0.982287250728689
3.7	-0.987688340595138
3.71	-0.992114701314478
3.72	-0.99556196460308
3.73	-0.998026728428271
3.74	-0.999506560365732
3.75	-1
3.76	-0.999506560365732
3.77	-0.998026728428271
3.78	-0.99556196460308
3.79	-0.992114701314478
3.8	-0.987688340595138
3.81	-0.982287250728689
3.82	-0.975916761938747
3.83	-0.968583161128631
3.84	-0.960293685676943
3.85	-0.951056516295154
3.86	-0.940880768954225
3.87	-0.929776485888252
3.88	-0.917754625683981
3.89	-0.90482705246602
3.9	-0.891006524188368
3.91	-0.876306680043864
3.92	-0.860742027003944
3.93	-0.844327925502014
3.94	-0.827080574274562
3.95	-0.809016994374947
3.96	-0.790155012375691
3.97	-0.770513242775789
3.98	-0.75011106963046
3.99	-0.728968627421411
4	-0.707106781186548
4.01	-0.684547105928689
4.02	-0.66131186532365
4.03	-0.63742398974869
4.04	-0.612907053652978
4.05	-0.587785252292473
4.06	-0.56208337785213
4.07	-0.535826794978997
4.08	-0.509041415750371
4.09	-0.481753674101716
4.1	-0.453990499739546
4.11	-0.425779291565071
4.12	-0.397147890634781
4.13	-0.36812455268468
4.14	-0.338737920245292
4.15	-0.309016994374946
4.16	-0.27899110603923
4.17	-0.248689887164854
4.18	-0.21814324139654
4.19	-0.187381314585724
4.2	-0.156434465040232
4.21	-0.125333233564304
4.22	-0.0941083133185125
4.23	-0.0627905195293135
4.24	-0.0314107590781268
4.25	-4.89858719658941e-16
4.26	0.0314107590781258
4.27	0.0627905195293161
4.28	0.0941083133185151
4.29	0.125333233564303
4.3	0.156434465040231
4.31	0.187381314585727
4.32	0.218143241396543
4.33	0.248689887164853
4.34	0.278991106039229
4.35	0.309016994374949
4.36	0.338737920245291
4.37	0.368124552684679
4.38	0.39714789063478
4.39	0.425779291565073
4.4	0.453990499739549
4.41	0.481753674101715
4.42	0.50904141575037
4.43	0.535826794978996
4.44	0.562083377852132
4.45	0.587785252292473
4.46	0.612907053652977
4.47	0.637423989748692
4.48	0.661311865323652
4.49	0.684547105928688
4.5	0.707106781186548
4.51	0.72896862742141
4.52	0.75011106963046
4.53	0.77051324277579
4.54	0.79015501237569
4.55	0.809016994374946
4.56	0.827080574274561
4.57	0.844327925502016
4.58	0.860742027003943
4.59	0.876306680043864
4.6	0.891006524188369
4.61	0.90482705246602
4.62	0.91775462568398
4.63	0.929776485888251
4.64	0.940880768954226
4.65	0.951056516295153
4.66	0.960293685676943
4.67	0.968583161128631
4.68	0.975916761938748
4.69	0.982287250728689
4.7	0.987688340595138
4.71	0.992114701314478
4.72	0.99556196460308
4.73	0.998026728428272
4.74	0.999506560365732
4.75	1
4.76	0.999506560365732
4.77	0.998026728428272
4.78	0.99556196460308
4.79	0.992114701314478
4.8	0.987688340595138
4.81	0.982287250728689
4.82	0.975916761938747
4.83	0.968583161128631
4.84	0.960293685676944
4.85	0.951056516295154
4.86	0.940880768954225
4.87	0.929776485888252
4.88	0.917754625683981
4.89	0.904827052466019
4.9	0.891006524188368
4.91	0.876306680043864
4.92	0.860742027003944
4.93	0.844327925502014
4.94	0.827080574274562
4.95	0.809016994374947
4.96	0.790155012375691
4.97	0.770513242775789
4.98	0.750111069630458
4.99	0.728968627421411
5	0.707106781186549
