0	-5.44501968332822
0.05	-5.04501968332915
0.1	-4.54501968333032
0.15	-4.08290934666668
0.2	-4.08145293600001
0.25	-4.07975938000005
0.3	-4.07780242266671
0.35	-4.07560874666666
0.4	-4.07315124266674
0.45	-4.07045744666664
0.5	-4.06749939599997
0.55	-4.06430548000001
0.6	-4.06084688266667
0.65	-4.05715284666671
0.7	-4.0531937026667
0.75	-4.04899954666665
0.8	-4.04453985599998
0.85	-4.03984558000002
0.9	-4.03488534266668
0.95	-4.02969094666671
1	-4.0242301626667
1.05	-4.01853564666666
1.1	-4.01257431599999
1.15	-4.00637967999999
1.2	-3.99991780266669
1.25	-3.99322304666668
1.3	-3.98626062266668
1.35	-3.97906574666667
1.4	-3.971602776
1.45	-3.96390778000003
1.5	-3.95594426266669
1.55	-3.94774914666667
1.6	-3.93928508266667
1.65	-3.93058984666666
1.7	-3.92162523599999
1.75	-3.91242988000002
1.8	-3.90296472266668
1.85	-3.89326924666668
1.9	-3.88330354266667
1.95	-3.87310794666665
2	-3.86264169599998
2.05	-3.85194598000001
2.1	-3.84097918266667
2.15	-3.82978334666667
2.2	-3.81831600266666
2.25	-3.80662004666669
2.3	-3.79465215600002
2.35	-3.78245608000001
2.4	-3.76998764266668
2.45	-3.75729144666666
2.5	-3.74432246266666
2.55	-3.73112614666668
2.6	-3.71765661600001
2.65	-3.70396018
2.7	-3.68999010266667
2.75	-3.67579354666666
2.8	-3.66132292266666
2.85	-3.64662624666668
2.9	-3.63165507600001
2.95	-3.61645828
3	-3.60098656266666
3.05	-3.58528964666666
3.1	-3.56931738266668
3.15	-3.55312034666667
3.2	-3.53664753600001
3.25	-3.51995038
3.3	-3.50297702266667
3.35	-3.48577974666668
3.4	-3.46830584266668
3.45	-3.45060844666667
3.5	-3.432633996
3.55	-3.41443648
3.6	-3.39596148266666
3.65	-3.37726384666668
3.7	-3.35828830266667
3.75	-3.33909054666667
3.8	-3.319614456
3.85	-3.29991657999999
3.9	-3.27993994266666
3.95	-3.25974194666667
4	-3.23926476266667
4.05	-3.21856664666667
4.1	-3.197588916
4.15	-3.17639068000001
4.2	-3.15491240266667
4.25	-3.13321404666667
4.3	-3.11123522266667
4.35	-3.08903674666667
4.4	-3.066557376
4.45	-3.04385878
4.5	-3.02087886266667
4.55	-2.99768014666667
4.6	-2.97419968266667
4.65	-2.95050084666667
4.7	-2.926519836
4.75	-2.90232088
4.8	-2.87783932266667
4.85	-2.85314024666667
4.9	-2.82815814266667
4.95	-2.80295894666667
5	-2.777476296
5.05	-2.75177698
5.1	-2.72579378266667
5.15	-2.69959434666667
5.2	-2.67311060266667
5.25	-2.64641104666667
5.3	-2.619426756
5.35	-2.59222708
5.4	-2.56502708
5.45	-2.5375275
5.5	-2.5100275
5.55	-2.482028
5.6	-2.454028
5.65	-2.4255285
5.7	-2.3970285
5.75	-2.36822892
5.8	-2.33942892
5.85	-2.31041562
5.9	-2.28111562
5.95	-2.25160298666667
6	-2.22180298666667
6.05	-2.19179102
6.1	-2.16149102
6.15	-2.13097972
6.2	-2.10017972
6.25	-2.06916908666667
6.3	-2.03786908666667
6.35	-2.00635912
6.4	-1.97455912
6.45	-1.94254982
6.5	-1.91024982
6.55	-1.87774118666667
6.6	-1.84494118666667
6.65	-1.81193322
6.7	-1.77863322
6.75	-1.74512592
6.8	-1.71132592
6.85	-1.67731928666666
6.9	-1.64301928666666
6.95	-1.60851332
7	-1.57371332
7.05	-1.53870802
7.1	-1.50340802
7.15	-1.46790338666666
7.2	-1.43210338666666
7.25	-1.39609942
7.3	-1.35979942
7.35	-1.32329612
7.4	-1.28649612
7.45	-1.24949348666667
7.5	-1.21219348666667
7.55	-1.17469151999999
7.6	-1.13689151999999
7.65	-1.09889022
7.7	-1.06059022
7.75	-1.02208958666666
7.8	-0.983289586666663
7.85	-0.944289619999999
7.9	-0.904989619999998
7.95	-0.865490319999996
8	-0.825690319999996
8.05	-0.785691686666664
8.1	-0.745391686666664
8.15	-0.704893719999995
8.2	-0.664093719999995
8.25	-0.623096419999998
8.3	-0.58179642
8.35	-0.540299786666663
8.4	-0.498499786666665
8.45	-0.456503819999998
8.5	-0.414203819999998
8.55	-0.371708519999998
8.6	-0.328908519999999
8.65	-0.285913886666664
8.7	-0.242613886666665
8.75	-0.199119919999998
8.8	-0.155319919999999
8.85	-0.111326619999998
8.9	-0.0670266199999983
8.95	-0.0225339866666643
9	0.0222660133333357
9.05	0.0672579800000022
9.1	0.112557980000002
9.15	0.158049280000002
9.2	0.203849280000002
9.25	0.249839913333337
9.3	0.296139913333337
9.35	0.342629880000002
9.4	0.389429880000002
9.45	0.436419180000002
9.5	0.483719180000003
9.55	0.531207813333336
9.6	0.579007813333332
9.65	0.626995780000003
9.7	0.675295780000003
9.75	0.723783080000001
9.8	0.772583079999999
9.85	0.821569713333337
9.9	0.870869713333337
9.95	0.920355680000004
10	0.97015568
10	0.97015568
11	1.97015568
