0	0.00903388278214923
0.05	0.00887331333332497
0.1	0.00840891599999161
0.15	0.00821068000000125
0.2	0.00774573600000039
0.25	0.00754738000000987
0.3	0.00708188933334064
0.35	0.0068834133333473
0.4	0.00641737600001147
0.45	0.00621877999999398
0.5	0.00575219599999421
0.55	0.00555348000000144
0.6	0.0050863493333333
0.65	0.00488751333333681
0.7	0.00441983600000384
0.75	0.00422087999999654
0.8	0.00375265599999697
0.85	0.00355358000000194
0.9	0.00308480933333488
0.95	0.00288561333333615
1	0.00241629600000115
1.05	0.00221697999999959
1.1	0.00174711599999933
1.15	0.00154767999999894
1.2	0.00107726933333385
1.25	0.000877713333333308
1.3	0.000406755999999397
1.35	0.000207080000000026
1.4	7.08000000004816e-06
1.45	7.50000000016016e-06
1.5	7.50000000016016e-06
1.55	7.99999999934187e-06
1.6	7.99999999934187e-06
1.65	8.50000000074402e-06
1.7	8.50000000074402e-06
1.75	0.000208919999999946
1.8	0.000408919999999924
1.85	0.00088228666666712
1.9	0.00108228666666754
1.95	0.00155631999999883
2	0.00175631999999881
2.05	0.00223101999999997
2.1	0.00243102000000039
2.15	0.00290638666666698
2.2	0.00310638666666696
2.25	0.00358241999999853
2.3	0.00378241999999851
2.35	0.00425912000000173
2.4	0.00445912000000215
2.45	0.00493648666666502
2.5	0.00513648666666455
2.55	0.00561452000000262
2.6	0.0058145200000026
2.65	0.00629322000000032
2.7	0.0064932200000003
2.75	0.00697258666666523
2.8	0.00717258666666565
2.85	0.00765262000000577
2.9	0.00785262000000575
2.95	0.00833331999999887
3	0.00853331999999885
3.05	0.00901468666666139
3.1	0.00921468666666136
3.15	0.00969672000000354
3.2	0.00989672000000352
3.25	0.0103794200000009
3.3	0.0105794200000005
3.35	0.0110627866666562
3.4	0.0112627866666561
3.45	0.0117468199999995
3.5	0.0119468199999999
3.55	0.0124315199999963
3.6	0.0126315199999962
3.65	0.0131168866666749
3.7	0.0133168866666744
3.75	0.0138029200000043
3.8	0.0140029200000042
3.85	0.0144896199999898
3.9	0.0146896199999897
3.95	0.0151769866666704
4	0.0153769866666704
4.05	0.0158650199999997
4.1	0.0160650199999992
4.15	0.0165537199999926
4.2	0.0167537199999925
4.25	0.0172430866666753
4.3	0.0174430866666757
4.35	0.0179331199999924
4.4	0.0181331199999919
4.45	0.0186238199999931
4.5	0.0188238200000086
4.55	0.0193151866666694
4.6	0.0195151866666694
4.65	0.0200072199999966
4.7	0.0202072199999965
4.75	0.0206999200000069
4.8	0.0208999200000157
4.85	0.0213932866666626
4.9	0.0215932866666622
4.95	0.0220873199999874
5	0.0222873199999873
5.05	0.0227820200000086
5.1	0.0229820200000086
5.15	0.0234773866666678
5.2	0.0236773866666682
5.25	0.0241734199999768
5.3	0.0243734199999772
5.35	0.0248701200000001
5.4	0.0250701200000001
5.45	0.0255674866666582
5.5	0.0257674866666586
5.55	0.0262655200000008
5.6	0.0264655200000159
5.65	0.026964220000008
5.7	0.0271642200000075
5.75	0.0276635866666473
5.8	0.0278635866666472
5.85	0.0283636200000066
5.9	0.0285636200000066
5.95	0.0290643199999971
6	0.029264319999998
6.05	0.0297656866666536
6.1	0.0299656866666536
6.15	0.0304677200000127
6.2	0.0306677200000149
6.25	0.0311704199999863
6.3	0.0313704199999858
6.35	0.0318737866666479
6.4	0.0320737866666727
6.45	0.0325778199999938
6.5	0.0327778199999944
6.55	0.0332825199999933
6.6	0.0334825199999937
6.65	0.0339878866666705
6.7	0.0341878866666705
6.75	0.0346939199999836
6.8	0.0348939200000107
6.85	0.0354006199999917
6.9	0.0356006199999912
6.95	0.0361079866666683
7	0.0363079866666682
7.05	0.0368160199999972
7.1	0.0370160200000016
7.15	0.0375247199999884
7.2	0.0377247199999891
7.25	0.0382340866666544
7.3	0.0384340866666548
7.35	0.0389441199999998
7.4	0.0391441199999996
7.45	0.0396548199999867
7.5	0.0398548200000115
7.55	0.0403661866666523
7.6	0.0405661866666522
7.65	0.0410782199999975
7.7	0.0412782199999981
7.75	0.0417909199999971
7.8	0.0419909199999966
7.85	0.0425042866666641
7.9	0.042704286666669
7.95	0.0432183199999956
8	0.0434183199999947
8.05	0.0439330199999943
8.1	0.044133020000002
8.15	0.0446483866666597
8.2	0.0448483866666609
8.25	0.0453644199999903
8.3	0.0455644200000068
8.35	0.0460811199999961
8.4	0.0462811199999998
8.45	0.0467984866666644
8.5	0.0469984866666682
8.55	0.0475165199999941
8.6	0.0477165200000016
8.65	0.048235219999984
8.7	0.0484352200000027
8.75	0.0489545866666074
8.8	0.0491545866666678
8.85	0.0496746199997438
8.9	0.0498746200000005
8.95	0.0503953199989347
9	0.0505953199999993
9.05	0.0511166866625087
9.1	0.051316686666667
9.15	0.0518387199847716
9.2	0.052038719999998
9.25	0.0525614199478116
9.3	0.052761419999995
9.35	0.0532847864994835
9.4	0.0534847866666646
9.45	0.0540088194996253
9.5	0.054208819999995
9.55	0.0547335186013982
9.6	0.0549335200000056
9.65	0.0554588830095823
9.7	0.0556588866666625
9.75	0.0561849110795994
9.8	0.0563849200000027
9.85	0.0569115997001368
9.9	0.0571116199999929
9.95	0.0576389435522323
10	0.0578389866666672
10	0.0578389866666672
11	0.0578389866666673
