0	0.648170218428378
0.05	0.24857021842931
0.1	0.0244252359999759
0.15	0.0242298800000027
0.2	0.023770056
0.25	0.0235745800000267
0.3	0.0231142093333565
0.35	0.0229186133333359
0.4	0.0224576960000427
0.45	0.0222619799999793
0.5	0.0218005159999777
0.55	0.021604680000002
0.6	0.0211426693333321
0.65	0.0209467133333536
0.7	0.020484156000018
0.75	0.0202880799999861
0.8	0.0198249759999838
0.85	0.0196287800000068
0.9	0.0191651293333379
0.95	0.0189688133333572
1	0.0185046160000186
1.05	0.0183081799999938
1.1	0.0178434359999913
1.15	0.0176468799999872
1.2	0.0171815893333416
1.25	0.0169849133333368
1.3	0.016519076000002
1.35	0.0163222799999985
1.4	0.0158558959999966
1.45	0.0156589800000138
1.5	0.0151920493333448
1.55	0.0149950133333312
1.6	0.0145275359999961
1.65	0.0143303799999934
1.7	0.0138623559999922
1.75	0.0136650800000067
1.8	0.0131965093333379
1.85	0.0129991133333358
1.9	0.0125299960000005
1.95	0.0123324799999893
2	0.0118628159999887
2.05	0.0116651800000009
2.1	0.0111949693333333
2.15	0.0109972133333311
2.2	0.0105264559999965
2.25	0.0103285800000075
2.3	0.00985727600000619
2.35	0.00965928000000327
2.4	0.00918742933333583
2.45	0.00898931333332831
2.5	0.00851691599999427
2.55	0.00831868000000302
2.6	0.00784573600000149
2.65	0.00764737999999943
2.7	0.00717388933333218
2.75	0.00697541333333129
2.8	0.00650137599999745
2.85	0.00630278000000351
2.9	0.00582819600000262
2.95	0.00562947999999874
3	0.00515434933333125
3.05	0.00495551333332989
3.1	0.00447983600000157
3.15	0.00428088000000093
3.2	0.00380465600000068
3.25	0.00360557999999989
3.3	0.00312880933333259
3.35	0.00292961333333608
3.4	0.00245229600000174
3.45	0.00225297999999885
3.5	0.00177511599999969
3.55	0.00157567999999975
3.6	0.00109726933333265
3.65	0.000897713333333883
3.7	0.000418755999999743
3.75	0.000219080000000371
3.8	1.90800000003932e-05
3.85	1.95000000000611e-05
3.9	1.95000000000611e-05
3.95	1.99999999996869e-05
4	1.99999999996869e-05
4.05	2.05000000010891e-05
4.1	2.05000000010891e-05
4.15	0.000220919999999847
4.2	0.000420919999999825
4.25	0.000902286666666363
4.3	0.00110228666666723
4.35	0.00158431999999964
4.4	0.00178431999999917
4.45	0.00226702000000101
4.5	0.00246702000000054
4.55	0.00295038666666692
4.6	0.00315038666666689
4.65	0.00363441999999958
4.7	0.00383441999999956
4.75	0.00431912000000301
4.8	0.00451912000000343
4.85	0.00500448666666609
4.9	0.00520448666666562
4.95	0.00569051999999681
5	0.00589051999999679
5.05	0.00637722000000229
5.1	0.00657722000000227
5.15	0.00706458666666698
5.2	0.00726458666666696
5.25	0.00775261999999266
5.3	0.00795261999999264
5.35	0.00844131999999975
5.4	0.00864131999999973
5.45	0.00913068666666339
5.5	0.00933068666666426
5.55	0.00982072000000622
5.6	0.0100207200000058
5.65	0.0105114200000034
5.7	0.0107114200000029
5.75	0.0112027866666593
5.8	0.0114027866666588
5.85	0.0118948200000024
5.9	0.0120948200000028
5.95	0.0125875199999985
6	0.0127875199999998
6.05	0.0132808866666609
6.1	0.0134808866666605
6.15	0.013974920000007
6.2	0.0141749200000065
6.25	0.0146696199999941
6.3	0.0148696199999936
6.35	0.0153649866666616
6.4	0.0155649866666689
6.45	0.0160610199999969
6.5	0.0162610199999973
6.55	0.0167577199999966
6.6	0.0169577199999971
6.65	0.0174550866666687
6.7	0.0176550866666687
6.75	0.0181531199999929
6.8	0.0183531200000078
6.85	0.0188518199999956
6.9	0.0190518199999952
6.95	0.0195511866666673
7	0.0197511866666675
7.05	0.0202512200000011
7.1	0.0204512200000011
7.15	0.0209519199999935
7.2	0.0211519199999939
7.25	0.0216532866666599
7.3	0.0218532866666603
7.35	0.0223553199999997
7.4	0.0225553199999997
7.45	0.0230580199999988
7.5	0.0232580200000065
7.55	0.0237613866666582
7.6	0.0239613866666584
7.65	0.0244654199999985
7.7	0.0246654199999994
7.75	0.0251701199999983
7.8	0.0253701199999982
7.85	0.0258754866666677
7.9	0.0260754866666678
7.95	0.0265815199999975
8	0.0267815199999966
8.05	0.0272882199999998
8.1	0.0274882200000015
8.15	0.0279955866666621
8.2	0.0281955866666632
8.25	0.0287036199999962
8.3	0.0289036200000041
8.35	0.0294123199999998
8.4	0.02961232
8.45	0.0301216866666667
8.5	0.0303216866666674
8.55	0.030831719999998
8.6	0.0310317200000012
8.65	0.0315424199999971
8.7	0.0317424200000012
8.75	0.0322537866666653
8.8	0.0324537866666673
8.85	0.03296582
8.9	0.0331658200000003
8.95	0.0336785200000012
9	0.0338785199999993
9.05	0.0343918866666667
9.1	0.0345918866666671
9.15	0.0351059199999976
9.2	0.0353059199999986
9.25	0.0358206199999976
9.3	0.0360206199999966
9.35	0.0365359866666664
9.4	0.0367359866666652
9.45	0.0372520199999978
9.5	0.0374520199999958
9.55	0.0379687199999942
9.6	0.0381687200000043
9.65	0.0386860866666606
9.7	0.0388860866666636
9.75	0.0394041199999807
9.8	0.0396041200000015
9.85	0.0401228199999175
9.9	0.040322819999995
9.95	0.0408421866662673
10	0.0410421866666668
10	0.0410421866666668
11	0.0410421866666668
