0	-6.81376760285717
0.05	-6.4137676028581
0.1	-5.91376760285927
0.15	-5.41376760286043
0.2	-4.9137676028616
0.25	-4.41376760286276
0.3	-4.09183070266672
0.35	-4.08963954666663
0.4	-4.08718652266676
0.45	-4.08449524666663
0.5	-4.08154167599996
0.55	-4.07835028000001
0.6	-4.07489616266667
0.65	-4.07120464666672
0.7	-4.06724998266671
0.75	-4.06305834666664
0.8	-4.05860313599997
0.85	-4.05391138000002
0.9	-4.04895562266668
0.95	-4.04376374666673
1	-4.03830744266672
1.05	-4.03261544666666
1.1	-4.02665859599999
1.15	-4.02046648
1.2	-4.01400908266669
1.25	-4.00731684666669
1.3	-4.00035890266668
1.35	-3.99316654666667
1.4	-3.985708056
1.45	-3.97801558000004
1.5	-3.9700565426667
1.55	-3.96186394666667
1.6	-3.95340436266666
1.65	-3.94471164666665
1.7	-3.93575151599998
1.75	-3.92655868000002
1.8	-3.91709800266669
1.85	-3.90740504666668
1.9	-3.89744382266667
1.95	-3.88725074666664
2	-3.87678897599997
2.05	-3.86609578000001
2.1	-3.85513346266667
2.15	-3.84394014666666
2.2	-3.83247728266666
2.25	-3.8207838466667
2.3	-3.80882043600003
2.35	-3.79662688000002
2.4	-3.78416292266668
2.45	-3.77146924666665
2.5	-3.75850474266665
2.55	-3.74531094666668
2.6	-3.73184589600001
2.65	-3.71815198
2.7	-3.70418638266667
2.75	-3.68999234666666
2.8	-3.67552620266666
2.85	-3.66083204666669
2.9	-3.64586535600002
2.95	-3.63067107999999
3	-3.61520384266666
3.05	-3.59950944666665
3.1	-3.58354166266668
3.15	-3.56734714666668
3.2	-3.55087881600001
3.25	-3.53418418
3.3	-3.51721530266666
3.35	-3.50002054666669
3.4	-3.48255112266669
3.45	-3.46485624666667
3.5	-3.446886276
3.55	-3.42869127999999
3.6	-3.41022076266665
3.65	-3.39152564666668
3.7	-3.37255458266668
3.75	-3.35335934666667
3.8	-3.333887736
3.85	-3.31419237999998
3.9	-3.29422022266665
3.95	-3.27402474666667
4	-3.25355204266667
4.05	-3.23285644666666
4.1	-3.21188319599999
4.15	-3.19068748000002
4.2	-3.16921368266668
4.25	-3.14751784666668
4.3	-3.12554350266667
4.35	-3.10334754666666
4.4	-3.08087265599999
4.45	-3.05817658000001
4.5	-3.03520114266667
4.55	-3.01200494666667
4.6	-2.98852896266667
4.65	-2.96483264666666
4.7	-2.94085611599999
4.75	-2.91665968000001
4.8	-2.89218260266668
4.85	-2.86748604666666
4.9	-2.84250842266666
4.95	-2.81731174666666
5	-2.79183357600001
5.05	-2.76613678
5.1	-2.74015806266667
5.15	-2.71396114666667
5.2	-2.68748188266666
5.25	-2.66078484666668
5.3	-2.63380503600001
5.35	-2.60660788
5.4	-2.57912752266666
5.45	-2.55143024666666
5.5	-2.52344934266666
5.55	-2.49525194666667
5.6	-2.46677049600001
5.65	-2.43807298
5.7	-2.40909098266667
5.75	-2.37989334666666
5.8	-2.35041080266666
5.85	-2.32071304666667
5.9	-2.290729956
5.95	-2.26053208
6	-2.23004844266666
6.05	-2.19935044666667
6.1	-2.16836626266667
6.15	-2.13716814666667
6.2	-2.105683416
6.25	-2.07398518
6.3	-2.04199990266666
6.35	-2.00980154666667
6.4	-1.97731572266667
6.45	-1.94461724666667
6.5	-1.911630876
6.55	-1.87843228
6.6	-1.84494536266666
6.65	-1.81124664666667
6.7	-1.77725918266667
6.75	-1.74306034666667
6.8	-1.708572336
6.85	-1.67387338
6.9	-1.63888482266667
6.95	-1.60368574666667
7	-1.56819664266667
7.05	-1.53249744666667
7.1	-1.496507796
7.15	-1.46030848
7.2	-1.42381828266667
7.25	-1.38711884666666
7.3	-1.35012810266667
7.35	-1.31292854666667
7.4	-1.275437256
7.45	-1.23773758
7.5	-1.20003758
7.55	-1.162038
7.6	-1.124038
7.65	-1.0855385
7.7	-1.0470385
7.75	-1.008039
7.8	-0.969038999999998
7.85	-0.929739419999998
7.9	-0.890439419999998
7.95	-0.850933119999997
8	-0.811133119999997
8.05	-0.771127486666664
8.1	-0.730827486666664
8.15	-0.690322519999997
8.2	-0.649522519999997
8.25	-0.608518219999998
8.3	-0.567218219999998
8.35	-0.525714586666664
8.4	-0.483914586666664
8.45	-0.441911619999998
8.5	-0.399611619999998
8.55	-0.357109319999998
8.6	-0.314309319999998
8.65	-0.271307686666666
8.7	-0.228007686666665
8.75	-0.184506719999998
8.8	-0.140706719999998
8.85	-0.0967064199999982
8.9	-0.0524064199999982
8.95	-0.00790678666666429
9	0.0368932133333357
9.05	0.0818921800000021
9.1	0.127192180000002
9.15	0.172690480000002
9.2	0.218490480000002
9.25	0.264488113333336
9.3	0.310788113333336
9.35	0.357285080000002
9.4	0.404085080000002
9.45	0.451081380000001
9.5	0.498381380000003
9.55	0.545877013333333
9.6	0.593677013333333
9.65	0.641671980000002
9.7	0.689971980000002
9.75	0.73846628
9.8	0.78726628
9.85	0.836259913333336
9.9	0.885559913333336
9.95	0.935052880000001
10	0.98485288
10	0.98485288
11	1.98485288
