0	-7.28581028923412
0.05	-6.88581028923506
0.1	-6.38581028923622
0.15	-5.88581028923739
0.2	-5.38581028923855
0.25	-4.88581028923972
0.3	-4.38581028924088
0.35	-4.09364834666663
0.4	-4.09119660266675
0.45	-4.08850604666663
0.5	-4.08555375599995
0.55	-4.08236308000001
0.6	-4.07891024266667
0.65	-4.07521944666672
0.7	-4.07126606266672
0.75	-4.06707514666664
0.8	-4.06262121599997
0.85	-4.05793018000002
0.9	-4.05297570266668
0.95	-4.04778454666674
1	-4.04232952266673
1.05	-4.03663824666666
1.1	-4.03068267599998
1.15	-4.02449128000001
1.2	-4.0180351626667
1.25	-4.0113436466667
1.3	-4.00438698266669
1.35	-3.99719534666667
1.4	-3.989738136
1.45	-3.98204638000005
1.5	-3.97408862266671
1.55	-3.96589674666667
1.6	-3.95743844266666
1.65	-3.94874644666665
1.7	-3.93978759599998
1.75	-3.93059548000003
1.8	-3.92113608266669
1.85	-3.91144384666668
1.9	-3.90148390266667
1.95	-3.89129154666664
2	-3.88083105599997
2.05	-3.87013858000001
2.1	-3.85917754266667
2.15	-3.84798494666666
2.2	-3.83652336266666
2.25	-3.8248306466667
2.3	-3.81286851600003
2.35	-3.80067568000002
2.4	-3.78821300266668
2.45	-3.77552004666665
2.5	-3.76255682266664
2.55	-3.74936374666668
2.6	-3.73589997600001
2.65	-3.72220678
2.7	-3.70824246266667
2.75	-3.69404914666666
2.8	-3.67958428266665
2.85	-3.66489084666669
2.9	-3.64992543600002
2.95	-3.63473187999999
3	-3.61926592266665
3.05	-3.60357224666665
3.1	-3.58760574266669
3.15	-3.57141194666668
3.2	-3.55494489600001
3.25	-3.53825098
3.3	-3.52128338266666
3.35	-3.5040893466667
3.4	-3.48662120266669
3.45	-3.46892704666667
3.5	-3.450958356
3.55	-3.43276407999999
3.6	-3.41429484266665
3.65	-3.39560044666668
3.7	-3.37663066266668
3.75	-3.35743614666667
3.8	-3.337965816
3.85	-3.31827117999998
3.9	-3.29830030266664
3.95	-3.27810554666667
4	-3.25763412266667
4.05	-3.23693924666666
4.1	-3.21596727599999
4.15	-3.19477228000002
4.2	-3.17329976266668
4.25	-3.15160464666668
4.3	-3.12963158266668
4.35	-3.10743634666665
4.4	-3.08496273599998
4.45	-3.06226738000001
4.5	-3.03929322266667
4.55	-3.01609774666667
4.6	-2.99262304266667
4.65	-2.96892744666666
4.7	-2.94495219599999
4.75	-2.92075648000001
4.8	-2.89628068266668
4.85	-2.87158484666666
4.9	-2.84660850266666
4.95	-2.82141254666665
5	-2.79593565600001
5.05	-2.77023958000001
5.1	-2.74426214266667
5.15	-2.71806594666667
5.2	-2.69158796266666
5.25	-2.66489164666668
5.3	-2.63791311600002
5.35	-2.61071668
5.4	-2.58323760266666
5.45	-2.55554104666666
5.5	-2.52756142266666
5.55	-2.49936474666668
5.6	-2.47088457600001
5.65	-2.44218778
5.7	-2.41320706266667
5.75	-2.38401014666665
5.8	-2.35452888266665
5.85	-2.32483184666667
5.9	-2.294850036
5.95	-2.26465288
6	-2.23417052266666
6.05	-2.20347324666668
6.1	-2.17249034266668
6.15	-2.14129294666667
6.2	-2.109809496
6.25	-2.07811197999999
6.3	-2.04612798266666
6.35	-2.01393034666667
6.4	-1.98144580266667
6.45	-1.94874804666667
6.5	-1.915762956
6.55	-1.88256508
6.6	-1.84907944266666
6.65	-1.81538144666667
6.7	-1.78139526266667
6.75	-1.74719714666667
6.8	-1.712710416
6.85	-1.67801218
6.9	-1.64302490266667
6.95	-1.60782654666667
7	-1.57233872266666
7.05	-1.53664024666667
7.1	-1.500651876
7.15	-1.46445328
7.2	-1.42796436266667
7.25	-1.39126564666666
7.3	-1.35427618266667
7.35	-1.31707734666666
7.4	-1.279587336
7.45	-1.24188838
7.5	-1.20389782266667
7.55	-1.16569874666667
7.6	-1.12720764266666
7.65	-1.08850844666666
7.7	-1.049516796
7.75	-1.01031748
7.8	-0.970825282666664
7.85	-0.931125846666664
7.9	-0.891133102666664
7.95	-0.850933546666664
8	-0.810440255999998
8.05	-0.769740579999997
8.1	-0.729040579999997
8.15	-0.688040999999997
8.2	-0.647040999999997
8.25	-0.605541499999997
8.3	-0.564041499999997
8.35	-0.522041999999997
8.4	-0.480041999999997
8.45	-0.437742419999997
8.5	-0.395442419999998
8.55	-0.352938119999998
8.6	-0.310138119999998
8.65	-0.267134486666665
8.7	-0.223834486666665
8.75	-0.180331519999998
8.8	-0.136531519999998
8.85	-0.0925292199999982
8.9	-0.0482292199999981
8.95	-0.00372758666666432
9	0.0410724133333357
9.05	0.0860733800000022
9.1	0.131373380000002
9.15	0.176873680000002
9.2	0.222673680000002
9.25	0.268673313333335
9.3	0.314973313333335
9.35	0.361472280000002
9.4	0.408272280000001
9.45	0.455270580000001
9.5	0.502570580000002
9.55	0.550068213333334
9.6	0.597868213333334
9.65	0.645865180000002
9.7	0.694165180000002
9.75	0.74266148
9.8	0.79146148
9.85	0.840457113333335
9.9	0.889757113333335
9.95	0.939252080000001
10	0.989052080000001
10	0.989052080000001
11	1.98905208
