0	-4.05292911333334
0.05	-4.05236911333334
0.1	-4.051402796
0.15	-4.05020348000001
0.2	-4.04873661600001
0.25	-4.04703718000001
0.3	-4.04506976933334
0.35	-4.04287021333334
0.4	-4.04040225600001
0.45	-4.03770258000001
0.5	-4.03500258000001
0.55	-4.03200300000001
0.6	-4.02900300000001
0.65	-4.02550350000001
0.7	-4.02200350000001
0.75	-4.01800400000001
0.8	-4.01400400000001
0.85	-4.00970442000001
0.9	-4.00540442000001
0.95	-4.00087478666667
1	-3.99607478666667
1.05	-3.99104582000001
1.1	-3.98574582000001
1.15	-3.98021752000001
1.2	-3.97441752000001
1.25	-3.96838988666667
1.3	-3.96208988666667
1.35	-3.95556292000001
1.4	-3.94876292000001
1.45	-3.94173662
1.5	-3.93443662
1.55	-3.92691098666667
1.6	-3.91911098666667
1.65	-3.91108602
1.7	-3.90278602
1.75	-3.89426172000001
1.8	-3.88546172000001
1.85	-3.87643808666667
1.9	-3.86713808666667
1.95	-3.85761512
2	-3.84781512
2.05	-3.83779282000001
2.1	-3.82749282000001
2.15	-3.81697118666667
2.2	-3.80617118666667
2.25	-3.79515022
2.3	-3.78385022
2.35	-3.77232992000001
2.4	-3.76052992000001
2.45	-3.74851028666667
2.5	-3.73621028666667
2.55	-3.72369132
2.6	-3.71089132000001
2.65	-3.69787302000001
2.7	-3.68457302000001
2.75	-3.67105538666667
2.8	-3.65725538666667
2.85	-3.64323842000001
2.9	-3.62893842000001
2.95	-3.61442212
3	-3.59962212
3.05	-3.58460648666666
3.1	-3.56930648666666
3.15	-3.55379152000001
3.2	-3.53799152000001
3.25	-3.52197722
3.3	-3.50567722
3.35	-3.48916358666665
3.4	-3.47236358666665
3.45	-3.45535062
3.5	-3.43805062
3.55	-3.42053832
3.6	-3.40273832
3.65	-3.38472668666668
3.7	-3.36642668666668
3.75	-3.34791572000001
3.8	-3.32911572000001
3.85	-3.31010541999999
3.9	-3.29080541999999
3.95	-3.27129578666667
4	-3.25149578666667
4.05	-3.23148682
4.1	-3.21118682
4.15	-3.19067851999999
4.2	-3.16987851999999
4.25	-3.14887088666668
4.3	-3.12757088666668
4.35	-3.10606391999999
4.4	-3.08426391999999
4.45	-3.06225761999999
4.5	-3.03995762000001
4.55	-3.01745198666667
4.6	-2.99465198666667
4.65	-2.97164702
4.7	-2.94834702
4.75	-2.92484272
4.8	-2.90104272000002
4.85	-2.87703908666666
4.9	-2.85273908666666
4.95	-2.82823611999999
5	-2.80343611999998
5.05	-2.77843382000001
5.1	-2.75313382000001
5.15	-2.72763218666667
5.2	-2.70183218666667
5.25	-2.67583121999997
5.3	-2.64953121999997
5.35	-2.62303092
5.4	-2.59623092
5.45	-2.56923128666666
5.5	-2.54193128666666
5.55	-2.51443232
5.6	-2.48663232000002
5.65	-2.45863402000001
5.7	-2.43033402000001
5.75	-2.40183638666664
5.8	-2.37303638666664
5.85	-2.34403942
5.9	-2.31473942000001
5.95	-2.28524312
6	-2.25544312
6.05	-2.22544748666665
6.1	-2.19514748666665
6.15	-2.16465252
6.2	-2.13385252000002
6.25	-2.10285821999998
6.3	-2.07155821999998
6.35	-2.04006458666664
6.4	-2.00826458666668
6.45	-1.97627161999999
6.5	-1.94397161999999
6.55	-1.91147931999999
6.6	-1.87867931999999
6.65	-1.84568768666667
6.7	-1.81238768666667
6.75	-1.77889671999998
6.8	-1.74509672000001
6.85	-1.71110641999999
6.9	-1.67680641999999
6.95	-1.64231678666667
7	-1.60751678666667
7.05	-1.57252781999999
7.1	-1.53722782
7.15	-1.50173951999999
7.2	-1.46593951999999
7.25	-1.42995188666665
7.3	-1.39365188666665
7.35	-1.35716492
7.4	-1.32036492
7.45	-1.28337861999998
7.5	-1.24607862000001
7.55	-1.20859298666665
7.6	-1.17079298666665
7.65	-1.13280801999999
7.7	-1.09450801999999
7.75	-1.05602371999999
7.8	-1.01722371999999
7.85	-0.97824008666666
7.9	-0.938940086666667
7.95	-0.899457119999992
8	-0.859657119999992
8.05	-0.819674819999989
8.1	-0.779374819999999
8.15	-0.738893186666655
8.2	-0.698093186666657
8.25	-0.657112219999976
8.3	-0.615812220000005
8.35	-0.574331919999935
8.4	-0.532531919999997
8.45	-0.49055228666641
8.5	-0.448252286666666
8.55	-0.405773319998981
8.6	-0.362973319999999
8.65	-0.319995019996156
8.7	-0.276695020000001
8.75	-0.233217386652997
8.8	-0.189417386666667
8.85	-0.14544041995435
8.9	-0.101140419999999
8.95	-0.0566641198569817
9	-0.0118641199999976
9.05	0.0331115137534925
9.1	0.0784115133333357
9.15	0.12388648115913
9.2	0.169686480000004
9.25	0.215660782996164
9.3	0.261960780000007
9.35	0.308434420585141
9.4	0.355234413333337
9.45	0.402207396436328
9.5	0.449507380000005
9.55	0.496979714895057
9.6	0.544779679999995
9.65	0.592751382835458
9.7	0.64105131333334
9.75	0.689522409807898
9.8	0.738322279999997
9.85	0.787292807671537
9.9	0.836592580000008
9.95	0.886062589075684
10	0.935862213333333
10	0.935862213333333
11	1.93586221333333
