0	-5.28547133418518
0.05	-4.88547133418611
0.1	-4.38547133418728
0.15	-4.08090694666668
0.2	-4.07944989600001
0.25	-4.07775598000004
0.3	-4.07579838266671
0.35	-4.07360434666666
0.4	-4.07114620266673
0.45	-4.06845204666665
0.5	-4.06549335599998
0.55	-4.06229908000001
0.6	-4.05883984266667
0.65	-4.0551454466667
0.7	-4.0511856626667
0.75	-4.04699114666666
0.8	-4.04253081599999
0.85	-4.03783618000002
0.9	-4.03287530266668
0.95	-4.02768054666671
1	-4.0222191226667
1.05	-4.01652424666666
1.1	-4.01056227599999
1.15	-4.00436727999999
1.2	-3.99790476266669
1.25	-3.99120964666668
1.3	-3.98424658266668
1.35	-3.97705134666667
1.4	-3.969587736
1.45	-3.96189238000003
1.5	-3.95392822266669
1.55	-3.94573274666667
1.6	-3.93726804266667
1.65	-3.92857244666666
1.7	-3.91960719599999
1.75	-3.91041148000002
1.8	-3.90094568266668
1.85	-3.89124984666668
1.9	-3.88128350266667
1.95	-3.87108754666665
2	-3.86062065599999
2.05	-3.84992458000001
2.1	-3.83895714266667
2.15	-3.82776094666667
2.2	-3.81629296266666
2.25	-3.80459664666669
2.3	-3.79262811600002
2.35	-3.78043168000001
2.4	-3.76796260266668
2.45	-3.75526604666666
2.5	-3.74229642266666
2.55	-3.72909974666668
2.6	-3.71562957600001
2.65	-3.70193278
2.7	-3.68796206266667
2.75	-3.67376514666667
2.8	-3.65929388266666
2.85	-3.64459684666668
2.9	-3.62962503600001
2.95	-3.61442788
3	-3.59895552266666
3.05	-3.58325824666666
3.1	-3.56728534266668
3.15	-3.55108794666667
3.2	-3.534614496
3.25	-3.51791698
3.3	-3.50094298266667
3.35	-3.48374534666668
3.4	-3.46627080266668
3.45	-3.44857304666667
3.5	-3.430597956
3.55	-3.41240008
3.6	-3.39392444266666
3.65	-3.37522644666667
3.7	-3.35625026266667
3.75	-3.33705214666667
3.8	-3.317575416
3.85	-3.29787718
3.9	-3.27789990266666
3.95	-3.25770154666667
4	-3.23722372266667
4.05	-3.21652524666667
4.1	-3.195546876
4.15	-3.17434828000001
4.2	-3.15286936266667
4.25	-3.13117064666667
4.3	-3.10919118266667
4.35	-3.08699234666667
4.4	-3.064512336
4.45	-3.04181338
4.5	-3.01883282266667
4.55	-2.99563374666667
4.6	-2.97215264266667
4.65	-2.94845344666667
4.7	-2.924471796
4.75	-2.90027248
4.8	-2.87579028266667
4.85	-2.85109084666667
4.9	-2.82610810266667
4.95	-2.80090854666667
5	-2.775425256
5.05	-2.74972558
5.1	-2.72402558
5.15	-2.698026
5.2	-2.672026
5.25	-2.6455265
5.3	-2.6190265
5.35	-2.592027
5.4	-2.565027
5.45	-2.53772742
5.5	-2.51042742
5.55	-2.48291312
5.6	-2.45511312
5.65	-2.42709948666667
5.7	-2.39879948666667
5.75	-2.37028652
5.8	-2.34148652
5.85	-2.31247422
5.9	-2.28317422
5.95	-2.25366258666667
6	-2.22386258666667
6.05	-2.19385162
6.1	-2.16355162
6.15	-2.13304132
6.2	-2.10224132
6.25	-2.07123168666667
6.3	-2.03993168666667
6.35	-2.00842272
6.4	-1.97662272
6.45	-1.94461442
6.5	-1.91231442
6.55	-1.87980678666667
6.6	-1.84700678666667
6.65	-1.81399982
6.7	-1.78069982
6.75	-1.74719352
6.8	-1.71339352
6.85	-1.67938788666666
6.9	-1.64508788666666
6.95	-1.61058292
7	-1.57578292
7.05	-1.54077862
7.1	-1.50547862
7.15	-1.46997498666666
7.2	-1.43417498666666
7.25	-1.39817201999999
7.3	-1.36187201999999
7.35	-1.32536972
7.4	-1.28856972
7.45	-1.25156808666667
7.5	-1.21426808666667
7.55	-1.17676711999999
7.6	-1.13896711999999
7.65	-1.10096682
7.7	-1.06266682
7.75	-1.02416718666666
7.8	-0.985367186666663
7.85	-0.946368219999999
7.9	-0.907068219999999
7.95	-0.867569919999996
8	-0.827769919999995
8.05	-0.787772286666664
8.1	-0.747472286666664
8.15	-0.706975319999995
8.2	-0.666175319999995
8.25	-0.625179019999997
8.3	-0.58387902
8.35	-0.542383386666663
8.4	-0.500583386666665
8.45	-0.458588419999998
8.5	-0.416288419999998
8.55	-0.373794119999998
8.6	-0.330994119999999
8.65	-0.288000486666664
8.7	-0.244700486666665
8.75	-0.201207519999998
8.8	-0.157407519999999
8.85	-0.113415219999998
8.9	-0.0691152199999984
8.95	-0.0246235866666643
9	0.0201764133333357
9.05	0.0651673800000022
9.1	0.110467380000002
9.15	0.155957680000002
9.2	0.201757680000002
9.25	0.247747313333337
9.3	0.294047313333337
9.35	0.340536280000002
9.4	0.387336280000002
9.45	0.434324580000002
9.5	0.481624580000004
9.55	0.529112213333337
9.6	0.576912213333332
9.65	0.624899180000003
9.7	0.673199180000003
9.75	0.721685480000002
9.8	0.770485479999999
9.85	0.819471113333338
9.9	0.868771113333338
9.95	0.918256080000005
10	0.96805608
10	0.96805608
11	1.96805608
