0	-6.24035590968034
0.05	-5.84035590968127
0.1	-5.34035590968244
0.15	-4.84035590968361
0.2	-4.34035590968477
0.25	-4.08844078000006
0.3	-4.08648659600005
0.35	-4.08429447999997
0.4	-4.08183974933342
0.45	-4.0791475133333
0.5	-4.07619223599996
0.55	-4.07299988000001
0.6	-4.06954405600001
0.65	-4.06585158000005
0.7	-4.06189520933338
0.75	-4.05770261333331
0.8	-4.05324569599998
0.85	-4.04855298000002
0.9	-4.04359551600002
0.95	-4.03840268000006
1	-4.03294466933338
1.05	-4.02725171333333
1.1	-4.02129315599999
1.15	-4.01510008
1.2	-4.00864097600002
1.25	-4.00194778000002
1.3	-3.99498812933334
1.35	-3.98779481333334
1.4	-3.980334616
1.45	-3.97264118000004
1.5	-3.96468043600003
1.55	-3.95648688
1.6	-3.94802558933333
1.65	-3.93933191333332
1.7	-3.93037007599999
1.75	-3.92117628000002
1.8	-3.91171389600002
1.85	-3.90201998000001
1.9	-3.89205704933334
1.95	-3.88186301333331
2	-3.87139953599997
2.05	-3.86070538000001
2.1	-3.849741356
2.15	-3.83854708
2.2	-3.82708250933333
2.25	-3.81538811333336
2.3	-3.80342299600002
2.35	-3.79122848000002
2.4	-3.77876281600001
2.45	-3.76606817999999
2.5	-3.75310196933332
2.55	-3.73990721333335
2.6	-3.72644045600001
2.65	-3.71274558
2.7	-3.698778276
2.75	-3.68458328
2.8	-3.67011542933333
2.85	-3.65542031333335
2.9	-3.64045191600002
2.95	-3.62525667999999
3	-3.60978773599999
3.05	-3.59409237999999
3.1	-3.57812288933335
3.15	-3.56192741333334
3.2	-3.54545737600001
3.25	-3.52876178
3.3	-3.511791196
3.35	-3.49459548000002
3.4	-3.47712434933335
3.45	-3.45942851333333
3.5	-3.441456836
3.55	-3.42326087999999
3.6	-3.40478865599999
3.65	-3.38609258000001
3.7	-3.36711980933334
3.75	-3.34792361333334
3.8	-3.328450296
3.85	-3.30875397999999
3.9	-3.28878011599998
3.95	-3.26858368
4	-3.24810926933334
4.05	-3.22741271333333
4.1	-3.206437756
4.15	-3.18524108000002
4.2	-3.16376557600001
4.25	-3.14206878000001
4.3	-3.12009272933334
4.35	-3.09789581333333
4.4	-3.07541921599999
4.45	-3.05272218000001
4.5	-3.02974503600001
4.55	-3.00654788
4.6	-2.98307018933333
4.65	-2.95937291333333
4.7	-2.935394676
4.75	-2.91119728000001
4.8	-2.88671849600001
4.85	-2.86202098
4.9	-2.83704164933333
4.95	-2.81184401333333
5	-2.78636413600001
5.05	-2.76066638
5.1	-2.734685956
5.15	-2.70848808
5.2	-2.68200710933333
5.25	-2.65530911333334
5.3	-2.62832759600001
5.35	-2.60112948
5.4	-2.573647416
5.45	-2.54594918
5.5	-2.51796656933333
5.55	-2.48976821333334
5.6	-2.461285056
5.65	-2.43258658
5.7	-2.403602876
5.75	-2.37440428
5.8	-2.34492002933333
5.85	-2.31522131333334
5.9	-2.285236516
5.95	-2.25503768
6	-2.224552336
6.05	-2.19385338
6.1	-2.16286748933334
6.15	-2.13166841333334
6.2	-2.100181976
6.25	-2.06848278
6.3	-2.036495796
6.35	-2.00429648
6.4	-1.97180894933333
6.45	-1.93910951333333
6.5	-1.906121436
6.55	-1.87292188
6.6	-1.839433256
6.65	-1.80573358
6.7	-1.77203358
6.75	-1.738034
6.8	-1.704034
6.85	-1.6695345
6.9	-1.6350345
6.95	-1.600035
7	-1.565035
7.05	-1.52973542
7.1	-1.49443542
7.15	-1.45892645333333
7.2	-1.42312645333333
7.25	-1.38711815333333
7.3	-1.35081815333333
7.35	-1.31431052
7.4	-1.27751052
7.45	-1.24050355333333
7.5	-1.20320355333333
7.55	-1.16569725333333
7.6	-1.12789725333333
7.65	-1.08989162
7.7	-1.05159162
7.75	-1.01308665333333
7.8	-0.97428665333333
7.85	-0.935282353333331
7.9	-0.895982353333331
7.95	-0.856478719999997
8	-0.816678719999997
8.05	-0.776675753333331
8.1	-0.736375753333331
8.15	-0.69587345333333
8.2	-0.65507345333333
8.25	-0.614071819999998
8.3	-0.572771819999998
8.35	-0.53127085333333
8.4	-0.489470853333331
8.45	-0.447470553333331
8.5	-0.405170553333331
8.55	-0.362670919999998
8.6	-0.319870919999998
8.65	-0.276871953333332
8.7	-0.233571953333332
8.75	-0.190073653333332
8.8	-0.146273653333332
8.85	-0.102276019999998
8.9	-0.0579760199999982
8.95	-0.013479053333331
9	0.031320946666669
9.05	0.0763172466666688
9.1	0.121617246666669
9.15	0.167112880000002
9.2	0.212912880000002
9.25	0.25890784666667
9.3	0.30520784666667
9.35	0.351702146666668
9.4	0.398502146666668
9.45	0.445495780000002
9.5	0.492795780000003
9.55	0.540288746666666
9.6	0.588088746666666
9.65	0.636081046666669
9.7	0.684381046666669
9.75	0.732872679999999
9.8	0.78167268
9.85	0.830663646666669
9.9	0.87996364666667
9.95	0.929453946666668
10	0.979253946666667
10	0.979253946666667
11	1.97925394666667
