0	4.47729709188726
0.05	4.07769709188819
0.1	3.57819709188936
0.15	3.07919709189052
0.2	2.58019709189169
0.25	2.08169709189285
0.3	1.58319709189402
0.35	1.08519709189518
0.4	0.58719709189635
0.45	0.0896970918975155
0.5	0.0599152759999368
0.55	0.059726280000004
0.6	0.0592764293333286
0.65	0.059087313333392
0.7	0.0586369160000526
0.75	0.0584476799999614
0.8	0.0579967359999554
0.85	0.0578073800000194
0.9	0.057355889333345
0.95	0.0571664133334062
1	0.0567143760000639
1.05	0.0565247799999788
1.1	0.0560721959999726
1.15	0.0558824800000046
1.2	0.0554293493333597
1.25	0.0552395133333743
1.3	0.0547858360000255
1.35	0.0545958799999862
1.4	0.0541416559999881
1.45	0.0539515800000472
1.5	0.0534968093333741
1.55	0.053306613333326
1.6	0.0528512959999867
1.65	0.0526609799999749
1.7	0.0522051159999695
1.75	0.0520146800000254
1.8	0.0515582693333525
1.85	0.0513677133333412
1.9	0.0509107560000022
1.95	0.0507200799999565
2	0.0502625759999513
2.05	0.050071780000005
2.1	0.0496137293333332
2.15	0.0494228133333223
2.2	0.048964215999983
2.25	0.0487731800000222
2.3	0.04831403600003
2.35	0.0481228800000184
2.4	0.0476631893333463
2.45	0.0474719133333044
2.5	0.0470116759999661
2.55	0.0468202800000164
2.6	0.0463594960000107
2.65	0.0461679799999999
2.7	0.0457066493333276
2.75	0.045515013333318
2.8	0.0450531359999795
2.85	0.0448613800000279
2.9	0.0443989560000224
2.95	0.0442070799999841
3	0.0437441093333124
3.05	0.0435521133333019
3.1	0.04308859600002
3.15	0.0428964800000102
3.2	0.0424324160000054
3.25	0.0422401799999963
3.3	0.0417755693333244
3.35	0.0415832133333693
3.4	0.0411180560000308
3.45	0.0409255799999939
3.5	0.0404598759999897
3.55	0.0402672799999815
3.6	0.0398010293333098
3.65	0.0396083133333525
3.7	0.0391415160000141
3.75	0.0389486800000056
3.8	0.0384813360000011
3.85	0.0382883799999671
3.9	0.037820489333297
3.95	0.037627413333337
4	0.0371589759999997
4.05	0.0369657799999921
4.1	0.0364967959999878
4.15	0.0363034800000261
4.2	0.0358339493333553
4.25	0.0356405133333464
4.3	0.0351704360000094
4.35	0.034976879999979
4.4	0.0345062559999749
4.45	0.0343125800000115
4.5	0.0338414093333408
4.55	0.0336476133333332
4.6	0.0331758959999959
4.65	0.0329819799999891
4.7	0.0325097159999852
4.75	0.0323156800000195
4.8	0.031842869333349
4.85	0.0316487133333219
4.9	0.0311753559999852
4.95	0.0309810799999779
5	0.0305071760000142
5.05	0.0303127800000076
5.1	0.0298383293333373
5.15	0.0296438133333305
5.2	0.0291688159999941
5.25	0.0289741800000245
5.3	0.0284986360000214
5.35	0.0283038799999962
5.4	0.0278277893333261
5.45	0.0276329133333202
5.5	0.0271562759999844
5.55	0.026961280000013
5.6	0.0264840960000092
5.65	0.0262889800000039
5.7	0.0258112493333336
5.75	0.0256160133333121
5.8	0.0251377359999765
5.85	0.0249423800000024
5.9	0.0244635559999997
5.95	0.0242680799999944
6	0.0237887093333256
6.05	0.0235931133333502
6.1	0.0231131960000139
6.15	0.0229174800000083
6.2	0.0224370160000054
6.25	0.0222411799999866
6.3	0.0217601693333176
6.35	0.0215642133333405
6.4	0.0210826559999981
6.45	0.0208865799999967
6.5	0.0204044760000044
6.55	0.020208279999993
6.6	0.0197256293333246
6.65	0.0195293133333325
6.7	0.0190461159999971
6.75	0.0188496800000053
6.8	0.0183659360000028
6.85	0.0181693799999931
6.9	0.0176850893333351
6.95	0.0174884133333315
7	0.0170035759999965
7.05	0.0168067799999987
7.1	0.0163213959999966
7.15	0.0161244800000027
7.2	0.0156385493333346
7.25	0.0154415133333263
7.3	0.0149550360000057
7.35	0.0147578799999977
7.4	0.0142708559999962
7.45	0.0140735800000014
7.5	0.0135860093333335
7.55	0.0133886133333352
7.6	0.0129004960000003
7.65	0.0127029799999971
7.7	0.0122143159999972
7.75	0.0120166799999979
7.8	0.0115274693333332
7.85	0.011329713333332
7.9	0.0108399559999974
7.95	0.0106420800000009
8	0.0101517759999991
8.05	0.00995377999999913
8.1	0.00946292933333215
8.15	0.0092648133333344
8.2	0.00877341600000137
8.25	0.0085751799999999
8.3	0.00808323599999949
8.35	0.00788488000000176
8.4	0.00739238933333325
8.45	0.00719391333333347
8.5	0.00670087600000013
8.55	0.00650227999999936
8.6	0.00600869600000098
8.65	0.00580997999999966
8.7	0.00531584933333379
8.75	0.00511701333333239
8.8	0.00462233599999928
8.85	0.00442338000000043
8.9	0.00392815599999981
8.95	0.00372908000000122
9	0.00323330933333311
9.05	0.00303411333333392
9.1	0.00253779600000115
9.15	0.00233847999999889
9.2	0.00184161600000021
9.25	0.00164217999999999
9.3	0.00114476933333374
9.35	0.000945213333334527
9.4	0.00044725599999984
9.45	0.000247579999999414
9.5	4.75799999987148e-05
9.55	4.80000000006031e-05
9.6	4.80000000009362e-05
9.65	4.84999999996738e-05
9.7	4.85000000003399e-05
9.75	4.89999999986335e-05
9.8	4.89999999997437e-05
9.85	0.000249420000001388
9.9	0.00044941999999959
9.95	0.000949786666666896
10	0.00114978666666588
10	0.00114978666666588
11	0.00114978666666588
