0	0.898284962196694
0.05	0.498684962197626
0.1	0.0284293159999764
0.15	0.0282346800000033
0.2	0.027776136
0.25	0.027581380000032
0.3	0.0271222893333602
0.35	0.0269274133333282
0.4	0.0264677760000502
0.45	0.0262727799999753
0.5	0.0258125959999731
0.55	0.0256174800000029
0.6	0.0251567493333322
0.65	0.0249615133333574
0.7	0.0245002360000219
0.75	0.0243048799999839
0.8	0.0238430559999818
0.85	0.0236475800000084
0.9	0.023185209333338
0.95	0.0229896133333618
1	0.0225266960000234
1.05	0.0223309799999916
1.1	0.0218675159999893
1.15	0.0216716799999843
1.2	0.0212076693333434
1.25	0.0210117133333383
1.3	0.0205471560000023
1.35	0.0203510799999984
1.4	0.0198859759999954
1.45	0.0196897800000171
1.5	0.0192241293333479
1.55	0.0190278133333304
1.6	0.0185616159999951
1.65	0.0183651799999915
1.7	0.0178984359999896
1.75	0.0177018800000086
1.8	0.0172345893333392
1.85	0.0170379133333363
1.9	0.0165700760000012
1.95	0.0163732799999861
2	0.0159048959999848
2.05	0.0157079800000015
2.1	0.0152390493333332
2.15	0.0150420133333302
2.2	0.0145725359999953
2.25	0.0143753800000104
2.3	0.0139053560000089
2.35	0.0137080800000051
2.4	0.0132375093333366
2.45	0.013040113333326
2.5	0.0125689959999913
2.55	0.0123714800000045
2.6	0.0118998160000028
2.65	0.0117021799999995
2.7	0.0112299693333315
2.75	0.0110322133333298
2.8	0.0105594559999953
2.85	0.0103615800000063
2.9	0.00988827600000475
2.95	0.00969027999999694
3	0.00921642933332922
3.05	0.00901831333332659
3.1	0.00854391600000382
3.15	0.00834568000000147
3.2	0.00787073600000054
3.25	0.00767237999999981
3.3	0.00719688933333185
3.35	0.00699841333333939
3.4	0.00652237600000483
3.45	0.00632377999999845
3.5	0.00584719599999861
3.55	0.00564847999999785
3.6	0.00517134933333052
3.65	0.00497251333333582
3.7	0.00449483600000145
3.75	0.00429588000000081
3.8	0.00381765600000028
3.85	0.00361857999999682
3.9	0.00313980933333058
3.95	0.00294061333333318
4	0.00246129599999989
4.05	0.00226198000000055
4.1	0.00178211599999978
4.15	0.00158268000000117
4.2	0.00110226933333424
4.25	0.000902713333332805
4.3	0.000421756000000162
4.35	0.000222080000000346
4.4	2.20799999999244e-05
4.45	2.24999999995923e-05
4.5	2.24999999995923e-05
4.55	2.29999999992181e-05
4.6	2.29999999996622e-05
4.65	2.35000000001762e-05
4.7	2.35000000001762e-05
4.75	0.000223919999999822
4.8	0.000423920000000244
4.85	0.000907286666667062
4.9	0.00110728666666704
4.95	0.00159131999999884
5	0.00179131999999882
5.05	0.00227602000000093
5.1	0.00247602000000091
5.15	0.00296138666666668
5.2	0.0031613866666671
5.25	0.00364741999999652
5.3	0.00384741999999649
5.35	0.00433411999999977
5.4	0.00453411999999975
5.45	0.00502148666666491
5.5	0.00522148666666533
5.55	0.00570952000000347
5.6	0.00590952000000344
5.65	0.00639822000000212
5.7	0.00659822000000165
5.75	0.0070875866666622
5.8	0.00728758666666218
5.85	0.00777762000000193
5.9	0.00797762000000146
5.95	0.00846831999999909
6	0.00866831999999995
6.05	0.00915968666666256
6.1	0.00935968666666254
6.15	0.00985172000000478
6.2	0.0100517200000043
6.25	0.010544419999996
6.3	0.0107444199999955
6.35	0.0112377866666651
6.4	0.0114377866666684
6.45	0.0119318199999974
6.5	0.012131819999998
6.55	0.0126265199999975
6.6	0.0128265199999977
6.65	0.0133218866666682
6.7	0.0135218866666682
6.75	0.0140179199999952
6.8	0.0142179200000061
6.85	0.0147146199999968
6.9	0.0149146199999961
6.95	0.0154119866666671
7	0.0156119866666671
7.05	0.0161100200000011
7.1	0.0163100200000008
7.15	0.0168087199999949
7.2	0.0170087199999951
7.25	0.0175080866666613
7.3	0.0177080866666612
7.35	0.0182081199999999
7.4	0.0184081199999997
7.45	0.0189088200000018
7.5	0.0191088200000054
7.55	0.0196101866666598
7.6	0.01981018666666
7.65	0.0203122199999988
7.7	0.0205122199999996
7.75	0.0210149199999985
7.8	0.0212149199999984
7.85	0.0217182866666676
7.9	0.0219182866666677
7.95	0.022422319999998
8	0.0226223199999971
8.05	0.0231270200000007
8.1	0.0233270200000014
8.15	0.0238323866666628
8.2	0.0240323866666641
8.25	0.0245384199999976
8.3	0.0247384200000036
8.35	0.0252451200000001
8.4	0.0254451200000002
8.45	0.0259524866666673
8.5	0.0261524866666673
8.55	0.0266605199999986
8.6	0.0268605200000011
8.65	0.0273692199999978
8.7	0.0275692200000009
8.75	0.0280785866666655
8.8	0.0282785866666672
8.85	0.0287886200000001
8.9	0.0289886200000003
8.95	0.0294993200000012
9	0.0296993199999993
9.05	0.0302106866666667
9.1	0.0304106866666671
9.15	0.0309227199999978
9.2	0.0311227199999988
9.25	0.0316354199999976
9.3	0.0318354199999969
9.35	0.0323487866666664
9.4	0.0325487866666652
9.45	0.0330628199999979
9.5	0.0332628199999959
9.55	0.033777519999996
9.6	0.0339775200000038
9.65	0.0344928866666632
9.7	0.0346928866666639
9.75	0.0352089199999954
9.8	0.0354089200000012
9.85	0.035925619999997
9.9	0.0361256199999953
9.95	0.0366429866666588
10	0.0368429866666666
10	0.0368429866666666
11	0.0368429866666666
