0	3.40125409508781
0.05	3.00165409508874
0.1	2.50215409508991
0.15	2.00315409509107
0.2	1.50415409509224
0.25	1.0056540950934
0.3	0.50715409509457
0.35	0.0529846133332939
0.4	0.0525332960000693
0.45	0.0523429799999509
0.5	0.051891115999946
0.55	0.0517006800000042
0.6	0.05124826933333
0.65	0.0510577133333845
0.7	0.0506047560000455
0.75	0.0504140799999666
0.8	0.0499605759999611
0.85	0.0497697800000161
0.9	0.0493157293333439
0.95	0.0491248133333961
1	0.0486702160000543
1.05	0.0484791799999824
1.1	0.0480240359999766
1.15	0.0478328799999996
1.2	0.0473771893333561
1.25	0.0471859133333616
1.3	0.0467296760000133
1.35	0.0465382799999956
1.4	0.04608149599999
1.45	0.0458899800000401
1.5	0.0454326493333679
1.55	0.0452410133333272
1.6	0.0447831359999884
1.65	0.0445913799999791
1.7	0.0441329559999741
1.75	0.0439410800000215
1.8	0.0434821093333495
1.85	0.0432901133333399
1.9	0.0428305960000017
1.95	0.0426384799999631
2	0.0421784159999592
2.05	0.0419861800000043
2.1	0.041525569333333
2.15	0.0413332133333242
2.2	0.0408720559999858
2.25	0.040679580000027
2.3	0.0402178760000247
2.35	0.0400252800000152
2.4	0.039563029333344
2.45	0.0393703133333094
2.5	0.0389075159999721
2.55	0.0387146800000138
2.6	0.038251336000009
2.65	0.0380583799999998
2.7	0.0375944893333289
2.75	0.0374014133333205
2.8	0.0369369759999834
2.85	0.0367437800000228
2.9	0.0362787960000182
2.95	0.0360854799999868
3	0.035619949333316
3.05	0.0354265133333076
3.1	0.0349604360000164
3.15	0.0347668800000083
3.2	0.0343002560000043
3.25	0.0341065799999969
3.3	0.0336394093333259
3.35	0.0334456133333623
3.4	0.0329778960000247
3.45	0.0327839799999947
3.5	0.0323157159999918
3.55	0.0321216799999853
3.6	0.0316528693333149
3.65	0.0314587133333486
3.7	0.0309893560000112
3.75	0.0307950800000047
3.8	0.0303251760000007
3.85	0.0301307799999742
3.9	0.0296603293333049
3.95	0.0294658133333359
4	0.0289948159999995
4.05	0.028800179999994
4.1	0.0283286359999906
4.15	0.0281338800000204
4.2	0.02766178933335
4.25	0.0274669133333436
4.3	0.0269942760000075
4.35	0.0267992799999841
4.4	0.0263260959999809
4.45	0.0261309800000085
4.5	0.0256572493333391
4.55	0.0254620133333332
4.6	0.0249877359999968
4.65	0.0247923799999916
4.7	0.0243175559999891
4.75	0.0241220800000144
4.8	0.0236467093333452
4.85	0.0234511133333251
4.9	0.0229751959999893
4.95	0.0227794799999836
5	0.0223030160000102
5.05	0.0221071800000057
5.1	0.0216301693333363
5.15	0.0214342133333316
5.2	0.0209566559999961
5.25	0.0207605800000175
5.3	0.0202824760000153
5.35	0.020086279999997
5.4	0.0196076293333287
5.45	0.019411313333324
5.5	0.0189321159999891
5.55	0.0187356800000091
5.6	0.0182559360000063
5.65	0.0180593800000026
5.7	0.0175790893333332
5.75	0.0173824133333191
5.8	0.0169015759999844
5.85	0.0167047800000013
5.9	0.0162233959999996
5.95	0.0160264799999963
6	0.0155445493333288
6.05	0.0153475133333441
6.1	0.0148650360000087
6.15	0.0146678800000051
6.2	0.0141848560000031
6.25	0.0139875799999922
6.3	0.0135040093333241
6.35	0.0133066133333375
6.4	0.0128224959999987
6.45	0.0126249799999993
6.5	0.0121403160000026
6.55	0.011942679999996
6.6	0.0114574693333283
6.65	0.0112597133333328
6.7	0.010773955999998
6.75	0.0105760800000032
6.8	0.0100897760000014
6.85	0.00989177999999624
6.9	0.00940492933333403
6.95	0.00920681333333229
7	0.00871941599999815
7.05	0.00852117999999957
7.1	0.00803323599999839
7.15	0.00783488000000121
7.2	0.00734638933333365
7.25	0.00714791333333009
7.3	0.00665887600000259
7.35	0.00646027999999887
7.4	0.00597069599999855
7.45	0.00577198000000023
7.5	0.00528184933333331
7.55	0.00508301333333416
7.6	0.0045923360000002
7.65	0.00439337999999911
7.7	0.00390215599999988
7.75	0.00370307999999953
7.8	0.00321130933333325
7.85	0.00301211333333262
7.9	0.00251979599999907
7.95	0.00232048000000029
8	0.00182761599999959
8.05	0.0016281800000002
8.1	0.00113476933333412
8.15	0.000935213333332796
8.2	0.000441256000000667
8.25	0.000241579999999741
8.3	4.15799999997635e-05
8.35	4.20000000006526e-05
8.4	4.19999999993759e-05
8.45	4.25000000002784e-05
8.5	4.24999999998343e-05
8.55	4.29999999996822e-05
8.6	4.30000000011255e-05
8.65	0.000243419999999883
8.7	0.000443420000000666
8.75	0.000939786666665943
8.8	0.00113978666666642
8.85	0.00163682000000075
8.9	0.00183681999999995
8.95	0.00233452000000124
9	0.00253451999999944
9.05	0.00303288666666675
9.1	0.00323288666666724
9.15	0.00373191999999872
9.2	0.00393191999999987
9.25	0.00443161999999958
9.3	0.0046316199999995
9.35	0.00513198666666714
9.4	0.00533198666666612
9.45	0.00583301999999908
9.5	0.00603301999999784
9.55	0.00653472000000133
9.6	0.00673472000000119
9.65	0.00723708666666578
9.7	0.0074370866666662
9.75	0.00794011999999855
9.8	0.00814011999999975
9.85	0.0086438200000003
9.9	0.00884381999999873
9.95	0.00934818666666692
10	0.00954818666666601
10	0.00954818666666601
11	0.00954818666666601
