0	3.23591028923412
0.05	2.83631028923505
0.1	2.33681028923621
0.15	1.83781028923738
0.2	1.33881028923854
0.25	0.840310289239709
0.3	0.341810289240875
0.35	0.0516483466666244
0.4	0.0511966026667388
0.45	0.0510060466666191
0.5	0.0505537559999469
0.55	0.0503630800000039
0.6	0.0499102426666633
0.65	0.0497194466667166
0.7	0.0492660626667112
0.75	0.0490751466666337
0.8	0.0486212159999626
0.85	0.0484301800000164
0.9	0.0479757026666769
0.95	0.0477845466667279
1	0.0473295226667196
1.05	0.0471382466666492
1.1	0.046682675999977
1.15	0.0464912799999988
1.2	0.0460351626666888
1.25	0.0458436466666923
1.3	0.0453869826666784
1.35	0.0451953466666626
1.4	0.0447381359999905
1.45	0.044546380000039
1.5	0.0440886226666999
1.55	0.0438967466666602
1.6	0.0434384426666559
1.65	0.0432464466666462
1.7	0.0427875959999748
1.75	0.042595480000021
1.8	0.0421360826666821
1.85	0.0419438466666731
1.9	0.041483902666668
1.95	0.0412915466666308
2	0.0408310559999605
2.05	0.040638580000004
2.1	0.0401775426666666
2.15	0.039984946666658
2.2	0.0395233626666531
2.25	0.0393306466666945
2.3	0.0388685160000239
2.35	0.0386756800000145
2.4	0.0382130026666769
2.45	0.0380200466666438
2.5	0.0375568226666396
2.55	0.0373637466666796
2.6	0.0368999760000088
2.65	0.0367067799999994
2.7	0.036242462666662
2.75	0.0360491466666546
2.8	0.0355842826666506
2.85	0.0353908466666888
2.9	0.0349254360000177
2.95	0.0347318799999874
3	0.0342659226666502
3.05	0.0340722466666419
3.1	0.033605742666682
3.15	0.0334119466666745
3.2	0.0329448960000041
3.25	0.0327509799999972
3.3	0.0322833826666598
3.35	0.0320893466666945
3.4	0.0316212026666904
3.45	0.0314270466666615
3.5	0.0309583559999922
3.55	0.0307640799999858
3.6	0.0302948426666489
3.65	0.030100446666681
3.7	0.0296306626666776
3.75	0.0294361466666713
3.8	0.0289658160000008
3.85	0.0287711799999752
3.9	0.0283003026666395
3.95	0.0281055466666693
4	0.0276341226666661
4.05	0.0274392466666611
4.1	0.0269672759999908
4.15	0.0267722800000194
4.2	0.0262997626666821
4.25	0.0261046466666763
4.3	0.0256315826666738
4.35	0.0254363466666514
4.4	0.0249627359999818
4.45	0.0247673800000081
4.5	0.0242932226666719
4.55	0.0240977466666665
4.6	0.0236230426666637
4.65	0.0234274466666591
4.7	0.0229521959999897
4.75	0.0227564800000133
4.8	0.0222806826666777
4.85	0.022084846666659
4.9	0.0216085026666564
4.95	0.0214125466666513
5	0.0209356560000096
5.05	0.0207395800000052
5.1	0.0202621426666698
5.15	0.0200659466666653
5.2	0.0195879626666629
5.25	0.019391646666683
5.3	0.0189131160000144
5.35	0.0187166799999972
5.4	0.0182376026666624
5.45	0.0180410466666578
5.5	0.0175614226666565
5.55	0.0173647466666749
5.6	0.016884576000006
5.65	0.0166877800000029
5.7	0.0162070626666666
5.75	0.0160101466666536
5.8	0.0155288826666524
5.85	0.0153318466666681
5.9	0.0148500359999999
5.95	0.0146528799999963
6	0.0141705226666624
6.05	0.0139732466666764
6.1	0.0134903426666746
6.15	0.0132929466666711
6.2	0.0128094960000027
6.25	0.0126119799999929
6.3	0.0121279826666583
6.35	0.0119303466666705
6.4	0.0114458026666657
6.45	0.0112480466666665
6.5	0.0107629560000022
6.55	0.0105650799999963
6.6	0.0100794426666622
6.65	0.00988144666666613
6.7	0.00939526266666491
6.75	0.00919714666666938
6.8	0.00871041600000133
6.85	0.00851217999999698
6.9	0.00802490266666722
6.95	0.0078265466666656
7	0.00733872266666502
7.05	0.00714024666666635
7.1	0.00665187599999872
7.15	0.00645328000000078
7.2	0.005964362666667
7.25	0.00576564666666424
7.3	0.00527618266666874
7.35	0.00507734666666559
7.4	0.00458733599999883
7.45	0.00438837999999997
7.5	0.00389782266666661
7.55	0.00369874666666736
7.6	0.00320764266666673
7.65	0.003008446666666
7.7	0.00251679600000032
7.75	0.00231747999999987
7.8	0.00182528266666659
7.85	0.00162584666666621
7.9	0.001133102666666
7.95	0.000933546666666896
8	0.00044025599999975
8.05	0.000240580000000046
8.1	4.0580000000956e-05
8.15	4.09999999994026e-05
8.2	4.10000000007349e-05
8.25	4.14999999998056e-05
8.3	4.14999999998056e-05
8.35	4.20000000006526e-05
8.4	4.19999999993759e-05
8.45	0.000242420000000132
8.5	0.000442419999999721
8.55	0.000938119999999487
8.6	0.00113812000000052
8.65	0.00163448666666671
8.7	0.00183448666666741
8.75	0.00233151999999934
8.8	0.00253151999999976
8.85	0.00302922000000075
8.9	0.00322921999999999
8.95	0.00372758666666787
9	0.00392758666666601
9.05	0.00442662000000009
9.1	0.00462662000000055
9.15	0.00512631999999869
9.2	0.00532631999999983
9.25	0.00582668666666614
9.3	0.00602668666666606
9.35	0.00652772000000046
9.4	0.00672771999999944
9.45	0.00722941999999904
9.5	0.00742941999999758
9.55	0.00793178666666805
9.6	0.00813178666666792
9.65	0.00863481999999882
9.7	0.00883481999999924
9.75	0.00933851999999857
9.8	0.00953851999999977
9.85	0.0100428866666668
9.9	0.0102428866666651
9.95	0.0107479200000004
10	0.0109479199999993
10	0.0109479199999993
11	0.0109479199999993
