0	-4.14345169103383
0.05	-4.06170898
0.1	-4.06074564933333
0.15	-4.05954801333334
0.2	-4.05808413600001
0.25	-4.05638638000002
0.3	-4.05442195600002
0.35	-4.05222408000003
0.4	-4.04975910933336
0.45	-4.04706111333333
0.5	-4.044095596
0.55	-4.04089748000001
0.6	-4.03743141600001
0.65	-4.03373318000002
0.7	-4.02976656933335
0.75	-4.02556821333334
0.8	-4.021101056
0.85	-4.01640258000001
0.9	-4.01143487600001
0.95	-4.00623628000001
1	-4.00076802933334
1.05	-3.99506931333334
1.1	-3.98910051600001
1.15	-3.98290168
1.2	-3.97643233600001
1.25	-3.96973338000001
1.3	-3.96276348933334
1.35	-3.95556441333334
1.4	-3.94809397600001
1.45	-3.94039478000001
1.5	-3.93242379600001
1.55	-3.92422448000001
1.6	-3.91575294933334
1.65	-3.90705351333334
1.7	-3.89808143600001
1.75	-3.88888188000001
1.8	-3.87940925600001
1.85	-3.86970958000001
1.9	-3.86000958000001
1.95	-3.85001000000001
2	-3.84001000000001
2.05	-3.8295105
2.1	-3.8190105
2.15	-3.80801100000001
2.2	-3.79701100000001
2.25	-3.78571142
2.3	-3.77441142
2.35	-3.76288645333334
2.4	-3.75108645333334
2.45	-3.73906215333334
2.5	-3.72676215333334
2.55	-3.71423852000001
2.6	-3.70143852000001
2.65	-3.68841555333334
2.7	-3.67511555333334
2.75	-3.66159325333334
2.8	-3.64779325333334
2.85	-3.63377162000001
2.9	-3.61947162000001
2.95	-3.60495065333334
3	-3.59015065333334
3.05	-3.57513035333333
3.1	-3.55983035333333
3.15	-3.54431072000001
3.2	-3.52851072000001
3.25	-3.51249175333334
3.3	-3.49619175333334
3.35	-3.47967345333333
3.4	-3.46287345333333
3.45	-3.44585582
3.5	-3.42855582
3.55	-3.41103885333333
3.6	-3.39323885333333
3.65	-3.37522255333334
3.7	-3.35692255333334
3.75	-3.33840692000001
3.8	-3.31960692000001
3.85	-3.30059195333333
3.9	-3.28129195333333
3.95	-3.26177765333334
4	-3.24197765333334
4.05	-3.22196402
4.1	-3.20166402
4.15	-3.18115105333333
4.2	-3.16035105333333
4.25	-3.13933875333334
4.3	-3.11803875333334
4.35	-3.09652712
4.4	-3.07472712
4.45	-3.05271615333333
4.5	-3.03041615333334
4.55	-3.00790585333334
4.6	-2.98510585333334
4.65	-2.96209622
4.7	-2.93879622
4.75	-2.91528725333335
4.8	-2.89148725333335
4.85	-2.86747895333333
4.9	-2.84317895333333
4.95	-2.81867131999999
5	-2.79387131999999
5.05	-2.76886435333334
5.1	-2.74356435333334
5.15	-2.71805805333334
5.2	-2.69225805333334
5.25	-2.66625241999998
5.3	-2.63995241999998
5.35	-2.61344745333333
5.4	-2.58664745333333
5.45	-2.55964315333333
5.5	-2.53234315333333
5.55	-2.50483952
5.6	-2.47703952000002
5.65	-2.44903655333334
5.7	-2.42073655333334
5.75	-2.39223425333332
5.8	-2.36343425333332
5.85	-2.33443262000001
5.9	-2.30513262000001
5.95	-2.27563165333333
6	-2.24583165333333
6.05	-2.21583135333332
6.1	-2.18553135333332
6.15	-2.15503172000001
6.2	-2.12423172000001
6.25	-2.09323275333332
6.3	-2.06193275333332
6.35	-2.03043445333332
6.4	-1.99863445333334
6.45	-1.96663682
6.5	-1.93433682
6.55	-1.90183985333333
6.6	-1.86903985333333
6.65	-1.83604355333334
6.7	-1.80274355333334
6.75	-1.76924791999999
6.8	-1.73544792000001
6.85	-1.70145295333332
6.9	-1.66715295333333
6.95	-1.63265865333333
7	-1.59785865333333
7.05	-1.56286502
7.1	-1.52756502
7.15	-1.49207205333332
7.2	-1.45627205333332
7.25	-1.42027975333332
7.3	-1.38397975333332
7.35	-1.34748812
7.4	-1.31068812
7.45	-1.27369715333332
7.5	-1.23639715333334
7.55	-1.19890685333332
7.6	-1.16110685333332
7.65	-1.12311722
7.7	-1.08481722
7.75	-1.04632825333333
7.8	-1.00752825333333
7.85	-0.96853995333333
7.9	-0.929239953333333
7.95	-0.889752319999993
8	-0.849952319999993
8.05	-0.809965353333326
8.1	-0.769665353333332
8.15	-0.729179053333325
8.2	-0.688379053333325
8.25	-0.647393419999989
8.3	-0.606093420000004
8.35	-0.564608453333328
8.4	-0.522808453333331
8.45	-0.480824153333329
8.5	-0.438524153333333
8.55	-0.396040519999995
8.6	-0.353240519999999
8.65	-0.310257553333327
8.7	-0.266957553333333
8.75	-0.223475253333329
8.8	-0.179675253333333
8.85	-0.135693619999989
8.9	-0.0913936199999986
8.95	-0.0469126533332911
9	-0.00211265333333093
9.05	0.0428676466668523
9.1	0.0881676466666691
9.15	0.133647280000795
9.2	0.179447280000003
9.25	0.225426246669874
9.3	0.271726246666673
9.35	0.318204546678775
9.4	0.36500454666667
9.45	0.411982180042712
9.5	0.459282180000005
9.55	0.506759146807283
9.6	0.554559146666663
9.65	0.602535447099658
9.7	0.650835446666672
9.75	0.699311081242004
9.8	0.748111079999998
9.85	0.797086049984361
9.9	0.846386046666674
9.95	0.895860354918452
10	0.945660346666666
10	0.945660346666666
11	1.94566034666667
