0	1.50648366885397
0.05	1.1068836688549
0.1	0.607383668856071
0.15	0.108383668857235
0.2	0.0357882959999998
0.25	0.0355949800000399
0.3	0.0351384493333677
0.35	0.0349450133333127
0.4	0.0344879360000663
0.45	0.0342943799999684
0.5	0.0338367559999648
0.55	0.0336430800000027
0.6	0.0331849093333316
0.65	0.0329911133333658
0.7	0.032532396000029
0.75	0.0323384799999786
0.8	0.0318792159999752
0.85	0.0316851800000109
0.9	0.03122536933334
0.95	0.0310312133333728
1	0.0305708560000331
1.05	0.0303765799999889
1.1	0.0299156759999852
1.15	0.0297212799999889
1.2	0.0292598293333475
1.25	0.0290653133333398
1.3	0.0286033160000034
1.35	0.0284086799999974
1.4	0.027946135999994
1.45	0.0277513800000242
1.5	0.0272882893333541
1.55	0.0270934133333296
1.6	0.0266297759999934
1.65	0.0264347799999878
1.7	0.025970595999985
1.75	0.0257754800000125
1.8	0.0253107493333427
1.85	0.0251155133333372
1.9	0.0246502360000012
1.95	0.0244548799999786
2	0.0239890559999769
2.05	0.0237935800000022
2.1	0.0233272093333334
2.15	0.0231316133333284
2.2	0.0226646959999925
2.25	0.0224689800000162
2.3	0.0220015160000138
2.35	0.0218056800000084
2.4	0.0213376693333389
2.45	0.0211417133333209
2.5	0.0206731559999853
2.55	0.0204770800000071
2.6	0.0200079760000045
2.65	0.0198117799999995
2.7	0.0193421293333307
2.75	0.0191458133333269
2.8	0.0186756159999919
2.85	0.0184791800000115
2.9	0.018008436000009
2.95	0.0178118799999938
3	0.0173405893333252
3.05	0.0171439133333209
3.1	0.0166720760000074
3.15	0.0164752800000039
3.2	0.016002896000002
3.25	0.0158059799999988
3.3	0.0153330493333299
3.35	0.0151360133333465
3.4	0.014662536000011
3.45	0.0144653799999972
3.5	0.0139913559999965
3.55	0.013794079999994
3.6	0.0133195093333258
3.65	0.0131221133333397
3.7	0.0126469960000044
3.75	0.0124494800000021
3.8	0.0119738160000002
3.85	0.0117761799999903
3.9	0.0112999693333227
3.95	0.0111022133333343
4	0.0106254560000001
4.05	0.0104275799999987
4.1	0.00995027599999698
4.15	0.00975228000000739
4.2	0.00927442933333911
4.25	0.00907631333333647
4.3	0.00859791600000248
4.35	0.00839967999999525
4.4	0.00792073599999421
4.45	0.00772238000000236
4.5	0.00724288933333472
4.55	0.00704441333333294
4.6	0.00656437599999871
4.65	0.0063657799999981
4.7	0.00588519599999726
4.75	0.00568648000000316
4.8	0.00520534933333616
4.85	0.00500651333333213
4.9	0.00452483599999809
4.95	0.00432587999999701
5	0.00384365600000169
5.05	0.0036445800000009
5.1	0.0031618093333341
5.15	0.00296261333333314
5.2	0.00247929599999974
5.25	0.00227998000000174
5.3	0.00179611600000174
5.35	0.00159667999999957
5.4	0.00111226933333342
5.45	0.000912713333332871
5.5	0.000427756000000112
5.55	0.000228080000000297
5.6	2.80799999998749e-05
5.65	2.8500000000431e-05
5.7	2.8500000000431e-05
5.75	2.90000000005008e-05
5.8	2.90000000005008e-05
5.85	2.94999999992385e-05
5.9	2.94999999996826e-05
5.95	0.000229919999999773
6	0.000429920000000639
6.05	0.000917286666666239
6.1	0.00111728666666622
6.15	0.00160532000000035
6.2	0.00180532000000033
6.25	0.00229401999999945
6.3	0.00249401999999943
6.35	0.00298338666666798
6.4	0.00318338666666707
6.45	0.00367341999999926
6.5	0.00387341999999968
6.55	0.00436411999999886
6.6	0.00456411999999928
6.65	0.00505548666666722
6.7	0.0052554866666672
6.75	0.00574751999999989
6.8	0.00594752000000254
6.85	0.00644021999999866
6.9	0.0066402199999982
6.95	0.00713358666666664
7	0.00733358666666661
7.05	0.0078276200000007
7.1	0.00802762000000046
7.15	0.00852231999999731
7.2	0.00872231999999751
7.25	0.00921768666666378
7.3	0.0094176866666642
7.35	0.00991372000000013
7.4	0.0101137200000001
7.45	0.0106104200000026
7.5	0.010810420000003
7.55	0.0113077866666629
7.6	0.0115077866666629
7.65	0.0120058199999993
7.7	0.0122058200000001
7.75	0.0127045199999996
7.8	0.0129045199999991
7.85	0.013403886666667
7.9	0.013603886666667
7.95	0.0141039199999988
8	0.014303919999998
8.05	0.0148046200000005
8.1	0.0150046200000012
8.15	0.015505986666664
8.2	0.0157059866666651
8.25	0.0162080200000005
8.3	0.0164080200000023
8.35	0.0169107200000002
8.4	0.0171107200000002
8.45	0.0176140866666674
8.5	0.0178140866666668
8.55	0.0183181199999998
8.6	0.018518120000001
8.65	0.0190228199999991
8.7	0.0192228200000008
8.75	0.019728186666666
8.8	0.019928186666667
8.85	0.0204342200000003
8.9	0.0206342200000002
8.95	0.0211409200000012
9	0.0213409199999993
9.05	0.0218482866666667
9.1	0.0220482866666671
9.15	0.0225563199999981
9.2	0.0227563199999991
9.25	0.0232650199999978
9.3	0.0234650199999978
9.35	0.0239743866666667
9.4	0.0241743866666655
9.45	0.0246844199999983
9.5	0.0248844199999964
9.55	0.0253951199999997
9.6	0.025595120000003
9.65	0.0261064866666643
9.7	0.026306486666665
9.75	0.026818519999998
9.8	0.027018520000001
9.85	0.0275312199999982
9.9	0.0277312199999964
9.95	0.028244586666664
10	0.0284445866666664
10	0.0284445866666664
11	0.0284445866666663
