0	3.15473788697056
0.05	2.7551378869715
0.1	2.25563788697266
0.15	1.75663788697383
0.2	1.25763788697499
0.25	0.759137886976157
0.3	0.260637886977323
0.35	0.0509802133332897
0.4	0.0505282560000735
0.45	0.0503375799999528
0.5	0.0498850759999474
0.55	0.0496942800000033
0.6	0.0492412293333295
0.65	0.0490503133333826
0.7	0.048596716000044
0.75	0.0484056799999681
0.8	0.0479515359999629
0.85	0.0477603800000166
0.9	0.047305689333343
0.95	0.0471144133333929
1	0.0466591760000514
1.05	0.0464677799999826
1.1	0.0460119959999772
1.15	0.0458204799999988
1.2	0.0453641493333548
1.25	0.045172513333358
1.3	0.0447156360000101
1.35	0.0445238799999959
1.4	0.0440664559999906
1.45	0.0438745800000384
1.5	0.0434166093333661
1.55	0.0432246133333272
1.6	0.0427660959999892
1.65	0.0425739799999798
1.7	0.0421149159999752
1.75	0.0419226800000208
1.8	0.0414630693333486
1.85	0.0412707133333394
1.9	0.0408105560000016
1.95	0.0406180799999651
2	0.0401573759999612
2.05	0.039964780000004
2.1	0.0395035293333335
2.15	0.0393108133333246
2.2	0.0388490159999866
2.25	0.0386561800000282
2.3	0.0381938360000236
2.35	0.0380008800000144
2.4	0.0375379893333432
2.45	0.0373449133333108
2.5	0.0368814759999734
2.55	0.0366882800000128
2.6	0.0362242960000083
2.65	0.0360309799999996
2.7	0.035566449333329
2.75	0.0353730133333214
2.8	0.0349079359999842
2.85	0.0347143800000218
2.9	0.0342487560000171
2.95	0.0340550799999879
3	0.0335889093333175
3.05	0.033395113333309
3.1	0.0329283960000151
3.15	0.0327344800000078
3.2	0.0322672160000037
3.25	0.0320731799999971
3.3	0.0316053693333265
3.35	0.0314112133333606
3.4	0.0309428560000229
3.45	0.0307485799999951
3.5	0.0302796759999926
3.55	0.030085279999986
3.6	0.029615829333316
3.65	0.0294213133333474
3.7	0.0289513160000103
3.75	0.0287566800000043
3.8	0.0282861360000011
3.85	0.0280913799999758
3.9	0.0276202893333068
3.95	0.027425413333336
4	0.0269537759999996
4.05	0.0267587799999944
4.1	0.0262865959999909
4.15	0.0260914800000189
4.2	0.0256187493333484
4.25	0.0254235133333425
4.3	0.0249502360000067
4.35	0.024754879999985
4.4	0.0242810559999822
4.45	0.0240855800000079
4.5	0.0236112093333385
4.55	0.023415613333333
4.6	0.0229406959999974
4.65	0.0227449799999926
4.7	0.0222695159999899
4.75	0.022073680000013
4.8	0.0215976693333442
4.85	0.0214017133333257
4.9	0.0209251559999899
4.95	0.0207290799999851
5	0.0202519760000093
5.05	0.0200557800000052
5.1	0.0195781293333361
5.15	0.0193818133333319
5.2	0.0189036159999962
5.25	0.0187071800000158
5.3	0.018228436000014
5.35	0.0180318799999974
5.4	0.017552589333329
5.45	0.0173559133333248
5.5	0.0168760759999906
5.55	0.016679280000008
5.6	0.0161988960000055
5.65	0.0160019800000026
5.7	0.0155210493333335
5.75	0.0153240133333208
5.8	0.0148425359999864
5.85	0.014645380000001
5.9	0.0141633559999996
5.95	0.0139660799999968
6	0.0134835093333292
6.05	0.0132861133333426
6.1	0.0128029960000076
6.15	0.0126054800000044
6.2	0.0121218160000027
6.25	0.0119241799999932
6.3	0.0114399693333254
6.35	0.011242213333337
6.4	0.0107574559999992
6.45	0.01055958
6.5	0.0100742760000021
6.55	0.00987627999999674
6.6	0.00939042933332912
6.65	0.00919231333333292
6.7	0.00870591599999848
6.75	0.00850768000000257
6.8	0.00802073600000108
6.85	0.00782237999999724
6.9	0.00733488933333382
6.95	0.00713641333333226
7	0.00664837599999846
7.05	0.00644977999999963
7.1	0.00596119599999878
7.15	0.00576248000000068
7.2	0.00527334933333368
7.25	0.0050745133333312
7.3	0.00458483600000181
7.35	0.00438587999999895
7.4	0.00389565599999897
7.45	0.00369657999999995
7.5	0.00320580933333314
7.55	0.00300661333333374
7.6	0.00251529600000011
7.65	0.00231597999999944
7.7	0.00182411600000054
7.75	0.00162468000000016
7.8	0.00113226933333321
7.85	0.000932713333332891
7.9	0.000439755999999458
7.95	0.000240080000000198
8	4.00799999994428e-05
8.05	4.04999999999989e-05
8.1	4.0500000000887e-05
8.15	4.09999999994026e-05
8.2	4.10000000007349e-05
8.25	4.14999999998056e-05
8.3	4.14999999998056e-05
8.35	0.000241920000000562
8.4	0.000441919999999374
8.45	0.00093728666666687
8.5	0.00113728666666635
8.55	0.00163331999999949
8.6	0.00183332000000053
8.65	0.0023300200000001
8.7	0.00253002000000077
8.75	0.00302738666666597
8.8	0.00322738666666644
8.85	0.00372542000000074
8.9	0.00392542000000001
8.95	0.00442412000000121
9	0.00462411999999934
9.05	0.00512348666666676
9.1	0.00532348666666721
9.15	0.00582351999999867
9.2	0.00602351999999981
9.25	0.00652421999999941
9.3	0.00672421999999934
9.35	0.00722558666666712
9.4	0.0074255866666661
9.45	0.00792761999999902
9.5	0.00812761999999745
9.55	0.00863032000000141
9.6	0.00883032000000128
9.65	0.00933368666666534
9.7	0.00953368666666587
9.75	0.0100377199999986
9.8	0.0102377199999998
9.85	0.0107424199999999
9.9	0.0109424199999983
9.95	0.011447786666667
10	0.011647786666666
10	0.011647786666666
11	0.011647786666666
