0	-4.08886991284375
0.05	-4.05970758
0.1	-4.05874360933333
0.15	-4.05754561333334
0.2	-4.05608109600001
0.25	-4.05438298000002
0.3	-4.05241791600002
0.35	-4.05021968000002
0.4	-4.04775406933336
0.45	-4.04505571333333
0.5	-4.042089556
0.55	-4.03889108000001
0.6	-4.03542437600001
0.65	-4.03172578000001
0.7	-4.02775852933335
0.75	-4.02355981333334
0.8	-4.019092016
0.85	-4.01439318000001
0.9	-4.00942483600001
0.95	-4.00422588000001
1	-3.99875698933334
1.05	-3.99305791333334
1.1	-3.98708847600001
1.15	-3.98088928
1.2	-3.97441929600001
1.25	-3.96771998000001
1.3	-3.96074944933334
1.35	-3.95355001333334
1.4	-3.94607893600001
1.45	-3.93837938000001
1.5	-3.93040775600001
1.55	-3.92220808000001
1.6	-3.91400808000001
1.65	-3.90550850000001
1.7	-3.89700850000001
1.75	-3.88800900000001
1.8	-3.87900900000001
1.85	-3.86950950000001
1.9	-3.86000950000001
1.95	-3.85020992000001
2	-3.84040992000001
2.05	-3.83038395333334
2.1	-3.82008395333334
2.15	-3.80955865333334
2.2	-3.79875865333334
2.25	-3.78773402
2.3	-3.77643402
2.35	-3.76491005333334
2.4	-3.75311005333334
2.45	-3.74108675333334
2.5	-3.72878675333334
2.55	-3.71626412000001
2.6	-3.70346412000001
2.65	-3.69044215333334
2.7	-3.67714215333334
2.75	-3.66362085333334
2.8	-3.64982085333334
2.85	-3.63580022000001
2.9	-3.62150022000001
2.95	-3.60698025333334
3	-3.59218025333334
3.05	-3.57716095333333
3.1	-3.56186095333333
3.15	-3.54634232000001
3.2	-3.53054232000001
3.25	-3.51452435333334
3.3	-3.49822435333334
3.35	-3.48170705333333
3.4	-3.46490705333333
3.45	-3.44789042
3.5	-3.43059042
3.55	-3.41307445333333
3.6	-3.39527445333333
3.65	-3.37725915333334
3.7	-3.35895915333334
3.75	-3.34044452000001
3.8	-3.32164452000001
3.85	-3.30263055333333
3.9	-3.28333055333333
3.95	-3.26381725333334
4	-3.24401725333334
4.05	-3.22400462
4.1	-3.20370462
4.15	-3.18319265333333
4.2	-3.16239265333333
4.25	-3.14138135333334
4.3	-3.12008135333334
4.35	-3.09857071999999
4.4	-3.07677071999999
4.45	-3.05476075333333
4.5	-3.03246075333334
4.55	-3.00995145333334
4.6	-2.98715145333334
4.65	-2.96414282
4.7	-2.94084282
4.75	-2.91733485333334
4.8	-2.89353485333335
4.85	-2.86952755333333
4.9	-2.84522755333333
4.95	-2.82072091999999
5	-2.79592091999999
5.05	-2.77091495333334
5.1	-2.74561495333334
5.15	-2.72010965333334
5.2	-2.69430965333334
5.25	-2.66830501999998
5.3	-2.64200501999998
5.35	-2.61550105333333
5.4	-2.58870105333333
5.45	-2.56169775333333
5.5	-2.53439775333333
5.55	-2.50689512
5.6	-2.47909512000002
5.65	-2.45109315333334
5.7	-2.42279315333334
5.75	-2.39429185333332
5.8	-2.36549185333332
5.85	-2.33649122000001
5.9	-2.30719122000001
5.95	-2.27769125333333
6	-2.24789125333333
6.05	-2.21789195333332
6.1	-2.18759195333332
6.15	-2.15709332000002
6.2	-2.12629332000002
6.25	-2.09529535333332
6.3	-2.06399535333332
6.35	-2.03249805333332
6.4	-2.00069805333334
6.45	-1.96870141999999
6.5	-1.93640141999999
6.55	-1.90390545333333
6.6	-1.87110545333333
6.65	-1.83811015333334
6.7	-1.80481015333334
6.75	-1.77131551999998
6.8	-1.73751552000001
6.85	-1.70352155333332
6.9	-1.66922155333332
6.95	-1.63472825333333
7	-1.59992825333333
7.05	-1.56493562
7.1	-1.52963562
7.15	-1.49414365333332
7.2	-1.45834365333332
7.25	-1.42235235333332
7.3	-1.38605235333332
7.35	-1.34956172
7.4	-1.31276172
7.45	-1.27577175333332
7.5	-1.23847175333334
7.55	-1.20098245333332
7.6	-1.16318245333332
7.65	-1.12519382
7.7	-1.08689382
7.75	-1.04840585333333
7.8	-1.00960585333333
7.85	-0.970618553333329
7.9	-0.931318553333333
7.95	-0.891831919999993
8	-0.852031919999993
8.05	-0.812045953333325
8.1	-0.771745953333332
8.15	-0.731260653333324
8.2	-0.690460653333325
8.25	-0.649476019999988
8.3	-0.608176020000004
8.35	-0.566692053333327
8.4	-0.524892053333331
8.45	-0.482908753333329
8.5	-0.440608753333333
8.55	-0.398126119999994
8.6	-0.355326119999999
8.65	-0.312344153333325
8.7	-0.269044153333334
8.75	-0.225562853333316
8.8	-0.181762853333333
8.85	-0.13778221999993
8.9	-0.0934822199999986
8.95	-0.0490022533330296
9	-0.00420225333333093
9.05	0.0407770466679233
9.1	0.0860770466666691
9.15	0.131555680004907
9.2	0.177355680000003
9.25	0.223333646684617
9.3	0.269633646666673
9.35	0.316110946728041
9.4	0.36291094666667
9.45	0.409887580196019
9.5	0.457187580000005
9.55	0.504663547251145
9.6	0.552463546666663
9.65	0.600438848296743
9.7	0.648738846666672
9.75	0.697213484238104
9.8	0.746013479999997
9.85	0.79498745693802
9.9	0.844287446666674
9.95	0.893760769874348
10	0.943560746666666
10	0.943560746666666
11	1.94356074666667
