0	0.50141790660502
0.05	0.101817906605952
0.1	0.0217558493333119
0.15	0.0215600133333362
0.2	0.0210993359999998
0.25	0.020903380000024
0.3	0.0204421560000201
0.35	0.0202460800000077
0.4	0.0197843093333709
0.45	0.0195881133333149
0.5	0.0191257959999804
0.55	0.0189294800000024
0.6	0.0184666159999987
0.65	0.0182701800000178
0.7	0.0178067693333492
0.75	0.0176102133333211
0.8	0.017146255999986
0.85	0.0169495800000066
0.9	0.0164850760000039
0.95	0.0162882800000199
1	0.0158232293333485
1.05	0.0156263133333274
1.1	0.0151607159999929
1.15	0.014963679999989
1.2	0.014497536000007
1.25	0.014300380000003
1.3	0.0138336893333348
1.35	0.013636413333332
1.4	0.0131691759999972
1.45	0.0129717800000111
1.5	0.0125039960000097
1.55	0.0123064799999981
1.6	0.0118381493333302
1.65	0.0116405133333282
1.7	0.0111716359999936
1.75	0.0109738800000052
1.8	0.0105044560000036
1.85	0.0103065800000017
1.9	0.00983660933333397
1.95	0.00963861333332483
2	0.00916809599999135
2.05	0.00896998000000071
2.1	0.00849891600000019
2.15	0.00830067999999873
2.2	0.00782906933333116
2.25	0.00763071333333887
2.3	0.0071585560000047
2.35	0.00696008000000248
2.4	0.00648737600000127
2.45	0.00628877999999666
2.5	0.00581552933332974
2.55	0.00561681333333564
2.6	0.00514301600000122
2.65	0.00494417999999941
2.7	0.00446983599999928
2.75	0.00427087999999864
2.8	0.00379598933333192
2.85	0.00359691333333556
2.9	0.00312147600000134
2.95	0.0029222799999995
3	0.00244629599999913
3.05	0.00224697999999846
3.1	0.0017704493333337
3.15	0.00157101333333332
3.2	0.00109393600000018
3.25	0.000894380000000528
3.3	0.000416755999999907
3.35	0.000217080000000092
3.4	1.70800000001137e-05
3.45	1.74999999993375e-05
3.5	1.74999999993375e-05
3.55	1.80000000007396e-05
3.6	1.80000000002956e-05
3.65	1.84999999999214e-05
3.7	1.84999999999214e-05
3.75	0.000218920000000455
3.8	0.000418920000000433
3.85	0.000898953333332564
3.9	0.00109895333333299
3.95	0.00157965333333365
4	0.00177965333333363
4.05	0.00226102000000061
4.1	0.00246102000000059
4.15	0.00294305333333211
4.2	0.00314305333333165
4.25	0.00362575333333481
4.3	0.00382575333333524
4.35	0.0043091199999985
4.4	0.00450911999999803
4.45	0.00499315333333561
4.5	0.00519315333333514
4.55	0.0056778533333337
4.6	0.00587785333333413
4.65	0.006363219999999
4.7	0.00656321999999898
4.75	0.00704925333333861
4.8	0.00724925333333859
4.85	0.0077359533333321
4.9	0.00793595333333164
4.95	0.00842331999999502
5	0.00862331999999499
5.05	0.00911135333333668
5.1	0.00931135333333666
5.15	0.00980005333333356
5.2	0.010000053333334
5.25	0.0104894199999896
5.3	0.0106894199999901
5.35	0.0111794533333329
5.4	0.0113794533333333
5.45	0.0118701533333292
5.5	0.0120701533333301
5.55	0.0125615200000082
5.6	0.0127615200000073
5.65	0.0132535533333376
5.7	0.0134535533333371
5.75	0.0139462533333239
5.8	0.0141462533333239
5.85	0.0146396200000032
5.9	0.0148396200000032
5.95	0.0153336533333319
6	0.0155336533333328
6.05	0.0160283533333261
6.1	0.0162283533333261
6.15	0.0167237200000079
6.2	0.0169237200000079
6.25	0.0174197533333258
6.3	0.0176197533333253
6.35	0.018116453333326
6.4	0.0183164533333362
6.45	0.0188138199999963
6.5	0.019013819999997
6.55	0.0195118533333294
6.6	0.0197118533333296
6.65	0.0202105533333357
6.7	0.0204105533333356
6.75	0.0209099199999914
6.8	0.0211099200000089
6.85	0.0216099533333283
6.9	0.0218099533333278
6.95	0.0223106533333342
7	0.0225106533333341
7.05	0.0230120200000012
7.1	0.023212020000001
7.15	0.023714053333326
7.2	0.0239140533333264
7.25	0.0244167533333255
7.3	0.0246167533333257
7.35	0.02512012
7.4	0.0253201199999995
7.45	0.0258241533333301
7.5	0.0260241533333407
7.55	0.0265288533333239
7.6	0.0267288533333241
7.65	0.0272342199999982
7.7	0.0274342199999991
7.75	0.0279402533333315
7.8	0.0281402533333311
7.85	0.0286469533333344
7.9	0.0288469533333348
7.95	0.0293543199999972
8	0.0295543199999964
8.05	0.0300623533333322
8.1	0.0302623533333349
8.15	0.0307710533333283
8.2	0.0309710533333296
8.25	0.0314804199999952
8.3	0.0316804200000047
8.35	0.032190453333333
8.4	0.0323904533333335
8.45	0.032901153333333
8.5	0.0331011533333341
8.55	0.0336125199999975
8.6	0.0338125200000013
8.65	0.03432455333333
8.7	0.0345245533333348
8.75	0.0350372533333318
8.8	0.0352372533333341
8.85	0.0357506199999999
8.9	0.0359506200000003
8.95	0.0364646533333345
9	0.0366646533333326
9.05	0.0371793533333333
9.1	0.0373793533333337
9.15	0.0378947199999974
9.2	0.0380947199999985
9.25	0.0386107533333308
9.3	0.0388107533333296
9.35	0.0393274533333322
9.4	0.0395274533333317
9.45	0.0400448199999959
9.5	0.0402448199999957
9.55	0.0407628533333179
9.6	0.0409628533333377
9.65	0.0414815533332714
9.7	0.04168155333333
9.75	0.0422009199997083
9.8	0.0424009200000017
9.85	0.0429209533320248
9.9	0.043120953333328
9.95	0.0436416533278224
10	0.0438416533333336
10	0.0438416533333336
11	0.0438416533333337
