0	2.8400430362562
0.05	2.44044303625713
0.1	1.9409430362583
0.15	1.44194303625946
0.2	0.942943036260629
0.25	0.444443036261794
0.3	0.0484987160000472
0.35	0.0483076799999536
0.4	0.0478548693334124
0.45	0.0476637133332893
0.5	0.047210355999951
0.55	0.0470190800000037
0.6	0.0465651759999961
0.65	0.0463737800000459
0.7	0.0459193293333744
0.75	0.0457278133333032
0.8	0.0452728159999642
0.85	0.0450811800000146
0.9	0.044625636000009
0.95	0.0444338800000565
1	0.0439777893333821
1.05	0.0437859133333172
1.1	0.0433292759999788
1.15	0.0431372799999972
1.2	0.0426800960000202
1.25	0.0424879800000211
1.3	0.0420302493333402
1.35	0.0418380133333294
1.4	0.0413797359999908
1.45	0.0411873800000357
1.5	0.040728556000031
1.55	0.0405360799999945
1.6	0.0400767093333232
1.65	0.0398841133333145
1.7	0.0394241959999766
1.75	0.0392314800000193
1.8	0.0387710160000143
1.85	0.0385781800000058
1.9	0.0381171693333351
1.95	0.0379242133333006
2	0.0374626559999638
2.05	0.0372695800000038
2.1	0.0368074759999999
2.15	0.0366142799999918
2.2	0.0361516293333213
2.25	0.0359583133333596
2.3	0.0354951160000221
2.35	0.0353016800000132
2.4	0.0348379360000091
2.45	0.0346443799999792
2.5	0.0341800893333088
2.55	0.0339864133333454
2.6	0.0335215760000076
2.65	0.0333277799999996
2.7	0.0328623959999961
2.75	0.0326684799999892
2.8	0.0322025493333191
2.85	0.032008513333353
2.9	0.0315420360000158
2.95	0.0313478799999887
3	0.0308808559999854
3.05	0.030686579999978
3.1	0.0302190093333472
3.15	0.0300246133333406
3.2	0.0295564960000037
3.25	0.0293619799999973
3.3	0.0288933159999938
3.35	0.0286986800000251
3.4	0.0282294693333545
3.45	0.0280347133333292
3.5	0.0275649559999929
3.55	0.0273700799999874
3.6	0.0268997759999841
3.65	0.0267047800000131
3.7	0.0262339293333427
3.75	0.0260388133333374
3.8	0.0255674160000008
3.85	0.0253721799999784
3.9	0.0249002359999762
3.95	0.0247048800000025
4	0.0242323893333332
4.05	0.0240369133333287
4.1	0.0235638759999923
4.15	0.023368280000017
4.2	0.0228946960000136
4.25	0.0226989800000084
4.3	0.0222248493333392
4.35	0.0220290133333205
4.4	0.0215543359999844
4.45	0.0213583800000072
4.5	0.0208831560000045
4.55	0.0206870799999996
4.6	0.0202113093333307
4.65	0.0200151133333266
4.7	0.0195387959999911
4.75	0.0193424800000113
4.8	0.0188656160000091
4.85	0.0186691799999936
4.9	0.0181917693333249
4.95	0.0179952133333203
5	0.0175172560000081
5.05	0.0173205800000042
5.1	0.0168420760000028
5.15	0.0166452799999988
5.2	0.0161662293333302
5.25	0.0159693133333469
5.3	0.0154897160000118
5.35	0.0152926799999977
5.4	0.0148125359999964
5.45	0.0146153799999929
5.5	0.0141346893333254
5.55	0.0139374133333403
5.6	0.0134561760000045
5.65	0.0132587800000024
5.7	0.0127769960000004
5.75	0.0125794799999897
5.8	0.0120971493333224
5.85	0.0118995133333342
5.9	0.0114166359999999
5.95	0.0112188799999973
6	0.0107354559999973
6.05	0.0105375800000074
6.1	0.010053609333339
6.15	0.00985561333333651
6.2	0.00937109600000197
6.25	0.00917297999999489
6.3	0.00868791599999419
6.35	0.00848968000000294
6.4	0.00800406933333275
6.45	0.00780571333333424
6.5	0.00731955600000167
6.55	0.00712107999999745
6.6	0.00663437599999739
6.65	0.00643577999999967
6.7	0.00594852933333212
6.75	0.00574981333333513
6.8	0.00526201600000076
6.85	0.00506317999999828
6.9	0.00457483600000019
6.95	0.00437587999999933
7	0.0038869893333322
7.05	0.0036879133333334
7.1	0.00319847599999945
7.15	0.00299928000000005
7.2	0.00250929600000016
7.25	0.00230997999999905
7.3	0.00181944933333389
7.35	0.00162001333333306
7.4	0.00112893599999975
7.45	0.000929379999999425
7.5	0.000437755999999956
7.55	0.00023808000000014
7.6	3.80800000001624e-05
7.65	3.85000000000524e-05
7.7	3.85000000007185e-05
7.75	3.90000000005664e-05
7.8	3.90000000001223e-05
7.85	3.94999999997481e-05
7.9	3.94999999999701e-05
7.95	0.000239920000000393
8	0.000439919999999705
8.05	0.000933953333333348
8.1	0.00113395333333399
8.15	0.00162865333333273
8.2	0.00182865333333393
8.25	0.00232402000000009
8.3	0.00252402000000018
8.35	0.00302005333333377
8.4	0.00322005333333286
8.45	0.0037167533333336
8.5	0.00391675333333308
8.55	0.00441411999999963
8.6	0.00461412000000067
8.65	0.00511215333333365
8.7	0.0053121533333341
8.75	0.00581085333333267
8.8	0.00601085333333318
8.85	0.00651022000000072
8.9	0.00671022
8.95	0.00721025333333452
9	0.00741025333333267
9.05	0.00791095333333344
9.1	0.00811095333333381
9.15	0.00861231999999856
9.2	0.00881231999999965
9.25	0.00931435333333236
9.3	0.00951435333333239
9.35	0.0100170533333337
9.4	0.0102170533333327
9.45	0.010720419999999
9.5	0.0109204199999972
9.55	0.0114244533333351
9.6	0.0116244533333349
9.65	0.0121291533333318
9.7	0.0123291533333324
9.75	0.0128345199999987
9.8	0.0130345199999999
9.85	0.013540553333333
9.9	0.0137405533333314
9.95	0.0142472533333339
10	0.0144472533333327
10	0.0144472533333327
11	0.0144472533333326
