0	-8.06135386268945
0.05	-7.66135386269038
0.1	-7.16135386269155
0.15	-6.66135386269271
0.2	-6.16135386269388
0.25	-5.66135386269504
0.3	-5.16135386269621
0.35	-4.66135386269737
0.4	-4.16135386269854
0.45	-4.09452224666662
0.5	-4.09157187599995
0.55	-4.08838228000001
0.6	-4.08493136266667
0.65	-4.08124164666673
0.7	-4.07729018266672
0.75	-4.07310034666664
0.8	-4.06864833599996
0.85	-4.06395838000002
0.9	-4.05900582266669
0.95	-4.05381574666674
1	-4.04836264266673
1.05	-4.04267244666665
1.1	-4.03671879599998
1.15	-4.03052848000001
1.2	-4.0240742826667
1.25	-4.01738384666671
1.3	-4.01042910266669
1.35	-4.00323854666666
1.4	-3.995783256
1.45	-3.98809258000005
1.5	-3.98013674266671
1.55	-3.97194594666667
1.6	-3.96348956266666
1.65	-3.95479864666665
1.7	-3.94584171599998
1.75	-3.93665068000003
1.8	-3.92719320266669
1.85	-3.91750204666668
1.9	-3.90754402266667
1.95	-3.89735274666663
2	-3.88689417599996
2.05	-3.87620278000001
2.1	-3.86524366266667
2.15	-3.85405214666666
2.2	-3.84259248266666
2.25	-3.8309008466667
2.3	-3.81894063600003
2.35	-3.80674888000002
2.4	-3.79428812266668
2.45	-3.78159624666664
2.5	-3.76863494266664
2.55	-3.75544294666669
2.6	-3.74198109600001
2.65	-3.72828898
2.7	-3.71432658266667
2.75	-3.70013434666666
2.8	-3.68567140266665
2.85	-3.6709790466667
2.9	-3.65601555600002
2.95	-3.64082307999999
3	-3.62535904266665
3.05	-3.60966644666664
3.1	-3.59370186266669
3.15	-3.57750914666668
3.2	-3.56104401600001
3.25	-3.54435118
3.3	-3.52738550266666
3.35	-3.5101925466667
3.4	-3.4927263226667
3.45	-3.47503324666666
3.5	-3.45706647599999
3.55	-3.43887327999999
3.6	-3.42040596266665
3.65	-3.40171264666669
3.7	-3.38274478266668
3.75	-3.36355134666668
3.8	-3.344082936
3.85	-3.32438937999997
3.9	-3.30442042266664
3.95	-3.28422674666667
4	-3.26375724266667
4.05	-3.24306344666666
4.1	-3.22209339599999
4.15	-3.20089948000003
4.2	-3.17942888266669
4.25	-3.15773484666668
4.3	-3.13576370266668
4.35	-3.11356954666665
4.4	-3.09109785599998
4.45	-3.06840358000001
4.5	-3.04543134266668
4.55	-3.02223694666667
4.6	-2.99876416266666
4.65	-2.97506964666666
4.7	-2.95109631599999
4.75	-2.92690168000002
4.8	-2.90242780266668
4.85	-2.87773304666666
4.9	-2.85275862266665
4.95	-2.82756374666665
5	-2.80208877600001
5.05	-2.77639378000001
5.1	-2.75041826266667
5.15	-2.72422314666667
5.2	-2.69774708266666
5.25	-2.67105184666669
5.3	-2.64407523600002
5.35	-2.61687988
5.4	-2.58940272266666
5.45	-2.56170724666666
5.5	-2.53372954266665
5.55	-2.50553394666668
5.6	-2.47705569600001
5.65	-2.44835998
5.7	-2.41938118266667
5.75	-2.39018534666665
5.8	-2.36070600266665
5.85	-2.33101004666667
5.9	-2.301030156
5.95	-2.27083408
6	-2.24035364266666
6.05	-2.20965744666668
6.1	-2.17867646266668
6.15	-2.14748014666667
6.2	-2.11599861600001
6.25	-2.08430217999999
6.3	-2.05232010266665
6.35	-2.02012354666667
6.4	-1.98764092266667
6.45	-1.95494424666667
6.5	-1.921961076
6.55	-1.88876428
6.6	-1.85528056266666
6.65	-1.82158364666667
6.7	-1.78759938266666
6.75	-1.75340234666667
6.8	-1.718917536
6.85	-1.68422037999999
6.9	-1.64923502266667
6.95	-1.61403774666666
7	-1.57855184266666
7.05	-1.54285444666666
7.1	-1.506867996
7.15	-1.47067048
7.2	-1.43418348266667
7.25	-1.39748584666666
7.3	-1.36049830266667
7.35	-1.32330054666666
7.4	-1.285812456
7.45	-1.24811458
7.5	-1.21012594266667
7.55	-1.17192794666667
7.6	-1.13343876266666
7.65	-1.09474064666666
7.7	-1.055750916
7.75	-1.01655268
7.8	-0.977062402666664
7.85	-0.937364046666664
7.9	-0.897373222666663
7.95	-0.857174746666664
8	-0.816683375999997
8.05	-0.775984779999997
8.1	-0.734992862666663
8.15	-0.693794146666665
8.2	-0.652301682666664
8.25	-0.610602846666664
8.3	-0.568609835999997
8.35	-0.526410879999998
8.4	-0.483917322666664
8.45	-0.441218246666665
8.5	-0.398224142666665
8.55	-0.355024946666665
8.6	-0.311530295999998
8.65	-0.267830979999998
8.7	-0.223835782666665
8.75	-0.179636346666665
8.8	-0.135140602666665
8.85	-0.0904410466666645
8.9	-0.0454447559999976
8.95	-0.000245079999997408
9	0.0449549200000024
9.05	0.090454500000002
9.1	0.135954500000002
9.15	0.181954000000002
9.2	0.227954000000002
9.25	0.274453500000002
9.3	0.320953500000002
9.35	0.367753080000001
9.4	0.414553080000001
9.45	0.461554380000001
9.5	0.508854380000001
9.55	0.556355013333334
9.6	0.604155013333334
9.65	0.652154980000001
9.7	0.700454980000001
9.75	0.74895428
9.8	0.79775428
9.85	0.846752913333334
9.9	0.896052913333335
9.95	0.945550880000001
10	0.995350880000001
10	0.995350880000001
11	1.99535088
