0	-4.99336951498672
0.05	-4.59336951498765
0.1	-4.09336951498882
0.15	-4.07690214666668
0.2	-4.07544381600001
0.25	-4.07374918000004
0.3	-4.0717903026667
0.35	-4.06959554666667
0.4	-4.06713612266673
0.45	-4.06444124666665
0.5	-4.06148127599998
0.55	-4.05828628000001
0.6	-4.05482576266667
0.65	-4.0511306466667
0.7	-4.0471695826667
0.75	-4.04297434666666
0.8	-4.03851273599999
0.85	-4.03381738000002
0.9	-4.02885522266668
0.95	-4.0236597466667
1	-4.0181970426667
1.05	-4.01250144666666
1.1	-4.006538196
1.15	-4.00034247999999
1.2	-3.99387868266668
1.25	-3.98718284666668
1.3	-3.98021850266668
1.35	-3.97302254666667
1.4	-3.965557656
1.45	-3.95786158000002
1.5	-3.94989614266669
1.55	-3.94169994666667
1.6	-3.93323396266667
1.65	-3.92453764666666
1.7	-3.91557111599999
1.75	-3.90637468000001
1.8	-3.89690760266668
1.85	-3.88721104666668
1.9	-3.87724342266667
1.95	-3.86704674666666
2	-3.85657857599999
2.05	-3.84588178000001
2.1	-3.83491306266667
2.15	-3.82371614666667
2.2	-3.81224688266667
2.25	-3.80054984666668
2.3	-3.78858003600001
2.35	-3.77638288000001
2.4	-3.76391252266667
2.45	-3.75121524666666
2.5	-3.73824434266666
2.55	-3.72504694666668
2.6	-3.71157549600001
2.65	-3.69787798
2.7	-3.68390598266667
2.75	-3.66970834666667
2.8	-3.65523580266667
2.85	-3.64053804666668
2.9	-3.62556495600001
2.95	-3.61036708
3	-3.59489344266667
3.05	-3.57919544666666
3.1	-3.56322126266667
3.15	-3.54702314666667
3.2	-3.530548416
3.25	-3.51385018
3.3	-3.49687490266667
3.35	-3.47967654666668
3.4	-3.46220072266668
3.45	-3.44450224666667
3.5	-3.426525876
3.55	-3.40832728
3.6	-3.38985036266667
3.65	-3.37115164666667
3.7	-3.35217418266667
3.75	-3.33297534666667
3.8	-3.313497336
3.85	-3.29379838
3.9	-3.27381982266667
3.95	-3.25362074666667
4	-3.23314164266667
4.05	-3.21244244666667
4.1	-3.191462796
4.15	-3.17026348
4.2	-3.14878328266667
4.25	-3.12708384666667
4.3	-3.10510310266667
4.35	-3.08290354666667
4.4	-3.060422256
4.45	-3.03772258
4.5	-3.01502258
4.55	-2.992023
4.6	-2.969023
4.65	-2.9455235
4.7	-2.9220235
4.75	-2.898024
4.8	-2.874024
4.85	-2.84972442
4.9	-2.82542442
4.95	-2.80090812
5	-2.77610812
5.05	-2.75109248666667
5.1	-2.72579248666667
5.15	-2.70027752
5.2	-2.67447752
5.25	-2.64846322
5.3	-2.62216322
5.35	-2.59564958666667
5.4	-2.56884958666667
5.45	-2.54183662
5.5	-2.51453662
5.55	-2.48702432
5.6	-2.45922432
5.65	-2.43121268666667
5.7	-2.40291268666667
5.75	-2.37440172
5.8	-2.34560172
5.85	-2.31659142
5.9	-2.28729142
5.95	-2.25778178666667
6	-2.22798178666667
6.05	-2.19797282
6.1	-2.16767282
6.15	-2.13716452000001
6.2	-2.10636452000001
6.25	-2.07535688666666
6.3	-2.04405688666666
6.35	-2.01254992
6.4	-1.98074992
6.45	-1.94874362
6.5	-1.91644362
6.55	-1.88393798666667
6.6	-1.85113798666666
6.65	-1.81813302
6.7	-1.78483302
6.75	-1.75132872
6.8	-1.71752872000001
6.85	-1.68352508666666
6.9	-1.64922508666666
6.95	-1.61472212
7	-1.57992212
7.05	-1.54491982
7.1	-1.50961982
7.15	-1.47411818666666
7.2	-1.43831818666666
7.25	-1.40231721999999
7.3	-1.36601721999999
7.35	-1.32951692
7.4	-1.29271692
7.45	-1.25571728666667
7.5	-1.21841728666667
7.55	-1.18091831999999
7.6	-1.14311831999999
7.65	-1.10512002
7.7	-1.06682002
7.75	-1.02832238666666
7.8	-0.989522386666663
7.85	-0.950525419999999
7.9	-0.911225419999999
7.95	-0.871729119999995
8	-0.831929119999995
8.05	-0.791933486666665
8.1	-0.751633486666665
8.15	-0.711138519999994
8.2	-0.670338519999994
8.25	-0.629344219999995
8.3	-0.588044220000001
8.35	-0.546550586666663
8.4	-0.504750586666665
8.45	-0.462757619999998
8.5	-0.420457619999998
8.55	-0.377965319999997
8.6	-0.335165319999999
8.65	-0.292173686666663
8.7	-0.248873686666665
8.75	-0.205382719999998
8.8	-0.161582719999999
8.85	-0.117592419999998
8.9	-0.0732924199999984
8.95	-0.0288027866666643
9	0.0159972133333357
9.05	0.0609861800000023
9.1	0.106286180000002
9.15	0.151774480000003
9.2	0.197574480000003
9.25	0.243562113333337
9.3	0.289862113333338
9.35	0.336349080000002
9.4	0.383149080000002
9.45	0.430135380000002
9.5	0.477435380000004
9.55	0.524921013333339
9.6	0.572721013333331
9.65	0.620705980000004
9.7	0.669005980000004
9.75	0.717490280000003
9.8	0.766290279999999
9.85	0.815273913333338
9.9	0.864573913333338
9.95	0.914056880000007
10	0.96385688
10	0.96385688
11	1.96385688
