0	4.2879614418664
0.05	3.88836144186733
0.1	3.3888614418685
0.15	2.88986144186967
0.2	2.39086144187083
0.25	1.892361441872
0.3	1.39386144187316
0.35	0.895861441874326
0.4	0.397861441875492
0.45	0.0590276466666113
0.5	0.0585779159999387
0.55	0.0583886800000037
0.6	0.0579384026666627
0.65	0.0577490466667241
0.7	0.0572982226667182
0.75	0.0571087466666285
0.8	0.056657375999956
0.85	0.0564677800000188
0.9	0.056015862666678
0.95	0.055826146666738
1	0.0553736826667284
1.05	0.0551838466666466
1.1	0.054730835999973
1.15	0.0545408800000038
1.2	0.0540873226666925
1.25	0.0538972466667049
1.3	0.0534431426666897
1.35	0.0532529466666545
1.4	0.0527982959999886
1.45	0.0526079800000461
1.5	0.0521527826667061
1.55	0.0519623466666594
1.6	0.0515066026666537
1.65	0.0513160466666425
1.7	0.0508597559999702
1.75	0.0506690800000249
1.8	0.0502122426666851
1.85	0.0500214466666744
1.9	0.0495640626666685
1.95	0.0493731466666243
2	0.0489152159999526
2.05	0.0487241800000047
2.1	0.0482657026666664
2.15	0.0480745466666557
2.2	0.0476155226666504
2.25	0.0474242466666897
2.3	0.0469646760000293
2.35	0.0467732800000178
2.4	0.0463131626666788
2.45	0.0461216466666388
2.5	0.0456609826666337
2.55	0.0454693466666827
2.6	0.0450081360000101
2.65	0.0448163799999999
2.7	0.0443546226666616
2.75	0.0441627466666517
2.8	0.0437004426666467
2.85	0.043508446666694
2.9	0.043045596000022
2.95	0.0428534799999847
3	0.0423900826666461
3.05	0.0421978466666362
3.1	0.0417339026666861
3.15	0.0415415466666764
3.2	0.0410770560000051
3.25	0.0408845799999962
3.3	0.0404195426666578
3.35	0.0402269466667016
3.4	0.0397613626666966
3.45	0.0395686466666607
3.5	0.0391025159999905
3.55	0.038909679999982
3.6	0.0384430026666442
3.65	0.0382500466666853
3.7	0.0377828226666805
3.75	0.0375897466666726
3.8	0.0371219760000012
3.85	0.0369287799999682
3.9	0.0364604626666316
3.95	0.03626714666667
4	0.0357982826666658
4.05	0.0356048466666592
4.1	0.035135435999988
4.15	0.0349418800000252
4.2	0.0344719226666874
4.25	0.0342782466666796
4.3	0.0338077426666756
4.35	0.0336139466666463
4.4	0.0331428959999762
4.45	0.0329489800000111
4.5	0.032477382666674
4.55	0.0322833466666661
4.6	0.0318112026666628
4.65	0.0316170466666561
4.7	0.0311443559999858
4.75	0.0309500800000189
4.8	0.0304768426666819
4.85	0.0302824466666558
4.9	0.0298086626666527
4.95	0.0296141466666455
5	0.0291398160000136
5.05	0.0289451800000071
5.1	0.0284703026666708
5.15	0.0282755466666638
5.2	0.0278001226666613
5.25	0.0276052466666901
5.3	0.0271292760000201
5.35	0.0269342799999963
5.4	0.0264577626666602
5.45	0.026262646666654
5.5	0.0257855826666522
5.55	0.0255903466666791
5.6	0.025112736000009
5.65	0.0249173800000038
5.7	0.024439222666667
5.75	0.0242437466666465
5.8	0.0237650426666445
5.85	0.0235694466666687
5.9	0.0230901959999996
5.95	0.0228944799999948
6	0.0224146826666596
6.05	0.0222188466666826
6.1	0.0217385026666799
6.15	0.0215425466666743
6.2	0.021061656000005
6.25	0.0208655799999882
6.3	0.0203841426666522
6.35	0.0201879466666735
6.4	0.0197059626666651
6.45	0.0195096466666638
6.5	0.0190271160000042
6.55	0.0188306799999938
6.6	0.0183476026666585
6.65	0.0181510466666659
6.7	0.017667422666664
6.75	0.0174707466666717
6.8	0.0169865760000025
6.85	0.0167897799999936
6.9	0.0163050626666683
6.95	0.0161081466666648
7	0.0156228826666633
7.05	0.0154258466666655
7.1	0.0149400359999969
7.15	0.0147428800000025
7.2	0.0142565226666678
7.25	0.0140592466666603
7.3	0.0135723426666718
7.35	0.0133749466666644
7.4	0.0128874959999967
7.45	0.0126899800000013
7.5	0.0122019826666668
7.55	0.0120043466666684
7.6	0.0115158026666671
7.65	0.0113180466666642
7.7	0.0108289559999977
7.75	0.0106310799999982
7.8	0.0101414426666664
7.85	0.00994344666666547
7.9	0.00945326266666446
7.95	0.00925514666666749
8	0.00876441599999922
8.05	0.00856617999999931
8.1	0.00807490266666577
8.15	0.00787654666666748
8.2	0.0073847226666679
8.25	0.00718624666666645
8.3	0.0066938759999996
8.35	0.00649528000000155
8.4	0.00600236266666665
8.45	0.00580364666666694
8.5	0.00531018266666688
8.55	0.00511134666666618
8.6	0.00461733600000092
8.65	0.00441837999999983
8.7	0.00392382266666721
8.75	0.00372474666666581
8.8	0.00322964266666598
8.85	0.00303044666666714
8.9	0.00253479599999983
8.95	0.00233548000000127
9	0.0018392826666665
9.05	0.00163984666666724
9.1	0.00114310266666778
9.15	0.000943546666665546
9.2	0.000446255999999978
9.25	0.000246579999999885
9.3	4.65799999998517e-05
9.35	4.70000000011295e-05
9.4	4.69999999997972e-05
9.45	4.7499999999423e-05
9.5	4.74999999988679e-05
9.55	4.80000000006031e-05
9.6	4.80000000009362e-05
9.65	0.000248419999999583
9.7	0.000448420000000449
9.75	0.000948119999998331
9.8	0.00114811999999964
9.85	0.00164848666666784
9.9	0.00184848666666615
9.95	0.00234952000000022
10	0.00254951999999919
10	0.00254951999999919
11	0.00254951999999919
