0	0.31127995545238
0.05	0.0182131799999841
0.1	0.0177517693333158
0.15	0.0175552133333357
0.2	0.0170932559999999
0.25	0.0168965800000196
0.3	0.0164340760000163
0.35	0.0162372800000155
0.4	0.0157742293333634
0.45	0.0155773133333188
0.5	0.0151137159999841
0.55	0.0149166800000025
0.6	0.0144525359999985
0.65	0.0142553800000131
0.7	0.0137906893333462
0.75	0.0135934133333242
0.8	0.0131281759999897
0.85	0.0129307800000049
0.9	0.0124649960000029
0.95	0.0122674800000153
1	0.0118011493333436
1.05	0.0116035133333297
1.1	0.0111366359999949
1.15	0.0109388799999919
1.2	0.0104714560000048
1.25	0.010273580000002
1.3	0.00980560933333408
1.35	0.00960761333333249
1.4	0.00913909599999796
1.45	0.00894098000000776
1.5	0.00847191600000619
1.55	0.00827367999999851
1.6	0.00780406933333122
1.65	0.00760571333333004
1.7	0.00713555599999616
1.75	0.00693708000000326
1.8	0.00646637600000233
1.85	0.00626778000000128
1.9	0.00579652933333374
1.95	0.00559781333332854
2	0.00512601599999529
2.05	0.00492718000000014
2.1	0.0044548360000003
2.15	0.00425587999999921
2.2	0.00378298933333232
2.25	0.00358391333333596
2.3	0.00311047600000203
2.35	0.00291128000000063
2.4	0.00243729600000053
2.45	0.00223797999999897
2.5	0.00176344933333272
2.55	0.00156401333333411
2.6	0.00108893600000037
2.65	0.000889379999999385
2.7	0.000413755999999488
2.75	0.000214080000000116
2.8	1.40800000001384e-05
2.85	1.44999999998063e-05
2.9	1.44999999998063e-05
2.95	1.50000000007644e-05
3	1.50000000007644e-05
3.05	1.54999999999461e-05
3.1	1.54999999999461e-05
3.15	0.000215919999999592
3.2	0.00041591999999957
3.25	0.000893953333333641
3.3	0.00109395333333318
3.35	0.00157265333333223
3.4	0.00177265333333221
3.45	0.00225201999999936
3.5	0.00245201999999978
3.55	0.0029320533333328
3.6	0.00313205333333277
3.65	0.00361275333333522
3.7	0.00381275333333519
3.75	0.00429412000000173
3.8	0.00449412000000171
3.85	0.00497615333332968
3.9	0.0051761533333301
3.95	0.0056588533333346
4	0.00585885333333414
4.05	0.00634222000000007
4.1	0.00654222000000004
4.15	0.00702625333333051
4.2	0.00722625333333005
4.25	0.00771095333333705
4.3	0.00791095333333747
4.35	0.00839631999999657
4.4	0.0085963199999961
4.45	0.0090823533333344
4.5	0.00928235333333749
4.55	0.00976905333333455
4.6	0.00996905333333453
4.65	0.0104564199999984
4.7	0.0106564199999979
4.75	0.0111444533333414
4.8	0.0113444533333418
4.85	0.0118331533333311
4.9	0.0120331533333311
4.95	0.0125225199999925
5	0.0127225199999925
5.05	0.0132125533333385
5.1	0.0134125533333385
5.15	0.0139032533333339
5.2	0.0141032533333343
5.25	0.0145946199999858
5.3	0.0147946199999862
5.35	0.0152866533333333
5.4	0.0154866533333333
5.45	0.0159793533333277
5.5	0.0161793533333285
5.55	0.0166727200000079
5.6	0.0168727200000101
5.65	0.0173667533333384
5.7	0.0175667533333383
5.75	0.018061453333321
5.8	0.018261453333321
5.85	0.0187568200000041
5.9	0.0189568200000041
5.95	0.0194528533333314
6	0.0196528533333322
6.05	0.0201495533333245
6.1	0.0203495533333244
6.15	0.0208469200000101
6.2	0.0210469200000101
6.25	0.0215449533333238
6.3	0.0217449533333234
6.35	0.0222436533333226
6.4	0.0224436533333368
6.45	0.0229430199999956
6.5	0.0231430199999962
6.55	0.0236430533333287
6.6	0.0238430533333289
6.65	0.0243437533333359
6.7	0.0245437533333361
6.75	0.025045119999989
6.8	0.0252451200000106
6.85	0.0257471533333273
6.9	0.0259471533333266
6.95	0.0264498533333344
7	0.0266498533333346
7.05	0.0271532200000018
7.1	0.0273532200000013
7.15	0.0278572533333248
7.2	0.0280572533333252
7.25	0.0285619533333243
7.3	0.0287619533333243
7.35	0.0292673199999998
7.4	0.0294673199999995
7.45	0.0299733533333271
7.5	0.0301733533333419
7.55	0.0306800533333222
7.6	0.0308800533333224
7.65	0.0313874199999982
7.7	0.0315874199999988
7.75	0.0320954533333309
7.8	0.0322954533333308
7.85	0.0328041533333336
7.9	0.0330041533333352
7.95	0.0335135199999967
8	0.0337135199999958
8.05	0.0342235533333308
8.1	0.0344235533333351
8.15	0.0349342533333278
8.2	0.035134253333329
8.25	0.0356456199999937
8.3	0.0358456200000054
8.35	0.0363576533333332
8.4	0.0365576533333334
8.45	0.0370703533333324
8.5	0.0372703533333345
8.55	0.0377837199999969
8.6	0.0379837200000014
8.65	0.0384977533333293
8.7	0.0386977533333352
8.75	0.0392124533333316
8.8	0.0394124533333342
8.85	0.0399278199999996
8.9	0.0401278200000004
8.95	0.0406438533333345
9	0.0408438533333326
9.05	0.041360553333333
9.1	0.0415605533333337
9.15	0.0420779199999964
9.2	0.0422779199999984
9.25	0.0427959533333239
9.3	0.0429959533333293
9.35	0.0435146533332961
9.4	0.0437146533333314
9.45	0.0442340199998205
9.5	0.0444340199999953
9.55	0.0449540533325313
9.6	0.0451540533333381
9.65	0.0456747533299676
9.7	0.0458747533333298
9.75	0.0463961199868256
9.8	0.0465961200000021
9.85	0.0471181532853758
9.9	0.0473181533333277
9.95	0.0478408531710727
10	0.0480408533333336
10	0.0480408533333336
11	0.0480408533333336
