0	-5.0395537348856
0.05	-4.63955373488653
0.1	-4.13955373488769
0.15	-4.07756961333335
0.2	-4.07611149600001
0.25	-4.07441698000004
0.3	-4.07245831600004
0.35	-4.07026368
0.4	-4.0678044693334
0.45	-4.06510971333332
0.5	-4.06214995599998
0.55	-4.05895508000001
0.6	-4.05549477600001
0.65	-4.05179978000003
0.7	-4.04783892933336
0.75	-4.04364381333332
0.8	-4.03918241599999
0.85	-4.03448718000002
0.9	-4.02952523600001
0.95	-4.02432988000004
1	-4.01886738933336
1.05	-4.01317191333333
1.1	-4.007208876
1.15	-4.00101327999999
1.2	-3.99454969600002
1.25	-3.98785398000001
1.3	-3.98088984933334
1.35	-3.97369401333334
1.4	-3.966229336
1.45	-3.95853338000002
1.5	-3.95056815600002
1.55	-3.94237208
1.6	-3.93390630933333
1.65	-3.92521011333333
1.7	-3.91624379599999
1.75	-3.90704748000001
1.8	-3.89758061600001
1.85	-3.88788418000001
1.9	-3.87791676933334
1.95	-3.86772021333332
2	-3.85725225599999
2.05	-3.84655558000001
2.1	-3.835587076
2.15	-3.82439028
2.2	-3.81292122933333
2.25	-3.80122431333335
2.3	-3.78925471600001
2.35	-3.77705768000001
2.4	-3.76458753600001
2.45	-3.75189038
2.5	-3.73891968933333
2.55	-3.72572241333334
2.6	-3.71225117600001
2.65	-3.69855378
2.7	-3.684581996
2.75	-3.67038448
2.8	-3.65591214933333
2.85	-3.64121451333334
2.9	-3.62624163600001
2.95	-3.61104388
3	-3.595570456
3.05	-3.57987258
3.1	-3.56389860933334
3.15	-3.54770061333334
3.2	-3.531226096
3.25	-3.51452798
3.3	-3.497552916
3.35	-3.48035468000001
3.4	-3.46287906933334
3.45	-3.44518071333334
3.5	-3.427204556
3.55	-3.40900608
3.6	-3.390529376
3.65	-3.37183078000001
3.7	-3.35285352933334
3.75	-3.33365481333334
3.8	-3.314177016
3.85	-3.29447818
3.9	-3.274499836
3.95	-3.25430088
4	-3.23382198933334
4.05	-3.21312291333334
4.1	-3.192143476
4.15	-3.17094428
4.2	-3.149464296
4.25	-3.12776498
4.3	-3.10578444933334
4.35	-3.08358501333333
4.4	-3.061103936
4.45	-3.03840438
4.5	-3.015422756
4.55	-2.99222308
4.6	-2.96902308
4.65	-2.9455235
4.7	-2.9220235
4.75	-2.898024
4.8	-2.874024
4.85	-2.8495245
4.9	-2.8250245
4.95	-2.80022492
5	-2.77542492
5.05	-2.75040895333333
5.1	-2.72510895333333
5.15	-2.69959365333333
5.2	-2.67379365333333
5.25	-2.64777902
5.3	-2.62147902
5.35	-2.59496505333333
5.4	-2.56816505333333
5.45	-2.54115175333333
5.5	-2.51385175333333
5.55	-2.48633912
5.6	-2.45853912
5.65	-2.43052715333334
5.7	-2.40222715333334
5.75	-2.37371585333333
5.8	-2.34491585333333
5.85	-2.31590522
5.9	-2.28660522
5.95	-2.25709525333333
6	-2.22729525333333
6.05	-2.19728595333333
6.1	-2.16698595333333
6.15	-2.13647732
6.2	-2.10567732000001
6.25	-2.07466935333333
6.3	-2.04336935333333
6.35	-2.01186205333333
6.4	-1.98006205333334
6.45	-1.94805542
6.5	-1.91575542
6.55	-1.88324945333333
6.6	-1.85044945333333
6.65	-1.81744415333333
6.7	-1.78414415333334
6.75	-1.75063952
6.8	-1.71683952000001
6.85	-1.68283555333333
6.9	-1.64853555333333
6.95	-1.61403225333333
7	-1.57923225333333
7.05	-1.54422962
7.1	-1.50892962
7.15	-1.47342765333333
7.2	-1.43762765333333
7.25	-1.40162635333333
7.3	-1.36532635333333
7.35	-1.32882572
7.4	-1.29202572
7.45	-1.25502575333334
7.5	-1.21772575333334
7.55	-1.18022645333333
7.6	-1.14242645333333
7.65	-1.10442782
7.7	-1.06612782
7.75	-1.02762985333333
7.8	-0.988829853333329
7.85	-0.949832553333332
7.9	-0.910532553333332
7.95	-0.871035919999995
8	-0.831235919999995
8.05	-0.791239953333331
8.1	-0.750939953333331
8.15	-0.710444653333328
8.2	-0.669644653333328
8.25	-0.628650019999996
8.3	-0.587350020000001
8.35	-0.54585605333333
8.4	-0.504056053333331
8.45	-0.462062753333331
8.5	-0.419762753333332
8.55	-0.377270119999997
8.6	-0.334470119999999
8.65	-0.29147815333333
8.7	-0.248178153333332
8.75	-0.204686853333331
8.8	-0.160886853333332
8.85	-0.116896219999998
8.9	-0.0725962199999984
8.95	-0.028106253333331
9	0.016693746666669
9.05	0.0616830466666689
9.1	0.106983046666669
9.15	0.152471680000003
9.2	0.198271680000003
9.25	0.244259646666671
9.3	0.290559646666671
9.35	0.337046946666669
9.4	0.383846946666669
9.45	0.430833580000002
9.5	0.478133580000004
9.55	0.525619546666672
9.6	0.573419546666665
9.65	0.62140484666667
9.7	0.66970484666667
9.75	0.718189480000003
9.8	0.766989479999999
9.85	0.815973446666671
9.9	0.865273446666671
9.95	0.914756746666673
10	0.964556746666667
10	0.964556746666667
11	1.96455674666667
