0	2.54133940597652
0.05	2.14173940597746
0.1	1.64223940597862
0.15	1.14323940597979
0.2	0.644239405980953
0.25	0.145739405982118
0.3	0.0458266626667116
0.35	0.0456351466666254
0.4	0.0451814826667514
0.45	0.0449898466666241
0.5	0.0445356359999538
0.55	0.0443438800000031
0.6	0.0438891226666636
0.65	0.04369724666671
0.7	0.0432419426667057
0.75	0.0430499466666383
0.8	0.0425940959999673
0.85	0.0424019800000144
0.9	0.0419455826666759
0.95	0.0417533466667201
1	0.041296402666712
1.05	0.0411040466666517
1.1	0.0406465559999805
1.15	0.0404540799999955
1.2	0.0399960426666857
1.25	0.0398034466666832
1.3	0.0393448626666717
1.35	0.0391521466666629
1.4	0.0386930159999914
1.45	0.0385001800000335
1.5	0.0380405026666959
1.55	0.0378475466666615
1.6	0.0373873226666572
1.65	0.0371942466666493
1.7	0.0367334759999784
1.75	0.0365402800000179
1.8	0.03607896266668
1.85	0.0358856466666722
1.9	0.0354237826666681
1.95	0.0352303466666362
2	0.0347679359999664
2.05	0.0345743800000036
2.1	0.0341114226666663
2.15	0.0339177466666594
2.2	0.0334542426666551
2.25	0.033260446666691
2.3	0.0327963960000202
2.35	0.0326024800000124
2.4	0.0321378826666749
2.45	0.0319438466666475
2.5	0.0314787026666443
2.55	0.0312845466666776
2.6	0.0308188560000073
2.65	0.0306245799999996
2.7	0.0301583426666627
2.75	0.0299639466666566
2.8	0.0294971626666536
2.85	0.0293026466666846
2.9	0.0288353160000145
2.95	0.0286406799999894
3	0.0281728026666532
3.05	0.0279780466666466
3.1	0.0275096226666793
3.15	0.027314746666673
3.2	0.0268457760000032
3.25	0.0266507799999975
3.3	0.0261812626666611
3.35	0.0259861466666895
3.4	0.0255160826666856
3.45	0.0253208466666628
3.5	0.024850235999994
3.55	0.0246548799999888
3.6	0.0241837226666526
3.65	0.0239882466666783
3.7	0.0235165426666755
3.75	0.0233209466666704
3.8	0.0228486960000009
3.85	0.0226529799999806
3.9	0.0221801826666455
3.95	0.0219843466666685
4	0.0215110026666663
4.05	0.0213150466666621
4.1	0.0208411559999933
4.15	0.0206450800000151
4.2	0.0201706426666788
4.25	0.0199744466666738
4.3	0.0194994626666722
4.35	0.0193031466666551
4.4	0.0188276159999865
4.45	0.0186311800000061
4.5	0.0181551026666704
4.55	0.0179585466666663
4.6	0.017481922666664
4.65	0.0172852466666606
4.7	0.0168080759999922
4.75	0.01661128000001
4.8	0.0161335626666745
4.85	0.0159366466666615
4.9	0.0154583826666594
4.95	0.0152613466666556
5	0.0147825360000069
5.05	0.0145853800000038
5.1	0.0141060226666689
5.15	0.0139087466666656
5.2	0.0134288426666642
5.25	0.0132314466666781
5.3	0.0127509960000096
5.35	0.012553479999998
5.4	0.0120724826666638
5.45	0.0118748466666609
5.5	0.0113933026666606
5.55	0.0111955466666722
5.6	0.0107134560000035
5.65	0.0105155800000021
5.7	0.0100329426666668
5.75	0.00983494666665896
5.8	0.00935176266665838
5.85	0.00915364666666729
5.9	0.00866991599999967
5.95	0.00847167999999821
6	0.00798740266666487
6.05	0.00778904666667213
6.1	0.00730422266667086
6.15	0.00710574666666908
6.2	0.0066203760000012
6.25	0.0064217799999966
6.3	0.00593586266666257
6.35	0.00573714666666891
6.4	0.00525068266666628
6.45	0.0050518466666678
6.5	0.00456483600000124
6.55	0.00436587999999838
6.6	0.00387832266666521
6.65	0.00367924666666641
6.7	0.00319114266666598
6.75	0.00299194666666791
6.8	0.00250329600000021
6.85	0.00230397999999932
6.9	0.00181478266666635
6.95	0.00161534666666618
7	0.00112560266666617
7.05	0.000926046666666958
7.1	0.00043575600000012
7.15	0.000236079999999639
7.2	3.60800000001049e-05
7.25	3.64999999997728e-05
7.3	3.64999999999949e-05
7.35	3.70000000002868e-05
7.4	3.70000000002868e-05
7.45	3.74999999994685e-05
7.5	3.74999999999126e-05
7.55	0.000237920000000225
7.6	0.000437920000000425
7.65	0.000930620000000104
7.7	0.00113062000000075
7.75	0.00162398666666697
7.8	0.00182398666666661
7.85	0.00231801999999948
7.9	0.00251801999999968
7.95	0.00301272000000019
8	0.00321271999999939
8.05	0.00370808666666678
8.1	0.00390808666666753
8.15	0.00440411999999901
8.2	0.00460412000000021
8.25	0.00510082000000045
8.3	0.00530082000000065
8.35	0.00579818666666709
8.4	0.00599818666666635
8.45	0.00649622000000039
8.5	0.00669621999999981
8.55	0.00719491999999966
8.6	0.00739492000000069
8.65	0.00789428666666719
8.7	0.00809428666666742
8.75	0.00859431999999941
8.8	0.00879431999999991
8.85	0.00929502000000064
8.9	0.00949502000000003
8.95	0.00999638666666785
9	0.010196386666666
9.05	0.0106984200000001
9.1	0.0108984200000004
9.15	0.0114011199999985
9.2	0.0116011199999996
9.25	0.0121044866666654
9.3	0.0123044866666654
9.35	0.0128085200000004
9.4	0.0130085199999993
9.45	0.0135132199999989
9.5	0.0137132199999971
9.55	0.0142185866666686
9.6	0.0144185866666685
9.65	0.0149246199999983
9.7	0.0151246199999989
9.75	0.015631319999999
9.8	0.0158313200000001
9.85	0.0163386866666662
9.9	0.0165386866666644
9.95	0.0170467200000006
10	0.0172467199999996
10	0.0172467199999996
11	0.0172467199999997
