0	1.13420439723541
0.05	0.734604397236345
0.1	0.235104397237511
0.15	0.0315720133333368
0.2	0.0311145360000005
0.25	0.0309203800000351
0.3	0.0304623560000303
0.35	0.0302680799999884
0.4	0.0298095093333908
0.45	0.029615113333306
0.5	0.0291559959999699
0.55	0.0289614800000031
0.6	0.0285018159999977
0.65	0.0283071800000281
0.7	0.0278469693333578
0.75	0.0276522133333152
0.8	0.0271914559999784
0.85	0.0269965800000094
0.9	0.0265352760000059
0.95	0.0263402800000332
1	0.0258784293333609
1.05	0.0256833133333236
1.1	0.0252209159999874
1.15	0.0250256799999864
1.2	0.0245627360000116
1.25	0.0243673800000055
1.3	0.0239038893333361
1.35	0.0237084133333312
1.4	0.0232443759999947
1.45	0.0230487800000203
1.5	0.0225841960000173
1.55	0.0223884799999969
1.6	0.0219233493333277
1.65	0.0217275133333232
1.7	0.0212618359999874
1.75	0.0210658800000103
1.8	0.0205996560000075
1.85	0.0204035800000031
1.9	0.0199368093333345
1.95	0.0197406133333162
2	0.0192732959999815
2.05	0.0190769800000017
2.1	0.0186091159999999
2.15	0.0184126799999964
2.2	0.0179442693333276
2.25	0.0177477133333461
2.3	0.0172787560000107
2.35	0.0170820800000064
2.4	0.0166125760000044
2.45	0.0164157799999902
2.5	0.0159457293333221
2.55	0.0157488133333388
2.6	0.0152782160000036
2.65	0.0150811799999997
2.7	0.0146100359999979
2.75	0.0144128799999952
2.8	0.0139411893333272
2.85	0.0137439133333417
2.9	0.0132716760000067
2.95	0.0130742799999957
3	0.0126014959999945
3.05	0.0124039799999909
3.1	0.0119306493333386
3.15	0.0117330133333358
3.2	0.0112591360000014
3.25	0.0110613799999992
3.3	0.0105869559999978
3.35	0.0103890800000093
3.4	0.0099141093333408
3.45	0.00971611333333122
3.5	0.00924059599999749
3.55	0.00904247999999619
3.6	0.00856641599999497
3.65	0.00836818000000417
3.7	0.0078915693333359
3.75	0.00769321333333517
3.8	0.0072160560000003
3.85	0.00701757999999408
3.9	0.00653987599999395
3.95	0.00634128000000045
4	0.00586302933333327
4.05	0.00566431333333295
4.1	0.00518551599999828
4.15	0.00498668000000357
4.2	0.00450733600000275
4.25	0.00430838000000122
4.3	0.00382848933333468
4.35	0.00362941333333167
4.4	0.00314897599999808
4.45	0.00294978000000068
4.5	0.00246879600000005
4.55	0.00226947999999938
4.6	0.00178794933333259
4.65	0.0015885133333331
4.7	0.00110643599999927
4.75	0.000906880000000054
4.8	0.000424256000000067
4.85	0.000224580000000696
4.9	2.45800000002738e-05
4.95	2.49999999999417e-05
5	2.49999999999417e-05
5.05	2.55000000000116e-05
5.1	2.55000000000116e-05
5.15	2.60000000005256e-05
5.2	2.60000000005256e-05
5.25	0.000226419999999727
5.3	0.000426420000000149
5.35	0.000911453333332979
5.4	0.00111145333333296
5.45	0.00159715333333255
5.5	0.00179715333333341
5.55	0.00228352000000154
5.6	0.00248352000000107
5.65	0.00297055333333418
5.7	0.00317055333333416
5.75	0.00365825333333092
5.8	0.0038582533333309
5.85	0.00434662000000063
5.9	0.00454662000000106
5.95	0.00503565333333267
6	0.00523565333333353
6.05	0.00572535333333057
6.1	0.00592535333333055
6.15	0.00641572000000279
6.2	0.00661572000000277
6.25	0.00710675333333066
6.3	0.00730675333333064
6.35	0.00779845333333462
6.4	0.0079984533333346
6.45	0.00849081999999801
6.5	0.00869081999999866
6.55	0.00918385333333149
6.6	0.00938385333333147
6.65	0.0098775533333344
6.7	0.0100775533333344
6.75	0.0105719199999972
6.8	0.0107719200000045
6.85	0.0112669533333309
6.9	0.0114669533333305
6.95	0.0119626533333337
7	0.0121626533333337
7.05	0.012659020000001
7.1	0.0128590200000009
7.15	0.0133560533333292
7.2	0.0135560533333294
7.25	0.0140537533333289
7.3	0.0142537533333291
7.35	0.0147521199999998
7.4	0.0149521199999996
7.45	0.015451153333337
7.5	0.0156511533333377
7.55	0.0161508533333279
7.6	0.0163508533333279
7.65	0.0168512199999991
7.7	0.0170512199999999
7.75	0.0175522533333321
7.8	0.0177522533333319
7.85	0.0182539533333339
7.9	0.0184539533333342
7.95	0.0189563199999984
8	0.0191563199999975
8.05	0.019659353333334
8.1	0.0198593533333346
8.15	0.0203630533333299
8.2	0.0205630533333312
8.25	0.0210674199999988
8.3	0.0212674200000029
8.35	0.0217724533333334
8.4	0.0219724533333336
8.45	0.0224781533333344
8.5	0.0226781533333338
8.55	0.0231845199999991
8.6	0.0233845200000011
8.65	0.0238915533333316
8.7	0.0240915533333342
8.75	0.0245992533333324
8.8	0.0247992533333338
8.85	0.0253076200000002
8.9	0.0255076200000002
8.95	0.0260166533333346
9	0.0262166533333327
9.05	0.0267263533333333
9.1	0.0269263533333337
9.15	0.0274367199999979
9.2	0.0276367199999989
9.25	0.028147753333331
9.3	0.0283477533333306
9.35	0.0288594533333332
9.4	0.029059453333332
9.45	0.029571819999998
9.5	0.0297718199999961
9.55	0.0302848533333309
9.6	0.0304848533333367
9.65	0.0309985533333306
9.7	0.0311985533333312
9.75	0.0317129199999965
9.8	0.0319129200000011
9.85	0.0324279533333308
9.9	0.032627953333329
9.95	0.033143653333329
10	0.0333436533333331
10	0.0333436533333331
11	0.0333436533333331
