0	-4.23022296969239
0.05	-4.06437751333333
0.1	-4.06341503599999
0.15	-4.06221788000001
0.2	-4.06075485600001
0.25	-4.05905758000002
0.3	-4.05709400933335
0.35	-4.05489661333336
0.4	-4.05243249600003
0.45	-4.04973498
0.5	-4.046770316
0.55	-4.04357268000001
0.6	-4.04010746933334
0.65	-4.03640971333335
0.7	-4.03244395600002
0.75	-4.02824608
0.8	-4.023779776
0.85	-4.01908178000001
0.9	-4.01411492933334
0.95	-4.00891681333335
1	-4.00344941600001
1.05	-3.99775118
1.1	-3.991783236
1.15	-3.98558488
1.2	-3.97911638933334
1.25	-3.97241791333334
1.3	-3.96544887600001
1.35	-3.95825028000001
1.4	-3.95078069600001
1.45	-3.94308198000001
1.5	-3.93511184933334
1.55	-3.92691301333334
1.6	-3.918442336
1.65	-3.90974338
1.7	-3.900772156
1.75	-3.89157308000001
1.8	-3.88210130933334
1.85	-3.87240211333334
1.9	-3.86242979600001
1.95	-3.85223048
2	-3.841757616
2.05	-3.83105818000001
2.1	-3.82008476933334
2.15	-3.80888521333334
2.2	-3.797411256
2.25	-3.78571158
2.3	-3.77401158
2.35	-3.762012
2.4	-3.750012
2.45	-3.7375125
2.5	-3.7250125
2.55	-3.712013
2.6	-3.699013
2.65	-3.68571342
2.7	-3.67241342
2.75	-3.65888978666667
2.8	-3.64508978666667
2.85	-3.63106682
2.9	-3.61676682
2.95	-3.60224452
3	-3.58744452
3.05	-3.57242288666667
3.1	-3.55712288666667
3.15	-3.54160192
3.2	-3.52580192
3.25	-3.50978162
3.3	-3.49348162
3.35	-3.47696198666667
3.4	-3.46016198666667
3.45	-3.44314302
3.5	-3.42584302
3.55	-3.40832472
3.6	-3.39052472
3.65	-3.37250708666667
3.7	-3.35420708666667
3.75	-3.33569012000001
3.8	-3.31689012000001
3.85	-3.29787382
3.9	-3.27857382
3.95	-3.25905818666667
4	-3.23925818666667
4.05	-3.21924322
4.1	-3.19894322
4.15	-3.17842892
4.2	-3.15762892
4.25	-3.13661528666667
4.3	-3.11531528666667
4.35	-3.09380232
4.4	-3.07200232
4.45	-3.04999002
4.5	-3.02769002000001
4.55	-3.00517838666667
4.6	-2.98237838666667
4.65	-2.95936742
4.7	-2.93606742
4.75	-2.91255712000001
4.8	-2.88875712000001
4.85	-2.86474748666666
4.9	-2.84044748666666
4.95	-2.81593851999999
5	-2.79113851999999
5.05	-2.76613022000001
5.1	-2.74083022000001
5.15	-2.71532258666667
5.2	-2.68952258666667
5.25	-2.66351561999998
5.3	-2.63721561999998
5.35	-2.61070932
5.4	-2.58390932
5.45	-2.55690368666666
5.5	-2.52960368666666
5.55	-2.50209872000001
5.6	-2.47429872000001
5.65	-2.44629442000001
5.7	-2.41799442000001
5.75	-2.38949078666665
5.8	-2.36069078666665
5.85	-2.33168782000001
5.9	-2.30238782000001
5.95	-2.27288552
6	-2.24308552
6.05	-2.21308388666666
6.1	-2.18278388666666
6.15	-2.15228292000001
6.2	-2.12148292000001
6.25	-2.09048261999999
6.3	-2.05918261999999
6.35	-2.02768298666665
6.4	-1.99588298666667
6.45	-1.96388402
6.5	-1.93158402
6.55	-1.89908572
6.6	-1.86628572
6.65	-1.83328808666667
6.7	-1.79998808666667
6.75	-1.76649111999999
6.8	-1.73269112000001
6.85	-1.69869481999999
6.9	-1.66439481999999
6.95	-1.62989918666667
7	-1.59509918666667
7.05	-1.56010422
7.1	-1.52480422
7.15	-1.48930991999999
7.2	-1.45350991999999
7.25	-1.41751628666666
7.3	-1.38121628666666
7.35	-1.34472332
7.4	-1.30792332
7.45	-1.27093101999999
7.5	-1.23363102000001
7.55	-1.19613938666665
7.6	-1.15833938666665
7.65	-1.12034842
7.7	-1.08204842
7.75	-1.04355811999999
7.8	-1.00475811999999
7.85	-0.965768486666664
7.9	-0.926468486666667
7.95	-0.886979519999993
8	-0.847179519999993
8.05	-0.807191219999994
8.1	-0.766891219999998
8.15	-0.726403586666658
8.2	-0.685603586666658
8.25	-0.64461661999999
8.3	-0.603316620000003
8.35	-0.561830319999996
8.4	-0.520030319999998
8.45	-0.478044686666663
8.5	-0.435744686666666
8.55	-0.393259719999995
8.6	-0.350459719999999
8.65	-0.307475419999994
8.7	-0.26417542
8.75	-0.220691786666664
8.8	-0.176891786666666
8.85	-0.132908819999997
8.9	-0.0886088199999986
8.95	-0.0441265199999955
9	0.000673480000002414
9.05	0.0456551133333467
9.1	0.0909551133333357
9.15	0.136436080000057
9.2	0.182236080000003
9.25	0.228216380000258
9.3	0.274516380000006
9.35	0.320996013334436
9.4	0.367796013333336
9.45	0.41477498000445
9.5	0.462074980000005
9.55	0.509553280016778
9.6	0.557353279999997
9.65	0.605330913392522
9.7	0.653630913333338
9.75	0.702107880194395
9.8	0.750907879999998
9.85	0.799884180594057
9.9	0.849184180000006
9.95	0.898659815021712
10	0.948459813333333
10	0.948459813333333
11	1.94845981333333
