0	0.00703191333332676
0.05	0.0068719133333266
0.1	0.00640687599999357
0.15	0.00620828000000095
0.2	0.00574269600000044
0.25	0.00554398000000678
0.3	0.00507784933333877
0.35	0.00487901333334229
0.4	0.00441233600000768
0.45	0.00421337999999594
0.5	0.0037461559999965
0.55	0.00354708000000148
0.6	0.00307930933333367
0.65	0.00288011333333493
0.7	0.00241179600000141
0.75	0.00221247999999807
0.8	0.00174361599999884
0.85	0.00154418000000156
0.9	0.00107476933333395
0.95	0.000875213333333846
1	0.000405256000000076
1.05	0.000205580000000261
1.1	5.58000000028258e-06
1.15	5.99999999995049e-06
1.2	5.99999999995049e-06
1.25	6.49999999957629e-06
1.3	6.4999999991322e-06
1.35	7.00000000053436e-06
1.4	7.00000000053436e-06
1.45	0.000207419999999736
1.5	0.000407420000000158
1.55	0.000879786666666327
1.6	0.0010797866666663
1.65	0.00155281999999968
1.7	0.0017528200000001
1.75	0.00222652000000112
1.8	0.0024265200000011
1.85	0.00290088666666799
1.9	0.00310088666666797
1.95	0.00357591999999718
2	0.0037759199999976
2.05	0.00425162000000068
2.1	0.0044516200000011
2.15	0.00492798666666694
2.2	0.00512798666666692
2.25	0.00560501999999774
2.3	0.00580501999999772
2.35	0.00628272000000329
2.4	0.00648272000000327
2.45	0.00696108666666362
2.5	0.00716108666666404
2.55	0.00764012000000358
2.6	0.00784012000000356
2.65	0.00831982000000053
2.7	0.00851982000000051
2.75	0.00900018666666513
2.8	0.00920018666666511
2.85	0.00968122000000715
2.9	0.00988122000000713
2.95	0.0103629199999982
3	0.0105629199999981
3.05	0.0110452866666604
3.1	0.0112452866666604
3.15	0.0117283200000045
3.2	0.0119283200000044
3.25	0.0124120200000006
3.3	0.0126120200000006
3.35	0.0130963866666542
3.4	0.0132963866666542
3.45	0.0137814199999995
3.5	0.0139814199999999
3.55	0.0144671199999955
3.6	0.0146671199999955
3.65	0.015153486666676
3.7	0.015353486666676
3.75	0.0158405200000051
3.8	0.0160405200000047
3.85	0.0165282199999881
3.9	0.0167282199999885
3.95	0.0172165866666707
4	0.0174165866666707
4.05	0.0179056199999992
4.1	0.0181056199999987
4.15	0.0185953199999918
4.2	0.0187953199999917
4.25	0.0192856866666764
4.3	0.0194856866666768
4.35	0.019976719999991
4.4	0.0201767199999905
4.45	0.0206684199999914
4.5	0.02086842000001
4.55	0.0213607866666696
4.6	0.0215607866666696
4.65	0.022053819999996
4.7	0.0222538199999955
4.75	0.0227475200000042
4.8	0.0229475200000171
4.85	0.0234418866666619
4.9	0.0236418866666614
4.95	0.0241369199999859
5	0.0243369199999859
5.05	0.0248326200000095
5.1	0.0250326200000095
5.15	0.0255289866666679
5.2	0.0257289866666679
5.25	0.0262260199999749
5.3	0.0264260199999753
5.35	0.0269237200000001
5.4	0.0271237199999996
5.45	0.0276220866666574
5.5	0.0278220866666579
5.55	0.0283211199999993
5.6	0.0285211200000171
5.65	0.0290208200000084
5.7	0.0292208200000079
5.75	0.029721186666646
5.8	0.029921186666646
5.85	0.0304222200000055
5.9	0.0306222200000072
5.95	0.0311239199999971
6	0.0313239199999975
6.05	0.0318262866666528
6.1	0.0320262866666527
6.15	0.0325293200000094
6.2	0.032729320000016
6.25	0.0332330199999853
6.3	0.0334330199999848
6.35	0.0339373866666461
6.4	0.0341373866666737
6.45	0.0346424199999933
6.5	0.0348424199999939
6.55	0.035348119999993
6.6	0.035548119999993
6.65	0.0360544866666705
6.7	0.0362544866666705
6.75	0.0367615199999825
6.8	0.0369615200000095
6.85	0.0374692199999911
6.9	0.0376692199999906
6.95	0.0381775866666685
7	0.0383775866666687
7.05	0.0388866199999958
7.1	0.0390866200000017
7.15	0.0395963199999878
7.2	0.0397963199999884
7.25	0.0403066866666539
7.3	0.0405066866666541
7.35	0.0410177199999995
7.4	0.0412177199999995
7.45	0.0417294199999851
7.5	0.041929420000012
7.55	0.0424417866666515
7.6	0.0426417866666515
7.65	0.0431548199999972
7.7	0.043354819999998
7.75	0.0438685199999953
7.8	0.0440685199999966
7.85	0.0445828866666634
7.9	0.0447828866666693
7.95	0.0452979199999953
8	0.0454979199999944
8.05	0.0460136199999936
8.1	0.0462136200000021
8.15	0.0467299866666594
8.2	0.0469299866666606
8.25	0.0474470199999896
8.3	0.0476470200000071
8.35	0.0481647199999948
8.4	0.0483647199999998
8.45	0.0488830866666606
8.5	0.0490830866666683
8.55	0.0496021199999759
8.6	0.0498021200000017
8.65	0.0503218199999007
8.7	0.0505218200000029
8.75	0.0510421866662527
8.8	0.0512421866666679
8.85	0.051763219998338
8.9	0.0519632200000005
8.95	0.0524849199937214
9	0.0526849199999993
9.05	0.0532072866444321
9.1	0.053407286666667
9.15	0.0539303199260697
9.2	0.0541303199999979
9.25	0.0546540197698937
9.3	0.0548540199999947
9.35	0.0553783859969563
9.4	0.0555783866666644
9.45	0.0561034181779883
9.5	0.0563034199999948
9.55	0.056829115367497
9.6	0.0570291200000058
9.65	0.0575554756424108
9.7	0.0577554866666623
9.75	0.058282495495528
9.8	0.0584825200000028
9.85	0.059010169101069
9.9	0.0592102199999927
9.95	0.0597384877900116
10	0.0599385866666673
10	0.0599385866666673
11	0.0599385866666673
