0	2.6886918533442
0.05	2.28909185334513
0.1	1.7895918533463
0.15	1.29059185334746
0.2	0.791591853348629
0.25	0.293091853349795
0.3	0.0471626893333799
0.35	0.0469714133332895
0.4	0.0465181760000819
0.45	0.0463267799999567
0.5	0.045872995999952
0.55	0.0456814800000034
0.6	0.0452271493333294
0.65	0.045035513333378
0.7	0.04458063600004
0.75	0.0443888799999703
0.8	0.0439334559999658
0.85	0.0437415800000149
0.9	0.0432856093333429
0.95	0.0430936133333883
1	0.0426370960000466
1.05	0.0424449799999849
1.1	0.0419879159999801
1.15	0.0417956799999963
1.2	0.0413380693333529
1.25	0.0411457133333517
1.3	0.0406875560000048
1.35	0.0404950799999959
1.4	0.0400363759999913
1.45	0.0398437800000346
1.5	0.0393845293333634
1.55	0.039191813333328
1.6	0.0387320159999902
1.65	0.0385391799999817
1.7	0.0380788359999773
1.75	0.0378858800000184
1.8	0.0374249893333474
1.85	0.037231913333339
1.9	0.0367704760000014
1.95	0.0365772799999684
2	0.0361152959999651
2.05	0.0359219800000035
2.1	0.0354594493333331
2.15	0.0352660133333256
2.2	0.0348029359999882
2.25	0.0346093800000253
2.3	0.0341457560000213
2.35	0.0339520800000126
2.4	0.033487909333342
2.45	0.0332941133333131
2.5	0.0328293959999764
2.55	0.0326354800000117
2.6	0.0321702160000075
2.65	0.0319761799999996
2.7	0.0315103693333292
2.75	0.0313162133333229
2.8	0.0308498559999864
2.85	0.030655580000019
2.9	0.030188676000015
2.95	0.0299942799999893
3	0.0295268293333191
3.05	0.0293323133333123
3.1	0.0288643160000133
3.15	0.0286696800000068
3.2	0.0282011360000034
3.25	0.0280063799999977
3.3	0.0275372893333272
3.35	0.0273424133333573
3.4	0.0268727760000198
3.45	0.026677779999996
3.5	0.0262075959999932
3.55	0.0260124799999879
3.6	0.0255417493333185
3.65	0.0253465133333455
3.7	0.0248752360000091
3.75	0.0246798800000039
3.8	0.0242080560000009
3.85	0.0240125799999795
3.9	0.0235402093333108
3.95	0.0233446133333355
4	0.0228716959999997
4.05	0.0226759799999954
4.1	0.0222025159999926
4.15	0.022006680000016
4.2	0.0215326693333462
4.25	0.0213367133333411
4.3	0.020862156000006
4.35	0.0206660799999878
4.4	0.0201909759999856
4.45	0.0199947800000064
4.5	0.0195191293333372
4.55	0.019322813333333
4.6	0.0188466159999976
4.65	0.0186501799999936
4.7	0.0181734359999917
4.75	0.0179768800000106
4.8	0.0174995893333421
4.85	0.0173029133333276
4.9	0.0168250759999919
4.95	0.0166282799999879
5	0.0161498960000075
5.05	0.0159529800000038
5.1	0.0154740493333358
5.15	0.015277013333332
5.2	0.0147975359999974
5.25	0.0146003800000125
5.3	0.0141203560000109
5.35	0.0139230799999979
5.4	0.0134425093333297
5.45	0.0132451133333267
5.5	0.0127639959999932
5.55	0.012566480000006
5.6	0.0120848160000042
5.65	0.0118871800000022
5.7	0.0114049693333333
5.75	0.0112072133333245
5.8	0.0107244559999904
5.85	0.010526580000001
5.9	0.0100432759999998
5.95	0.00984527999999774
6	0.00936142933333084
6.05	0.00916331333333975
6.1	0.00867891600000492
6.15	0.00848068000000257
6.2	0.00799573600000159
6.25	0.00779737999999597
6.3	0.00731188933332838
6.35	0.00711341333333593
6.4	0.00662737599999952
6.45	0.00642878000000136
6.5	0.00594219600000145
6.55	0.00574347999999802
6.6	0.0052563493333313
6.65	0.00505751333333304
6.7	0.00456983599999905
6.75	0.00437088000000152
6.8	0.00388265600000048
6.85	0.0036835799999988
6.9	0.00319480933333316
6.95	0.00299561333333265
7	0.00250629599999908
7.05	0.00230698000000018
7.1	0.00181711599999979
7.15	0.00161767999999984
7.2	0.00112726933333329
7.25	0.000927713333333191
7.3	0.000436756000000038
7.35	0.000237080000000001
7.4	3.70800000000227e-05
7.45	3.74999999994685e-05
7.5	3.74999999999126e-05
7.55	3.80000000004266e-05
7.6	3.80000000004266e-05
7.65	3.85000000000524e-05
7.7	3.85000000007185e-05
7.75	0.000238920000000586
7.8	0.00043892000000012
7.85	0.000932286666666227
7.9	0.00113228666666632
7.95	0.00162632000000029
8	0.00182631999999949
8.05	0.00232102000000012
8.1	0.00252102000000065
8.15	0.00301638666666582
8.2	0.00321638666666701
8.25	0.00371242000000027
8.3	0.00391242000000047
8.35	0.00440912000000049
8.4	0.00460911999999963
8.45	0.00510648666666697
8.5	0.00530648666666644
8.55	0.00580451999999965
8.6	0.00600452000000068
8.65	0.00650322000000042
8.7	0.00670322000000076
8.75	0.00720258666666604
8.8	0.00740258666666654
8.85	0.00790262000000068
8.9	0.00810262000000001
8.95	0.00860332000000117
9	0.00880331999999934
9.05	0.00930468666666678
9.1	0.00950468666666712
9.15	0.0100067199999985
9.2	0.0102067199999996
9.25	0.0107094199999989
9.3	0.0109094199999989
9.35	0.0114127866666671
9.4	0.011612786666666
9.45	0.0121168199999989
9.5	0.0123168199999971
9.55	0.0128215200000018
9.6	0.0130215200000018
9.65	0.013526886666665
9.7	0.0137268866666657
9.75	0.0142329199999988
9.8	0.01443292
9.85	0.0149396199999996
9.9	0.0151396199999979
9.95	0.0156469866666672
10	0.0158469866666662
10	0.0158469866666662
11	0.0158469866666662
