0	0.204514999072223
0.05	0.0155446466666529
0.1	0.0150823826666517
0.15	0.0148853466666683
0.2	0.0144225360000005
0.25	0.0142253800000169
0.3	0.0137620226666808
0.35	0.0135647466666873
0.4	0.0131008426666916
0.45	0.0129034466666544
0.5	0.0124389959999878
0.55	0.0122414800000019
0.6	0.011776482666666
0.65	0.0115788466666773
0.7	0.0111133026666765
0.75	0.0109155466666593
0.8	0.0104494559999919
0.85	0.0102515800000038
0.9	0.00978494266666896
0.95	0.00958694666667803
1	0.00911976266667436
1.05	0.00892164666666417
1.1	0.00845391599999612
1.15	0.00825567999999377
1.2	0.00778740266667022
1.25	0.00758904666666815
1.3	0.00712022266666734
1.35	0.00692174666666601
1.4	0.00645237599999859
1.45	0.00625378000000554
1.5	0.00578386266667108
1.55	0.00558514666666543
1.6	0.00511468266666526
1.65	0.00491584666666478
1.7	0.00444483599999757
1.75	0.00424588000000181
1.8	0.003774322666668
1.85	0.00357524666666764
1.9	0.00310314266666722
1.95	0.00290394666666405
2	0.00243129599999792
2.05	0.00223197999999991
2.1	0.00175878266666674
2.15	0.00155934666666679
2.2	0.00108560266666657
2.25	0.000886046666667362
2.3	0.00041175600000054
2.35	0.000212079999999837
2.4	1.20799999998589e-05
2.45	1.2500000000415e-05
2.5	1.2500000000859e-05
2.55	1.30000000000408e-05
2.6	1.30000000000408e-05
2.65	1.34999999992225e-05
2.7	1.34999999992225e-05
2.75	0.000213920000000201
2.8	0.000413920000000179
2.85	0.000890620000000286
2.9	0.00109062000000026
2.95	0.00156798666666669
3	0.00176798666666667
3.05	0.00224601999999852
3.1	0.00244601999999849
3.15	0.0029247200000011
3.2	0.00312472000000064
3.25	0.00360408666666734
3.3	0.00380408666666687
3.35	0.00428411999999634
3.4	0.00448411999999587
3.45	0.0049648199999992
3.5	0.00516481999999963
3.55	0.00564618666666528
3.6	0.00584618666666481
3.65	0.00632822000000388
3.7	0.00652822000000386
3.75	0.00701092000000259
3.8	0.00721092000000256
3.85	0.00769428666666139
3.9	0.00789428666666137
3.95	0.0083783200000016
4	0.00857832000000203
4.05	0.0090630199999997
4.1	0.00926301999999923
4.15	0.00974838666666233
4.2	0.00994838666666231
4.25	0.0104344200000051
4.3	0.0106344200000055
4.35	0.011121119999995
4.4	0.011321119999995
4.45	0.0118084866666655
4.5	0.0120084866666721
4.55	0.0124965200000013
4.6	0.0126965200000018
4.65	0.0131852199999978
4.7	0.0133852199999973
4.75	0.013874586666677
4.8	0.0140745866666774
4.85	0.0145646199999976
4.9	0.0147646199999971
4.95	0.0152553199999912
5	0.0154553199999912
5.05	0.0159466866666729
5.1	0.0161466866666728
5.15	0.0166387200000009
5.2	0.0168387200000009
5.25	0.0173314199999832
5.3	0.0175314199999836
5.35	0.0180247866666665
5.4	0.0182247866666665
5.45	0.0187188199999935
5.5	0.0189188199999943
5.55	0.0194135200000058
5.6	0.0196135200000116
5.65	0.0201088866666725
5.7	0.0203088866666721
5.75	0.020804919999986
5.8	0.0210049199999855
5.85	0.0215016200000049
5.9	0.0217016200000049
5.95	0.0221989866666648
6	0.0223989866666652
6.05	0.0228970199999901
6.1	0.02309701999999
6.15	0.0235957200000119
6.2	0.0237957200000114
6.25	0.024295086666656
6.3	0.0244950866666556
6.35	0.0249951199999869
6.4	0.025195120000004
6.45	0.025695819999995
6.5	0.0258958199999955
6.55	0.0263971866666615
6.6	0.0265971866666617
6.65	0.0270992200000031
6.7	0.0272992200000031
6.75	0.0278019199999875
6.8	0.0280019200000117
6.85	0.02850528666666
6.9	0.0287052866666595
6.95	0.0292093200000012
7	0.0294093200000014
7.05	0.0299140200000017
7.1	0.0301140200000014
7.15	0.0306193866666573
7.2	0.0308193866666577
7.25	0.0313254199999902
7.3	0.0315254199999901
7.35	0.0320321199999996
7.4	0.0322321199999995
7.45	0.0327394866666584
7.5	0.0329394866666761
7.55	0.033447519999988
7.6	0.0336475199999882
7.65	0.0341562199999978
7.7	0.0343562199999987
7.75	0.0348655866666641
7.8	0.035065586666664
7.85	0.0355756199999995
7.9	0.035775620000002
7.95	0.0362863199999963
8	0.0364863199999955
8.05	0.0369976866666633
8.1	0.0371976866666685
8.15	0.0377097199999941
8.2	0.0379097199999952
8.25	0.0384224199999927
8.3	0.0386224200000058
8.35	0.0391357866666664
8.4	0.0393357866666666
8.45	0.0398498199999987
8.5	0.0400498200000012
8.55	0.0405645199999965
8.6	0.0407645200000014
8.65	0.0412798866666622
8.7	0.0414798866666687
8.75	0.0419959199999981
8.8	0.0421959200000009
8.85	0.0427126199999994
8.9	0.0429126200000004
8.95	0.0434299866666669
9	0.043629986666666
9.05	0.0441480199999947
9.1	0.0443480200000004
9.15	0.044866719999971
9.2	0.0450667199999982
9.25	0.0455860866665355
9.3	0.0457860866666624
9.35	0.0463061199994214
9.4	0.046506119999998
9.45	0.0470268199975774
9.5	0.0472268199999952
9.55	0.0477481866572124
9.6	0.0479481866666717
9.65	0.0484702199654691
9.7	0.0486702199999963
9.75	0.0491929198825971
9.8	0.0493929200000024
9.85	0.0499162862953301
9.9	0.0501162866666607
9.95	0.0506403189078742
10	0.0508403200000005
10	0.0508403200000005
11	0.0508403200000005
