0	-7.36798235860654
0.05	-6.96798235860747
0.1	-6.46798235860864
0.15	-5.9679823586098
0.2	-5.46798235861097
0.25	-4.96798235861213
0.3	-4.4679823586133
0.35	-4.09431647999997
0.4	-4.09186494933341
0.45	-4.08917451333329
0.5	-4.08622243599995
0.55	-4.08303188000001
0.6	-4.079579256
0.65	-4.07588858000006
0.7	-4.07193540933339
0.75	-4.06774461333331
0.8	-4.06329089599997
0.85	-4.05859998000002
0.9	-4.05364571600002
0.95	-4.04845468000007
1	-4.04299986933339
1.05	-4.03730871333332
1.1	-4.03135335599998
1.15	-4.02516208000001
1.2	-4.01870617600003
1.25	-4.01201478000003
1.3	-4.00505832933335
1.35	-3.99786681333334
1.4	-3.990409816
1.45	-3.98271818000005
1.5	-3.97476063600004
1.55	-3.96656888
1.6	-3.95811078933333
1.65	-3.94941891333332
1.7	-3.94046027599998
1.75	-3.93126828000003
1.8	-3.92180909600002
1.85	-3.91211698000001
1.9	-3.90215724933334
1.95	-3.8919650133333
2	-3.88150473599997
2.05	-3.87081238000001
2.1	-3.859851556
2.15	-3.84865908
2.2	-3.83719770933332
2.25	-3.82550511333337
2.3	-3.81354319600003
2.35	-3.80135048000002
2.4	-3.78888801600001
2.45	-3.77619517999998
2.5	-3.76323216933331
2.55	-3.75003921333335
2.6	-3.73657565600001
2.65	-3.72288258
2.7	-3.708918476
2.75	-3.69472527999999
2.8	-3.68026062933332
2.85	-3.66556731333336
2.9	-3.65060211600002
2.95	-3.63540867999999
3	-3.61994293599999
3.05	-3.60424937999998
3.1	-3.58828308933335
3.15	-3.57208941333334
3.2	-3.55562257600001
3.25	-3.53892878
3.3	-3.521961396
3.35	-3.50476748000003
3.4	-3.48729954933336
3.45	-3.46960551333333
3.5	-3.45163703599999
3.55	-3.43344287999999
3.6	-3.41497385599998
3.65	-3.39627958000002
3.7	-3.37731000933335
3.75	-3.35811561333334
3.8	-3.338645496
3.85	-3.31895097999998
3.9	-3.29898031599997
3.95	-3.27878568000001
4	-3.25831446933334
4.05	-3.23761971333333
4.1	-3.21664795599999
4.15	-3.19545308000002
4.2	-3.17398077600002
4.25	-3.15228578000001
4.3	-3.13031292933334
4.35	-3.10811781333332
4.4	-3.08564441599998
4.45	-3.06294918000001
4.5	-3.03997523600001
4.55	-3.01677988
4.6	-2.99330538933333
4.65	-2.96960991333333
4.7	-2.94563487599999
4.75	-2.92143928000002
4.8	-2.89696369600001
4.85	-2.87226797999999
4.9	-2.84729184933332
4.95	-2.82209601333332
5	-2.79661933600001
5.05	-2.77092338000001
5.1	-2.744946156
5.15	-2.71875008
5.2	-2.69227230933333
5.25	-2.66557611333335
5.3	-2.63859779600002
5.35	-2.61140148
5.4	-2.583922616
5.45	-2.55622617999999
5.5	-2.52824676933332
5.55	-2.50005021333334
5.6	-2.47157025600001
5.65	-2.44287358
5.7	-2.413893076
5.75	-2.38469627999999
5.8	-2.35521522933332
5.85	-2.32551831333334
5.9	-2.295536716
5.95	-2.26533968
6	-2.234857536
6.05	-2.20416038000001
6.1	-2.17317768933334
6.15	-2.14198041333334
6.2	-2.110497176
6.25	-2.07879977999999
6.3	-2.04681599599999
6.35	-2.01461848
6.4	-1.98213414933333
6.45	-1.94943651333333
6.5	-1.916451636
6.55	-1.88325388
6.6	-1.849768456
6.65	-1.81607058
6.7	-1.78208460933333
6.75	-1.74788661333334
6.8	-1.713400096
6.85	-1.67870198
6.9	-1.643714916
6.95	-1.60851668
7	-1.57302906933333
7.05	-1.53733071333333
7.1	-1.501342556
7.15	-1.46514408
7.2	-1.428655376
7.25	-1.39195678
7.3	-1.35496752933333
7.35	-1.31776881333333
7.4	-1.280279016
7.45	-1.24258018
7.5	-1.204589836
7.55	-1.16639088
7.6	-1.12789998933333
7.65	-1.08920091333333
7.7	-1.050209476
7.75	-1.01101028
7.8	-0.971518295999998
7.85	-0.931818979999998
7.9	-0.89182644933333
7.95	-0.851627013333331
8	-0.811133935999998
8.05	-0.770434379999997
8.1	-0.729440755999997
8.15	-0.688241079999997
8.2	-0.647041079999997
8.25	-0.605541499999997
8.3	-0.564041499999997
8.35	-0.522041999999997
8.4	-0.480041999999997
8.45	-0.437542499999998
8.5	-0.395042499999998
8.55	-0.352242919999998
8.6	-0.309442919999998
8.65	-0.266438953333332
8.7	-0.223138953333332
8.75	-0.179635653333332
8.8	-0.135835653333332
8.85	-0.0918330199999982
8.9	-0.0475330199999981
8.95	-0.003031053333331
9	0.041768946666669
9.05	0.0867702466666688
9.1	0.132070246666669
9.15	0.177570880000002
9.2	0.223370880000002
9.25	0.269370846666669
9.3	0.315670846666669
9.35	0.362170146666668
9.4	0.408970146666668
9.45	0.455968780000001
9.5	0.503268780000002
9.55	0.550766746666667
9.6	0.598566746666667
9.65	0.646564046666668
9.7	0.694864046666668
9.75	0.74336068
9.8	0.79216068
9.85	0.841156646666668
9.9	0.890456646666668
9.95	0.939951946666667
10	0.989751946666667
10	0.989751946666667
11	1.98975194666667
