0	-4.10606415502103
0.05	-4.06037471333333
0.1	-4.059410956
0.15	-4.05821308000001
0.2	-4.05674877600001
0.25	-4.05505078000002
0.3	-4.05308592933335
0.35	-4.05088781333336
0.4	-4.04842241600002
0.45	-4.04572418
0.5	-4.042758236
0.55	-4.03955988000001
0.6	-4.03609338933334
0.65	-4.03239491333335
0.7	-4.02842787600001
0.75	-4.02422928
0.8	-4.019761696
0.85	-4.01506298000001
0.9	-4.01009484933334
0.95	-4.00489601333335
1	-3.99942733600001
1.05	-3.99372838000001
1.1	-3.98775915600001
1.15	-3.98156008
1.2	-3.97509030933334
1.25	-3.96839111333334
1.3	-3.96142079600001
1.35	-3.95422148000001
1.4	-3.94675061600001
1.45	-3.93905118000001
1.5	-3.93107976933334
1.55	-3.92288021333334
1.6	-3.91440825600001
1.65	-3.90570858000001
1.7	-3.89700858000001
1.75	-3.88800900000001
1.8	-3.87900900000001
1.85	-3.86950950000001
1.9	-3.86000950000001
1.95	-3.85001000000001
2	-3.84001000000001
2.05	-3.82971042
2.1	-3.81941042
2.15	-3.80888478666667
2.2	-3.79808478666667
2.25	-3.78705982
2.3	-3.77575982
2.35	-3.76423552000001
2.4	-3.75243552000001
2.45	-3.74041188666667
2.5	-3.72811188666667
2.55	-3.71558892000001
2.6	-3.70278892000001
2.65	-3.68976662
2.7	-3.67646662
2.75	-3.66294498666667
2.8	-3.64914498666667
2.85	-3.63512402000001
2.9	-3.62082402000001
2.95	-3.60630372
3	-3.59150372
3.05	-3.57648408666667
3.1	-3.56118408666667
3.15	-3.54566512000001
3.2	-3.52986512000001
3.25	-3.51384682
3.3	-3.49754682
3.35	-3.48102918666666
3.4	-3.46422918666666
3.45	-3.44721222
3.5	-3.42991222
3.55	-3.41239592
3.6	-3.39459592
3.65	-3.37658028666668
3.7	-3.35828028666668
3.75	-3.33976532000001
3.8	-3.32096532000001
3.85	-3.30195101999999
3.9	-3.28265101999999
3.95	-3.26313738666667
4	-3.24333738666667
4.05	-3.22332442
4.1	-3.20302442
4.15	-3.18251212
4.2	-3.16171212
4.25	-3.14070048666668
4.3	-3.11940048666668
4.35	-3.09788951999999
4.4	-3.07608952
4.45	-3.05407922
4.5	-3.03177922000001
4.55	-3.00926958666667
4.6	-2.98646958666667
4.65	-2.96346062
4.7	-2.94016062
4.75	-2.91665232000001
4.8	-2.89285232000002
4.85	-2.86884468666666
4.9	-2.84454468666666
4.95	-2.82003771999999
5	-2.79523771999999
5.05	-2.77023142000001
5.1	-2.74493142000001
5.15	-2.71942578666667
5.2	-2.69362578666667
5.25	-2.66762081999998
5.3	-2.64132081999998
5.35	-2.61481652
5.4	-2.58801652
5.45	-2.56101288666666
5.5	-2.53371288666666
5.55	-2.50620992
5.6	-2.47840992000002
5.65	-2.45040762000001
5.7	-2.42210762000001
5.75	-2.39360598666665
5.8	-2.36480598666665
5.85	-2.33580502000001
5.9	-2.30650502000001
5.95	-2.27700472
6	-2.24720472
6.05	-2.21720508666666
6.1	-2.18690508666666
6.15	-2.15640612000002
6.2	-2.12560612000002
6.25	-2.09460781999999
6.3	-2.06330781999999
6.35	-2.03181018666665
6.4	-2.00001018666667
6.45	-1.96801322
6.5	-1.93571321999999
6.55	-1.90321691999999
6.6	-1.87041691999999
6.65	-1.83742128666667
6.7	-1.80412128666667
6.75	-1.77062631999998
6.8	-1.73682632000001
6.85	-1.70283201999999
6.9	-1.66853201999999
6.95	-1.63403838666667
7	-1.59923838666667
7.05	-1.56424542
7.1	-1.52894542
7.15	-1.49345311999999
7.2	-1.45765311999999
7.25	-1.42166148666665
7.3	-1.38536148666665
7.35	-1.34887052
7.4	-1.31207052
7.45	-1.27508021999999
7.5	-1.23778022000001
7.55	-1.20029058666665
7.6	-1.16249058666665
7.65	-1.12450162
7.7	-1.08620162
7.75	-1.04771331999999
7.8	-1.00891331999999
7.85	-0.969925686666663
7.9	-0.930625686666667
7.95	-0.891138719999993
8	-0.851338719999993
8.05	-0.811352419999992
8.1	-0.771052419999999
8.15	-0.730566786666658
8.2	-0.689766786666658
8.25	-0.648781819999989
8.3	-0.607481820000004
8.35	-0.565997519999994
8.4	-0.524197519999998
8.45	-0.482213886666662
8.5	-0.439913886666666
8.55	-0.397430919999994
8.6	-0.354630919999999
8.65	-0.311648619999993
8.7	-0.26834862
8.75	-0.224866986666657
8.8	-0.181066986666666
8.85	-0.137086019999963
8.9	-0.0927860199999986
8.95	-0.0483057199998414
9	-0.00350571999999759
9.05	0.0414739133340077
9.1	0.0867739133333357
9.15	0.132252880002719
9.2	0.178052880000003
9.25	0.224031180010277
9.3	0.270331180000006
9.35	0.316808813369646
9.4	0.363608813333336
9.45	0.410585780119853
9.5	0.457885780000005
9.55	0.505362080369267
9.6	0.553162079999996
9.65	0.601137714397438
9.7	0.649437713333338
9.75	0.697912682857797
9.8	0.746712679999997
9.85	0.795686987151786
9.9	0.844986980000007
9.95	0.894460630011282
10	0.944260613333333
10	0.944260613333333
11	1.94426061333333
