0	0.37066053695894
0.05	0.0195474466666496
0.1	0.0190864626666478
0.15	0.0188901466666689
0.2	0.0184286160000005
0.25	0.0182321800000214
0.3	0.0177701026666846
0.35	0.0175735466666795
0.4	0.0171109226666992
0.45	0.0169142466666505
0.5	0.0164510759999832
0.55	0.0162542800000018
0.6	0.0157905626666652
0.65	0.0155936466666811
0.7	0.0151293826666805
0.75	0.0149323466666562
0.8	0.0144675359999882
0.85	0.0142703800000055
0.9	0.0138050226666699
0.95	0.0136077466666835
1	0.0131418426666792
1.05	0.0129444466666619
1.1	0.0124779959999941
1.15	0.0122804799999909
1.2	0.011813482666672
1.25	0.0116158466666691
1.3	0.0111483026666677
1.35	0.010950546666666
1.4	0.0104824559999979
1.45	0.0102845800000089
1.5	0.00981594266667418
1.55	0.00961794666666504
1.6	0.0091487626666642
1.65	0.0089506466666629
1.7	0.00848091599999545
1.75	0.00828268000000421
1.8	0.00781240266666927
1.85	0.0076140466666681
1.9	0.00714322266666745
1.95	0.00694474666666078
2	0.00647337599999398
2.05	0.00627478000000048
2.1	0.00580286266666663
2.15	0.00560414666666587
2.2	0.00513168266666542
2.25	0.00493284666667027
2.3	0.00445983600000277
2.35	0.00426088000000169
2.4	0.00378732266666759
2.45	0.00358824666666502
2.5	0.00311414266666477
2.55	0.00291494666666781
2.6	0.00244029600000051
2.65	0.00224097999999939
2.7	0.00176578266666594
2.75	0.00156634666666644
2.8	0.00109060266666638
2.85	0.000891046666667172
2.9	0.000414756000000072
2.95	0.000215080000000256
3	1.50800000002782e-05
3.05	1.54999999999461e-05
3.1	1.54999999999461e-05
3.15	1.59999999995719e-05
3.2	1.59999999995719e-05
3.25	1.650000000053e-05
3.3	1.65000000000859e-05
3.35	0.000216920000000176
3.4	0.000416920000000154
3.45	0.000895619999999209
3.5	0.00109561999999963
3.55	0.00157498666666678
3.6	0.00177498666666631
3.65	0.00225502000000111
3.7	0.00245502000000108
3.75	0.00293572000000131
3.8	0.00313572000000129
3.85	0.00361708666666383
3.9	0.00381708666666425
3.95	0.00429912000000066
4	0.00449912000000063
4.05	0.00498182000000069
4.1	0.00518181999999978
4.15	0.00566518666666438
4.2	0.00586518666666391
4.25	0.00634922000000282
4.3	0.00654922000000369
4.35	0.00703391999999736
4.4	0.0072339199999969
4.45	0.00771928666666888
4.5	0.00791928666667019
4.55	0.00840532000000094
4.6	0.00860532000000136
4.65	0.00909201999999842
4.7	0.0092920199999984
4.75	0.00977938666667377
4.8	0.00997938666667419
4.85	0.0104674199999981
4.9	0.0106674199999981
4.95	0.0111561199999932
5	0.0113561199999932
5.05	0.0118454866666715
5.1	0.012045486666671
5.15	0.0125355200000006
5.2	0.0127355200000006
5.25	0.0132262199999871
5.3	0.0134262199999875
5.35	0.0139175866666665
5.4	0.0141175866666665
5.45	0.014609619999995
5.5	0.0148096199999959
5.55	0.0153023200000089
5.6	0.0155023200000093
5.65	0.0159956866666717
5.7	0.0161956866666713
5.75	0.0166897199999885
5.8	0.0168897199999885
5.85	0.017384420000004
5.9	0.0175844200000039
5.95	0.0180797866666649
6	0.0182797866666657
6.05	0.0187758199999917
6.1	0.0189758199999916
6.15	0.0194725200000097
6.2	0.0196725200000092
6.25	0.020169886666658
6.3	0.0203698866666575
6.35	0.0208679199999904
6.4	0.0210679200000032
6.45	0.0215666199999958
6.5	0.0217666199999964
6.55	0.0222659866666624
6.6	0.0224659866666623
6.65	0.0229660200000026
6.7	0.0231660200000026
6.75	0.0236667199999898
6.8	0.02386672000001
6.85	0.0243680866666611
6.9	0.0245680866666604
6.95	0.0250701200000012
7	0.0252701200000012
7.05	0.0257728200000016
7.1	0.0259728200000013
7.15	0.0264761866666585
7.2	0.0266761866666589
7.25	0.0271802199999915
7.3	0.0273802199999915
7.35	0.0278849199999998
7.4	0.0280849199999995
7.45	0.0285902866666614
7.5	0.0287902866666749
7.55	0.0292963199999896
7.6	0.0294963199999896
7.65	0.0300030199999981
7.7	0.030203019999999
7.75	0.0307103866666643
7.8	0.0309103866666642
7.85	0.0314184200000007
7.9	0.0316184200000017
7.95	0.0321271199999968
8	0.0323271199999959
8.05	0.0328364866666646
8.1	0.0330364866666685
8.15	0.0335465199999946
8.2	0.033746519999996
8.25	0.0342572199999942
8.3	0.0344572200000051
8.35	0.0349685866666665
8.4	0.0351685866666668
8.45	0.0356806199999993
8.5	0.0358806200000011
8.55	0.0363933199999971
8.6	0.0365933200000014
8.65	0.0371066866666628
8.7	0.0373066866666684
8.75	0.0378207199999983
8.8	0.0380207200000008
8.85	0.0385354199999997
8.9	0.0387354200000004
8.95	0.0392507866666678
9	0.039450786666666
9.05	0.0399668199999999
9.1	0.0401668200000004
9.15	0.0406835199999973
9.2	0.0408835199999985
9.25	0.0414008866666628
9.3	0.0416008866666627
9.35	0.0421189199999912
9.4	0.0423189199999982
9.45	0.042837619999955
9.5	0.0430376199999954
9.55	0.0435569866664552
9.6	0.0437569866666714
9.65	0.044277019999055
9.7	0.0444770199999965
9.75	0.0449977199960284
9.8	0.045197720000002
9.85	0.0457190866511368
9.9	0.0459190866666611
9.95	0.0464411199435383
10	0.0466411200000002
10	0.0466411200000002
11	0.0466411200000003
