0	1.99192347312021
0.05	1.59232347312114
0.1	1.09282347312231
0.15	0.593823473123472
0.2	0.0948234731246371
0.25	0.0409373800000461
0.3	0.0404825560000397
0.35	0.040290079999969
0.4	0.0398347093334097
0.45	0.0396421133332963
0.5	0.0391861959999593
0.55	0.0389934800000038
0.6	0.0385370159999976
0.65	0.0383441800000384
0.7	0.0378871693333673
0.75	0.0376942133333085
0.8	0.0372366559999708
0.85	0.0370435800000122
0.9	0.0365854760000079
0.95	0.0363922800000465
1	0.0359336293333725
1.05	0.0357403133333207
1.1	0.0352811159999828
1.15	0.0350876799999922
1.2	0.0346279360000166
1.25	0.0344343800000084
1.3	0.0339740893333373
1.35	0.0337804133333299
1.4	0.0333195759999931
1.45	0.0331257800000291
1.5	0.0326643960000248
1.55	0.0324704799999953
1.6	0.0320085493333253
1.65	0.0318145133333183
1.7	0.0313520359999817
1.75	0.0311578800000154
1.8	0.0306948560000113
1.85	0.0305005800000049
1.9	0.0300370093333346
1.95	0.0298426133333076
2	0.0293784959999717
2.05	0.0291839800000027
2.1	0.0287193159999997
2.15	0.0285246799999936
2.2	0.0280594693333236
2.25	0.0278647133333538
2.3	0.0273989560000167
2.35	0.0272040800000104
2.4	0.0267377760000072
2.45	0.0265427799999842
2.5	0.0260759293333148
2.55	0.0258808133333424
2.6	0.0254134160000059
2.65	0.0252181799999995
2.7	0.0247502359999969
2.75	0.0245548799999917
2.8	0.0240863893333225
2.85	0.0238909133333483
2.9	0.0234218760000116
2.95	0.0232262799999918
3	0.022756695999989
3.05	0.0225609799999837
3.1	0.0220908493333432
3.15	0.0218950133333382
3.2	0.021424336000003
3.25	0.0212283799999984
3.3	0.0207571559999953
3.35	0.020561080000018
3.4	0.0200893093333483
3.45	0.01989311333333
3.5	0.0194207959999955
3.55	0.0192244799999912
3.6	0.0187516159999892
3.65	0.0185551800000088
3.7	0.0180817693333397
3.75	0.0178852133333365
3.8	0.0174112560000008
3.85	0.0172145799999854
3.9	0.0167400759999841
3.95	0.0165432800000014
4	0.016068229333333
4.05	0.0158713133333306
4.1	0.0153957159999947
4.15	0.0151986800000112
4.2	0.0147225360000087
4.25	0.0145253800000051
4.3	0.0140486893333374
4.35	0.0138514133333252
4.4	0.0133741759999904
4.45	0.0131767800000042
4.5	0.0126989960000028
4.55	0.0125014799999992
4.6	0.0120231493333316
4.65	0.0118255133333296
4.7	0.0113466359999945
4.75	0.0111488800000066
4.8	0.0106694560000049
4.85	0.0104715799999968
4.9	0.00999160933332899
4.95	0.00979361333332651
5	0.00931309600000407
5.05	0.00911498000000233
5.1	0.00863391600000174
5.15	0.00843567999999939
5.2	0.0079540693333322
5.25	0.00775571333333991
5.3	0.00727355600000568
5.35	0.00707507999999857
5.4	0.00659237599999862
5.45	0.00639377999999668
5.5	0.00591052933333014
5.55	0.00571181333333604
5.6	0.00522801600000156
5.65	0.00502918000000063
5.7	0.004544836
5.75	0.00434587999999669
5.8	0.00386098933333034
5.85	0.00366191333333354
5.9	0.00317647599999971
5.95	0.00297727999999964
6	0.00249129599999964
6.05	0.00229198000000164
6.1	0.0018054493333346
6.15	0.00160601333333377
6.2	0.00111893599999968
6.25	0.000919380000000025
6.3	0.000431756000000227
6.35	0.000232079999999968
6.4	3.20799999997678e-05
6.45	3.24999999996578e-05
6.5	3.25000000001019e-05
6.55	3.29999999999497e-05
6.6	3.30000000003938e-05
6.65	3.35000000000196e-05
6.7	3.35000000000196e-05
6.75	0.000233920000000776
6.8	0.00043392000000031
6.85	0.000923953333333394
6.9	0.00112395333333293
6.95	0.00161465333333299
7	0.00181465333333297
7.05	0.00230602000000069
7.1	0.00250602000000044
7.15	0.00299805333333225
7.2	0.00319805333333267
7.25	0.00369075333333235
7.3	0.00389075333333255
7.35	0.00438411999999988
7.4	0.00458411999999986
7.45	0.00507815333333417
7.5	0.00527815333333459
7.55	0.00577285333333144
7.6	0.00597285333333164
7.65	0.00646821999999969
7.7	0.00666822000000034
7.75	0.00716425333333293
7.8	0.00736425333333268
7.85	0.00786095333333325
7.9	0.00806095333333356
7.95	0.00855831999999956
8	0.00875831999999865
8.05	0.00925635333333363
8.1	0.00945635333333428
8.15	0.00995505333333147
8.2	0.0101550533333327
8.25	0.0106544200000014
8.3	0.0108544200000015
8.35	0.0113544533333336
8.4	0.0115544533333334
8.45	0.012055153333334
8.5	0.0122551533333334
8.55	0.0127565199999997
8.6	0.0129565200000009
8.65	0.0134585533333333
8.7	0.0136585533333342
8.75	0.0141612533333329
8.8	0.0143612533333335
8.85	0.0148646200000005
8.9	0.0150646200000001
8.95	0.0155686533333345
9	0.0157686533333327
9.05	0.0162733533333335
9.1	0.0164733533333338
9.15	0.0169787199999983
9.2	0.0171787199999993
9.25	0.0176847533333316
9.3	0.0178847533333316
9.35	0.0183914533333335
9.4	0.0185914533333323
9.45	0.0190988199999984
9.5	0.0192988199999965
9.55	0.0198068533333354
9.6	0.0200068533333359
9.65	0.0205155533333313
9.7	0.020715553333332
9.75	0.0212249199999994
9.8	0.0214249200000007
9.85	0.0219349533333323
9.9	0.0221349533333305
9.95	0.0226456533333325
10	0.022845653333333
10	0.022845653333333
11	0.022845653333333
