0	2.61451578771732
0.05	2.21491578771825
0.1	1.71541578771942
0.15	1.21641578772058
0.2	0.717415787721749
0.25	0.218915787722914
0.3	0.0464946760000453
0.35	0.0463032799999574
0.4	0.0458498293334166
0.45	0.0456583133332904
0.5	0.0452043159999533
0.55	0.0450126800000037
0.6	0.0445581359999965
0.65	0.044366380000044
0.7	0.0439112893333728
0.75	0.0437194133333039
0.8	0.043263775999967
0.85	0.0430717800000151
0.9	0.042615596000009
0.95	0.0424234800000542
1	0.0419667493333793
1.05	0.0417745133333183
1.1	0.0413172359999803
1.15	0.0411248799999955
1.2	0.0406670560000189
1.25	0.0404745800000175
1.3	0.0400162093333383
1.35	0.0398236133333296
1.4	0.0393646959999914
1.45	0.0391719800000341
1.5	0.0387125160000297
1.55	0.0385196799999945
1.6	0.0380596693333239
1.65	0.0378667133333157
1.7	0.0374061559999781
1.75	0.0372130800000181
1.8	0.0367519760000135
1.85	0.0365587800000053
1.9	0.036097129333335
1.95	0.0359038133333023
2	0.0354416159999658
2.05	0.0352481800000035
2.1	0.0347854359999995
2.15	0.0345918799999922
2.2	0.0341285893333216
2.25	0.0339349133333582
2.3	0.0334710760000205
2.35	0.0332772800000125
2.4	0.0328128960000087
2.45	0.0326189799999805
2.5	0.0321540493333106
2.55	0.0319600133333444
2.6	0.0314945360000074
2.65	0.0313003799999998
2.7	0.0308343559999962
2.75	0.0306400799999897
2.8	0.03017350933332
2.85	0.029979113333352
2.9	0.0295119960000148
2.95	0.0293174799999893
3	0.0288498159999864
3.05	0.0286551799999795
3.1	0.0281869693333463
3.15	0.0279922133333397
3.2	0.0275234560000031
3.25	0.0273285799999976
3.3	0.0268592759999944
3.35	0.0266642800000234
3.4	0.0261944293333527
3.45	0.0259993133333296
3.5	0.0255289159999936
3.55	0.0253336799999886
3.6	0.0248627359999856
3.65	0.0246673800000119
3.7	0.0241958893333423
3.75	0.0240004133333369
3.8	0.0235283760000007
3.85	0.0233327799999801
3.9	0.0228601959999781
3.95	0.0226644800000022
4	0.0221913493333332
4.05	0.0219955133333287
4.1	0.0215218359999931
4.15	0.0213258800000156
4.2	0.0208516560000125
4.25	0.0206555800000077
4.3	0.0201808093333389
4.35	0.0199846133333215
4.4	0.0195092959999861
4.45	0.0193129800000063
4.5	0.0188371160000038
4.55	0.0186406799999994
4.6	0.0181642693333308
4.65	0.0179677133333271
4.7	0.0174907559999919
4.75	0.0172940800000103
4.8	0.0168165760000081
4.85	0.0166197799999948
4.9	0.0161417293333259
4.95	0.0159448133333218
5	0.0154662160000072
5.05	0.0152691800000038
5.1	0.0147900360000026
5.15	0.0145928799999986
5.2	0.0141131893333308
5.25	0.0139159133333453
5.3	0.0134356760000105
5.35	0.0132382799999982
5.4	0.0127574959999968
5.45	0.012559979999994
5.5	0.0120786493333269
5.55	0.0118810133333391
5.6	0.0113991360000036
5.65	0.0112013800000019
5.7	0.0107189559999998
5.75	0.0105210799999917
5.8	0.0100381093333244
5.85	0.0098401133333339
5.9	0.00935659599999994
5.95	0.00915847999999819
6	0.00867441599999763
6.05	0.00847618000000594
6.1	0.00799156933333789
6.15	0.00779321333333582
6.2	0.00730805600000117
6.25	0.00710957999999628
6.3	0.00662387599999548
6.35	0.00642528000000242
6.4	0.00593902933333301
6.45	0.00574031333333469
6.5	0.00525351600000135
6.55	0.0050546799999982
6.6	0.00456733599999826
6.65	0.00436837999999984
6.7	0.0038804893333324
6.75	0.00368141333333472
6.8	0.00319297600000046
6.85	0.00299377999999906
6.9	0.00250479599999975
6.95	0.0023054799999993
7	0.00181594933333251
7.05	0.00161651333333346
7.1	0.00112643600000006
7.15	0.000926879999999741
7.2	0.000436255999999968
7.25	0.000236579999999931
7.3	3.65799999999528e-05
7.35	3.70000000002868e-05
7.4	3.70000000002868e-05
7.45	3.74999999994685e-05
7.5	3.74999999999126e-05
7.55	3.80000000004266e-05
7.6	3.80000000004266e-05
7.65	0.000238420000000295
7.7	0.000438420000000717
7.75	0.000931453333333776
7.8	0.00113145333333331
7.85	0.0016251533333328
7.9	0.001825153333333
7.95	0.00231952000000024
8	0.00251951999999944
8.05	0.00301455333333345
8.1	0.00321455333333409
8.15	0.00371025333333241
8.2	0.00391025333333361
8.25	0.00440662000000036
8.3	0.00460662000000056
8.35	0.00510365333333374
8.4	0.00530365333333299
8.45	0.00580135333333365
8.5	0.00600135333333313
8.55	0.00649971999999965
8.6	0.00669972000000069
8.65	0.00719875333333381
8.7	0.00739875333333409
8.75	0.00789845333333272
8.8	0.00809845333333323
8.85	0.00859882000000066
8.9	0.00879882000000002
8.95	0.00929985333333451
9	0.00949985333333267
9.05	0.0100015533333335
9.1	0.0102015533333338
9.15	0.0107039199999985
9.2	0.0109039199999996
9.25	0.0114069533333321
9.3	0.0116069533333322
9.35	0.0121106533333337
9.4	0.0123106533333327
9.45	0.0128150199999989
9.5	0.0130150199999971
9.55	0.0135200533333352
9.6	0.0137200533333351
9.65	0.0142257533333316
9.7	0.0144257533333323
9.75	0.0149321199999989
9.8	0.0151321200000001
9.85	0.0156391533333329
9.9	0.0158391533333312
9.95	0.0163468533333339
10	0.0165468533333329
10	0.0165468533333329
11	0.0165468533333328
