0	-4.05893388278216
0.05	-4.05837331333333
0.1	-4.057408916
0.15	-4.05621068000001
0.2	-4.05474573600001
0.25	-4.05304738000002
0.3	-4.05108188933335
0.35	-4.04888341333336
0.4	-4.04641737600002
0.45	-4.04371878
0.5	-4.040752196
0.55	-4.03755348000001
0.6	-4.03408634933334
0.65	-4.03038751333334
0.7	-4.02641983600001
0.75	-4.02222088
0.8	-4.017752656
0.85	-4.01305358000001
0.9	-4.00808480933334
0.95	-4.00288561333334
1	-3.99741629600001
1.05	-3.99171698000001
1.1	-3.98574711600001
1.15	-3.97954768000001
1.2	-3.97307726933334
1.25	-3.96637771333334
1.3	-3.95940675600001
1.35	-3.95220708000001
1.4	-3.94500708000001
1.45	-3.93750750000001
1.5	-3.93000750000001
1.55	-3.92200800000001
1.6	-3.91400800000001
1.65	-3.90550850000001
1.7	-3.89700850000001
1.75	-3.88820892000001
1.8	-3.87940892000001
1.85	-3.87038228666667
1.9	-3.86108228666667
1.95	-3.85155632
2	-3.84175632
2.05	-3.83173102000001
2.1	-3.82143102000001
2.15	-3.81090638666667
2.2	-3.80010638666667
2.25	-3.78908242
2.3	-3.77778242
2.35	-3.76625912000001
2.4	-3.75445912000001
2.45	-3.74243648666667
2.5	-3.73013648666667
2.55	-3.71761452000001
2.6	-3.70481452000001
2.65	-3.69179322
2.7	-3.67849322
2.75	-3.66497258666667
2.8	-3.65117258666667
2.85	-3.63715262000001
2.9	-3.62285262000001
2.95	-3.60833332
3	-3.59353332
3.05	-3.57851468666667
3.1	-3.56321468666667
3.15	-3.54769672000001
3.2	-3.53189672000001
3.25	-3.51587942
3.3	-3.49957942
3.35	-3.48306278666666
3.4	-3.46626278666666
3.45	-3.44924682
3.5	-3.43194682
3.55	-3.41443152
3.6	-3.39663152
3.65	-3.37861688666668
3.7	-3.36031688666668
3.75	-3.34180292000001
3.8	-3.32300292000001
3.85	-3.30398961999999
3.9	-3.28468961999999
3.95	-3.26517698666667
4	-3.24537698666667
4.05	-3.22536502
4.1	-3.20506502
4.15	-3.18455371999999
4.2	-3.16375371999999
4.25	-3.14274308666668
4.3	-3.12144308666668
4.35	-3.09993311999999
4.4	-3.07813311999999
4.45	-3.05612382
4.5	-3.03382382000001
4.55	-3.01131518666667
4.6	-2.98851518666667
4.65	-2.96550722
4.7	-2.94220722
4.75	-2.91869992000001
4.8	-2.89489992000002
4.85	-2.87089328666666
4.9	-2.84659328666666
4.95	-2.82208731999999
5	-2.79728731999999
5.05	-2.77228202000001
5.1	-2.74698202000001
5.15	-2.72147738666667
5.2	-2.69567738666667
5.25	-2.66967341999998
5.3	-2.64337341999998
5.35	-2.61687012
5.4	-2.59007012
5.45	-2.56306748666666
5.5	-2.53576748666666
5.55	-2.50826552
5.6	-2.48046552000002
5.65	-2.45246422000001
5.7	-2.42416422000001
5.75	-2.39566358666665
5.8	-2.36686358666665
5.85	-2.33786362000001
5.9	-2.30856362000001
5.95	-2.27906432
6	-2.24926432
6.05	-2.21926568666665
6.1	-2.18896568666665
6.15	-2.15846772000001
6.2	-2.12766772000002
6.25	-2.09667041999999
6.3	-2.06537041999999
6.35	-2.03387378666665
6.4	-2.00207378666667
6.45	-1.97007781999999
6.5	-1.93777781999999
6.55	-1.90528251999999
6.6	-1.87248251999999
6.65	-1.83948788666667
6.7	-1.80618788666667
6.75	-1.77269391999998
6.8	-1.73889392000001
6.85	-1.70490061999999
6.9	-1.67060061999999
6.95	-1.63610798666667
7	-1.60130798666667
7.05	-1.56631602
7.1	-1.53101602
7.15	-1.49552471999999
7.2	-1.45972471999999
7.25	-1.42373408666665
7.3	-1.38743408666665
7.35	-1.35094412
7.4	-1.31414412
7.45	-1.27715481999999
7.5	-1.23985482000001
7.55	-1.20236618666665
7.6	-1.16456618666665
7.65	-1.12657822
7.7	-1.08827822
7.75	-1.04979091999999
7.8	-1.01099091999999
7.85	-0.972004286666662
7.9	-0.932704286666667
7.95	-0.893218319999993
8	-0.853418319999993
8.05	-0.813433019999992
8.1	-0.773133019999999
8.15	-0.732648386666658
8.2	-0.691848386666658
8.25	-0.650864419999988
8.3	-0.609564420000004
8.35	-0.568081119999993
8.4	-0.526281119999998
8.45	-0.484298486666662
8.5	-0.441998486666666
8.55	-0.399516519999993
8.6	-0.356716519999999
8.65	-0.313735219999983
8.7	-0.27043522
8.75	-0.226954586666606
8.8	-0.183154586666666
8.85	-0.139174619999741
8.9	-0.0948746199999986
8.95	-0.0503953199989312
9	-0.0055953199999976
9.05	0.0393833133374935
9.1	0.0846833133333357
9.15	0.130161280015229
9.2	0.175961280000004
9.25	0.22193858005219
9.3	0.268238580000006
9.35	0.314715213500519
9.4	0.361515213333336
9.45	0.408491180500375
9.5	0.455791180000005
9.55	0.503266481398603
9.6	0.551066479999996
9.65	0.599041116990418
9.7	0.647341113333339
9.75	0.695815088920399
9.8	0.744615079999997
9.85	0.793588400299865
9.9	0.842888380000007
9.95	0.892361056447769
10	0.942161013333333
10	0.942161013333333
11	1.94216101333333
