0	2.46916270812181
0.05	2.06956270812274
0.1	1.5700627081239
0.15	1.07106270812507
0.2	0.572062708126235
0.25	0.0735627081274002
0.3	0.0451586493333771
0.35	0.0449670133332933
0.4	0.0445131360000861
0.45	0.0443213799999587
0.5	0.0438669559999543
0.55	0.0436750800000034
0.6	0.0432201093333306
0.65	0.0430281133333761
0.7	0.0425725960000385
0.75	0.0423804799999719
0.8	0.0419244159999677
0.85	0.0417321800000137
0.9	0.041275569333342
0.95	0.041083213333386
1	0.0406260560000447
1.05	0.0404335799999851
1.1	0.0399758759999806
1.15	0.0397832799999946
1.2	0.0393250293333516
1.25	0.039132313333349
1.3	0.0386735160000051
1.35	0.0384806799999962
1.4	0.0380213359999915
1.45	0.037828380000033
1.5	0.0373684893333621
1.55	0.037175413333328
1.6	0.0367149759999905
1.65	0.0365217799999829
1.7	0.0360607959999788
1.75	0.0358674800000176
1.8	0.0354059493333461
1.85	0.035212513333339
1.9	0.0347504360000013
1.95	0.03455687999997
2	0.0340942559999671
2.05	0.0339005800000032
2.1	0.0334374093333332
2.15	0.033243613333326
2.2	0.032779895999989
2.25	0.0325859800000239
2.3	0.0321217160000198
2.35	0.0319276800000119
2.4	0.0314628693333416
2.45	0.0312687133333145
2.5	0.0308033559999781
2.55	0.0306090800000107
2.6	0.0301431760000073
2.65	0.0299487799999998
2.7	0.0294823293333297
2.75	0.0292878133333234
2.8	0.0288208159999872
2.85	0.0286261800000176
2.9	0.0281586360000139
2.95	0.0279638799999899
3	0.0274957893333201
3.05	0.0273009133333137
3.1	0.0268322760000124
3.15	0.0266372800000059
3.2	0.0261680960000032
3.25	0.0259729799999979
3.3	0.0255032493333278
3.35	0.0253080133333556
3.4	0.0248377360000185
3.45	0.024642379999996
3.5	0.024171555999994
3.55	0.0239760799999891
3.6	0.0235047093333196
3.65	0.0233091133333447
3.7	0.0228371960000082
3.75	0.0226414800000034
3.8	0.0221690160000008
3.85	0.0219731799999812
3.9	0.0215001693333128
3.95	0.0213042133333352
4	0.0208306559999998
4.05	0.0206345799999959
4.1	0.0201604759999934
4.15	0.0199642800000146
4.2	0.0194896293333451
4.25	0.0192933133333399
4.3	0.0188181160000052
4.35	0.0186216799999892
4.4	0.0181459359999869
4.45	0.0179493800000059
4.5	0.017473089333337
4.55	0.0172764133333327
4.6	0.0167995759999977
4.65	0.0166027799999946
4.7	0.0161253959999925
4.75	0.0159284800000097
4.8	0.015450549333341
4.85	0.0152535133333283
4.9	0.014775035999993
4.95	0.0145778799999898
5	0.0140988560000062
5.05	0.0139015800000033
5.1	0.0134220093333357
5.15	0.0132246133333322
5.2	0.0127444959999981
5.25	0.0125469800000104
5.3	0.0120663160000092
5.35	0.0118686799999983
5.4	0.0113874693333305
5.45	0.0111897133333279
5.5	0.0107079559999943
5.55	0.0105100800000053
5.6	0.0100277760000029
5.65	0.00982978000000179
5.7	0.00934692933333325
5.75	0.00914881333332618
5.8	0.00866541599999238
5.85	0.00846718000000068
5.9	0.00798323599999984
5.95	0.00778487999999866
6	0.00730038933333166
6.05	0.00710191333333832
6.1	0.00661687600000382
6.15	0.00641828000000233
6.2	0.00593269600000079
6.25	0.00573397999999692
6.3	0.00524784933333011
6.35	0.00504901333333496
6.4	0.00456233599999978
6.45	0.00436338000000092
6.5	0.00387615600000113
6.55	0.00367707999999856
6.6	0.00318930933333217
6.65	0.00299011333333321
6.7	0.00250179599999956
6.75	0.00230248000000088
6.8	0.00181361600000018
6.85	0.00161417999999958
6.9	0.00112476933333294
6.95	0.000925213333332842
7	0.000435255999999606
7.05	0.000235580000000457
7.1	3.55800000002571e-05
7.15	3.59999999994809e-05
7.2	3.5999999999925e-05
7.25	3.64999999997728e-05
7.3	3.64999999999949e-05
7.35	3.70000000002868e-05
7.4	3.70000000002868e-05
7.45	0.000237419999999489
7.5	0.000437420000000133
7.55	0.000929786666666654
7.6	0.00112978666666685
7.65	0.00162282000000014
7.7	0.00182282000000078
7.75	0.00231652000000038
7.8	0.0025165199999998
7.85	0.00301088666666616
7.9	0.00321088666666647
7.95	0.00370592000000003
8	0.00390591999999934
8.05	0.00440162000000022
8.1	0.00460162000000086
8.15	0.00509798666666561
8.2	0.0052979866666667
8.25	0.00579502000000054
8.3	0.00599502000000074
8.35	0.00649272000000045
8.4	0.00669271999999976
8.45	0.00719108666666707
8.5	0.00739108666666649
8.55	0.00789011999999967
8.6	0.0080901200000007
8.65	0.00858982000000058
8.7	0.00878982000000078
8.75	0.00929018666666609
8.8	0.00949018666666659
8.85	0.00999122000000062
8.9	0.01019122
8.95	0.0106929200000012
9	0.0108929199999993
9.05	0.0113952866666668
9.1	0.0115952866666671
9.15	0.0120983199999984
9.2	0.0122983199999996
9.25	0.0128020199999986
9.3	0.0130020199999987
9.35	0.013506386666667
9.4	0.0137063866666659
9.45	0.0142114199999989
9.5	0.014411419999997
9.55	0.0149171200000021
9.6	0.015117120000002
9.65	0.0156234866666649
9.7	0.0158234866666656
9.75	0.0163305199999991
9.8	0.0165305200000001
9.85	0.0170382199999994
9.9	0.0172382199999976
9.95	0.0177465866666673
10	0.0179465866666663
10	0.0179465866666663
11	0.0179465866666662
