0	0.340470404262621
0.05	0.0188803133333169
0.1	0.0184191159999818
0.15	0.0182226800000027
0.2	0.0177609360000002
0.25	0.0175643800000209
0.3	0.0171020893333509
0.35	0.0169054133333475
0.4	0.0164425760000313
0.45	0.0162457799999851
0.5	0.0157823959999837
0.55	0.0155854800000021
0.6	0.0151215493333323
0.65	0.0149245133333471
0.7	0.0144600360000133
0.75	0.0142628799999898
0.8	0.0137978559999894
0.85	0.0136005800000056
0.9	0.013135009333336
0.95	0.0129376133333494
1	0.012471496000011
1.05	0.0122739799999954
1.1	0.0118073159999947
1.15	0.0116096799999914
1.2	0.0111424693333384
1.25	0.0109447133333358
1.3	0.0104769560000006
1.35	0.0102790799999992
1.4	0.00981077599999791
1.45	0.00961278000000831
1.5	0.00914392933334041
1.55	0.008945813333332
1.6	0.00847641599999793
1.65	0.00827817999999647
1.7	0.00780823599999581
1.75	0.00760988000000351
1.8	0.0071393893333358
1.85	0.00694091333333446
1.9	0.0064698760000006
1.95	0.00627127999999466
2	0.00579969599999464
2.05	0.00560098000000009
2.1	0.00512884933333346
2.15	0.00493001333333254
2.2	0.00445733599999887
2.25	0.00425838000000311
2.3	0.0037851560000024
2.35	0.00358608000000116
2.4	0.00311230933333428
2.45	0.002913113333332
2.5	0.00243879599999852
2.55	0.00223948000000096
2.6	0.00176461600000044
2.65	0.00156517999999961
2.7	0.00108976933333249
2.75	0.000890213333333278
2.8	0.000414256000000002
2.85	0.000214580000000186
2.9	1.45799999997642e-05
2.95	1.50000000007644e-05
3	1.50000000007644e-05
3.05	1.54999999999461e-05
3.1	1.54999999999461e-05
3.15	1.59999999995719e-05
3.2	1.59999999995719e-05
3.25	0.000216420000000106
3.3	0.000416420000000084
3.35	0.000894786666666203
3.4	0.00109478666666618
3.45	0.0015738199999995
3.5	0.00177381999999993
3.55	0.00225351999999956
3.6	0.00245351999999954
3.65	0.00293388666666816
3.7	0.00313388666666814
3.75	0.0036149200000013
3.8	0.00381492000000172
3.85	0.00429661999999675
3.9	0.00449661999999718
3.95	0.00497898666666741
4	0.00517898666666738
4.05	0.00566202000000038
4.1	0.00586201999999991
4.15	0.00634571999999745
4.2	0.00654571999999698
4.25	0.00703008666666971
4.3	0.00723008666667058
4.35	0.00771511999999674
4.4	0.00791511999999628
4.45	0.00840082000000164
4.5	0.00860082000000384
4.55	0.00908718666666797
4.6	0.00928718666666795
4.65	0.00977421999999839
4.7	0.00997421999999837
4.75	0.0104619200000076
4.8	0.010661920000008
4.85	0.0111502866666648
4.9	0.0113502866666648
4.95	0.0118393199999929
5	0.0120393199999929
5.05	0.012529020000005
5.1	0.012729020000005
5.15	0.013219386666667
5.2	0.0134193866666674
5.25	0.0139104199999864
5.3	0.0141104199999869
5.35	0.0146021199999997
5.4	0.0148021199999997
5.45	0.0152944866666616
5.5	0.015494486666662
5.55	0.0159875200000084
5.6	0.0161875200000097
5.65	0.016681220000005
5.7	0.0168812200000046
5.75	0.0173755866666547
5.8	0.0175755866666547
5.85	0.018070620000004
5.9	0.018270620000004
5.95	0.0187663199999983
6	0.0189663199999988
6.05	0.0194626866666581
6.1	0.019662686666658
6.15	0.0201597200000099
6.2	0.0203597200000094
6.25	0.0208574199999911
6.3	0.0210574199999907
6.35	0.0215557866666565
6.4	0.02175578666667
6.45	0.0222548199999957
6.5	0.0224548199999963
6.55	0.0229545199999954
6.6	0.0231545199999956
6.65	0.0236548866666693
6.7	0.0238548866666695
6.75	0.0243559199999894
6.8	0.0245559200000103
6.85	0.0250576199999943
6.9	0.0252576199999937
6.95	0.0257599866666678
7	0.025959986666668
7.05	0.0264630200000018
7.1	0.0266630200000013
7.15	0.0271667199999917
7.2	0.0273667199999921
7.25	0.0278710866666581
7.3	0.0280710866666578
7.35	0.0285761199999999
7.4	0.0287761199999996
7.45	0.0292818199999942
7.5	0.0294818200000084
7.55	0.029988186666656
7.6	0.030188186666656
7.65	0.0306952199999981
7.7	0.0308952199999988
7.75	0.0314029199999977
7.8	0.0316029199999976
7.85	0.0321112866666672
7.9	0.0323112866666685
7.95	0.0328203199999968
8	0.0330203199999959
8.05	0.0335300199999977
8.1	0.0337300200000018
8.15	0.0342403866666612
8.2	0.0344403866666625
8.25	0.034951419999994
8.3	0.0351514200000052
8.35	0.0356631199999998
8.4	0.03586312
8.45	0.0363754866666658
8.5	0.0365754866666678
8.55	0.037088519999997
8.6	0.0372885200000014
8.65	0.0378022199999961
8.7	0.0380022200000018
8.75	0.0385165866666649
8.8	0.0387165866666675
8.85	0.0392316199999996
8.9	0.0394316200000004
8.95	0.0399473200000011
9	0.0401473199999993
9.05	0.0406636866666665
9.1	0.040863686666667
9.15	0.041380719999997
9.2	0.0415807199999984
9.25	0.0420984199999943
9.3	0.042298419999996
9.35	0.0428167866666486
9.4	0.0430167866666648
9.45	0.0435358199999099
9.5	0.0437358199999954
9.55	0.0442555199995851
9.6	0.0444555200000047
9.65	0.0449758866648673
9.7	0.0451758866666632
9.75	0.0456969199927014
9.8	0.045896920000002
9.85	0.0464186199724654
9.9	0.0466186199999944
9.95	0.0471409865701092
10	0.047340986666667
10	0.047340986666667
11	0.047340986666667
