0	-4.05493051333334
0.05	-4.05437051333334
0.1	-4.053404836
0.15	-4.05220588000001
0.2	-4.05073965600001
0.25	-4.04904058000001
0.3	-4.04707380933334
0.35	-4.04487461333335
0.4	-4.04240729600001
0.45	-4.03970798000001
0.5	-4.03674011600001
0.55	-4.03354068000001
0.6	-4.03007226933334
0.65	-4.02637271333334
0.7	-4.02240375600001
0.75	-4.01820408000001
0.8	-4.01400408000001
0.85	-4.00950450000001
0.9	-4.00500450000001
0.95	-4.00000500000001
1	-3.99500500000001
1.05	-3.98950550000001
1.1	-3.98400550000001
1.15	-3.97820592000001
1.2	-3.97240592000001
1.25	-3.96637728666667
1.3	-3.96007728666667
1.35	-3.95354932000001
1.4	-3.94674932000001
1.45	-3.93972202
1.5	-3.93242202
1.55	-3.92489538666667
1.6	-3.91709538666667
1.65	-3.90906942
1.7	-3.90076942
1.75	-3.89224412000001
1.8	-3.88344412000001
1.85	-3.87441948666667
1.9	-3.86511948666667
1.95	-3.85559552
2	-3.84579552
2.05	-3.83577222000001
2.1	-3.82547222000001
2.15	-3.81494958666667
2.2	-3.80414958666667
2.25	-3.79312762
2.3	-3.78182762
2.35	-3.77030632000001
2.4	-3.75850632000001
2.45	-3.74648568666667
2.5	-3.73418568666667
2.55	-3.72166572000001
2.6	-3.70886572000001
2.65	-3.69584642000001
2.7	-3.68254642
2.75	-3.66902778666667
2.8	-3.65522778666667
2.85	-3.64120982000001
2.9	-3.62690982000001
2.95	-3.61239252
3	-3.59759252
3.05	-3.58257588666666
3.1	-3.56727588666666
3.15	-3.55175992000001
3.2	-3.53595992000001
3.25	-3.51994462
3.3	-3.50364462
3.35	-3.48712998666666
3.4	-3.47032998666666
3.45	-3.45331602
3.5	-3.43601602
3.55	-3.41850272
3.6	-3.40070272
3.65	-3.38269008666668
3.7	-3.36439008666668
3.75	-3.34587812000001
3.8	-3.32707812000001
3.85	-3.30806681999999
3.9	-3.28876681999999
3.95	-3.26925618666667
4	-3.24945618666667
4.05	-3.22944622
4.1	-3.20914622
4.15	-3.18863691999999
4.2	-3.16783691999999
4.25	-3.14682828666668
4.3	-3.12552828666668
4.35	-3.10402031999999
4.4	-3.08222031999999
4.45	-3.06021301999999
4.5	-3.03791302000001
4.55	-3.01540638666667
4.6	-2.99260638666667
4.65	-2.96960042
4.7	-2.94630042
4.75	-2.92279512
4.8	-2.89899512000002
4.85	-2.87499048666666
4.9	-2.85069048666666
4.95	-2.82618651999999
5	-2.80138651999999
5.05	-2.77638322000001
5.1	-2.75108322000001
5.15	-2.72558058666667
5.2	-2.69978058666667
5.25	-2.67377861999997
5.3	-2.64747861999997
5.35	-2.62097732
5.4	-2.59417732
5.45	-2.56717668666666
5.5	-2.53987668666666
5.55	-2.51237672
5.6	-2.48457672000002
5.65	-2.45657742000001
5.7	-2.42827742000001
5.75	-2.39977878666665
5.8	-2.37097878666665
5.85	-2.34198082
5.9	-2.31268082000001
5.95	-2.28318352
6	-2.25338352
6.05	-2.22338688666665
6.1	-2.19308688666665
6.15	-2.16259092000001
6.2	-2.13179092000002
6.25	-2.10079561999998
6.3	-2.06949561999998
6.35	-2.03800098666665
6.4	-2.00620098666668
6.45	-1.97420701999999
6.5	-1.94190701999999
6.55	-1.90941371999999
6.6	-1.87661371999999
6.65	-1.84362108666667
6.7	-1.81032108666667
6.75	-1.77682911999998
6.8	-1.74302912000001
6.85	-1.70903781999999
6.9	-1.67473781999999
6.95	-1.64024718666667
7	-1.60544718666667
7.05	-1.57045721999999
7.1	-1.53515722
7.15	-1.49966791999999
7.2	-1.46386791999999
7.25	-1.42787928666665
7.3	-1.39157928666665
7.35	-1.35509132
7.4	-1.31829132
7.45	-1.28130401999998
7.5	-1.24400402000001
7.55	-1.20651738666665
7.6	-1.16871738666665
7.65	-1.13073142
7.7	-1.09243141999999
7.75	-1.05394611999999
7.8	-1.01514611999999
7.85	-0.976161486666661
7.9	-0.936861486666667
7.95	-0.897377519999992
8	-0.857577519999992
8.05	-0.81759421999999
8.1	-0.777294219999999
8.15	-0.736811586666657
8.2	-0.696011586666657
8.25	-0.655029619999986
8.3	-0.613729620000005
8.35	-0.572248319999985
8.4	-0.530448319999998
8.45	-0.488467686666627
8.5	-0.446167686666666
8.55	-0.403687719999839
8.6	-0.360887719999999
8.65	-0.317908419999344
8.7	-0.274608420000001
8.75	-0.231129786664117
8.8	-0.187329786666667
8.85	-0.143351819990663
8.9	-0.0990518199999987
8.95	-0.054574519967914
9	-0.00977451999999759
9.05	0.0352021134367044
9.1	0.0805021133333357
9.15	0.125978080312724
9.2	0.171778080000004
9.25	0.217753380885951
9.3	0.264053380000007
9.35	0.310528015681654
9.4	0.357328013333337
9.45	0.404301985822837
9.5	0.451601980000005
9.55	0.499075293506291
9.6	0.546875279999996
9.65	0.59484794268313
9.7	0.643147913333339
9.75	0.691619939672789
9.8	0.740419879999997
9.85	0.789391293618505
9.9	0.838691180000008
9.95	0.888162016201882
10	0.937961813333333
10	0.937961813333333
11	1.93796181333333
