0	-6.59123940597653
0.05	-6.19123940597746
0.1	-5.69123940597863
0.15	-5.1912394059798
0.2	-4.69123940598096
0.25	-4.19123940598213
0.3	-4.08982666266672
0.35	-4.08763514666663
0.4	-4.08518148266676
0.45	-4.08248984666663
0.5	-4.07953563599996
0.55	-4.07634388000001
0.6	-4.07288912266667
0.65	-4.06919724666672
0.7	-4.06524194266671
0.75	-4.06104994666665
0.8	-4.05659409599997
0.85	-4.05190198000002
0.9	-4.04694558266668
0.95	-4.04175334666673
1	-4.03629640266672
1.05	-4.03060404666666
1.1	-4.02464655599999
1.15	-4.01845408
1.2	-4.01199604266669
1.25	-4.00530344666669
1.3	-3.99834486266668
1.35	-3.99115214666667
1.4	-3.983693016
1.45	-3.97600018000004
1.5	-3.9680405026667
1.55	-3.95984754666667
1.6	-3.95138732266666
1.65	-3.94269424666666
1.7	-3.93373347599998
1.75	-3.92454028000002
1.8	-3.91507896266669
1.85	-3.90538564666668
1.9	-3.89542378266667
1.95	-3.88523034666664
2	-3.87476793599997
2.05	-3.86407438000001
2.1	-3.85311142266667
2.15	-3.84191774666666
2.2	-3.83045424266666
2.25	-3.8187604466667
2.3	-3.80679639600002
2.35	-3.79460248000002
2.4	-3.78213788266668
2.45	-3.76944384666665
2.5	-3.75647870266665
2.55	-3.74328454666668
2.6	-3.72981885600001
2.65	-3.71612458
2.7	-3.70215834266667
2.75	-3.68796394666666
2.8	-3.67349716266666
2.85	-3.65880264666669
2.9	-3.64383531600002
2.95	-3.62864067999999
3	-3.61317280266666
3.05	-3.59747804666665
3.1	-3.58150962266668
3.15	-3.56531474666668
3.2	-3.54884577600001
3.25	-3.53215078
3.3	-3.51518126266666
3.35	-3.49798614666669
3.4	-3.48051608266669
3.45	-3.46282084666667
3.5	-3.444850236
3.55	-3.42665487999999
3.6	-3.40818372266666
3.65	-3.38948824666668
3.7	-3.37051654266668
3.75	-3.35132094666667
3.8	-3.331848696
3.85	-3.31215297999998
3.9	-3.29218018266665
3.95	-3.27198434666667
4	-3.25151100266667
4.05	-3.23081504666666
4.1	-3.209841156
4.15	-3.18864508000002
4.2	-3.16717064266668
4.25	-3.14547444666668
4.3	-3.12349946266667
4.35	-3.10130314666666
4.4	-3.07882761599999
4.45	-3.05613118000001
4.5	-3.03315510266667
4.55	-3.00995854666667
4.6	-2.98648192266667
4.65	-2.96278524666666
4.7	-2.93880807599999
4.75	-2.91461128000001
4.8	-2.89013356266668
4.85	-2.86543664666666
4.9	-2.84045838266666
4.95	-2.81526134666666
5	-2.78978253600001
5.05	-2.76408538
5.1	-2.73810602266667
5.15	-2.71190874666667
5.2	-2.68542884266667
5.25	-2.65873144666668
5.3	-2.63175099600001
5.35	-2.60455348
5.4	-2.57707248266667
5.45	-2.54937484666666
5.5	-2.52139330266666
5.55	-2.49319554666667
5.6	-2.46471345600001
5.65	-2.43601558
5.7	-2.40703294266667
5.75	-2.37783494666666
5.8	-2.34835176266666
5.85	-2.31865364666667
5.9	-2.288669916
5.95	-2.25847168
6	-2.22798740266667
6.05	-2.19728904666667
6.1	-2.16630422266667
6.15	-2.13510574666667
6.2	-2.103620376
6.25	-2.07192178
6.3	-2.03993586266666
6.35	-2.00773714666667
6.4	-1.97525068266667
6.45	-1.94255184666667
6.5	-1.909564836
6.55	-1.87636588
6.6	-1.84287832266667
6.65	-1.80917924666667
6.7	-1.77519114266667
6.75	-1.74099194666667
6.8	-1.706503296
6.85	-1.67180398
6.9	-1.63681478266667
6.95	-1.60161534666667
7	-1.56612560266667
7.05	-1.53042604666667
7.1	-1.494435756
7.15	-1.45823608
7.2	-1.42203608
7.25	-1.3855365
7.3	-1.3490365
7.35	-1.312037
7.4	-1.275037
7.45	-1.2375375
7.5	-1.2000375
7.55	-1.16223792
7.6	-1.12443792
7.65	-1.08643062
7.7	-1.04813062
7.75	-1.00962398666666
7.8	-0.970823986666664
7.85	-0.931818019999998
7.9	-0.892518019999998
7.95	-0.853012719999997
8	-0.813212719999997
8.05	-0.773208086666664
8.1	-0.732908086666664
8.15	-0.692404119999997
8.2	-0.651604119999997
8.25	-0.610600819999998
8.3	-0.569300819999998
8.35	-0.527798186666664
8.4	-0.485998186666664
8.45	-0.443996219999998
8.5	-0.401696219999998
8.55	-0.359194919999998
8.6	-0.316394919999998
8.65	-0.273394286666666
8.7	-0.230094286666665
8.75	-0.186594319999998
8.8	-0.142794319999998
8.85	-0.0987950199999981
8.9	-0.0544950199999982
8.95	-0.00999638666666429
9	0.0348036133333357
9.05	0.0798015800000021
9.1	0.125101580000002
9.15	0.170598880000002
9.2	0.216398880000002
9.25	0.262395513333336
9.3	0.308695513333336
9.35	0.355191480000002
9.4	0.401991480000002
9.45	0.448986780000001
9.5	0.496286780000003
9.55	0.543781413333333
9.6	0.591581413333333
9.65	0.639575380000002
9.7	0.687875380000002
9.75	0.73636868
9.8	0.78516868
9.85	0.834161313333336
9.9	0.883461313333336
9.95	0.93295328
10	0.98275328
10	0.98275328
11	1.98275328
