0	0.43403985400982
0.05	0.0344398540107518
0.1	0.0204211559999798
0.15	0.0202250800000021
0.2	0.0197639760000001
0.25	0.0195677800000222
0.3	0.0191061293333528
0.35	0.0189098133333436
0.4	0.0184476160000351
0.45	0.0182511799999832
0.5	0.0177884359999823
0.55	0.0175918800000021
0.6	0.0171285893333319
0.65	0.0169319133333499
0.7	0.0164680760000149
0.75	0.0162712799999891
0.8	0.0158068959999866
0.85	0.0156099800000051
0.9	0.0151450493333369
0.95	0.0149480133333517
1	0.0144825360000138
1.05	0.0142853799999951
1.1	0.0138193559999937
1.15	0.01362207999999
1.2	0.0131555093333393
1.25	0.0129581133333363
1.3	0.0124909960000013
1.35	0.012293479999999
1.4	0.0118258159999973
1.45	0.01162818000001
1.5	0.0111599693333417
1.55	0.0109622133333316
1.6	0.0104934559999972
1.65	0.0102955799999953
1.7	0.00982627599999431
1.75	0.00962828000000471
1.8	0.00915842933333622
1.85	0.00896031333333491
1.9	0.00848991600000071
1.95	0.00829167999999303
2	0.00782073599999267
2.05	0.00762238000000037
2.1	0.00715088933333341
2.15	0.00695241333333252
2.2	0.00648037599999851
2.25	0.00628178000000457
2.3	0.00580919600000396
2.35	0.00561048000000186
2.4	0.00513734933333465
2.45	0.00493851333333062
2.5	0.00446483599999725
2.55	0.0042658800000015
2.6	0.00379165600000109
2.65	0.0035925799999994
2.7	0.00311780933333283
2.75	0.00291861333333232
2.8	0.00244329599999915
2.85	0.00224398000000114
2.9	0.00176811600000093
2.95	0.00156867999999966
3	0.00109226933333328
3.05	0.00089271333333274
3.1	0.000415755999999767
3.15	0.000216079999999952
3.2	1.60799999999739e-05
3.25	1.650000000053e-05
3.3	1.65000000000859e-05
3.35	1.70000000001558e-05
3.4	1.70000000001558e-05
3.45	1.74999999993375e-05
3.5	1.74999999993375e-05
3.55	0.000217920000000316
3.6	0.00041791999999985
3.65	0.000897286666666997
3.7	0.00109728666666697
3.75	0.00157732000000088
3.8	0.00177732000000086
3.85	0.00225801999999842
3.9	0.0024580199999984
3.95	0.00293938666666715
4	0.00313938666666713
4.05	0.00362142000000043
4.1	0.00382142000000041
4.15	0.00430411999999825
4.2	0.00450411999999778
4.25	0.00498748666666859
4.3	0.00518748666666946
4.35	0.00567151999999771
4.4	0.00587151999999769
4.45	0.00635622000000291
4.5	0.00655622000000289
4.55	0.00704158666666732
4.6	0.0072415866666673
4.65	0.00772761999999894
4.7	0.00792761999999847
4.75	0.00841432000000619
4.8	0.00861432000000617
4.85	0.00910168666666511
4.9	0.00930168666666509
4.95	0.00978971999999434
5	0.00998971999999387
5.05	0.0104784200000041
5.1	0.0106784200000041
5.15	0.0111677866666673
5.2	0.0113677866666673
5.25	0.0118578199999884
5.3	0.0120578199999888
5.35	0.0125485199999997
5.4	0.0127485199999997
5.45	0.0132398866666619
5.5	0.0134398866666627
5.55	0.013931920000009
5.6	0.0141319200000081
5.65	0.0146246200000042
5.7	0.0148246200000042
5.75	0.0153179866666564
5.8	0.0155179866666559
5.85	0.0160120200000038
5.9	0.0162120200000038
5.95	0.0167067199999984
6	0.0169067199999993
6.05	0.0174020866666589
6.1	0.0176020866666589
6.15	0.0180981200000088
6.2	0.0182981200000087
6.25	0.0187948199999917
6.3	0.0189948199999916
6.35	0.0194921866666582
6.4	0.0196921866666697
6.45	0.0201902199999962
6.5	0.0203902199999968
6.55	0.0208889199999958
6.6	0.021088919999996
6.65	0.0215882866666692
6.7	0.0217882866666692
6.75	0.0222883199999906
6.8	0.0224883200000094
6.85	0.0229890199999947
6.9	0.0231890199999942
6.95	0.0236903866666676
7	0.0238903866666678
7.05	0.0243924200000014
7.1	0.0245924200000012
7.15	0.0250951199999923
7.2	0.0252951199999927
7.25	0.0257984866666585
7.3	0.0259984866666587
7.35	0.02650252
7.4	0.0267025199999995
7.45	0.0272072199999958
7.5	0.0274072200000077
7.55	0.0279125866666567
7.6	0.0281125866666569
7.65	0.0286186199999983
7.7	0.0288186199999991
7.75	0.0293253199999979
7.8	0.0295253199999976
7.85	0.0300326866666678
7.9	0.0302326866666682
7.95	0.0307407199999971
8	0.0309407199999961
8.05	0.0314494199999984
8.1	0.0316494200000017
8.15	0.0321587866666614
8.2	0.0323587866666628
8.25	0.0328688199999947
8.3	0.0330688200000049
8.35	0.0335795199999998
8.4	0.0337795200000002
8.45	0.0342908866666661
8.5	0.0344908866666676
8.55	0.0350029199999973
8.6	0.0352029200000014
8.65	0.0357156199999964
8.7	0.0359156200000016
8.75	0.0364289866666651
8.8	0.0366289866666674
8.85	0.0371430199999998
8.9	0.0373430200000004
8.95	0.0378577200000012
9	0.0380577199999993
9.05	0.0385730866666666
9.1	0.038773086666667
9.15	0.0392891199999973
9.2	0.0394891199999985
9.25	0.0400058199999972
9.3	0.0402058199999962
9.35	0.0407231866666643
9.4	0.040923186666665
9.45	0.0414412199999884
9.5	0.0416412199999956
9.55	0.0421599199999461
9.6	0.0423599200000045
9.65	0.0428792866664188
9.7	0.0430792866666633
9.75	0.0435993199988858
9.8	0.0437993200000019
9.85	0.0443200199953218
9.9	0.0445200199999946
9.95	0.0450413866483689
10	0.0452413866666669
10	0.0452413866666669
11	0.045241386666667
