0	-4.90400007651555
0.05	-4.50400007651648
0.1	-4.07676196933332
0.15	-4.07556721333334
0.2	-4.07410845600001
0.25	-4.07241358000004
0.3	-4.07045427600003
0.35	-4.06825928
0.4	-4.06579942933339
0.45	-4.06310431333332
0.5	-4.06014391599998
0.55	-4.05694868000001
0.6	-4.05348773600001
0.65	-4.04979238000003
0.7	-4.04583088933336
0.75	-4.04163541333333
0.8	-4.03717337599999
0.85	-4.03247778000002
0.9	-4.02751519600001
0.95	-4.02231948000003
1	-4.01685634933336
1.05	-4.01116051333333
1.1	-4.005196836
1.15	-3.99900087999999
1.2	-3.99253665600002
1.25	-3.98584058000001
1.3	-3.97887580933334
1.35	-3.97167961333334
1.4	-3.964214296
1.45	-3.95651798000002
1.5	-3.94855211600002
1.55	-3.94035568
1.6	-3.93188926933333
1.65	-3.92319271333333
1.7	-3.914225756
1.75	-3.90502908000001
1.8	-3.89556157600001
1.85	-3.88586478000001
1.9	-3.87589672933334
1.95	-3.86569981333333
2	-3.85523121599999
2.05	-3.84453418000001
2.1	-3.833565036
2.15	-3.82236788
2.2	-3.81089818933333
2.25	-3.79920091333335
2.3	-3.78723067600001
2.35	-3.77503328000001
2.4	-3.76256249600001
2.45	-3.74986498
2.5	-3.73689364933333
2.55	-3.72369601333334
2.6	-3.71022413600001
2.65	-3.69652638
2.7	-3.682553956
2.75	-3.66835608
2.8	-3.65388310933333
2.85	-3.63918511333334
2.9	-3.62421159600001
2.95	-3.60901348
3	-3.593539416
3.05	-3.57784118
3.1	-3.56186656933334
3.15	-3.54566821333334
3.2	-3.529193056
3.25	-3.51249458
3.3	-3.495518876
3.35	-3.47832028000001
3.4	-3.46084402933334
3.45	-3.44314531333334
3.5	-3.425168516
3.55	-3.40696968
3.6	-3.388492336
3.65	-3.36979338
3.7	-3.35081548933334
3.75	-3.33161641333334
3.8	-3.312137976
3.85	-3.29243878
3.9	-3.272459796
3.95	-3.25226048
4	-3.23178094933334
4.05	-3.21108151333334
4.1	-3.190101436
4.15	-3.16890188
4.2	-3.147421256
4.25	-3.12572158
4.3	-3.10402158
4.35	-3.082022
4.4	-3.060022
4.45	-3.0375225
4.5	-3.0150225
4.55	-2.992023
4.6	-2.969023
4.65	-2.94572342
4.7	-2.92242342
4.75	-2.89890645333334
4.8	-2.87510645333334
4.85	-2.85109015333333
4.9	-2.82679015333333
4.95	-2.80227452
5	-2.77747452
5.05	-2.75245955333334
5.1	-2.72715955333334
5.15	-2.70164525333333
5.2	-2.67584525333333
5.25	-2.64983162
5.3	-2.62353162
5.35	-2.59701865333333
5.4	-2.57021865333333
5.45	-2.54320635333333
5.5	-2.51590635333333
5.55	-2.48839472
5.6	-2.46059472000001
5.65	-2.43258375333334
5.7	-2.40428375333334
5.75	-2.37577345333333
5.8	-2.34697345333333
5.85	-2.31796382
5.9	-2.28866382
5.95	-2.25915485333333
6	-2.22935485333333
6.05	-2.19934655333333
6.1	-2.16904655333333
6.15	-2.13853892000001
6.2	-2.10773892000001
6.25	-2.07673195333333
6.3	-2.04543195333333
6.35	-2.01392565333333
6.4	-1.98212565333334
6.45	-1.95012002
6.5	-1.91782002
6.55	-1.88531505333333
6.6	-1.85251505333333
6.65	-1.81951075333334
6.7	-1.78621075333334
6.75	-1.75270711999999
6.8	-1.71890712000001
6.85	-1.68490415333333
6.9	-1.65060415333333
6.95	-1.61610185333333
7	-1.58130185333333
7.05	-1.54630022
7.1	-1.51100022
7.15	-1.47549925333333
7.2	-1.43969925333333
7.25	-1.40369895333333
7.3	-1.36739895333333
7.35	-1.33089932
7.4	-1.29409932
7.45	-1.25710035333333
7.5	-1.21980035333334
7.55	-1.18230205333332
7.6	-1.14450205333332
7.65	-1.10650442
7.7	-1.06820442
7.75	-1.02970745333333
7.8	-0.990907453333329
7.85	-0.951911153333333
7.9	-0.912611153333332
7.95	-0.873115519999995
8	-0.833315519999995
8.05	-0.793320553333331
8.1	-0.753020553333331
8.15	-0.712526253333327
8.2	-0.671726253333327
8.25	-0.630732619999995
8.3	-0.589432620000001
8.35	-0.54793965333333
8.4	-0.506139653333331
8.45	-0.464147353333331
8.5	-0.421847353333332
8.55	-0.379355719999997
8.6	-0.336555719999999
8.65	-0.293564753333329
8.7	-0.250264753333332
8.75	-0.206774453333331
8.8	-0.162974453333332
8.85	-0.118984819999998
8.9	-0.0746848199999984
8.95	-0.030195853333331
9	0.0146041466666691
9.05	0.0595924466666689
9.1	0.104892446666669
9.15	0.150380080000003
9.2	0.196180080000003
9.25	0.242167046666671
9.3	0.288467046666671
9.35	0.334953346666669
9.4	0.381753346666669
9.45	0.428738980000002
9.5	0.476038980000004
9.55	0.523523946666673
9.6	0.571323946666665
9.65	0.619308246666671
9.7	0.667608246666671
9.75	0.716091880000004
9.8	0.764891879999999
9.85	0.813874846666672
9.9	0.863174846666672
9.95	0.912657146666681
10	0.962457146666667
10	0.962457146666667
11	1.96245714666667
