0	-7.88201168902418
0.05	-7.48201168902512
0.1	-6.98201168902628
0.15	-6.48201168902745
0.2	-5.98201168902861
0.25	-5.48201168902978
0.3	-4.98201168903094
0.35	-4.48201168903211
0.4	-4.09587502933341
0.45	-4.09318531333329
0.5	-4.09023451599995
0.55	-4.08704468000001
0.6	-4.083593336
0.65	-4.07990338000006
0.7	-4.07595148933339
0.75	-4.0717614133333
0.8	-4.06730897599997
0.85	-4.06261878000003
0.9	-4.05766579600002
0.95	-4.05247548000007
1	-4.0470219493334
1.05	-4.04133151333332
1.1	-4.03537743599998
1.15	-4.02918688000001
1.2	-4.02273225600003
1.25	-4.01604158000004
1.3	-4.00908640933336
1.35	-4.00189561333333
1.4	-3.994439896
1.45	-3.98674898000005
1.5	-3.97879271600004
1.55	-3.97060168
1.6	-3.96214486933333
1.65	-3.95345371333332
1.7	-3.94449635599998
1.75	-3.93530508000003
1.8	-3.92584717600002
1.85	-3.91615578000001
1.9	-3.90619732933334
1.95	-3.8960058133333
2	-3.88554681599996
2.05	-3.87485518000001
2.1	-3.863895636
2.15	-3.85270387999999
2.2	-3.84124378933332
2.25	-3.82955191333336
2.3	-3.81759127600003
2.35	-3.80539928000002
2.4	-3.79293809600002
2.45	-3.78024597999998
2.5	-3.76728424933331
2.55	-3.75409201333335
2.6	-3.74062973600001
2.65	-3.72693738
2.7	-3.712974556
2.75	-3.69878207999999
2.8	-3.68431870933332
2.85	-3.66962611333336
2.9	-3.65466219600002
2.95	-3.63946947999999
3	-3.62400501599998
3.05	-3.60831217999998
3.1	-3.59234716933336
3.15	-3.57615421333335
3.2	-3.55968865600001
3.25	-3.54299558
3.3	-3.526029476
3.35	-3.50883628000004
3.4	-3.49136962933336
3.45	-3.47367631333333
3.5	-3.45570911599999
3.55	-3.43751567999999
3.6	-3.41904793599998
3.65	-3.40035438000002
3.7	-3.38138608933335
3.75	-3.36219241333334
3.8	-3.342723576
3.85	-3.32302977999997
3.9	-3.30306039599997
3.95	-3.28286648000001
4	-3.26239654933334
4.05	-3.24170251333333
4.1	-3.22073203599999
4.15	-3.19953788000003
4.2	-3.17806685600002
4.25	-3.15637258000001
4.3	-3.13440100933334
4.35	-3.11220661333332
4.4	-3.08973449599998
4.45	-3.06703998000001
4.5	-3.04406731600001
4.55	-3.02087268
4.6	-2.99739946933333
4.65	-2.97370471333333
4.7	-2.94973095599999
4.75	-2.92553608000002
4.8	-2.90106177600001
4.85	-2.87636677999999
4.9	-2.85139192933332
4.95	-2.82619681333332
5	-2.80072141600001
5.05	-2.77502618000001
5.1	-2.749050236
5.15	-2.72285488
5.2	-2.69637838933333
5.25	-2.66968291333336
5.3	-2.64270587600002
5.35	-2.61551028
5.4	-2.588032696
5.45	-2.56033697999999
5.5	-2.53235884933332
5.55	-2.50416301333335
5.6	-2.47568433600001
5.65	-2.44698838
5.7	-2.418009156
5.75	-2.38881307999998
5.8	-2.35933330933332
5.85	-2.32963711333334
5.9	-2.299656796
5.95	-2.26946048
6	-2.23897961599999
6.05	-2.20828318000001
6.1	-2.17730176933335
6.15	-2.14610521333334
6.2	-2.11462325600001
6.25	-2.08292657999999
6.3	-2.05094407599999
6.35	-2.01874728000001
6.4	-1.98626422933333
6.45	-1.95356731333333
6.5	-1.920583716
6.55	-1.88738668
6.6	-1.85390253599999
6.65	-1.82020538
6.7	-1.78622068933333
6.75	-1.75202341333334
6.8	-1.717538176
6.85	-1.68284077999999
6.9	-1.647854996
6.95	-1.61265748
7	-1.57717114933333
7.05	-1.54147351333333
7.1	-1.505486636
7.15	-1.46928888
7.2	-1.432801456
7.25	-1.39610357999999
7.3	-1.35911560933334
7.35	-1.32191761333333
7.4	-1.284429096
7.45	-1.24673098
7.5	-1.208741916
7.55	-1.17054368
7.6	-1.13205406933333
7.65	-1.09335571333333
7.7	-1.054365556
7.75	-1.01516708
7.8	-0.975676375999997
7.85	-0.935977779999997
7.9	-0.89598652933333
7.95	-0.855787813333331
8	-0.815296015999997
8.05	-0.774597179999997
8.1	-0.733604835999996
8.15	-0.692405879999998
8.2	-0.650912989333331
8.25	-0.609213913333331
8.3	-0.567220475999997
8.35	-0.525021279999998
8.4	-0.482527295999998
8.45	-0.439827979999998
8.5	-0.396833449333332
8.55	-0.353634013333332
8.6	-0.310138935999998
8.65	-0.266439379999999
8.7	-0.222443755999998
8.75	-0.178244079999998
8.8	-0.134044079999998
8.85	-0.0895444999999982
8.9	-0.045044499999998
8.95	-4.49999999972378e-05
9	0.0449550000000027
9.05	0.090454500000002
9.1	0.135954500000002
9.15	0.181754080000002
9.2	0.227554080000002
9.25	0.273556046666668
9.3	0.319856046666668
9.35	0.366357346666668
9.4	0.413157346666668
9.45	0.460157980000001
9.5	0.507457980000001
9.55	0.554957946666667
9.6	0.602757946666667
9.65	0.650757246666668
9.7	0.699057246666668
9.75	0.74755588
9.8	0.79635588
9.85	0.845353846666668
9.9	0.894653846666668
9.95	0.944151146666668
10	0.993951146666668
10	0.993951146666668
11	1.99395114666667
