0	0.707106781186548
0.01	0.745695619839041
0.02	0.69889906160535
0.03	0.652094753236866
0.04	0.605278822056538
0.05	0.558447398255071
0.06	0.511596615845742
0.07	0.464722613618274
0.08	0.417821536091534
0.09	0.370889534464814
0.1	0.323922767567464
0.11	0.276917402806643
0.12	0.229869617112958
0.13	0.182775597883746
0.14	0.135631543923776
0.15	0.0884336663831392
0.16	0.0411781896920899
0.17	0.00441872068475846
0.18	0.00441393487854619
0.19	0.00440888264959011
0.2	0.00440356504493405
0.21	0.00439798337661745
0.22	0.00439213902183339
0.23	0.00438603342258892
0.24	0.00437966808534923
0.25	0.00437304458066623
0.26	0.00436616454279037
0.27	0.00435902966926821
0.28	0.00435164172052305
0.29	0.00434400251942046
0.3	0.00433611395081929
0.31	0.00432797796110573
0.32	0.00431959655771347
0.33	0.00431097180862827
0.34	0.00430210584187796
0.35	0.00429300084500728
0.36	0.00428365906453798
0.37	0.00427408280541453
0.38	0.00426427443043542
0.39	0.00425423635967082
0.4	0.00424397106986407
0.41	0.00423348109382193
0.42	0.00422276901978913
0.43	0.00421183749080967
0.44	0.00420068920407468
0.45	0.0041893269102572
0.46	0.00417775341283289
0.47	0.00416597156738951
0.48	0.00415398428092095
0.49	0.00414179451111063
0.5	0.00120010993349262
0.51	0.00230154083452971
0.52	0.00213370639189336
0.53	0.00195745118492652
0.54	0.00177347081240686
0.55	0.00158249136081234
0.56	0.00138526653878801
0.57	0.0011825747026033
0.58	0.000975215784334238
0.59	0.000764008134898297
0.6	0.000549785294396088
0.61	0.00033339270250976
0.62	0.000115684361939428
0.63	-0.000102480531956273
0.64	-0.000320240982011444
0.65	0.000208057202610745
0.66	8.55255156422263e-05
0.67	-3.71960593590348e-05
0.68	-0.000159835049806656
0.69	-0.000282119166472694
0.7	-0.000403776908037834
0.71	0.00191053843983935
0.72	0.00185032017262077
0.73	0.00178992066156469
0.74	0.00172939951369644
0.75	0.00166881645608175
0.76	0.00160823127688459
0.77	0.00154770376636204
0.78	0.0014872936578596
0.79	0.00142706056886077
0.8	0.0013670639421528
0.81	0.00130736298716205
0.82	0.00124801662152396
0.83	0.00118908341293611
0.84	0.00361385350541421
0.85	0.00359670529818923
0.86	0.00357949209827213
0.87	0.00356221816236324
0.88	0.00354488775254769
0.89	0.0035275051448449
0.9	0.00351007462815323
0.91	0.00349260050319133
0.92	0.00347508708143873
0.93	0.00345753868406962
0.94	0.00343995964088883
0.95	0.00342235428926208
0.96	0.00340472697304672
0.97	0.00338708204151883
0.98	0.00336942384830163
0.99	0.00335175675028976
1	0.00333408510657551
1.01	0.00331641327737231
1.02	0.00329874562293997
1.03	0.00328108650250747
1.04	0.00326344027319869
1.05	0.00324581128895662
1.06	0.00322820389946954
1.07	0.00321062244909709
1.08	0.00319307127579904
1.09	0.00317555471006503
1.1	0.00315807707384541
1.11	0.00314064267948555
1.12	0.00312325582866113
1.13	0.00310592081131755
1.14	0.00308864190461089
1.15	0.00307142337185273
1.16	0.0030542694614587
1.17	0.00303718440589928
1.18	0.00302017242065622
1.19	0.00300323770318289
1.2	0.0029863844318665
1.21	0.00296961676500018
1.22	0.00295293883975456
1.23	0.0029363547711585
1.24	0.00291986865108251
1.25	0.00290348454722977
1.26	0.00288720650213348
1.27	0.00287103853215698
1.28	0.00285498462650524
1.29	0.00283904874623919
1.3	0.00282323482329894
1.31	0.00280754675953321
1.32	0.00279198842573702
1.33	0.00277656366069645
1.34	0.00276127627024148
1.35	0.00274613002630719
1.36	0.00273112866600222
1.37	0.0027162758906879
1.38	0.00270157536506421
1.39	0.0026870307162663
1.4	0.0026726455329682
1.41	0.00265842336449851
1.42	0.00264436771996501
1.43	0.00263048206738736
1.44	0.00261676983284276
1.45	0.00260323439961918
1.46	0.0025898791073834
1.47	0.00257670725135306
1.48	0.00256372208148681
1.49	0.00255092680168112
1.5	0.00118693174406526
1.51	0.00230154083452971
1.52	0.00213370639189236
1.53	0.0019574511849263
1.54	0.00177347081240642
1.55	0.00158249136081201
1.56	0.00138526653878768
1.57	0.00118257470260308
1.58	0.000975215784334127
1.59	0.000764008134898297
1.6	0.000549785294395977
1.61	0.000333392702509872
1.62	0.000115684361939428
1.63	-0.000102480531956384
1.64	-0.000320240982011444
1.65	-0.00053673758721462
1.66	-0.000751115934373714
1.67	-0.00096252997009183
1.68	-0.0011701453397559
1.69	-0.00137314268035249
1.7	-0.00157072085411913
1.71	-0.00176210011026845
1.72	-0.00194652516230964
1.73	-0.00212326816881592
1.74	-0.00229163160589074
1.75	-0.00245095101996384
1.76	-0.00260258810720504
1.77	-0.00274498625568032
1.78	-0.00287633869234949
1.79	0.00217896963244879
1.8	0.00210933593385887
1.81	0.00203501895939806
1.82	0.00195618373393758
1.83	0.00187300529139312
1.84	0.00178566830870819
1.85	0.00169436669582468
1.86	0.00159930316515611
1.87	0.00150068878151344
1.88	0.00139874249349048
1.89	0.00129369064733786
1.9	0.00118576648442825
1.91	0.00107520962339192
1.92	0.000962265528106854
1.93	0.000847184962709857
1.94	0.000730223434834754
1.95	0.000611640628323085
1.96	0.000491699826659864
1.97	0.00037066732841895
1.98	0.000248811856013997
1.99	0.000126403959066823
2	3.71541371990691e-06
2.01	-0.000118981380774597
2.02	-0.000241414006848961
2.03	-0.00036331063345707
2.04	-0.000484400619602754
2.05	-0.000604415115236789
2.06	-0.000723087658164756
2.07	-0.000840154765664347
2.08	-0.000955356519481643
2.09	-0.00106843714291527
2.1	-0.0011791455686998
2.11	-0.0012872359964462
2.12	-0.00139246843837315
2.13	-0.00149460925214229
2.14	-0.00159343165960824
2.15	-0.00168871625031008
2.16	-0.00178025146862981
2.17	-0.00186783408348845
2.18	-0.00195126963958347
2.19	-0.00203037288910923
2.2	-0.00210496820307726
2.21	-0.00217488996123127
2.22	-0.00223998291978456
2.23	-0.00230010255608692
2.24	-0.00235511538951716
2.25	-0.00240489927782039
2.26	-0.00244934368832528
2.27	-0.00248834994331498
2.28	-0.00252226411249742
2.29	-0.00255075389971121
2.3	-0.00257346082404897
2.31	0.00356378725789913
2.32	0.00355138507952987
2.33	0.00353709706007196
2.34	0.0035209373000758
2.35	0.00350292174727246
2.36	0.00348306818083993
2.37	0.00346139619385055
2.38	0.00343792717393682
2.39	0.00341278494861541
2.4	0.00338618898145299
2.41	0.00335789605336828
2.42	0.00332793408606102
2.43	0.00329633264838047
2.44	0.00326312292712627
2.45	0.0032283376962865
2.46	0.00319201128468161
2.47	0.00315417954209818
2.48	0.00311487980389458
2.49	0.00307415085417051
2.5	0.00169408429887552
2.51	0.00230154083453071
2.52	0.00213370639189259
2.53	0.00195745118492519
2.54	0.00177347081240564
2.55	0.00158249136081279
2.56	0.00138526653878712
2.57	0.00118257470260352
2.58	0.000975215784334682
2.59	0.000764008134897853
2.6	0.00054978529439631
2.61	0.000333392702509872
2.62	0.000115684361939428
2.63	-0.000102480531956384
2.64	-0.000320240982011666
2.65	-0.000536737587214509
2.66	-0.000751115934373825
2.67	0.00214838058719646
2.68	0.00208951274285918
2.69	0.00203019376763935
2.7	0.00197051603506082
2.71	0.00191053843983924
2.72	0.00185032017262088
2.73	0.00178992066156469
2.74	0.00172939951369644
2.75	0.00166881645608175
2.76	0.00160823127688448
2.77	0.00154770376636204
2.78	0.00148729365785949
2.79	0.00142706056886099
2.8	0.00136706394215302
2.81	0.00130736298716194
2.82	0.00124801662152385
2.83	0.00118908341293611
2.84	0.00113062152136012
2.85	0.00107268864162535
2.86	0.00101534194648933
2.87	0.000958638030217007
2.88	0.00090263285272707
2.89	0.000847381684369042
2.9	0.000792939051374564
2.91	0.000739358682051994
2.92	0.000686693453751497
2.93	0.000634995340700328
2.94	0.000584315362692656
2.95	0.000534703534748049
2.96	0.000486208817751632
2.97	0.000438879070132958
2.98	0.000392761000642006
2.99	0.000347900122238287
3	0.0003043407072022
3.01	0.000262125743407893
3.02	0.000221296891936951
3.03	0.000181894445927644
3.04	0.00014395729084582
3.05	0.000107522866074072
3.06	7.26271279984925e-05
3.07	3.93045144974069e-05
3.08	7.58791096555633e-06
3.09	-2.24913821336159e-05
3.1	-0.000159724456797794
3.11	0.00226426387957196
3.12	0.00220111314452787
3.13	0.00213307538785656
3.14	0.00206030167039417
3.15	0.00198295356799294
3.16	0.00190120281277972
3.17	0.00181523091187741
3.18	0.00172522874440439
3.19	0.00163139613767849
3.2	0.00153394142355723
3.21	0.00143308097587236
3.22	0.00132903873004275
3.23	0.00122204568586992
3.24	0.0011123393946717
3.25	0.00100016343184595
3.26	0.000885766856086767
3.27	0.00076940365639655
3.28	0.000651332188180476
3.29	0.00053181459962337
3.3	0.000411116249661614
3.31	0.000289505118814537
3.32	0.000167251214206132
3.33	4.46259700761509e-05
3.34	-7.80983548670511e-05
3.35	-0.000200649281931753
3.36	-0.000322754717413498
3.37	-0.000444143556708854
3.38	-0.000564546286239143
3.39	-0.000683695581834121
3.4	-0.000801326902261534
3.41	-0.000917179076573293
3.42	-0.00103099488397074
3.43	-0.00114252162489825
3.44	-0.00125151168210136
3.45	-0.00135772307039717
3.46	-0.00146091997394082
3.47	-0.00156087326980481
3.48	-0.00165736103666891
3.49	-0.00175016904756942
3.5	-0.00183909124550641
3.51	0.00230154083453071
3.52	0.00213370639189248
3.53	0.00195745118492718
3.54	0.00177347081240553
3.55	0.00158249136081257
3.56	0.00138526653878701
3.57	0.00118257470260363
3.58	0.000975215784333683
3.59	0.000764008134897964
3.6	0.000549785294395866
3.61	0.000333392702509872
3.62	0.000115684361939317
3.63	-0.000102480531956384
3.64	-0.000320240982011666
3.65	-0.000536737587215064
3.66	-0.000751115934373714
3.67	-0.000962529970090831
3.68	-0.00117014533975579
3.69	-0.0013731426803526
3.7	-0.00157072085411902
3.71	-0.0017621001102669
3.72	-0.00194652516230964
3.73	-0.00212326816881592
3.74	-0.00229163160589285
3.75	-0.00245095101996351
3.76	-0.00260258810720748
3.77	-0.00274498625568065
3.78	-0.0028763386923496
3.79	-0.00299612702914553
3.8	-0.003103878516237
3.81	-0.00319916790772962
3.82	-0.0032816191399308
3.83	-0.00335090681548644
3.84	-0.00340675748760916
3.85	-0.0034489507391974
3.86	-0.00347732005277755
3.87	-0.00349175346761579
3.88	-0.00349219402162813
3.89	-0.00347863997614579
3.9	-0.00345114482279321
3.91	0.00444706733449771
3.92	0.00444943159587308
3.93	0.00445152047670157
3.94	0.00445333346158477
3.95	0.0044548701031947
3.96	0.00445613002238882
3.97	0.00445711290830075
3.98	0.00445781851841739
3.99	0.00445824667864181
4	0.0044583972833296
4.01	0.00445827029532265
4.02	0.00445786574595522
4.03	0.00445718373503882
4.04	0.00445622443085285
4.05	0.00445498807009138
4.06	0.00445347495780808
4.07	0.00445168546733866
4.08	0.00444962004021467
4.09	0.00444727918604937
4.1	0.00444466348241496
4.11	0.00444177357469261
4.12	0.0044386101759275
4.13	0.00443517406664015
4.14	0.00443146609464007
4.15	0.00442748717481187
4.16	0.00442323828889563
4.17	0.00441872048524
4.18	0.00441393487854724
4.19	0.00440888264959116
4.2	0.00440356504493378
4.21	0.0043979833766169
4.22	0.00439213902183355
4.23	0.00438603342258986
4.24	0.00437966808534918
4.25	0.0043730445806664
4.26	0.00436616454278971
4.27	0.00435902966926921
4.28	0.00435164172052266
4.29	0.00434400251941996
4.3	0.00433611395081879
4.31	0.00432797796110668
4.32	0.00431959655771336
4.33	0.00431097180862766
4.34	0.00430210584187751
4.35	0.0042930008450075
4.36	0.00428365906453787
4.37	0.00427408280541441
4.38	0.0042642744304352
4.39	0.00425423635967148
4.4	0.00424397106986385
4.41	0.00423348109382171
4.42	0.00422276901978869
4.43	0.00421183749080989
4.44	0.00420068920407557
4.45	0.00418932691025709
4.46	0.00417775341283322
4.47	0.00416597156739029
4.48	0.00415398428092173
4.49	0.0041417945111103
4.5	0.00120010993349318
4.51	0.00230154083452838
4.52	0.00213370639189681
4.53	0.00195745118492552
4.54	0.00177347081240564
4.55	0.00158249136081101
4.56	0.00138526653878845
4.57	0.00118257470260252
4.58	0.000975215784333683
4.59	0.000764008134897853
4.6	0.000549785294396754
4.61	0.00033339270250976
4.62	0.000115684361939317
4.63	-0.000102480531956273
4.64	-0.000320240982011666
4.65	0.000208057202611078
4.66	8.55255156421153e-05
4.67	-3.71960593590348e-05
4.68	-0.000159835049806878
4.69	-0.000282119166472472
4.7	-0.000403776908037168
4.71	0.00191053843983902
4.72	0.00185032017262088
4.73	0.00178992066156503
4.74	0.00172939951369633
4.75	0.00166881645608175
4.76	0.00160823127688459
4.77	0.00154770376636204
4.78	0.00148729365785971
4.79	0.00142706056886088
4.8	0.00136706394215313
4.81	0.00130736298716194
4.82	0.00124801662152374
4.83	0.001189083412936
4.84	0.0036138535054141
4.85	0.00359670529818912
4.86	0.00357949209827213
4.87	0.00356221816236324
4.88	0.00354488775254769
4.89	0.00352750514484523
4.9	0.003510074628153
4.91	0.00349260050319133
4.92	0.00347508708143862
4.93	0.00345753868406962
4.94	0.00343995964088872
4.95	0.00342235428926208
4.96	0.00340472697304672
4.97	0.00338708204151883
4.98	0.00336942384830163
4.99	0.00335175675028976
5	0.00333408510657551
