0	-5.79110784653846
0.05	-5.39110784653939
0.1	-4.89110784654056
0.15	-4.39110784654172
0.2	-4.08545901600001
0.25	-4.08376618000005
0.3	-4.08181050266671
0.35	-4.07961754666665
0.4	-4.07716132266675
0.45	-4.07446824666664
0.5	-4.07151147599997
0.55	-4.06831828000001
0.6	-4.06486096266667
0.65	-4.06116764666671
0.7	-4.05720978266671
0.75	-4.05301634666665
0.8	-4.04855793599998
0.85	-4.04386438000002
0.9	-4.03890542266668
0.95	-4.03371174666672
1	-4.02825224266671
1.05	-4.02255844666666
1.1	-4.01659839599999
1.15	-4.01040448
1.2	-4.00394388266669
1.25	-3.99724984666668
1.3	-3.99028870266668
1.35	-3.98309454666667
1.4	-3.975632856
1.45	-3.96793858000003
1.5	-3.9599763426667
1.55	-3.95178194666667
1.6	-3.94331916266666
1.65	-3.93462464666666
1.7	-3.92566131599999
1.75	-3.91646668000002
1.8	-3.90700280266668
1.85	-3.89730804666668
1.9	-3.88734362266667
1.95	-3.87714874666665
2	-3.86668377599998
2.05	-3.85598878000001
2.1	-3.84502326266667
2.15	-3.83382814666667
2.2	-3.82236208266666
2.25	-3.81066684666669
2.3	-3.79870023600002
2.35	-3.78650488000001
2.4	-3.77403772266668
2.45	-3.76134224666666
2.5	-3.74837454266665
2.55	-3.73517894666668
2.6	-3.72171069600001
2.65	-3.70801498
2.7	-3.69404618266667
2.75	-3.67985034666666
2.8	-3.66538100266666
2.85	-3.65068504666668
2.9	-3.63571515600001
2.95	-3.62051908
3	-3.60504864266666
3.05	-3.58935244666666
3.1	-3.57338146266668
3.15	-3.55718514666667
3.2	-3.54071361600001
3.25	-3.52401718
3.3	-3.50704510266667
3.35	-3.48984854666669
3.4	-3.47237592266668
3.45	-3.45467924666667
3.5	-3.436706076
3.55	-3.41850928
3.6	-3.40003556266666
3.65	-3.38133864666668
3.7	-3.36236438266668
3.75	-3.34316734666667
3.8	-3.323692536
3.85	-3.30399537999999
3.9	-3.28402002266666
3.95	-3.26382274666667
4	-3.24334684266667
4.05	-3.22264944666667
4.1	-3.201672996
4.15	-3.18047548000001
4.2	-3.15899848266668
4.25	-3.13730084666667
4.3	-3.11532330266667
4.35	-3.09312554666666
4.4	-3.07064745599999
4.45	-3.04794958000001
4.5	-3.02497094266667
4.55	-3.00177294666667
4.6	-2.97829376266667
4.65	-2.95459564666667
4.7	-2.930615916
4.75	-2.90641768000001
4.8	-2.88193740266667
4.85	-2.85723904666667
4.9	-2.83225822266666
4.95	-2.80705974666666
5	-2.781578376
5.05	-2.75587978
5.1	-2.72989786266667
5.15	-2.70369914666667
5.2	-2.67721668266667
5.25	-2.65051784666667
5.3	-2.623534836
5.35	-2.59633588
5.4	-2.56885232266667
5.45	-2.54115324666667
5.5	-2.51316914266667
5.55	-2.48496994666667
5.6	-2.456485296
5.65	-2.42778598
5.7	-2.39880078266667
5.75	-2.36960134666667
5.8	-2.34011560266667
5.85	-2.31041604666667
5.9	-2.280429756
5.95	-2.25023008
6	-2.22003008
6.05	-2.1895305
6.1	-2.1590305
6.15	-2.128031
6.2	-2.097031
6.25	-2.0655315
6.3	-2.0340315
6.35	-2.00223192
6.4	-1.97043192
6.45	-1.93842062
6.5	-1.90612062
6.55	-1.87360998666667
6.6	-1.84080998666667
6.65	-1.80780002
6.7	-1.77450002
6.75	-1.74099072
6.8	-1.70719072
6.85	-1.67318208666667
6.9	-1.63888208666667
6.95	-1.60437412
7	-1.56957412
7.05	-1.53456682
7.1	-1.49926682
7.15	-1.46376018666666
7.2	-1.42796018666666
7.25	-1.39195422
7.3	-1.35565422
7.35	-1.31914892
7.4	-1.28234892
7.45	-1.24534428666667
7.5	-1.20804428666667
7.55	-1.17054032
7.6	-1.13274032
7.65	-1.09473702
7.7	-1.05643702
7.75	-1.01793438666666
7.8	-0.979134386666664
7.85	-0.940132419999999
7.9	-0.900832419999998
7.95	-0.861331119999996
8	-0.821531119999996
8.05	-0.781530486666664
8.1	-0.741230486666664
8.15	-0.700730519999996
8.2	-0.659930519999996
8.25	-0.618931219999999
8.3	-0.577631219999999
8.35	-0.536132586666664
8.4	-0.494332586666665
8.45	-0.452334619999998
8.5	-0.410034619999998
8.55	-0.367537319999998
8.6	-0.324737319999998
8.65	-0.281740686666665
8.7	-0.238440686666665
8.75	-0.194944719999999
8.8	-0.151144719999999
8.85	-0.107149419999998
8.9	-0.0628494199999983
8.95	-0.0183547866666643
9	0.0264452133333357
9.05	0.0714391800000022
9.1	0.116739180000002
9.15	0.162232480000002
9.2	0.208032480000002
9.25	0.254025113333337
9.3	0.300325113333337
9.35	0.346817080000002
9.4	0.393617080000002
9.45	0.440608380000002
9.5	0.487908380000003
9.55	0.535399013333334
9.6	0.583199013333332
9.65	0.631188980000003
9.7	0.679488980000003
9.75	0.72797828
9.8	0.776778279999999
9.85	0.825766913333337
9.9	0.875066913333337
9.95	0.924554880000003
10	0.97435488
10	0.97435488
11	1.97435488
