0	-0.707106781186547
0.01	-0.394606781186545
0.02	-0.0821067811865458
0.024   0.037690182669935
0.03	0.0462391994567904
0.04	0.0619240111817313
0.05	0.0775935440835023
0.06	0.0932439319393278
0.07	0.108871313250186
0.08	0.124471832193577
0.09	0.140041639574885
0.1	0.155576893777117
0.11	0.171073761708756
0.12	0.186528419749525
0.13	0.201937054693805
0.14	0.217295864691489
0.15	0.232601060186028
0.16	0.247848864849451
0.17	0.263035516514114
0.18	0.278157268100962
0.19	0.293210388544063
0.2	0.308191163711191
0.21	0.323095897320238
0.22	0.337920911851208
0.23	0.352662549453598
0.24	0.367317172848914
0.25	0.381881166228113
0.26	0.396350936143757
0.27	0.410722912396633
0.28	0.424993548916655
0.29	0.439159324637796
0.3	0.453216744366865
0.31	0.467162339645889
0.32	0.480992669607906
0.33	0.494704321825945
0.34	0.508293913154992
0.35	0.521758090566734
0.36	0.535093531976863
0.37	0.548296947064752
0.38	0.561365078085297
0.39	0.57429470067271
0.4	0.587082624636088
0.41	0.599725694746543
0.42	0.612220791515708
0.43	0.624564831965422
0.44	0.636754770388414
0.45	0.648787599099778
0.46	0.660660349179081
0.47	0.672370091202897
0.48	0.683913935967599
0.49	0.695289035202225
0.5	0.706492582271247
0.51	0.74587066359396
0.52	0.786107884577282
0.53	0.823232103281038
0.54	0.857100922442926
0.55	0.887580681644917
0.56	0.914548058100749
0.57	0.937899320588888
0.58	0.957542545372198
0.59	0.973400209616595
0.6	0.985409730365985
0.61	0.993523711528598
0.62	0.99771013092771
0.63	0.997952466678545
0.64	0.994270613738669
0.65	0.996709276530517
0.66	0.999421034850089
0.67	0.99991382854102
0.68	0.998186563478078
0.69	0.994243074621652
0.7	0.988092117503176
0.71	0.991895435626688
0.72	0.995396911871899
0.73	0.997916051540819
0.74	0.999450368546732
0.75	0.999998348703995
0.76	0.999559451222351
0.77	0.998134109240626
0.78	0.995723729399272
0.79	0.992330690452183
0.8	0.987958340919154
0.81	0.982610995781293
0.82	0.97629393222266
0.83	0.969013384422318
0.84	0.968366849805357
0.85	0.972166842739378
0.86	0.975726968051799
0.87	0.979046347334968
0.88	0.982124161581718
0.89	0.984959651387437
0.9	0.987552117137443
0.91	0.989900919179605
0.92	0.992005477982165
0.93	0.99386527427673
0.94	0.995479849186392
0.95	0.996848804338952
0.96	0.99797180196521
0.97	0.998848564982306
0.98	0.999478877062085
0.99	0.999862582684472
1	0.999999587175846
1.01	0.9998898567324
1.02	0.999533418428478
1.03	0.998930360209899
1.04	0.998080830872254
1.05	0.996985040024195
1.06	0.995643258035717
1.07	0.994055815971449
1.08	0.992223105508966
1.09	0.990145578842152
1.1	0.987823748569626
1.11	0.985258187568263
1.12	0.982449528851853
1.13	0.979398465414907
1.14	0.976105750061673
1.15	0.972572195220395
1.16	0.968798672742857
1.17	0.964786113689266
1.18	0.960535508098526
1.19	0.956047904743964
1.2	0.951324410874558
1.21	0.946366191941742
1.22	0.941174471311845
1.23	0.935750529964248
1.24	0.930095706175318
1.25	0.924211395188211
1.26	0.918099048868612
1.27	0.911760175346517
1.28	0.905196338644114
1.29	0.898409158289895
1.3	0.891400308919053
1.31	0.884171519860294
1.32	0.876724574709152
1.33	0.869061310887912
1.34	0.861183619192254
1.35	0.853093443324727
1.36	0.844792779415171
1.37	0.8362836755282
1.38	0.827568231157873
1.39	0.818648596709678
1.4	0.809526972969947
1.41	0.800205610562847
1.42	0.790686809395075
1.43	0.780972918088385
1.44	0.771066333400105
1.45	0.760969499631772
1.46	0.750684908026036
1.47	0.740215096151984
1.48	0.729562647279033
1.49	0.718730189739545
1.5	0.707720396280331
1.51	0.745870663593937
1.52	0.786107884577283
1.53	0.823232103281038
1.54	0.857100922442926
1.55	0.887580681644917
1.56	0.914548058100749
1.57	0.937899320588888
1.58	0.957542545372198
1.59	0.973400209616595
1.6	0.985409730365985
1.61	0.993523711528598
1.62	0.99771013092771
1.63	0.997952466678546
1.64	0.994249762392609
1.65	0.986616630952113
1.66	0.975083196839607
1.67	0.959694977250408
1.68	0.940512702457025
1.69	0.917612076134521
1.7	0.891083476592689
1.71	0.861031600094156
1.72	0.827575047666067
1.73	0.790845857036008
1.74	0.750988981539428
1.75	0.708161718055036
1.76	0.662537578293327
1.77	0.614294468750422
1.78	0.563619961672417
1.79	0.546843848365682
1.8	0.585675916358614
1.81	0.623207637376307
1.82	0.659355681589714
1.83	0.694039791300921
1.84	0.727182959112704
1.85	0.758711598904206
1.86	0.788555709210534
1.87	0.81664902864351
1.88	0.842929183008525
1.89	0.867337823790853
1.9	0.88982075770394
1.91	0.910328067012054
1.92	0.928814220360145
1.93	0.945238173864836
1.94	0.959563462242109
1.95	0.971758279769354
1.96	0.981795550902029
1.97	0.989652990388139
1.98	0.995313152747066
1.99	0.998763471002903
2	0.99999628458628
2.01	0.999008856342745
2.02	0.995803378609929
2.03	0.990386968350014
2.04	0.982771651348291
2.05	0.972974335512913
2.06	0.961016773335108
2.07	0.94692551359321
2.08	0.930731842407733
2.09	0.91247171377836
2.1	0.892185669757067
2.11	0.869918750434637
2.12	0.845720393940388
2.13	0.819644326677166
2.14	0.791748444035299
2.15	0.762094681850341
2.16	0.730748878890041
2.17	0.697780630675803
2.18	0.663263134963235
2.19	0.627273029224815
2.2	0.589890220495551
2.21	0.551197707959363
2.22	0.511281398670155
2.23	0.470229916816661
2.24	0.428134406954589
2.25	0.385088331642911
2.26	0.341187263933615
2.27	0.296528675175619
2.28	0.251212151277351
2.29	0.205338049256224
2.3	0.15900792586428
2.31	0.185675371096261
2.32	0.21644830876506
2.33	0.247007638085229
2.34	0.277323200688202
2.35	0.307365078773732
2.36	0.337103624635148
2.37	0.366509489918061
2.38	0.395553654583654
2.39	0.424207455547943
2.4	0.452442614968794
2.41	0.480231268152729
2.42	0.507545991054021
2.43	0.534359827338912
2.44	0.560646314988265
2.45	0.586379512412373
2.46	0.611534024052188
2.47	0.636085025441659
2.48	0.660008287706497
2.49	0.683280201475133
2.5	0.705877800178333
2.51	0.745870663593936
2.52	0.786107884577283
2.53	0.823232103281038
2.54	0.857100922442926
2.55	0.887580681644917
2.56	0.91454805810075
2.57	0.937899320588888
2.58	0.957542545372198
2.59	0.973400209616596
2.6	0.985409730365985
2.61	0.993523711528598
2.62	0.99771013092771
2.63	0.997952466678545
2.64	0.994249762392609
2.65	0.986616630952113
2.66	0.975083196839607
2.67	0.968149739537933
2.68	0.975536368599935
2.69	0.981960261582059
2.7	0.9874150783395
2.71	0.991895435626688
2.72	0.995396911871899
2.73	0.997916051540819
2.74	0.999450368546732
2.75	0.999998348703995
2.76	0.999559451222352
2.77	0.998134109240626
2.78	0.995723729399272
2.79	0.992330690452183
2.8	0.987958340919153
2.81	0.982610995781294
2.82	0.97629393222266
2.83	0.969013384422318
2.84	0.960776537401955
2.85	0.951591519935133
2.86	0.941467396525172
2.87	0.930414158459577
2.88	0.918442713949844
2.89	0.905564877366376
2.9	0.891793357579119
2.91	0.877141745415449
2.92	0.861624500247661
2.93	0.845256935723313
2.94	0.828055204652515
2.95	0.81003628306704
2.96	0.791217953467045
2.97	0.771618787271877
2.98	0.751258126492337
2.99	0.730156064642444
3	0.708333426909556
3.01	0.685811749602442
3.02	0.662613258897524
3.03	0.638760848904345
3.04	0.614278059071827
3.05	0.589189050957696
3.06	0.563518584383924
3.07	0.53729199300179
3.08	0.51053515929061
3.09	0.483274489014866
3.1	0.455536885164903
3.11	0.493194404552836
3.12	0.533625681834469
3.13	0.572872176655422
3.14	0.610846751982582
3.15	0.647465094762192
3.16	0.682645903115909
3.17	0.716311066851312
3.18	0.748385840886055
3.19	0.778799011200651
3.2	0.80748305295139
3.21	0.834374280392398
3.22	0.859412988273901
3.23	0.882543584402823
3.24	0.903714713071348
3.25	0.92287936907944
3.26	0.939995002098139
3.27	0.955023611141934
3.28	0.967931828940451
3.29	0.978690996022142
3.3	0.987277224345476
3.31	0.993671450336365
3.32	0.997859477214066
3.33	0.999832006511584
3.34	0.999584658720599
3.35	0.99711798301506
3.36	0.992437456031891
3.37	0.985553469711483
3.38	0.976481308224986
3.39	0.965241114039632
3.4	0.951857843197415
3.41	0.936361209906441
3.42	0.918785620567951
3.43	0.899170097385513
3.44	0.877558191725965
3.45	0.85399788742449
3.46	0.828541494248504
3.47	0.801245531756895
3.48	0.772170603812459
3.49	0.741381264026178
3.5	0.708945872432054
3.51	0.745870663593938
3.52	0.786107884577283
3.53	0.823232103281038
3.54	0.857100922442927
3.55	0.887580681644917
3.56	0.91454805810075
3.57	0.937899320588888
3.58	0.957542545372199
3.59	0.973400209616596
3.6	0.985409730365986
3.61	0.993523711528598
3.62	0.99771013092771
3.63	0.997952466678546
3.64	0.994249762392609
3.65	0.986616630952113
3.66	0.975083196839607
3.67	0.959694977250407
3.68	0.940512702457025
3.69	0.91761207613452
3.7	0.891083476592689
3.71	0.861031600094155
3.72	0.827575047666065
3.73	0.790845857036008
3.74	0.750988981539428
3.75	0.708161718055036
3.76	0.662537578293327
3.77	0.61429446875042
3.78	0.563619961672418
3.79	0.510714046187768
3.8	0.455785517774481
3.81	0.399051154239747
3.82	0.340734860196968
3.83	0.281066783416554
3.84	0.220282406537806
3.85	0.158621617726518
3.86	0.096327763946005
3.87	0.0336466905777705
3.88	-0.0291742288178497
3.89	-0.0918870687721522
3.9	-0.154244330356609
3.91	-0.141760707965416
3.92	-0.12619453145386
3.93	-0.110597218329956
3.94	-0.0949726169973314
3.95	-0.0793245825925682
3.96	-0.0636569760340095
3.97	-0.0479736630691343
3.98	-0.0322785133207413
3.99	-0.0165753993321817
4	-0.000868195611858377
4.01	0.0148392223227404
4.02	0.0305429789012741
4.03	0.0462391994567908
4.04	0.0619240111817312
4.05	0.0775935440835021
4.06	0.0932439319393276
4.07	0.108871313250187
4.08	0.124471832193577
4.09	0.140041639574885
4.1	0.155576893777116
4.11	0.171073761708757
4.12	0.186528419749525
4.13	0.201937054693805
4.14	0.217295864691489
4.15	0.232601060186029
4.16	0.247848864849451
4.17	0.263035516514114
4.18	0.278157268100961
4.19	0.293210388544062
4.2	0.308191163711191
4.21	0.323095897320238
4.22	0.337920911851208
4.23	0.352662549453597
4.24	0.367317172848914
4.25	0.381881166228113
4.26	0.396350936143757
4.27	0.410722912396633
4.28	0.424993548916655
4.29	0.439159324637797
4.3	0.453216744366865
4.31	0.467162339645889
4.32	0.480992669607907
4.33	0.494704321825945
4.34	0.508293913154992
4.35	0.521758090566734
4.36	0.535093531976863
4.37	0.548296947064753
4.38	0.561365078085297
4.39	0.57429470067271
4.4	0.587082624636089
4.41	0.599725694746543
4.42	0.612220791515708
4.43	0.624564831965422
4.44	0.636754770388413
4.45	0.648787599099778
4.46	0.660660349179081
4.47	0.672370091202897
4.48	0.683913935967599
4.49	0.695289035202225
4.5	0.706492582271247
4.51	0.745870663593962
4.52	0.786107884577281
4.53	0.823232103281039
4.54	0.857100922442926
4.55	0.887580681644917
4.56	0.914548058100749
4.57	0.937899320588888
4.58	0.957542545372199
4.59	0.973400209616596
4.6	0.985409730365985
4.61	0.993523711528598
4.62	0.99771013092771
4.63	0.997952466678545
4.64	0.994270613738669
4.65	0.996709276530517
4.66	0.999421034850089
4.67	0.99991382854102
4.68	0.998186563478078
4.69	0.994243074621652
4.7	0.988092117503175
4.71	0.991895435626688
4.72	0.995396911871899
4.73	0.997916051540819
4.74	0.999450368546732
4.75	0.999998348703995
4.76	0.999559451222352
4.77	0.998134109240626
4.78	0.995723729399271
4.79	0.992330690452183
4.8	0.987958340919153
4.81	0.982610995781294
4.82	0.97629393222266
4.83	0.969013384422318
4.84	0.968366849805357
4.85	0.972166842739379
4.86	0.975726968051799
4.87	0.979046347334968
4.88	0.982124161581718
4.89	0.984959651387436
4.9	0.987552117137443
4.91	0.989900919179605
4.92	0.992005477982165
4.93	0.99386527427673
4.94	0.995479849186392
4.95	0.996848804338952
4.96	0.99797180196521
4.97	0.998848564982306
4.98	0.999478877062085
4.99	0.999862582684472
5	0.999999587175846
