0	-5.18410439723542
0.05	-4.78410439723635
0.1	-4.28410439723752
0.15	-4.07957201333334
0.2	-4.07811453600001
0.25	-4.07642038000004
0.3	-4.07446235600004
0.35	-4.07226808
0.4	-4.0698095093334
0.45	-4.06711511333331
0.5	-4.06415599599998
0.55	-4.06096148000001
0.6	-4.05750181600001
0.65	-4.05380718000004
0.7	-4.04984696933337
0.75	-4.04565221333332
0.8	-4.04119145599999
0.85	-4.03649658000002
0.9	-4.03153527600001
0.95	-4.02634028000004
1	-4.02087842933337
1.05	-4.01518331333333
1.1	-4.00922091599999
1.15	-4.00302567999999
1.2	-3.99656273600002
1.25	-3.98986738000001
1.3	-3.98290388933334
1.35	-3.97570841333334
1.4	-3.968244376
1.45	-3.96054878000003
1.5	-3.95258419600002
1.55	-3.94438848
1.6	-3.93592334933333
1.65	-3.92722751333333
1.7	-3.91826183599999
1.75	-3.90906588000002
1.8	-3.89959965600001
1.85	-3.88990358000001
1.9	-3.87993680933334
1.95	-3.86974061333332
2	-3.85927329599999
2.05	-3.84857698000001
2.1	-3.837609116
2.15	-3.82641268
2.2	-3.81494426933333
2.25	-3.80324771333335
2.3	-3.79127875600002
2.35	-3.77908208000001
2.4	-3.76661257600001
2.45	-3.75391577999999
2.5	-3.74094572933333
2.55	-3.72774881333334
2.6	-3.71427821600001
2.65	-3.70058118
2.7	-3.686610036
2.75	-3.67241288
2.8	-3.65794118933333
2.85	-3.64324391333335
2.9	-3.62827167600001
2.95	-3.61307428
3	-3.597601496
3.05	-3.58190397999999
3.1	-3.56593064933334
3.15	-3.54973301333334
3.2	-3.533259136
3.25	-3.51656138
3.3	-3.499586956
3.35	-3.48238908000001
3.4	-3.46491410933334
3.45	-3.44721611333333
3.5	-3.429240596
3.55	-3.41104248
3.6	-3.392566416
3.65	-3.37386818000001
3.7	-3.35489156933334
3.75	-3.33569321333334
3.8	-3.316216056
3.85	-3.29651758
3.9	-3.276539876
3.95	-3.25634128
4	-3.23586302933334
4.05	-3.21516431333333
4.1	-3.194185516
4.15	-3.17298668000001
4.2	-3.15150733600001
4.25	-3.12980838
4.3	-3.10782848933334
4.35	-3.08562941333333
4.4	-3.063148976
4.45	-3.04044978
4.5	-3.017468796
4.55	-2.99426948
4.6	-2.97078794933333
4.65	-2.94708851333333
4.7	-2.923106436
4.75	-2.89890688
4.8	-2.874424256
4.85	-2.84972458
4.9	-2.82502458
4.95	-2.800025
5	-2.775025
5.05	-2.7495255
5.1	-2.7240255
5.15	-2.698026
5.2	-2.672026
5.25	-2.64572642
5.3	-2.61942642
5.35	-2.59291145333333
5.4	-2.56611145333333
5.45	-2.53909715333333
5.5	-2.51179715333333
5.55	-2.48428352
5.6	-2.45648352
5.65	-2.42847055333334
5.7	-2.40017055333334
5.75	-2.37165825333333
5.8	-2.34285825333333
5.85	-2.31384662
5.9	-2.28454662
5.95	-2.25503565333333
6	-2.22523565333333
6.05	-2.19522535333333
6.1	-2.16492535333333
6.15	-2.13441572
6.2	-2.10361572
6.25	-2.07260675333333
6.3	-2.04130675333333
6.35	-2.00979845333334
6.4	-1.97799845333334
6.45	-1.94599082
6.5	-1.91369082
6.55	-1.88118385333333
6.6	-1.84838385333333
6.65	-1.81537755333333
6.7	-1.78207755333333
6.75	-1.74857192
6.8	-1.71477192
6.85	-1.68076695333333
6.9	-1.64646695333333
6.95	-1.61196265333333
7	-1.57716265333333
7.05	-1.54215902
7.1	-1.50685902
7.15	-1.47135605333333
7.2	-1.43555605333333
7.25	-1.39955375333333
7.3	-1.36325375333333
7.35	-1.32675212
7.4	-1.28995212
7.45	-1.25295115333334
7.5	-1.21565115333334
7.55	-1.17815085333333
7.6	-1.14035085333333
7.65	-1.10235122
7.7	-1.06405122
7.75	-1.02555225333333
7.8	-0.986752253333329
7.85	-0.947753953333332
7.9	-0.908453953333332
7.95	-0.868956319999995
8	-0.829156319999995
8.05	-0.789159353333331
8.1	-0.748859353333331
8.15	-0.708363053333328
8.2	-0.667563053333328
8.25	-0.626567419999996
8.3	-0.58526742
8.35	-0.54377245333333
8.4	-0.501972453333331
8.45	-0.459978153333332
8.5	-0.417678153333332
8.55	-0.375184519999998
8.6	-0.332384519999999
8.65	-0.28939155333333
8.7	-0.246091553333332
8.75	-0.202599253333331
8.8	-0.158799253333332
8.85	-0.114807619999998
8.9	-0.0705076199999984
8.95	-0.026016653333331
9	0.018783346666669
9.05	0.0637736466666689
9.1	0.109073646666669
9.15	0.154563280000002
9.2	0.200363280000003
9.25	0.24635224666667
9.3	0.292652246666671
9.35	0.339140546666669
9.4	0.385940546666669
9.45	0.432928180000002
9.5	0.480228180000004
9.55	0.527715146666671
9.6	0.575515146666665
9.65	0.62350144666667
9.7	0.67180144666667
9.75	0.720287080000002
9.8	0.769087079999999
9.85	0.818072046666671
9.9	0.867372046666671
9.95	0.916856346666672
10	0.966656346666667
10	0.966656346666667
11	1.96665634666667
