28.3225604027704	0.0481828788
29.262110389715	0.0498895068
30.202194079212	0.0525140844
31.1417774225661	0.0560684712
32.0813607659203	0.0600142332
33.0204104067221	0.0639339024
33.9589930577907	0.0667233312
34.8975423524497	0.0688035432
35.8355913009659	0.073052916
36.774140595625	0.0744262824
37.7116891979984	0.0776023416
38.6487040978196	0.0820438428
39.586252700193	0.0862208712
40.5232676000141	0.0882904092
41.4603158562448	0.0917677068
42.3962967073708	0.0934150356
43.3323109149063	0.0967535748
44.2688588249942	0.09924888
45.2043393299774	0.1033796544
46.1398531913702	0.1068320472
47.0748333502106	0.1096345224
48.0098468654605	0.112234194
48.9448270243009	0.11376411
49.8788064908558	0.1147366152
50.8132863035534	0.117674292
51.7472657701082	0.1204376292
52.6807448905202	0.1229495388
53.6141906545227	0.1249882416
54.547169428792	0.1256227416
55.4806151927945	0.1275760536
56.4130602645114	0.1285592316
57.3450049900855	0.1310782572
58.2774500618024	0.1359716184
59.2093947873765	0.1379320452
60.1413395129507	0.1388606688
61.0722501898297	0.1415765676
62.0031942231182	0.1429843272
62.93460524614	0.1447751604
63.8650155768762	0.1462339176
64.7954259076124	0.1491134808
65.7253358922058	0.1503516456
66.6547455306564	0.15049515
67.5851558613926	0.150720486
68.5140317972909	0.1505698668
69.4434414357415	0.1534019916
70.371817025497	0.1553351412
71.3001926152525	0.1581127104
72.2290685511508	0.15944694
73.1569437947635	0.1602617088
74.085319384519	0.1612674216
75.0121605794366	0.1609590672
75.939502120497	0.1627629444
76.8668770179669	0.1657907556
77.7937182128845	0.166075392
78.720559407802	0.1676669796
79.646399910434	0.1692336612
80.572240413066	0.1686786216
81.4985812618408	0.169671288
82.4238880619205	0.171635274
83.3492282184097	0.172164222
84.2740346723465	0.1755110628
85.1988411262834	0.1770955344
86.1236809366298	0.1777158024
87.0479536880144	0.1785519192
87.9722597958085	0.1765594704
88.8955652113169	0.1806795708
89.8188372704159	0.1817706732
90.7426430320672	0.181471806
91.6654147450234	0.1815097572
92.5887201605319	0.1824704028
93.5109915273452	0.1824004296
94.4327291916063	0.1834666272
95.3555009045624	0.18333024
96.2767715790902	0.1843869492
97.1985425997608	0.1880231688
98.1197799178791	0.1865727132
99.0405168898545	0.1878345984
99.9617542079728	0.1892720076
100.881990833805	0.1885556748
101.80276116219	0.1901709828
102.722464085471	0.1913877996
103.642200365161	0.1933138344
104.561903288441	0.1915419768
105.481139221988	0.1920602508
106.400341799126	0.1923021912
107.31904403012	0.191654646
108.237245914972	0.1915360476
109.155948145967	0.1924978788
110.073649684676	0.1951224564
110.991851569528	0.1954735068
111.909019405685	0.1971243936
112.826187241842	0.1962064428
113.743388434408	0.1958245572
114.660055924422	0.1969808892
115.577223760579	0.197414958
116.49339090445	0.1996778112
117.409057702179	0.1971564144
118.32519148964	0.1981561968
119.240357941226	0.196192212
120.155991382545	0.1964649876
121.071157834131	0.1969963068
121.985790583164	0.196580028
122.900423332197	0.1987906968
123.814522378678	0.1991524224
124.729155127712	0.2013666492
125.642787184459	0.1986970044
126.555885538655	0.1993623408
127.469517595403	0.201639426
128.382615949598	0.2028159192
129.295714303793	0.2006740368
130.208312311846	0.2030044908
131.120409973756	0.199925682
132.032507635666	0.199900776
132.944071595023	0.1988630424
133.856169256933	0.1990717752
134.767232870148	0.200549508
135.678296483362	0.2023948956
136.589393452987	0.2046613068
137.499956720059	0.203648478
138.410519987131	0.2034385596
139.32054955165	0.2037350556
140.230112126436	0.20326422
141.140175047366	0.2038655136
142.0492039196	0.2042853504
142.958733137976	0.2060761836
143.867261664068	0.2060453472
144.775790190159	0.2050384488
145.684819062393	0.2023415268
146.592847242341	0.2048937588
147.50087542229	0.2051973708
148.408369899686	0.2084125668
149.315364030939	0.2084564484
150.223392210887	0.2084766096
151.129885995998	0.206931276
152.036880127251	0.2090269056
152.943373912362	0.2067213576
153.849367351329	0.2094289536
154.755327433888	0.2094953688
155.660820526713	0.2110027512
156.566780609271	0.2093328888
157.471739999543	0.2092190352
158.376699389816	0.2087932668
159.281692136498	0.2085050736
160.186117824218	0.209504856
161.090576868348	0.212508948
161.994535566335	0.2133616692
162.89796056177	0.2125860372
163.801919259757	0.2115435588
164.704843909049	0.2115127236
165.608268904483	0.2139807516
166.510693207632	0.2132098632
167.413117510781	0.2158154652
168.316042160073	0.2147824752
169.21796611708	0.2145974616
170.119856717676	0.2143590792
171.02128032854	0.2137803204
171.922670582994	0.2138692692
172.824060837448	0.2171461368
173.724450399616	0.2177640324
174.625340307927	0.2184803664
175.525729870096	0.218760258
176.425585729712	0.2174770248
177.32597529188	0.2195014956
178.225330805353	0.2188527636
179.125220021379	0.219253626
180.024075188709	0.2204111436
180.92293035604	0.2212235412
181.82178552337	0.2207787984
182.720140344558	0.2199675864
183.618495165746	0.2213326524
184.516316284381	0.2197410648
185.414170759426	0.222588606
186.311991878061	0.2252428332
187.208812304411	0.2254088712
188.106133076903	0.2243794392
189.002953503253	0.225494262
189.89927358346	0.2254005696
190.795593663667	0.227933826
191.691380041322	0.227803368
192.587700121529	0.228448542
193.482986153041	0.2295740388
194.378272184552	0.22792671
195.273591572474	0.2294530692
196.168377257843	0.2289288648
197.063129586802	0.2296819632
197.957414926029	0.232083576
198.851199919112	0.23339883
199.745451901929	0.2343025476
200.639236895012	0.2353213068
201.532988531686	0.2353355376
202.425739476074	0.2350236252
203.318490420463	0.2368547808
204.211741710994	0.238958712
205.103992309239	0.2390168256
205.996242907485	0.2399798424
206.887959803178	0.2402514324
207.779676698871	0.2409891132
208.671426950974	0.2418975744
209.562643500525	0.2436291084
210.453860050075	0.2448388092
211.344576253483	0.2465940624
212.234758754338	0.247953198
213.125474957746	0.2483694768
214.01569081501	0.2487691524
214.905906672275	0.249461766
215.795088480845	0.2503797156
216.684270289415	0.2519701176
217.573952444127	0.253647096
218.462633906554	0.2536127028
219.351315368981	0.254288712
220.239463128856	0.2557533996
221.12764424514	0.2570342592
222.015825361424	0.2584621812
222.903472775156	0.2605210452
223.791120188887	0.2618706924
224.678267256476	0.2630056776
225.564913977923	0.264527292
226.452061045512	0.265140444
227.338707766958	0.2661900384
228.225354488404	0.2679097116
229.110967161155	0.2691087396
229.996579833906	0.2700824304
230.88272620921	0.2719112136
231.767838535818	0.2721662004
232.652950862426	0.2735087316
233.538063189035	0.2741705088
234.422174823357	0.2765448444
235.307287149966	0.2782396128
236.190865081736	0.279984192
237.075477062201	0.28163745
237.959054993972	0.2826218148
238.842132579599	0.283601436
239.72571051137	0.2851017024
240.608287750855	0.2863861212
241.491365336482	0.2877903228
242.373942575967	0.2886964128
243.255986112899	0.29060703
244.138563352384	0.291520236
245.020106543174	0.292313658
245.902183436516	0.2931414732
246.783226281163	0.2951066448
247.66426912581	0.2969994708
248.545278614047	0.2993465292
249.425821112551	0.3008918628
250.306363611055	0.3011231304
251.186372407007	0.3024205944
252.066414559368	0.3037654968
252.94642335532	0.3045814524
253.825431458986	0.3066723384
254.705473611347	0.3085129824
255.583948012461	0.3094724412
256.462455769985	0.3111387456
257.341463873651	0.311852706
258.219437928622	0.3139424064
259.097945686145	0.3156988452
259.975919741116	0.3173947992
260.853426806354	0.319387248
261.730900515182	0.3209219088
262.607873877868	0.3223759224
263.485347586696	0.3227601804
264.361787246829	0.3245889636
265.237759917229	0.3262196892
266.114733279915	0.327450738
266.990172247762	0.329745612
267.866611907895	0.331067982
268.7415505296	0.3319977924
269.616989497448	0.333451806
270.492428465295	0.335972016
271.366866740857	0.3373762188
272.241805362562	0.3397209048
273.116243638124	0.34170861
273.990148211133	0.3438054264
274.864052784143	0.344709144
275.737990713562	0.34622127
276.611394940429	0.3476657964
277.484799167296	0.3495467628
278.357169345468	0.3506864916
279.230573572334	0.3531153828
280.102977106916	0.3545183988
280.975347285088	0.3553331676
281.847250473526	0.3570540276
282.719120305555	0.358604106
283.590990137584	0.3607554768
284.46235962347	0.3624692196
285.333762465766	0.365168514
286.204598249099	0.3669285108
287.0749670427	0.36832797
287.945836182443	0.3697724952
288.815671273491	0.3708588552
289.686006710683	0.3728121672
290.55587515814	0.3747014352
291.425209903046	0.3767555556
292.294544647951	0.3780020232
293.163345690304	0.378943692
294.03268043521	0.3803384064
294.901014487829	0.3820616376
295.76931518404	0.3837433596
296.638149582802	0.385984866
297.505449586727	0.3880970988
298.373783639347	0.3902413536
299.241083643272	0.3914996808
300.107849944644	0.3925243692
300.975683651121	0.3940032876
301.841949606351	0.3959530416
302.708749264133	0.3982514748
303.575015219362	0.400066026
304.440780828449	0.4015449456
305.307080140088	0.4029799836
306.172845749175	0.4046130804
307.038611358262	0.4060718376
307.903376275063	0.4078069296
308.768141191864	0.4101409416
309.633406454808	0.4124607216
310.497637669057	0.4134913392
311.362402585858	0.4145278872
312.226133453964	0.4154541396
313.08986432207	0.416933058
313.953595190177	0.4188804408
314.81682571214	0.4209606528
315.680556580246	0.4224715932
316.543286756066	0.4238034504
317.406016931887	0.4257745524
318.268713751298	0.426946302
319.130409878423	0.4290466752
319.993140054244	0.4312431144
320.854836181369	0.4340776104
321.716031962352	0.4358269332
322.577728089477	0.43709712
323.438423524317	0.4391725872
324.300119651442	0.440925468
325.16028138373	0.4428420156
326.020476472427	0.445001688
326.881138550857	0.4470226008
327.740799937002	0.4486782312
328.600995025699	0.450159522
329.460656411843	0.4518507324
330.319817451845	0.4533450696
331.178945135438	0.455515416
332.037605829297	0.4577557356
332.896766869299	0.4601573484
333.754893860605	0.461618478
334.613020851912	0.4635207924
335.471181199628	0.4652523252
336.328807844792	0.4671451524
337.186434489956	0.4691672508
338.043560788978	0.4718878932
338.900687087999	0.4744614732
339.75778003061	0.4774228704
340.614405983489	0.4795030824
341.470998579958	0.482469222
342.327124186693	0.484958598
343.182716090876	0.4881299124
344.038808341203	0.4911162144
344.893899899243	0.4942317888
345.749491803426	0.4965551268
346.604583361467	0.4980257448
347.459141216955	0.5000561448
348.314232774995	0.5016394308
349.168290284341	0.5041157604
350.022881496238	0.5062730616
350.876438659441	0.5082394188
351.729995822643	0.510509388
352.584053331989	0.5124721872
353.437110149049	0.5149212396
354.290133609699	0.517377408
355.143190426759	0.5203992888
355.995213195123	0.5241624096
356.848270012183	0.5275958268
357.700292780548	0.5306224512
358.552315548912	0.533602824
359.403837971134	0.5361740316
360.255360393356	0.5388531648
361.106882815578	0.5417018928
361.957404545514	0.5449989216
362.808926967736	0.5474705076
363.659415341263	0.5498472156
364.509403368646	0.552648504
365.359925098583	0.555014538
366.209412779824	0.5572097904
367.059901153351	0.5603372232
367.908888488449	0.563133768
368.757842467138	0.565623144
369.607330148379	0.5682655116
370.456317483477	0.57092211
371.305304818576	0.573143454
372.153258104979	0.57552372
373.001211391382	0.5786096436
373.849665023928	0.581206944
374.697117964188	0.5836595544
375.545071250592	0.5862793872
376.392023844709	0.5887153944
377.238976438827	0.5909984088
378.085895676535	0.5936087544
378.93234792451	0.5963768364
379.779267162218	0.5992599576
380.62518570764	0.60199839
381.471104253063	0.6044225364
382.317022798485	0.6067185972
383.162440997765	0.6087454392
384.007859197045	0.6110616612
384.852777050182	0.6142448364
385.697661546909	0.6164804124
386.542579400046	0.6187503816
387.386963550631	0.6214484892
388.231381057625	0.6236674608
389.075264862067	0.6254831988
389.918614963956	0.6280413624
390.762532124807	0.6307525164
391.605882226697	0.632703456
392.449265684996	0.6349663092
393.2916150946	0.6370607532
394.134498206756	0.6388670028
394.977381318912	0.6404123376
395.819230382373	0.6427143276
396.661579791977	0.6449617632
397.502928509296	0.64688424
398.344777572757	0.6504374412
399.186126290075	0.6522294588
400.026941304841	0.6540143616
400.868290022159	0.65596293
401.709105036925	0.6590832468
402.549453061958	0.6611966664
403.389767730581	0.662968524
404.229582053062	0.6653440452
405.069896721685	0.666934446
405.909210698022	0.667967436
406.74852467436	0.6693241992
407.587805294288	0.6718040868
408.426618924483	0.674000526
409.26593290082	0.6764732976
410.104212828463	0.6783744264
410.942492756105	0.679951782
411.780772683748	0.681390378
412.618552265247	0.68406951
413.456331846747	0.6862529028
414.293611082104	0.6880152708
415.130890317461	0.6905153208
415.968136196408	0.6925397916
416.804915085622	0.6932430792
417.641660618427	0.694104102
418.477905805089	0.6954193548
419.313650645608	0.6971485164
420.149929188679	0.6985823688
420.985640672788	0.7006009092
421.821385513307	0.7024534128
422.656630007683	0.7029645708
423.491340799507	0.7048241904
424.326585293884	0.7066980408
425.160795739565	0.7084129704
425.996040233941	0.7101290868
426.829750333479	0.7125603492
427.663460433017	0.713794956
428.497670878698	0.7147579728
429.330880632094	0.7157174328
430.164557375223	0.7165357596
430.997767128618	0.7173635748
431.830443179461	0.7187689632
432.663652932857	0.7198849716
433.495828637557	0.7199466432
434.32853804481	0.720923892
435.160180046958	0.7214540256
435.991855405515	0.7220055072
436.824031110216	0.7226803308
437.65520612263	0.7240098168
438.486381135045	0.7245387648
439.31752279105	0.7254958512
440.148197457322	0.7247024292
440.978838767185	0.7242268512
441.808979730904	0.724308684
442.639621040767	0.7242529428
443.469261658344	0.724181784
444.29890227592	0.723815316
445.128542893497	0.7226827032
445.957649808522	0.7214184468
446.786790079956	0.7201684212
447.61593035139	0.7193809296
448.444036574129	0.718434516
449.272643143011	0.7172200716
450.10074936575	0.7167207732
450.929355934631	0.7150651428
451.756961811227	0.7138139316
452.584067341681	0.7120266576
453.411639861867	0.7100887632
454.238745392321	0.7081425672
455.066351268917	0.7072305468
455.892422750675	0.7060077996
456.718994578576	0.703577724
457.545566406477	0.7010302344
458.371637888235	0.6988005888
459.197709369994	0.6968389752
460.023280505609	0.6953114304
460.848351295082	0.6936534288
461.673889074288	0.6918210864
462.49895986376	0.689530956
463.323997296823	0.6873867012
464.148567740153	0.6856824456
464.972604480931	0.6829582452
465.797141567851	0.681100998
466.620644606076	0.6791144784
467.444681346854	0.6776509776
468.268217741488	0.676179174
469.09125378998	0.6741452148
469.914756828205	0.6728252172
470.737292530555	0.6715431708
471.560295222637	0.6706785912
472.382797568577	0.6706975668
473.204799568373	0.670982202
474.027301914313	0.6705018792
474.848803567967	0.6706560564
475.670805567764	0.6711944928
476.492307221418	0.6718693164
477.31327517252	0.673562898
478.134776826174	0.6752885016
478.955244431132	0.6764721108
479.776212382234	0.6776640228
480.59617964105	0.678111138
481.416146899866	0.6784218648
482.236614504825	0.6793421868
483.056081417498	0.680550702
483.876048676315	0.6815184636
484.694981886436	0.681235014
485.513948452966	0.680557818
486.33338200923	0.6794453676
487.151848229618	0.6779308692
487.970781439739	0.676263378
488.788713957574	0.6744678024
489.606646475409	0.6732758904
490.424578993245	0.6700310448
491.242478154671	0.6666415092
492.059910326363	0.6630337524
492.876808795503	0.6585388812
493.693740621053	0.6539799684
494.511139436336	0.6483287652
495.327537559334	0.6432373452
496.143969038741	0.6370702404
496.960367161738	0.6297551052
497.776231582183	0.62216838
498.592129359038	0.6137514684
499.40752678975	0.6046194096
500.223424566605	0.594819642
501.038288294764	0.5852452116
501.852651676781	0.5754193536
502.668049107493	0.56488665
503.48241248951	0.5539032732
504.296775871526	0.5431464192
505.1106389074	0.5331592668
505.924468586865	0.5224130868
506.738831968882	0.5117013
507.55169431247	0.5006906448
508.365557348344	0.4897345464
509.178386335523	0.4781451324
509.991215322702	0.4674772272
510.804044309881	0.4571698596
511.616372950917	0.446915862
512.428701591953	0.4366962576
513.240529886846	0.4264304004
514.052358181739	0.4169674524
514.864186476632	0.4068984672
515.675481068973	0.3980024184
516.487309363867	0.3892593612
517.298103610065	0.3811270848
518.10839751012	0.372474162
518.919725458871	0.3641509416
519.729519012783	0.3567029772
520.540313258981	0.3480310788
521.350106812894	0.3403530336
522.159366664254	0.3340519116
522.969660564309	0.3267818448
523.778420069527	0.320847192
524.588213623439	0.3141546972
525.396973128657	0.3081690468
526.205232287732	0.3016058244
527.013991792949	0.2966235156
527.822250952024	0.2922614748
528.631043813651	0.2874001356
529.438769270173	0.283100952
530.246027736962	0.278778048
531.053753193484	0.27460695
531.861011660273	0.2704358532
532.668236770653	0.2668197948
533.47496153489	0.2633164044
534.281719655536	0.261315654
535.088444419772	0.258953178
535.894668837866	0.2558672532
536.70089325596	0.2528762076
537.506583971502	0.2500784772
538.312308043453	0.2478452736
539.118032115404	0.245047542
539.923222484803	0.2427716436
540.728412854202	0.2406819432
541.533136233867	0.2376482028
542.337292554571	0.2346322512
543.142015934237	0.232235382
543.946172254941	0.2302215852
544.750361932054	0.2277832068
545.554051263024	0.225574908
546.357740593995	0.2239512996
547.161396568555	0.2218758312
547.964585553383	0.2198347572
548.767741181801	0.2180308788
549.570396464076	0.2171615544
550.373051746352	0.21611196
551.175707028627	0.2148832836
551.977361618617	0.2142653868
552.780016900892	0.2125480848
553.581671490882	0.2111083032
554.382792378319	0.2098725108
555.184446968309	0.2091965004
555.985567855746	0.2079132684
556.786688743184	0.207315534
557.587309284478	0.2065695516
558.387929825773	0.2056112784
559.188550367067	0.2039461596
559.988670562219	0.2039141388
560.788790757371	0.2038524672
561.58841060638	0.203169342
562.38799709898	0.203803842
563.187616947989	0.20306379
563.986703094445	0.2026380216
564.785789240902	0.2017034688
565.584375041216	0.2016904224
566.382460495387	0.2014793184
567.181546641844	0.2016714468
567.979131749872	0.2023142496
568.777717550186	0.2027518764
569.575302658214	0.2024375916
570.37235406369	0.2027139252
571.170439517861	0.2033733312
571.966990577195	0.2041133832
572.764542328813	0.2054772624
573.561093388146	0.2068553736
574.357144101337	0.2076215172
575.154195506813	0.207583566
575.949745873861	0.2083058292
576.746296933194	0.2089213536
577.541813943832	0.209885556
578.337364310879	0.2109695436
579.132881321517	0.2125812924
579.927897986013	0.2131529364
580.722948006917	0.2141444172
581.51746432527	0.215001882
582.311947287213	0.2162519064
583.106463605565	0.2179893696
583.900479577775	0.2194398252
584.694495549985	0.2215259664
585.488511522194	0.2226858576
586.281493445709	0.2234235372
587.075476061509	0.2244316224
587.868491341433	0.2260184652
588.661473264948	0.227136846
589.45395484232	0.2289442824
590.246436419691	0.2306058432
591.038917997063	0.2318250324
591.830865871883	0.2331545172
592.623347449254	0.235044972
593.414828334341	0.2368393632
594.206275863017	0.2382755868
594.997756748103	0.2405218356
595.788703930637	0.2420980056
596.580151459314	0.2438580024
597.370598295705	0.2444782716
598.161045132096	0.2451613968
598.951491968487	0.2457413412
599.741405102326	0.2462809632
600.531851938717	0.247120638
601.321298082822	0.246873954
602.110710870518	0.2459761656
602.900657360767	0.2451934176
603.68956980232	0.2440133664
604.478482243873	0.2422735308
605.267394685426	0.2414646912
606.055806780836	0.2398885224
606.844218876247	0.2380051824
607.632097269105	0.2348386116
608.420509364515	0.2316376476
609.208421113783	0.2278982472
609.995799160498	0.224552592
610.783210563623	0.2212923288
611.570088264195	0.218735352
612.35746631091	0.2144183784
613.144344011483	0.2102887896
613.930721365912	0.2060133264
614.717098720342	0.2027506908
615.503476074772	0.1992971112
616.289319726649	0.1955304336
617.075196734936	0.1928762064
617.86054004067	0.1891806876
618.646417048957	0.1859998848
619.431260008549	0.1823612928
620.216603314283	0.1784866908
621.001446273875	0.1752643776
621.785788887324	0.172305354
622.570631846916	0.1698622308
623.354440757813	0.1664904852
624.138783371261	0.1630250472
624.922625638568	0.1596449988
625.705934203321	0.1577841936
626.489776470628	0.1540495368
627.272584689239	0.1520689476
628.055893253992	0.1507287888
628.838701472603	0.1477246968
629.621509691214	0.1446067512
630.403817563683	0.1422442752
631.186092079741	0.1387906968
631.96839995221	0.1368516168
632.750207478535	0.1350548544
633.531481302308	0.1337977128
634.313255472224	0.1312288764
635.094562652407	0.1293206328
635.87583647618	0.1272973476
636.65660995381	0.1253048988
637.43738343144	0.1243074876
638.218156909071	0.1241604264
638.998430040558	0.1233444708
639.778669815636	0.1221750924
640.558442600981	0.120555042
641.337681683773	0.1192030224
642.117954815261	0.117399144
642.896693551911	0.1169247516
643.676432980846	0.115967664
644.455171717495	0.115361628
645.233910454145	0.1141780176
646.012649190794	0.1122709596
646.790887581301	0.1115143032
647.569092615399	0.1097104248
648.346830659763	0.1091233632
649.124535347717	0.1091553852
649.902773738224	0.109255008
650.679978080036	0.1077903204
651.457182421847	0.1065236916
652.233886417516	0.104590542
653.010590413185	0.1039121604
653.787794754997	0.1027558284
654.563998404523	0.1030843452
655.340202054049	0.102344292
656.116372347166	0.10200273
656.892075650549	0.101039712
657.667745597523	0.0998394984
658.443415544496	0.0999272616
659.218618501737	0.0990508212
659.993788102568	0.0991587456
660.768457357256	0.0994635432
661.543626958087	0.09910419
662.317762510223	0.098374812
663.092431764911	0.0970903932
663.866100327314	0.0962756232
664.64023587945	0.0957490476
665.413871085443	0.0961238184
666.187539647845	0.0955225248
666.961174853838	0.0948927696
667.733809367546	0.0947065704
668.506944227396	0.0940092132
669.280079087246	0.0931066812
670.052213254811	0.0936142812
670.824847768519	0.0941408568
671.596948579674	0.0933355752
672.368582401096	0.094059024
673.140683212251	0.0928611828
673.912283677263	0.0926975172
674.683917498685	0.0920606448
675.455017617555	0.0920215068
676.226117736424	0.0923037708
676.997217855294	0.0914380044
677.767817628021	0.0917119656
678.538417400747	0.0910240968
679.308483470922	0.090068196
680.078582897506	0.089641242
680.84864896768	0.0899329932
681.618248048121	0.0902532084
682.387813772153	0.0894206496
683.156879150042	0.0894206496
683.925944527931	0.089528574
684.69500990582	0.088206204
685.463574937566	0.0874720812
686.232640315454	0.0881125116
687.000671644648	0.0878622696
687.768736330252	0.0882477132
688.537301361997	0.0878990352
689.304832345048	0.0871898184
690.072863674242	0.0867059376
690.83989431115	0.0870297108
691.606924948059	0.0872099796
692.374489287519	0.087067662
693.140986221875	0.0872562324
693.908016858783	0.0867344004
694.674046803406	0.0872455584
695.440543737761	0.0861176904
696.206573682384	0.0855460476
696.972570270597	0.0855377448
697.738600215219	0.0852246456
698.503596111147	0.0853278264
699.269092353217	0.0848475036
700.034588595287	0.08379198
700.799084145072	0.083270148
701.564080041	0.0839746212
702.328575590784	0.0840801732
703.093037784159	0.0837386112
703.857533333944	0.0842829768
704.620994835033	0.083566644
705.385490384818	0.083570202
706.148951885908	0.0826558092
706.911913040854	0.0823688016
707.675374541944	0.0814164588
708.438335696891	0.0822822252
709.20179719798	0.08201538
709.964258006784	0.0826131144
710.726185113036	0.0813547884
711.489146267982	0.0811258932
712.251106730644	0.080830584
713.013033836895	0.0811045452
713.774994299556	0.0803561916
714.536421059665	0.0799671888
715.297847819774	0.0802648704
716.05877423374	0.0801522024
716.820200993849	0.0794299392
717.580627061672	0.079282878
718.341019773086	0.0797560848
719.101946187052	0.0803514468
719.861838552323	0.0796232544
720.622264620146	0.0802352208
721.382156985417	0.0797715024
722.141582360955	0.0795947904
722.901474726225	0.078877272
723.660366399211	0.078785952
724.419758418339	0.0787634172
725.178650091324	0.0785641728
725.937008061757	0.0782131224
726.695899734743	0.078069618
727.454291061585	0.0778644432
728.212649032018	0.077329566
728.970540012718	0.0778608852
729.728397637008	0.0780387828
730.486255261298	0.0778039584
731.243612539446	0.0780245508
732.001003174002	0.0773307516
732.757826749598	0.076521912
733.514683681602	0.0765337716
734.271540613607	0.0764554968
735.027897199469	0.076191024
735.784720775064	0.0767140416
736.540577014783	0.0763748508
737.296399898092	0.076300134
738.052222781402	0.07540116
738.807545318568	0.0755197572
739.563401558287	0.0758245548
740.318724095454	0.0761400264
741.073512930068	0.0767519928
741.828335121092	0.076571724
742.583157312116	0.075669192
743.337479156997	0.0755256876
744.091767645469	0.0755399196
744.845555787798	0.074890002
745.599877632679	0.0750121572
746.353665775008	0.0757190028
747.107453917336	0.0752220768
747.860741713522	0.0750465516
748.613529163566	0.0742602456
749.366816959752	0.0740669304
750.119604409795	0.0739068228
750.872391859838	0.0736719984
751.624645607329	0.0737953404
752.376399008677	0.0738842892
753.12918645872	0.0741119976
753.880939860068	0.0742519428
754.632726617826	0.0735332388
755.383979673031	0.0743207304
756.135232728236	0.073785852
756.886485783442	0.0740372808
757.637205136095	0.0738973344
758.3884581913	0.073328064
759.138710554219	0.07371588
759.88892956073	0.0739708656
760.639682269792	0.0736008396
761.389400930159	0.0743242884
762.139653293079	0.0747192204
762.889371953447	0.0753881136
763.638590267671	0.0754497852
764.388308928038	0.0761352828
765.13702689612	0.0768195936
765.886211853935	0.0772844988
766.634929822017	0.0781751712
767.383147443956	0.0786222864
768.131832055628	0.0781277316
768.880049677567	0.0796030932
769.628233943097	0.0800917176
770.375917862483	0.0806230368
771.12360178187	0.0815125236
771.871319057666	0.0824316588
772.618469274501	0.0842201196
773.365652847744	0.0857393628
774.112336074846	0.087212352
774.859019301947	0.089094504
775.605669172638	0.0902188152
776.352352399739	0.0919491624
777.098501924288	0.0936901836
777.844684805246	0.0948903972
778.590333983652	0.0968401512
779.335983162058	0.0983226288
780.081131994321	0.0997161564
780.826781172727	0.1011867744
781.57193000499	0.1028815416
782.316545134701	0.1044150168
783.061693966964	0.1058192184
783.805842106942	0.1070455236
784.550990939205	0.1087948464
785.29460537663	0.1101622836
786.038720160198	0.1111596948
786.782834943766	0.1124275092
787.525949035049	0.1132576956
788.270063818617	0.1144080984
789.013177909899	0.1147971
789.755791655039	0.1155051312
790.499406092464	0.1158217884
791.242019837604	0.1164076632
791.984600226334	0.1164207096
792.726680268921	0.11751537
793.468793667918	0.1178367708
794.211374056648	0.118062108
794.952953753093	0.1193014584
795.69506715209	0.120428142
796.436113145982	0.121005714
797.177192496284	0.1206404316
797.918772192728	0.1217516976
798.659351196887	0.1214563872
799.400430547189	0.1221857664
800.140976194938	0.1216888404
800.881054852954	0.1222023696
801.621600500704	0.1214670612
802.36164580231	0.1212583284
803.101724460327	0.1214030184
803.84126941579	0.1209950412
804.580280668702	0.1206795696
805.320359326718	0.120403236
806.058870233487	0.1204613484
806.79841518895	0.120875256
807.536959452129	0.1209725076
808.275470358897	0.1208527224
809.014014622076	0.1205182764
809.752025182702	0.1214694336
810.49053608947	0.1209049056
811.228046303953	0.1190488452
811.965556518437	0.1193892216
812.703600435472	0.1190132652
813.440576947403	0.1186029156
814.178087161886	0.1181202216
814.915097030226	0.1176980112
815.651606552424	0.1177549392
816.388583064354	0.117395586
817.125092586552	0.116905776
817.86156875234	0.1165274472
818.597544571985	0.116634186
819.333020045488	0.1162866936
820.069029221542	0.1164444288
820.804504695045	0.1168381752
821.539946812138	0.116351922
822.27542228564	0.1156782852
823.009897066857	0.1146856176
823.745372540359	0.1138127352
824.479813965166	0.1128070224
825.214288746383	0.111930582
825.948730171191	0.1111241148
826.682671249855	0.1103401812
827.41661232852	0.1104635232
828.150586763594	0.1095870828
828.884527842258	0.10845447
829.617434872227	0.1070384076
830.350875604749	0.1069518312
831.083815991128	0.1059413748
831.816756377507	0.1058370084
832.549663407476	0.106084878
833.282103447712	0.1051681152
834.014510131539	0.1048988964
834.746950171775	0.1028198712
835.478856509459	0.1025720004
836.210762847143	0.1014429456
836.942168838684	0.100912812
837.673574830225	0.100394538
838.404947465356	0.099252438
839.135853110754	0.0994267776
839.867259102295	0.0978363756
840.598164747694	0.0962708796
841.32853669054	0.0946543872
842.058908633385	0.092486412
842.789313932641	0.0915198372
843.519685875487	0.0895238304
844.249057126047	0.0879120804
844.97892872275	0.0862410324
845.70829997331	0.0844976388
846.43767122387	0.0825716052
847.167042474431	0.0804475116
847.895880022439	0.0784941996
848.624750926856	0.0770556036
849.353588474864	0.075905202
850.081959033139	0.0746658504
850.810296235004	0.0734763108
851.538633436869	0.0721776612
852.266470292592	0.0711755064
852.994307148314	0.06981993
853.721643657893	0.0681702288
854.449480513616	0.0665395044
855.176316677053	0.0657354084
855.903653186632	0.0639125544
856.630455993659	0.0629566536
857.357292157096	0.0611776812
858.084094964124	0.0595042608
858.810430781417	0.0580704084
859.536232896159	0.0561099804
860.262535357043	0.0546903612
860.988337471785	0.0529469676
861.714139586527	0.051905676
862.439441355126	0.0503461104
863.164743123725	0.0490023924
863.890011535914	0.0471997008
864.61481295837	0.04631733
865.340114726969	0.0444434784
866.064382446873	0.043567038
866.788650166776	0.0416765832
867.513451589232	0.040598526
868.237218962993	0.0400565328
868.961486682897	0.0391136772
869.685254056658	0.03827163
870.408521084276	0.0378043536
871.132288458037	0.0372433836
871.855021783103	0.0372730332
872.578288810721	0.037506672
873.301022135787	0.037249314
874.023788817262	0.0372255936
874.746522142328	0.0373951896
875.468755121251	0.0369575628
876.191021456584	0.0370927644
876.913254435507	0.0361546524
877.634987068287	0.0356565408
878.356719701067	0.0353126052
879.077951987705	0.0348548172
879.799684620485	0.033857406
880.520883550713	0.0328362756
881.241615491208	0.0320428536
881.962314075293	0.0316479216
882.683046015787	0.0307714812
883.403744599872	0.0292629132
884.123942837815	0.0284943972
884.843640729614	0.0283449636
885.563838967557	0.0281219988
886.283536859356	0.0272858808
887.003735097298	0.026749818
887.722932642955	0.0268020012
888.441629842469	0.0261544548
889.161294377859	0.0266762868
889.879991577373	0.0271945608
890.59918912303	0.0267521892
891.317352619992	0.0255922992
892.035516116953	0.0270617304
892.754179960058	0.0275230776
893.471843110876	0.0278385492
894.190006607838	0.0265529448
894.907669758657	0.0270522432
895.624832563333	0.0275313792
896.342495714152	0.027116286
897.059625162418	0.0262647516
897.776787967094	0.0256480404
898.493417069218	0.0256895496
899.210079527751	0.0243683664
899.926708629875	0.0227079924
900.642837385856	0.0226249728
901.359499844389	0.02152794
902.075094897818	0.0213630888
902.790723307656	0.0218374812
903.506852063637	0.0207582384
904.221980127332	0.02060406
904.93760853717	0.0207392628
905.652703244456	0.0206775912
906.367330962008	0.0191203968
907.082425669294	0.0199351668
907.797053386847	0.0200988324
908.51164774799	0.0193006668
909.22574176299	0.0186400752
909.93983577799	0.018418296
910.65392979299	0.0193575936
911.367523461848	0.0195437928
912.081617476848	0.018788322
912.794710799563	0.0171160884
913.507770765868	0.0192591576
914.221364434725	0.0181111272
914.933924054887	0.0202435224
915.647017377602	0.0172074084
916.359076651621	0.0193884288
917.071636271784	0.017276196
917.784229248356	0.0166073016
918.495754819823	0.0174196992
919.208347796394	0.0172999152
919.919906724271	0.0168551724
920.630931949595	0.0174991608
921.342490877472	0.0165254688
922.053516102797	0.015322884
922.765075030673	0.0162728556
923.475599909855	0.0162870864
924.186158145446	0.0157237452
924.897183370771	0.0154616436
925.607207903809	0.0137301108
926.3177661394	0.0153715092
927.027790672439	0.0127196544
927.737281502926	0.0123140484
928.447306035964	0.0135391668
929.15683022286	0.01284774
929.866354409756	0.013267578
930.5753448941	0.0132782508
931.284368734853	0.0163582464
931.993359219197	0.0110746968
932.701882713807	0.0096017076
933.410372852008	0.0126496812
934.118862990209	0.0133565256
934.826852782267	0.0140100024
935.534842574325	0.0139032636
936.242832366383	0.01424364
936.950822158441	0.0143112408
937.657777901804	0.0126710292
938.36526734772	0.0091593372
939.072756793635	0.014307684
939.779212190855	0.0122583072
940.48670163677	0.0080682336
941.19315703399	0.0093621396
941.899112085068	0.0121041288
942.606067828431	0.0103880136
943.312022879508	0.0116143188
944.017977930586	0.0108019212
944.723932981663	0.0081085572
945.429387686597	0.0086493648
946.134809035123	0.0042256524
946.840263740057	0.0097760472
947.545718444992	0.0095851044
948.250139101231	0.0055717416
948.955060103613	0.0130742628
949.660014462405	0.0101567472
950.364435118645	0.0066403116
951.068855774884	0.0111138348
951.772776084981	0.0096740532
952.476696395077	0.0139542612
953.180616705174	0.0155209428
953.884036669128	0.0167935008
954.587923622815	0.011698524
955.290843240626	0.010915776
955.99426320458	0.0155565216
956.697149465982	0.0049443576
957.400035727383	0.0125263392
958.102955345194	0.0080018184
958.805341260453	0.0113996568
959.507226829569	0.0205886424
960.209612744828	0.012971082
960.911498313944	0.0105777708
961.61338388306	0.0149089764
962.315236095766	0.0178229328
963.016621318739	0.0091012236
963.718006541712	0.0111612744
964.418858062133	0.0084845136
965.120243285106	0.0152517252
965.821094805527	0.0125880096
966.521445979805	0.0197465952
967.222297500226	0.0199399104
967.922148328361	0.0155138268
968.622499502639	0.0058468896
969.322350330774	0.0041082408
970.02220115891	0.0149777628
970.722051987045	0.018425412
971.421369112628	0.0074384772
972.121219940763	0.0075001488
972.820070076613	0.0190931196
973.518886856053	0.022187346
974.217703635493	0.008578206
974.916553771343	0.0128133468
975.615370550783	0.0263809776
976.313186637937	0.0010318044
977.011503071235	0.0106797648
977.709819504532	0.0148330728
978.407101889134	0.0276760692
979.105418322432	0.0153786252
979.802734063443	0.0239342976
980.499516101903	0.0066343812
981.197332189057	0.0137348544
981.894114227517	0.0228526812
982.590929622386	0.0133387368
983.287711660845	0.0420596556
983.983993353162	0.0192591576
984.680775391621	0.0228858888
985.376556737795	0.033458916
986.072838430112	0.020872092
986.768619776285	0.0230744604
987.46436776605	0.0319752528
988.160149112223	0.0378328164
988.855430112255	0.0322385412
989.550677755876	0.0379004172
990.245425053355	0.0323630688
990.940205707243	0.022589394
991.635453350865	0.0248249688
992.3297003022	0.0102575556
993.024447599679	0.0231444336
993.718194204872	0.0196434156
994.412441156208	0.00453045
995.106688107544	0.0350611776
995.799934366594	0.0282453408
996.493647615378	0.0104828928
997.186893874428	-0.0116060172
