1530	-24.2881608833658
1530.78123889812	-24.2192654252147
1531.56327602632	-24.1543736559587
1532.34611260863	-24.0934381826091
1533.12974987156	-24.036394650396
1533.91418904414	-23.9831621287733
1534.6994313579	-23.9336434261834
1535.48547804691	-23.8877256588044
1536.27233034777	-23.8452809226291
1537.0599894996	-23.8061668534279
1537.84845674409	-23.7702276648504
1538.63773332545	-23.7372948249895
1539.42782049047	-23.7071882172152
1540.21871948847	-23.6797171594793
1541.01043157138	-23.6546815336863
1541.80295799368	-23.6318730769437
1570	-22.8414953313161
1570.82263294753	-22.8016778648922
1571.64612841702	-22.7620034175386
1572.4704877657	-22.7227132051606
1573.29571235364	-22.6840586613998
1574.12180354378	-22.6463000108608
1574.94876270191	-22.6097047376232
1575.77659119672	-22.5745460375003
1576.60529039974	-22.5411011926747
1577.43486168542	-22.5096499848416
1578.26530643108	-22.480473026407
1579.09662601696	-22.4538501317123
1579.9288218262	-22.4300586640386
1580.76189524486	-22.4093719322267
1581.59584766192	-22.3920575935845
1582.4306804693	-22.3783761266991
