0	-15.5481410467165
0.03	-15.6011297088552
0.06	-15.6523967553973
0.09	-15.6960894517009
0.12	-15.7328941235077
0.15	-15.7397750205407
0.18	-15.7198865362456
0.21	-15.6999266712262
0.24	-15.6769976248865
0.27	-15.6518661896426
0.3	-15.625761337443
0.33	-15.5971339975444
0.36	-15.5593601473333
0.39	-15.532447402858
0.42	-15.5025294843456
0.45	-15.4716829159635
0.48	-15.434973066029
0.51	-15.4038836732058
0.54	-15.3606062247588
0.57	-15.3171751350752
0.6	-15.2692885348379
0.63	-15.2173622775661
0.66	-15.1585198386107
0.69	-15.0962587508195
0.72	-15.0321748663504
0.75	-14.9593487134736
0.78	-14.8777897280509
0.81	-14.7992941611086
0.84	-14.7164111871798
0.87	-14.6466139095259
0.9	-14.5614191996059
0.93	-14.4702442666721
0.96	-14.38421489953
0.99	-14.3106351627378
1.02	-14.2069666959678
1.05	-14.0934777795445
1.08	-13.9706328997375
1.11	-13.8444778671048
1.14	-13.7110003536989
1.17	-13.5757214549832
1.2	-13.4294313457326
1.23	-13.284120223416
1.26	-13.1255867139512
1.29	-12.9677325006059
1.32	-12.7968647497043
1.35	-12.6205709044279
1.38	-12.4391314980544
1.41	-12.2461612689156
1.44	-12.0529444447219
1.47	-11.8521535985089
1.5	-11.7496040351311
1.53	-11.7195884942727
1.56	-11.6934067938094
1.59	-11.6685951566931
1.62	-11.6280542775422
1.65	-11.587004588423
1.68	-11.5478404268317
1.71	-11.5081106306371
1.74	-11.4630314703605
1.77	-11.4222930431946
1.8	-11.3784922609406
1.83	-11.3392839705615
1.86	-11.2968678762296
1.89	-11.2565881344091
1.92	-11.2056253731786
1.95	-11.1567438035783
1.98	-11.1092491168372
2.01	-11.0613872122452
2.04	-11.0129498826321
2.07	-10.9643292803347
2.1	-10.909594993233
2.13	-10.8473231717708
2.16	-10.8001513782089
2.19	-10.7610126435804
2.22	-10.7241746631245
2.25	-10.6843862455202
2.28	-10.6442708130769
2.31	-10.6008901667245
2.34	-10.5744551800956
2.37	-10.5389259229105
2.4	-10.5287638665116
2.43	-10.5186642147189
2.46	-10.5196882266286
2.49	-10.5094408727191
2.52	-10.513048045216
2.55	-10.5002891034442
2.58	-10.5006093149448
2.61	-10.4929373539806
2.64	-10.4965174666181
2.67	-10.4912616979911
2.7	-10.4947571851564
2.73	-10.4951583132786
2.76	-10.501466450254
2.79	-10.5045010117476
2.82	-10.5049560533286
2.85	-10.507728987295
2.88	-10.5106409616618
2.91	-10.5216852871916
2.94	-10.5262754347461
2.97	-10.5534454835639
3	-10.5869229654757
3.03	-10.6312913745226
3.06	-10.6844360623586
3.09	-10.7438825893857
3.12	-10.7428265445406
3.15	-10.7461231095041
3.18	-10.749743555169
3.21	-10.7546129339387
3.24	-10.749743555169
3.27	-10.7464881672478
3.3	-10.749743555169
3.33	-10.7546129339387
3.36	-10.7526335152399
3.39	-10.7464881672478
3.42	-10.749743555169
3.45	-10.7519050137141
3.48	-10.749743555169
3.51	-10.7464881672478
3.54	-10.7522693874576
3.57	-10.7547950420229
3.6	-10.749743555169
3.63	-10.7491967581682
3.66	-10.7522693874576
3.69	-10.7519050137141
3.72	-10.749743555169
3.75	-10.7490143695651
3.78	-10.7524514821046
3.81	-10.7490143695651
3.84	-10.7470352928936
3.87	-10.7520872313224
3.9	-10.7549770886329
3.93	-10.7490143695651
3.96	-10.7470352928936
3.99	-10.7520872313224
4.02	-10.7524514821046
4.05	-10.7464881672478
4.08	-10.7470352928936
4.11	-10.7520872313224
4.14	-10.7551590737537
4.17	-10.7464881672478
4.2	-10.749743555169
4.23	-10.7547950420229
4.26	-10.7524514821046
4.29	-10.7464881672478
4.32	-10.749743555169
4.35	-10.7547950420229
4.38	-10.7524514821046
4.41	-10.7437792408999
4.44	-10.749743555169
4.47	-10.7546129339387
4.5	-10.749743555169
4.53	-10.7464881672478
4.56	-10.7522693874576
4.59	-10.7517227346456
4.62	-10.7526335152399
4.65	-10.7464881672478
4.68	-10.7522693874576
4.71	-10.7519050137141
4.74	-10.749743555169
4.77	-10.7464881672478
4.8	-10.7522693874576
4.83	-10.7491967581682
4.86	-10.7499256978432
4.89	-10.7490143695651
4.92	-10.7522693874576
4.95	-10.7517227346456
4.98	-10.749743555169
5.01	-10.7437792408999
5.04	-10.7549770886329
5.07	-10.7437792408999
5.1	-10.7549770886329
5.13	-10.7437792408999
5.16	-10.7549770886329
5.19	-10.7437792408999
5.22	-10.7549770886329
5.25	-10.7437792408999
5.28	-10.7549770886329
5.31	-10.7437792408999
5.34	-10.7549770886329
5.37	-10.7437792408999
5.4	-10.7549770886329
5.43	-10.7437792408999
5.46	-10.7549770886329
5.49	-10.7437792408999
5.52	-10.7549770886329
5.55	-10.7437792408999
5.58	-10.7549770886329
5.61	-10.7437792408999
5.64	-10.7549770886329
5.67	-10.7437792408999
5.7	-10.7549770886329
5.73	-10.7437792408999
5.76	-10.7549770886329
5.79	-10.7437792408999
5.82	-10.7549770886329
5.85	-10.7437792408999
5.88	-10.7549770886329
5.91	-10.7437792408999
5.94	-10.7549770886329
5.97	-10.7437792408999
6	-10.7549770886329
