1570	-22.8414953313161
1570.82263294753	-22.8016778648922
1571.64612841702	-22.7620034175386
1572.4704877657	-22.7227132051606
1573.29571235364	-22.6840586613998
1574.12180354378	-22.6463000108608
1574.94876270191	-22.6097047376232
1575.77659119672	-22.5745460375003
1576.60529039974	-22.5411011926747
1577.43486168542	-22.5096499848416
1578.26530643108	-22.480473026407
1579.09662601696	-22.4538501317123
1579.9288218262	-22.4300586640386
1580.76189524486	-22.4093719322267
1581.59584766192	-22.3920575935845
1582.4306804693	-22.3783761266991
