0	-4.93138333951162
0.05	-5.47713514749379
0.1	-6.01701533363557
0.15	-6.41319325336805
0.2	-6.51191846847621
0.25	-6.61235586271585
0.3	-6.704704196892
0.35	-6.79590587148431
0.4	-6.89224905154098
0.45	-6.98509870880027
0.5	-7.07014881596473
0.55	-7.1544798945179
0.6	-7.2356256284906
0.65	-7.31291168821361
0.7	-7.38726287287561
0.75	-7.44322312600441
0.8	-7.49783102344238
0.85	-7.55385551257861
0.9	-7.61103142707639
0.95	-7.66136987752273
1	-7.71185442024706
1.05	-7.74489702431575
1.1	-7.77100836058112
1.15	-7.78188046841207
1.2	-7.7897374144566
1.25	-7.79985404573456
1.3	-7.78896321283484
1.35	-7.75977171204044
1.4	-7.68311891546975
1.45	-7.55939151461976
1.5	-7.50047297613496
1.55	-7.71374045308611
1.6	-7.92830563514144
1.65	-8.00259827091418
1.7	-8.09215108003598
1.75	-8.1741672267365
1.8	-8.25854856281117
1.85	-8.34176920127355
1.9	-8.41873329318771
1.95	-8.49459193894218
2	-8.58211109882731
2.05	-8.66138997273509
2.1	-8.73751806386097
2.15	-8.77978828060815
2.2	-8.84344960799932
2.25	-8.90343595605588
2.3	-8.95846266927907
2.35	-9.01943289403791
2.4	-9.09001398719134
2.45	-9.16698103647185
2.5	-9.24075069810968
2.55	-9.31402973106735
2.6	-9.39529037942815
2.65	-9.47835954811599
2.7	-9.556379906214
2.75	-9.63664663665816
2.8	-9.72214304866618
2.85	-9.80714624645989
2.9	-9.89968153612941
2.95	-10.0491975068787
3	-10.2464272592015
3.05	-10.3792529396346
3.1	-10.430204011079
3.15	-10.3875833982493
3.2	-10.3829956327248
3.25	-10.3925524629785
3.3	-10.3829956327248
3.35	-10.3847018736831
3.4	-10.3841710709168
3.45	-10.389936117436
3.5	-10.3870539848484
3.55	-10.3847018736831
3.6	-10.3829956327248
3.65	-10.3873192543956
3.7	-10.3870539848484
3.75	-10.3887600710247
3.8	-10.3803781222407
3.85	-10.3887600710247
3.9	-10.3896704169529
3.95	-10.3884951487997
4	-10.3829956327248
4.05	-10.3847018736831
4.1	-10.38822910093
4.15	-10.3884951487997
4.2	-10.3829956327248
4.25	-10.3847018736831
4.3	-10.3856126255631
4.35	-10.3911115376294
4.4	-10.3829956327248
4.45	-10.3847018736831
4.5	-10.3829956327248
4.55	-10.3925524629785
4.6	-10.3829956327248
4.65	-10.3847018736831
4.7	-10.3829956327248
4.75	-10.389936117436
4.8	-10.3870539848484
4.85	-10.3873192543956
4.9	-10.3829956327248
4.95	-10.3913768907744
5	-10.3856126255631
5.05	-10.3820839751249
5.1	-10.3896704169529
5.15	-10.3820839751249
5.2	-10.3896704169529
5.25	-10.3820839751249
5.3	-10.3896704169529
5.35	-10.3820839751249
5.4	-10.3896704169529
5.45	-10.3820839751249
5.5	-10.3896704169529
5.55	-10.3820839751249
5.6	-10.3896704169529
5.65	-10.3820839751249
5.7	-10.3896704169529
5.75	-10.3820839751249
5.8	-10.3896704169529
5.85	-10.3820839751249
5.9	-10.3896704169529
5.95	-10.3820839751249
6	-1.53580136669007
6.05	-2.23098606825621
6.1	-2.9443842689488
6.15	-3.65679681894607
6.2	-4.36890539464768
6.25	-5.08594678307114
6.3	-5.80274850937869
6.35	-6.5272128407764
6.4	-7.26382835650015
6.45	-7.98219472959282
6.5	-8.60465587023957
6.55	-9.02320601762317
6.6	-9.31183304390905
6.65	-9.50100202927789
6.7	-9.63359432005973
6.75	-9.7066529960124
6.8	-9.72125231755255
6.85	-9.69090585261793
6.9	-9.66019800385189
6.95	-9.60645965753473
7	-9.54801900607482
7.05	-9.49288683917479
7.1	-9.45542187691548
7.15	-9.46674363354688
7.2	-9.46950170384832
7.25	-9.46674363354688
7.3	-9.46950170384832
7.35	-9.46674363354688
7.4	-9.46950170384832
7.45	-9.46674363354688
7.5	-9.46950170384832
7.55	-9.46674363354688
7.6	-9.46950170384832
7.65	-9.46674363354688
7.7	-9.46950170384832
7.75	-9.46674363354688
7.8	-9.46950170384832
7.85	-9.46674363354688
7.9	-9.46950170384832
7.95	-9.46674363354688
8	-9.46950170384832
8.05	-18.3375335322722
8.1	-18.6750447533356
8.15	-18.9513880712067
8.2	-19.2176630800412
8.25	-19.434735528875
8.3	-19.6719237220066
8.35	-19.8590718530228
8.4	-19.9774455931657
8.45	-20.0692275624238
8.5	-20.0914652238358
8.55	-20.1459908743828
8.6	-20.1486648594873
8.65	-20.1547164387871
8.7	-20.1582913371507
8.75	-20.1583552148372
8.8	-20.1554986365995
8.85	-20.1583552148372
8.9	-20.1554986365995
8.95	-20.1583552148372
9	-20.1554986365995
9.05	-20.1583552148372
9.1	-20.1554986365995
9.15	-20.1583552148372
9.2	-20.1554986365995
9.25	-20.1583552148372
9.3	-20.1554986365995
9.35	-20.1583552148372
9.4	-20.1554986365995
9.45	-20.1583552148372
9.5	-20.1554986365995
9.55	-20.1583552148372
9.6	-20.1554986365995
9.65	-20.1583552148372
9.7	-20.1554986365995
9.75	-20.1583552148372
9.8	-20.1554986365995
9.85	-20.1583552148372
9.9	-20.1554986365995
9.95	-20.1583552148372
10	-20.1554986365995
