0	-4.55830748278934
0.03	-4.89599995129046
0.06	-5.23221904266389
0.09	-5.56648273979901
0.12	-5.89931888463468
0.15	-6.08435561996527
0.18	-6.14756681295496
0.21	-6.20850491963746
0.24	-6.27225427514516
0.27	-6.32929779904418
0.3	-6.38928094718459
0.33	-6.4504736635229
0.36	-6.5034984030288
0.39	-6.56426625958423
0.42	-6.61954783510514
0.45	-6.68392980788337
0.48	-6.73560543793641
0.51	-6.79538508365405
0.54	-6.84577073772071
0.57	-6.8999617659941
0.6	-6.94918299042773
0.63	-7.00200618746536
0.66	-7.04514293282786
0.69	-7.09050896216989
0.72	-7.13376520122557
0.75	-7.17343110490988
0.78	-7.21152215737602
0.81	-7.24678304664981
0.84	-7.28318093704047
0.87	-7.32362728388844
0.9	-7.35928338659517
0.93	-7.38836152808504
0.96	-7.42486787459325
0.99	-7.46472809261761
1.02	-7.49186035477375
1.05	-7.51223211853872
1.08	-7.53227729698919
1.11	-7.55059044974385
1.14	-7.56287747851499
1.17	-7.5731040593416
1.2	-7.57924347120373
1.23	-7.59606441069129
1.26	-7.59266225726966
1.29	-7.59958084225304
1.32	-7.59434947414241
1.35	-7.57343597923581
1.38	-7.53718448611175
1.41	-7.48265277707662
1.44	-7.41993092293826
1.47	-7.31583032270297
1.5	-7.33249024454018
1.53	-7.46148860466932
1.56	-7.60351652954639
1.59	-7.75575145931594
1.62	-7.8046272520843
1.65	-7.85663213894098
1.68	-7.91426462170169
1.71	-7.97490302207535
1.74	-8.02026164806849
1.77	-8.07380182352848
1.8	-8.12771963073295
1.83	-8.17874580895593
1.86	-8.23561365852948
1.89	-8.28890417755184
1.92	-8.33462932667928
1.95	-8.37863717535049
1.98	-8.43873273077134
2.01	-8.49267063794029
2.04	-8.54580427344655
2.07	-8.59120282529673
2.1	-8.63746350077854
2.13	-8.66119901394318
2.16	-8.70031992451602
2.19	-8.73843996585662
2.22	-8.77878962600523
2.25	-8.81599783111549
2.28	-8.8527512889907
2.31	-8.88966050126968
2.34	-8.9275014266254
2.37	-8.96675973879909
2.4	-9.01372092460502
2.43	-9.05884061145074
2.46	-9.10974481838721
2.49	-9.15448325042431
2.52	-9.20774398196771
2.55	-9.24618886007224
2.58	-9.3011921287312
2.61	-9.34628268053884
2.64	-9.3972517295781
2.67	-9.44626751490857
2.7	-9.49689620227608
2.73	-9.5477985317503
2.76	-9.59922749131255
2.79	-9.65247372250541
2.82	-9.70129819843018
2.85	-9.75572641364851
2.88	-9.80842194705758
2.91	-9.86897080988409
2.94	-9.95708275912479
2.97	-10.0837541928192
3	-10.2073731426742
3.03	-10.292339481328
3.06	-10.3554757846797
3.09	-10.3912470541
3.12	-10.3752134362596
3.15	-10.348337711821
3.18	-10.3434822976015
3.21	-10.3532101694409
3.24	-10.3434822976015
3.27	-10.3453475255421
3.3	-10.3434822976015
3.33	-10.3532101694409
3.36	-10.3446074269646
3.39	-10.3453475255421
3.42	-10.3434822976015
3.45	-10.3505898127695
3.48	-10.3434822976015
3.51	-10.3453475255421
3.54	-10.3475990196998
3.57	-10.3517149210292
3.6	-10.3434822976015
3.63	-10.3479689315296
3.66	-10.3475990196998
3.69	-10.3505898127695
3.72	-10.3434822976015
3.75	-10.3494640764169
3.78	-10.3461033233032
3.81	-10.3494640764169
3.84	-10.3408607471783
3.87	-10.3490945161824
3.9	-10.3502194727093
3.93	-10.3494640764169
3.96	-10.3408607471783
3.99	-10.3490945161824
4.02	-10.3461033233032
4.05	-10.3453475255421
4.08	-10.3408607471783
4.11	-10.3490945161824
4.14	-10.3487238244626
4.17	-10.3453475255421
4.2	-10.3434822976015
4.23	-10.3517149210292
4.26	-10.3461033233032
4.29	-10.3453475255421
4.32	-10.3434822976015
4.35	-10.3517149210292
4.38	-10.3461033233032
4.41	-10.3427255946286
4.44	-10.3434822976015
4.47	-10.3532101694409
4.5	-10.3434822976015
4.53	-10.3453475255421
4.56	-10.3475990196998
4.59	-10.3520849094773
4.62	-10.3446074269646
4.65	-10.3453475255421
4.68	-10.3475990196998
4.71	-10.3505898127695
4.74	-10.3434822976015
4.77	-10.3453475255421
4.8	-10.3475990196998
4.83	-10.3479689315296
4.86	-10.3419863531344
4.89	-10.3494640764169
4.92	-10.3475990196998
4.95	-10.3520849094773
4.98	-10.3434822976015
5.01	-10.3427255946286
5.04	-10.3502194727093
5.07	-10.3427255946286
5.1	-10.3502194727093
5.13	-10.3427255946286
5.16	-10.3502194727093
5.19	-10.3427255946286
5.22	-10.3502194727093
5.25	-10.3427255946286
5.28	-10.3502194727093
5.31	-10.3427255946286
5.34	-10.3502194727093
5.37	-10.3427255946286
5.4	-10.3502194727093
5.43	-10.3427255946286
5.46	-10.3502194727093
5.49	-10.3427255946286
5.52	-10.3502194727093
5.55	-10.3427255946286
5.58	-10.3502194727093
5.61	-10.3427255946286
5.64	-10.3502194727093
5.67	-10.3427255946286
5.7	-10.3502194727093
5.73	-10.3427255946286
5.76	-10.3502194727093
5.79	-10.3427255946286
5.82	-10.3502194727093
5.85	-10.3427255946286
5.88	-10.3502194727093
5.91	-10.3427255946286
5.94	-10.3502194727093
5.97	-10.3427255946286
6	-10.3502194727093
