0	-1.55503010794542
0.03	-1.96929488542462
0.06	-2.38215785365905
0.09	-2.79426975565069
0.12	-3.20606436373059
0.15	-3.43821852470487
0.18	-3.52288559518329
0.21	-3.60469948645092
0.24	-3.69077800890429
0.27	-3.76890588657754
0.3	-3.85096985054309
0.33	-3.93515134463869
0.36	-4.01119373404271
0.39	-4.09438262603839
0.42	-4.17134410093051
0.45	-4.2599933465288
0.48	-4.33399107055332
0.51	-4.41685848221855
0.54	-4.49078337665212
0.57	-4.56955687852518
0.6	-4.64315163253588
0.63	-4.72228946395676
0.66	-4.79087824146569
0.69	-4.86311699715414
0.72	-4.93313731986002
0.75	-5.00072612446897
0.78	-5.06842155577523
0.81	-5.13180150792679
0.84	-5.1976652277034
0.87	-5.26549562048906
0.9	-5.330980610421
0.93	-5.38961093553899
0.96	-5.45639289137366
0.99	-5.52441668461353
1.02	-5.58358906085929
1.05	-5.63656931194195
1.08	-5.69136838524653
1.11	-5.74476507616406
1.14	-5.79231381175474
1.17	-5.8377132896613
1.2	-5.88062520515505
1.23	-5.9368000341004
1.26	-5.97060652631298
1.29	-6.0172651622617
1.32	-6.05169125494859
1.35	-6.06761729469718
1.38	-6.06542785541519
1.41	-6.0429482679971
1.44	-6.01019285159265
1.47	-5.92699863395596
1.5	-5.9726872889761
1.53	-6.14279685717136
1.56	-6.32842319764218
1.59	-6.52659736842011
1.62	-6.5980466776092
1.65	-6.67357419761384
1.68	-6.75576192684394
1.71	-6.84188630466216
1.74	-6.91000353658745
1.77	-6.98740855057341
1.8	-7.06602473407546
1.83	-7.13988247261319
1.86	-7.22188405889973
1.89	-7.29885164086576
1.92	-7.36883196052398
1.95	-7.43614289443243
1.98	-7.52343401424463
2.01	-7.60304387201614
2.04	-7.68178291411702
2.07	-7.75080213295699
2.1	-7.82238115893215
2.13	-7.86732890920467
2.16	-7.92807065794006
2.19	-7.98561469262312
2.22	-8.04541855750787
2.25	-8.10196306437186
2.28	-8.15801014826137
2.31	-8.21503735958119
2.34	-8.2691676061113
2.37	-8.32727361903268
2.4	-8.38900899818658
2.43	-8.44840575432527
2.46	-8.51243328279545
2.49	-8.57138674806605
2.52	-8.63777018583093
2.55	-8.68938201595293
2.58	-8.75875653012243
2.61	-8.81753628435514
2.64	-8.88103230613124
2.67	-8.94418628408612
2.7	-9.00727166227789
2.73	-9.07144585147414
2.76	-9.13486383630298
2.79	-9.20136256405765
2.82	-9.26289777446803
2.85	-9.33095000367852
2.88	-9.39678042678348
2.91	-9.47057037024254
2.94	-9.58071013647523
2.97	-9.73410380018238
3	-9.88212879089856
3.03	-9.97873557254439
3.06	-10.0456700500905
3.09	-10.0765388116453
3.12	-10.056549431593
3.15	-10.0218249542296
3.18	-10.0148243198227
3.21	-10.0259353289291
3.24	-10.0148243198227
3.27	-10.0179619549021
3.3	-10.0148243198227
3.33	-10.0259353289291
3.36	-10.0155499849573
3.39	-10.0179619549021
3.42	-10.0148243198227
3.45	-10.0232781198777
3.48	-10.0148243198227
3.51	-10.0179619549021
3.54	-10.0194145250116
3.57	-10.024003737011
3.6	-10.0148243198227
3.63	-10.0206203286087
3.66	-10.0194145250116
3.69	-10.0232781198777
3.72	-10.0148243198227
3.75	-10.0225518590142
3.78	-10.0174823731498
3.81	-10.0225518590142
3.84	-10.012165684081
3.87	-10.0213464405835
3.9	-10.0220719087995
3.93	-10.0225518590142
3.96	-10.012165684081
3.99	-10.0213464405835
4.02	-10.0174823731498
4.05	-10.0179619549021
4.08	-10.012165684081
4.11	-10.0213464405835
4.14	-10.0201398442824
4.17	-10.0179619549021
4.2	-10.0148243198227
4.23	-10.024003737011
4.26	-10.0174823731498
4.29	-10.0179619549021
4.32	-10.0148243198227
4.35	-10.024003737011
4.38	-10.0174823731498
4.41	-10.0153029985386
4.44	-10.0148243198227
4.47	-10.0259353289291
4.5	-10.0148243198227
4.53	-10.0179619549021
4.56	-10.0194145250116
4.59	-10.025209562899
4.62	-10.0155499849573
4.65	-10.0179619549021
4.68	-10.0194145250116
4.71	-10.0232781198777
4.74	-10.0148243198227
4.77	-10.0179619549021
4.8	-10.0194145250116
4.83	-10.0206203286087
4.86	-10.0128918443089
4.89	-10.0225518590142
4.92	-10.0194145250116
4.95	-10.025209562899
4.98	-10.0148243198227
5.01	-10.0153029985386
5.04	-10.0220719087995
5.07	-10.0153029985386
5.1	-10.0220719087995
5.13	-10.0153029985386
5.16	-10.0220719087995
5.19	-10.0153029985386
5.22	-10.0220719087995
5.25	-10.0153029985386
5.28	-10.0220719087995
5.31	-10.0153029985386
5.34	-10.0220719087995
5.37	-10.0153029985386
5.4	-10.0220719087995
5.43	-10.0153029985386
5.46	-10.0220719087995
5.49	-10.0153029985386
5.52	-10.0220719087995
5.55	-10.0153029985386
5.58	-10.0220719087995
5.61	-10.0153029985386
5.64	-10.0220719087995
5.67	-10.0153029985386
5.7	-10.0220719087995
5.73	-10.0153029985386
5.76	-10.0220719087995
5.79	-10.0153029985386
5.82	-10.0220719087995
5.85	-10.0153029985386
5.88	-10.0220719087995
5.91	-10.0153029985386
5.94	-10.0220719087995
5.97	-10.0153029985386
6	-10.0220719087995
