0	-1.55503010794542
0.05	-2.24359612313421
0.1	-2.92972910981632
0.15	-3.43821852470487
0.2	-3.57634218559657
0.25	-3.71873142633408
0.3	-3.85096985054309
0.35	-3.98491945558545
0.4	-4.12361064560352
0.45	-4.2599933465288
0.5	-4.38755035379267
0.55	-4.51677981362719
0.6	-4.64315163253588
0.65	-4.76901178590318
0.7	-4.89327547841606
0.75	-5.00072612446897
0.8	-5.10968558223456
0.85	-5.21952103826575
0.9	-5.330980610421
0.95	-5.43775136600442
1	-5.5410841177315
1.05	-5.63656931194195
1.1	-5.72815725972306
1.15	-5.80423500062668
1.2	-5.88062520515505
1.25	-5.96276510426957
1.3	-6.02530097608857
1.35	-6.06761729469718
1.4	-6.05447385329797
1.45	-5.98377916460883
1.5	-5.9726872889761
1.55	-6.26498705974905
1.6	-6.55710245921343
1.65	-6.67357419761384
1.7	-6.80973074478453
1.75	-6.936470310937
1.8	-7.06602473407546
1.85	-7.19374879058699
1.9	-7.31436734988602
1.95	-7.43614289443243
2	-7.57227328556461
2.05	-7.69878069576459
2.1	-7.82238115893215
2.15	-7.90318724110664
2.2	-8.00644832511402
2.25	-8.10196306437186
2.3	-8.19275566014838
2.35	-8.28765912639751
2.4	-8.38900899818658
2.45	-8.49157445842689
2.5	-8.59077152438642
2.55	-8.68938201595293
2.6	-8.79704470864572
2.65	-8.90550705825955
2.7	-9.00727166227789
2.75	-9.11124056613363
2.8	-9.22140299637629
2.85	-9.33095000367852
2.9	-9.44807073781937
2.95	-9.63819293331372
3	-9.88212879089856
3.05	-10.0311502856434
3.1	-10.0772692328175
3.15	-10.0218249542296
3.2	-10.0148243198227
3.25	-10.0259353289291
3.3	-10.0148243198227
3.35	-10.0179619549021
3.4	-10.0155499849573
3.45	-10.0232781198777
3.5	-10.0194145250116
3.55	-10.0179619549021
3.6	-10.0148243198227
3.65	-10.0206203286087
3.7	-10.0194145250116
3.75	-10.0225518590142
3.8	-10.012165684081
3.85	-10.0225518590142
3.9	-10.0220719087995
3.95	-10.0213464405835
4	-10.0148243198227
4.05	-10.0179619549021
4.1	-10.0201398442824
4.15	-10.0213464405835
4.2	-10.0148243198227
4.25	-10.0179619549021
4.3	-10.0174823731498
4.35	-10.024003737011
4.4	-10.0148243198227
4.45	-10.0179619549021
4.5	-10.0148243198227
4.55	-10.0259353289291
4.6	-10.0148243198227
4.65	-10.0179619549021
4.7	-10.0148243198227
4.75	-10.0232781198777
4.8	-10.0194145250116
4.85	-10.0206203286087
4.9	-10.0148243198227
4.95	-10.025209562899
5	-10.0174823731498
5.05	-10.0153029985386
5.1	-10.0220719087995
5.15	-10.0153029985386
5.2	-10.0220719087995
5.25	-10.0153029985386
5.3	-10.0220719087995
5.35	-10.0153029985386
5.4	-10.0220719087995
5.45	-10.0153029985386
5.5	-10.0220719087995
5.55	-10.0153029985386
5.6	-10.0220719087995
5.65	-10.0153029985386
5.7	-10.0220719087995
5.75	-10.0153029985386
5.8	-10.0220719087995
5.85	-10.0153029985386
5.9	-10.0220719087995
5.95	-10.0153029985386
6	-2.88626032342761
6.05	-3.56618652485034
6.1	-4.26644206584451
6.15	-4.96515087220684
6.2	-5.66411925124697
6.25	-6.368544353297
6.3	-7.07271606290958
6.35	-7.78476956268067
6.4	-8.51239845940047
6.45	-9.21758472019537
6.5	-9.81215329375277
6.55	-10.189819417395
6.6	-10.4334920323798
6.65	-10.5775718042153
6.7	-10.6654632363671
6.75	-10.7002549645281
6.8	-10.6835788221194
6.85	-10.6299417482531
6.9	-10.5762231480284
6.95	-10.506869093102
7	-10.4392544191617
7.05	-10.3764477919162
7.1	-10.337056873218
7.15	-10.3450062736078
7.2	-10.3473676654093
7.25	-10.3450062736078
7.3	-10.3473676654093
7.35	-10.3450062736078
7.4	-10.3473676654093
7.45	-10.3450062736078
7.5	-10.3473676654093
7.55	-10.3450062736078
7.6	-10.3473676654093
7.65	-10.3450062736078
7.7	-10.3473676654093
7.75	-10.3450062736078
7.8	-10.3473676654093
7.85	-10.3450062736078
7.9	-10.3473676654093
7.95	-10.3450062736078
8	-10.3473676654093
8.05	-18.2991084973782
8.1	-18.6645648760538
8.15	-18.959069276143
8.2	-19.240622252118
8.25	-19.4624410768024
8.3	-19.7109718435016
8.35	-19.9011478012953
8.4	-20.0060437672927
8.45	-20.0817618378293
8.5	-20.074111388965
8.55	-20.1095163455215
8.6	-20.0974385073566
8.65	-20.0883337380764
8.7	-20.0773663730117
8.75	-20.0752447889574
8.8	-20.071979404486
8.85	-20.0752447889574
8.9	-20.071979404486
8.95	-20.0752447889574
9	-20.071979404486
9.05	-20.0752447889574
9.1	-20.071979404486
9.15	-20.0752447889574
9.2	-20.071979404486
9.25	-20.0752447889574
9.3	-20.071979404486
9.35	-20.0752447889574
9.4	-20.071979404486
9.45	-20.0752447889574
9.5	-20.071979404486
9.55	-20.0752447889574
9.6	-20.071979404486
9.65	-20.0752447889574
9.7	-20.071979404486
9.75	-20.0752447889574
9.8	-20.071979404486
9.85	-20.0752447889574
9.9	-20.071979404486
9.95	-20.0752447889574
10	-20.071979404486
