0	-4.93138333951162
0.03	-5.25960169049707
0.06	-5.58633789137046
0.09	-5.9109603435635
0.12	-6.23400559302517
0.15	-6.41319325336805
0.18	-6.47373573035463
0.21	-6.5320774335861
0.24	-6.5930492989658
0.27	-6.64746914729833
0.3	-6.704704196892
0.33	-6.76303469609756
0.36	-6.81319046969916
0.39	-6.87116487231442
0.42	-6.92374325552415
0.45	-6.98509870880027
0.48	-7.03398729427193
0.51	-7.09088509563516
0.54	-7.13832930299303
0.57	-7.1894492690816
0.6	-7.2356256284906
0.63	-7.28516291455402
0.66	-7.32512053641562
0.69	-7.36713085715271
0.72	-7.40704505511624
0.75	-7.44322312600441
0.78	-7.47761534259264
0.81	-7.50936254845172
0.84	-7.54207801148208
0.87	-7.57910353972894
0.9	-7.61103142707639
0.93	-7.63641499840027
0.96	-7.66913834227777
0.99	-7.70548084011768
1.02	-7.72860604280329
1.05	-7.74489702431575
1.08	-7.76059160852019
1.11	-7.77451175284653
1.14	-7.78238189542741
1.17	-7.78820318662355
1.2	-7.7897374144566
1.23	-7.80163308157179
1.26	-7.79356898180834
1.29	-7.79551012671894
1.32	-7.78530757667613
1.35	-7.75977171204044
1.38	-7.71924266918566
1.41	-7.66068188574357
1.44	-7.5941907370165
1.47	-7.4874453376794
1.5	-7.50047297613496
1.53	-7.6243529771398
1.56	-7.76095324584066
1.59	-7.90746899366349
1.62	-7.9535280374272
1.65	-8.00259827091418
1.68	-8.05716850012635
1.71	-8.11462905230482
1.74	-8.15714785572881
1.77	-8.20771161506713
1.8	-8.25854856281117
1.83	-8.30672686061959
1.86	-8.36045960593962
1.89	-8.41079643028916
1.92	-8.45349344097789
1.95	-8.49459193894218
1.98	-8.55129431355685
2.01	-8.60202872279485
2.04	-8.65196734491747
2.07	-8.69441784647972
2.1	-8.73751806386097
2.13	-8.75860205965553
2.16	-8.79502382631505
2.19	-8.8307195652044
2.22	-8.86864154043768
2.25	-8.90343595605588
2.28	-8.93778074973005
2.31	-8.97217795486459
2.34	-9.00798679817562
2.37	-9.04489280732323
2.4	-9.09001398719134
2.43	-9.13335559236734
2.46	-9.18262771319234
2.49	-9.22559588232903
2.52	-9.27722524500122
2.55	-9.31402973106735
2.58	-9.36724565275081
2.61	-9.41063195141927
2.64	-9.46004370475083
2.67	-9.50729985921783
2.7	-9.556379906214
2.73	-9.60563149306223
2.76	-9.6555705023964
2.79	-9.70716886860892
2.82	-9.75441226912618
2.85	-9.80714624645989
2.88	-9.85820837325829
2.91	-9.91711231946688
2.94	-10.002484778811
2.97	-10.1258374779078
3	-10.2464272592015
3.03	-10.3299549110965
3.06	-10.3926299786526
3.09	-10.4290237204791
3.12	-10.413481992804
3.15	-10.3875833982493
3.18	-10.3829956327248
3.21	-10.3925524629785
3.24	-10.3829956327248
3.27	-10.3847018736831
3.3	-10.3829956327248
3.33	-10.3925524629785
3.36	-10.3841710709168
3.39	-10.3847018736831
3.42	-10.3829956327248
3.45	-10.389936117436
3.48	-10.3829956327248
3.51	-10.3847018736831
3.54	-10.3870539848484
3.57	-10.3911115376294
3.6	-10.3829956327248
3.63	-10.3873192543956
3.66	-10.3870539848484
3.69	-10.389936117436
3.72	-10.3829956327248
3.75	-10.3887600710247
3.78	-10.3856126255631
3.81	-10.3887600710247
3.84	-10.3803781222407
3.87	-10.3884951487997
3.9	-10.3896704169529
3.93	-10.3887600710247
3.96	-10.3803781222407
3.99	-10.3884951487997
4.02	-10.3856126255631
4.05	-10.3847018736831
4.08	-10.3803781222407
4.11	-10.3884951487997
4.14	-10.38822910093
4.17	-10.3847018736831
4.2	-10.3829956327248
4.23	-10.3911115376294
4.26	-10.3856126255631
4.29	-10.3847018736831
4.32	-10.3829956327248
4.35	-10.3911115376294
4.38	-10.3856126255631
4.41	-10.3820839751249
4.44	-10.3829956327248
4.47	-10.3925524629785
4.5	-10.3829956327248
4.53	-10.3847018736831
4.56	-10.3870539848484
4.59	-10.3913768907744
4.62	-10.3841710709168
4.65	-10.3847018736831
4.68	-10.3870539848484
4.71	-10.389936117436
4.74	-10.3829956327248
4.77	-10.3847018736831
4.8	-10.3870539848484
4.83	-10.3873192543956
4.86	-10.3815540348372
4.89	-10.3887600710247
4.92	-10.3870539848484
4.95	-10.3913768907744
4.98	-10.3829956327248
5.01	-10.3820839751249
5.04	-10.3896704169529
5.07	-10.3820839751249
5.1	-10.3896704169529
5.13	-10.3820839751249
5.16	-10.3896704169529
5.19	-10.3820839751249
5.22	-10.3896704169529
5.25	-10.3820839751249
5.28	-10.3896704169529
5.31	-10.3820839751249
5.34	-10.3896704169529
5.37	-10.3820839751249
5.4	-10.3896704169529
5.43	-10.3820839751249
5.46	-10.3896704169529
5.49	-10.3820839751249
5.52	-10.3896704169529
5.55	-10.3820839751249
5.58	-10.3896704169529
5.61	-10.3820839751249
5.64	-10.3896704169529
5.67	-10.3820839751249
5.7	-10.3896704169529
5.73	-10.3820839751249
5.76	-10.3896704169529
5.79	-10.3820839751249
5.82	-10.3896704169529
5.85	-10.3820839751249
5.88	-10.3896704169529
5.91	-10.3820839751249
5.94	-10.3896704169529
5.97	-10.3820839751249
6	-10.3896704169529
