0	-0.797648026670851
0.03	-1.23213362803074
0.06	-1.66523373832997
0.09	-2.09788534883358
0.12	-2.53048808355944
0.15	-2.77507140250501
0.18	-2.86543286524433
0.21	-2.95278930467797
0.24	-3.04479909867973
0.27	-3.12853248823436
0.3	-3.21646551039842
0.33	-3.30675756380292
0.36	-3.3889289802541
0.39	-3.47806992375866
0.42	-3.56078901618954
0.45	-3.65587489911742
0.48	-3.73580197450066
0.51	-3.82478898886277
0.54	-3.90496829503742
0.57	-3.99027119306605
0.6	-4.07035022994937
0.63	-4.15649330033194
0.66	-4.2318737281378
0.69	-4.31128628851645
0.72	-4.3884565672197
0.75	-4.46351513913771
0.78	-4.53913724229667
0.81	-4.61004744290704
0.84	-4.68380214196769
0.87	-4.75895426972914
0.9	-4.8324285350324
0.93	-4.89898568907205
0.96	-4.9738780460353
0.99	-5.04943627291565
1.02	-5.11720858131753
1.05	-5.17895096966344
1.08	-5.24308879685289
1.11	-5.30591389172217
1.14	-5.36294856652862
1.17	-5.41781604484625
1.2	-5.47063872699103
1.23	-5.53740514417449
1.26	-5.58125730604321
1.29	-5.6386248676378
1.32	-5.68375459393592
1.35	-5.70964861083671
1.38	-5.71670471689118
1.41	-5.70296239335224
1.44	-5.67839714180506
1.47	-5.60101743107951
1.5	-5.65451103891208
1.53	-5.83549698958408
1.56	-6.03264590843322
1.59	-6.24295433048291
1.62	-6.32040925884254
1.65	-6.40219379391237
1.68	-6.49090871735033
1.71	-6.58380706505766
1.74	-6.65798841913701
1.77	-6.74174214908407
1.8	-6.82693090373447
1.83	-6.90686185824326
1.86	-6.99554709963675
1.89	-7.07881069846859
1.92	-7.15525511357789
1.95	-7.22877589425817
1.98	-7.32329933760771
2.01	-7.40974173090392
2.04	-7.49529769009598
2.07	-7.5706120725799
2.1	-7.64894293987026
2.13	-7.69957298595842
2.16	-7.76608075243548
2.19	-7.82879950108564
2.22	-7.89378203328084
2.25	-7.95547836625024
2.28	-8.0166661868066
2.31	-8.07905591567819
2.34	-8.13751443041409
2.37	-8.2006362522265
2.4	-8.2662758343381
2.43	-8.32944607261276
2.46	-8.39692618391728
2.49	-8.45963743060824
2.52	-8.52946945833072
2.55	-8.58456729154181
2.58	-8.65772424565195
2.61	-8.72011943372284
2.64	-8.78690716417269
2.67	-8.85379075192028
2.7	-8.9201492246532
2.73	-8.98781578218635
2.76	-9.05437903603274
2.79	-9.12436053698835
2.82	-9.18923984939635
2.85	-9.2608726668481
2.88	-9.33015458561626
2.91	-9.40741095898061
2.94	-9.523339013705
2.97	-9.68372013545163
3	-9.83811334255446
3.03	-9.93771247860581
3.06	-10.0055619192708
3.09	-10.0350463223026
3.12	-10.0140178245228
3.15	-9.97722307536323
3.18	-9.96965228681061
3.21	-9.98111946383069
3.24	-9.96965228681061
3.27	-9.97312985962559
3.3	-9.96965228681061
3.33	-9.98111946383069
3.36	-9.97026826479495
3.39	-9.97312985962559
3.42	-9.96965228681061
3.45	-9.97845685945159
3.48	-9.96965228681061
3.51	-9.97312985962559
3.54	-9.97436305325895
3.57	-9.97907278143069
3.6	-9.96965228681061
3.63	-9.97579365812672
3.66	-9.97436305325895
3.69	-9.97845685945159
3.72	-9.96965228681061
3.75	-9.97784029083003
3.78	-9.97231578182951
3.81	-9.97784029083003
3.84	-9.96698819463727
3.87	-9.9764100791299
3.9	-9.97702585346502
3.93	-9.97784029083003
3.96	-9.96698819463727
3.99	-9.9764100791299
4.02	-9.97231578182951
4.05	-9.97312985962559
4.08	-9.96698819463727
4.11	-9.9764100791299
4.14	-9.97497867992442
4.17	-9.97312985962559
4.2	-9.96965228681061
4.23	-9.97907278143069
4.26	-9.97231578182951
4.29	-9.97312985962559
4.32	-9.96965228681061
4.35	-9.97907278143069
4.38	-9.97231578182951
4.41	-9.97046546371861
4.44	-9.96965228681061
4.47	-9.98111946383069
4.5	-9.96965228681061
4.53	-9.97312985962559
4.56	-9.97436305325895
4.59	-9.980503394224
4.62	-9.97026826479495
4.65	-9.97312985962559
4.68	-9.97436305325895
4.71	-9.97845685945159
4.74	-9.96965228681061
4.77	-9.97312985962559
4.8	-9.97436305325895
4.83	-9.97579365812672
4.86	-9.96760467191096
4.89	-9.97784029083003
4.92	-9.97436305325895
4.95	-9.980503394224
4.98	-9.96965228681061
5.01	-9.97046546371861
5.04	-9.97702585346502
5.07	-9.97046546371861
5.1	-9.97702585346502
5.13	-9.97046546371861
5.16	-9.97702585346502
5.19	-9.97046546371861
5.22	-9.97702585346502
5.25	-9.97046546371861
5.28	-9.97702585346502
5.31	-9.97046546371861
5.34	-9.97702585346502
5.37	-9.97046546371861
5.4	-9.97702585346502
5.43	-9.97046546371861
5.46	-9.97702585346502
5.49	-9.97046546371861
5.52	-9.97702585346502
5.55	-9.97046546371861
5.58	-9.97702585346502
5.61	-9.97046546371861
5.64	-9.97702585346502
5.67	-9.97046546371861
5.7	-9.97702585346502
5.73	-9.97046546371861
5.76	-9.97702585346502
5.79	-9.97046546371861
5.82	-9.97702585346502
5.85	-9.97046546371861
5.88	-9.97702585346502
5.91	-9.97046546371861
5.94	-9.97702585346502
5.97	-9.97046546371861
6	-9.97702585346502
