0	27
0.03	26.8960000000002
0.06	26.7912000000005
0.09	26.6832000000007
0.12	26.572000000001
0.15	26.5040000000012
0.18	26.4712000000012
0.21	26.4392000000013
0.24	26.4048000000014
0.27	26.3720000000015
0.3	26.3376000000015
0.33	26.3016000000016
0.36	26.2648000000017
0.39	26.2296000000018
0.42	26.1952000000019
0.45	26.156800000002
0.48	26.120800000002
0.51	26.0840000000021
0.54	26.0456000000022
0.57	26.0056000000023
0.6	25.9656000000024
0.63	25.9224000000025
0.66	25.8800000000026
0.69	25.8352000000027
0.72	25.7904000000028
0.75	25.7432000000029
0.78	25.692800000003
0.81	25.6448000000032
0.84	25.5944000000033
0.87	25.5480000000034
0.9	25.4968000000035
0.93	25.4456000000036
0.96	25.3936000000037
0.99	25.3456000000039
1.02	25.289600000004
1.05	25.2320000000041
1.08	25.1704000000043
1.11	25.1080000000044
1.14	25.0448000000046
1.17	24.9816000000047
1.2	24.9152000000049
1.23	24.844800000005
1.26	24.7768000000052
1.29	24.7048000000053
1.32	24.6320000000055
1.35	24.5632000000057
1.38	24.4984000000058
1.41	24.436000000006
1.44	24.3768000000061
1.47	24.3312000000062
1.5	24.2792000000063
1.53	24.2128000000065
1.56	24.1424000000067
1.59	24.0680000000068
1.62	24.0296000000069
1.65	23.989600000007
1.68	23.9480000000071
1.71	23.9048000000072
1.74	23.8656000000073
1.77	23.8248000000074
1.8	23.7824000000075
1.83	23.7432000000076
1.86	23.7000000000077
1.89	23.6592000000078
1.92	23.6168000000079
1.95	23.576000000008
1.98	23.5288000000081
2.01	23.4840000000082
2.04	23.4392000000083
2.07	23.3976000000084
2.1	23.3528000000085
2.13	23.3144000000086
2.16	23.2760000000087
2.19	23.2416000000088
2.22	23.2072000000088
2.25	23.1728000000089
2.28	23.138400000009
2.31	23.1024000000091
2.34	23.0736000000092
2.37	23.0400000000092
2.4	23.0144000000093
2.43	22.9896000000093
2.46	22.9672000000094
2.49	22.9424000000095
2.52	22.9200000000095
2.55	22.8968000000096
2.58	22.8720000000096
2.61	22.8480000000097
2.64	22.8264000000097
2.67	22.8016000000098
2.7	22.7800000000098
2.73	22.7568000000099
2.76	22.7360000000099
2.79	22.71280000001
2.82	22.69040000001
2.85	22.6664000000101
2.88	22.6432000000102
2.91	22.6200000000102
2.94	22.5808000000103
2.97	22.5336000000104
3	22.4904000000105
3.03	22.4704000000106
3.06	22.4648000000106
3.09	22.4752000000105
3.12	22.4824000000105
3.15	22.4968000000105
3.18	22.5008000000105
3.21	22.4984000000105
3.24	22.5008000000105
3.27	22.4984000000105
3.3	22.5008000000105
3.33	22.4984000000105
3.36	22.5016000000105
3.39	22.4984000000105
3.42	22.5008000000105
3.45	22.4984000000105
3.48	22.5008000000105
3.51	22.4984000000105
3.54	22.5000000000105
3.57	22.4992000000105
3.6	22.5008000000105
3.63	22.4984000000105
3.66	22.5000000000105
3.69	22.4984000000105
3.72	22.5008000000105
3.75	22.4976000000105
3.78	22.5008000000105
3.81	22.4976000000105
3.84	22.5008000000105
3.87	22.4992000000105
3.9	22.5000000000105
3.93	22.4976000000105
3.96	22.5008000000105
3.99	22.4992000000105
4.02	22.5008000000105
4.05	22.4984000000105
4.08	22.5008000000105
4.11	22.4992000000105
4.14	22.5008000000105
4.17	22.4984000000105
4.2	22.5008000000105
4.23	22.4992000000105
4.26	22.5008000000105
4.29	22.4984000000105
4.32	22.5008000000105
4.35	22.4992000000105
4.38	22.5008000000105
4.41	22.4984000000105
4.44	22.5008000000105
4.47	22.4984000000105
4.5	22.5008000000105
4.53	22.4984000000105
4.56	22.5000000000105
4.59	22.4976000000105
4.62	22.5016000000105
4.65	22.4984000000105
4.68	22.5000000000105
4.71	22.4984000000105
4.74	22.5008000000105
4.77	22.4984000000105
4.8	22.5000000000105
4.83	22.4984000000105
4.86	22.5016000000105
4.89	22.4976000000105
4.92	22.5000000000105
4.95	22.4976000000105
4.98	22.5008000000105
5.01	22.4984000000105
5.04	22.5000000000105
5.07	22.4984000000105
5.1	22.5000000000105
5.13	22.4984000000105
5.16	22.5000000000105
5.19	22.4984000000105
5.22	22.5000000000105
5.25	22.4984000000105
5.28	22.5000000000105
5.31	22.4984000000105
5.34	22.5000000000105
5.37	22.4984000000105
5.4	22.5000000000105
5.43	22.4984000000105
5.46	22.5000000000105
5.49	22.4984000000105
5.52	22.5000000000105
5.55	22.4984000000105
5.58	22.5000000000105
5.61	22.4984000000105
5.64	22.5000000000105
5.67	22.4984000000105
5.7	22.5000000000105
5.73	22.4984000000105
5.76	22.5000000000105
5.79	22.4984000000105
5.82	22.5000000000105
5.85	22.4984000000105
5.88	22.5000000000105
5.91	22.4984000000105
5.94	22.5000000000105
5.97	22.4984000000105
6	22.5000000000105
