0	-14.7678139381599
0.03	-14.8257105886162
0.06	-14.8818215910499
0.09	-14.9301798405912
0.12	-14.9714926256921
0.15	-14.9806166806433
0.18	-14.9610695373876
0.21	-14.9414233878899
0.24	-14.9187831362882
0.27	-14.893821848323
0.3	-14.8679018542008
0.33	-14.8394248528777
0.36	-14.8015337952534
0.39	-14.7747990720725
0.42	-14.7449393775547
0.45	-14.7142367754488
0.48	-14.6774145907033
0.51	-14.6464120826505
0.54	-14.6028822395205
0.57	-14.5592386578318
0.6	-14.5109975737096
0.63	-14.4586799694855
0.66	-14.3992037557932
0.69	-14.3362683275859
0.72	-14.2714509001302
0.75	-14.1976832503707
0.78	-14.1149979937262
0.81	-14.0354027295226
0.84	-13.9513495974323
0.87	-13.8806779958126
0.9	-13.7942606896242
0.93	-13.7016739389462
0.96	-13.614414168451
0.99	-13.5398790401199
1.02	-13.4345357410403
1.05	-13.3191072635817
1.08	-13.1941400362804
1.11	-13.0657803516699
1.14	-12.9298913203784
1.17	-12.7921431019816
1.2	-12.6431256498956
1.23	-12.4952244742463
1.26	-12.3336176947613
1.29	-12.172818197463
1.32	-11.9986185020194
1.35	-11.8187133296696
1.38	-11.6333924141911
1.41	-11.4361120395974
1.44	-11.2384843612185
1.47	-11.0326660660151
1.5	-10.9283358516127
1.53	-10.8991999564833
1.56	-10.8741173394164
1.59	-10.8505447270396
1.62	-10.8097754976099
1.65	-10.7685225824283
1.68	-10.7292544023111
1.71	-10.6894432049543
1.74	-10.6440077715538
1.77	-10.6030883386232
1.8	-10.559051825668
1.83	-10.5196634792317
1.86	-10.4770712587554
1.89	-10.4366162030396
1.92	-10.3851880004252
1.95	-10.3358616691873
1.98	-10.2881292130528
2.01	-10.2399531092468
2.04	-10.1911811788295
2.07	-10.1421354619603
2.1	-10.0868679930135
2.13	-10.0236655211758
2.16	-9.97602529909489
2.19	-9.9365610924077
2.22	-9.89946662596175
2.25	-9.85932959751036
2.28	-9.81885393205111
2.31	-9.77505170714433
2.34	-9.74853140124398
2.37	-9.71275743663665
2.4	-9.70292495138693
2.43	-9.69313532953469
2.46	-9.6947480697052
2.49	-9.68480336498317
2.52	-9.68907506650771
2.55	-9.67649986785477
2.58	-9.67744052862114
2.61	-9.67012428760765
2.64	-9.67434234856316
2.67	-9.66953244696968
2.7	-9.67366023596429
2.73	-9.67463701739995
2.76	-9.68164033165482
2.79	-9.68532718287095
2.82	-9.68633542168758
2.85	-9.6897685586569
2.88	-9.6933239777837
2.91	-9.70525573054558
2.94	-9.71091590650848
2.97	-9.74001969136129
3	-9.77551754792738
3.03	-9.82168521055053
3.06	-9.87655476543624
3.09	-9.9375427063583
3.12	-9.936288043613
3.15	-9.93934911337908
3.18	-9.94298519134755
3.21	-9.94805642585279
3.24	-9.94298519134755
3.27	-9.93968793457263
3.3	-9.94298519134755
3.33	-9.94805642585279
3.36	-9.94594325143584
3.39	-9.93968793457263
3.42	-9.94298519134755
3.45	-9.9452672771108
3.48	-9.94298519134755
3.51	-9.93968793457263
3.54	-9.94560539430984
3.57	-9.9482254059567
3.6	-9.94298519134755
3.63	-9.94247778003871
3.66	-9.94560539430984
3.69	-9.9452672771108
3.72	-9.94298519134755
3.75	-9.94230851294574
3.78	-9.94577435539306
3.81	-9.94230851294574
3.84	-9.94019567894375
3.87	-9.9454363682105
3.9	-9.94839432105907
3.93	-9.94230851294574
3.96	-9.94019567894375
3.99	-9.9454363682105
4.02	-9.94577435539306
4.05	-9.93968793457263
4.08	-9.94019567894375
4.11	-9.9454363682105
4.14	-9.94856317114415
4.17	-9.93968793457263
4.2	-9.94298519134755
4.23	-9.9482254059567
4.26	-9.94577435539306
4.29	-9.93968793457263
4.32	-9.94298519134755
4.35	-9.9482254059567
4.38	-9.94577435539306
4.41	-9.93689774064907
4.44	-9.94298519134755
4.47	-9.94805642585279
4.5	-9.94298519134755
4.53	-9.93968793457263
4.56	-9.94560539430984
4.59	-9.94509812102436
4.62	-9.94594325143584
4.65	-9.93968793457263
4.68	-9.94560539430984
4.71	-9.9452672771108
4.74	-9.94298519134755
4.77	-9.93968793457263
4.8	-9.94560539430984
4.83	-9.94247778003871
4.86	-9.94315419840153
4.89	-9.94230851294574
4.92	-9.94560539430984
4.95	-9.94509812102436
4.98	-9.94298519134755
5.01	-9.93689774064907
5.04	-9.94839432105907
5.07	-9.93689774064907
5.1	-9.94839432105907
5.13	-9.93689774064907
5.16	-9.94839432105907
5.19	-9.93689774064907
5.22	-9.94839432105907
5.25	-9.93689774064907
5.28	-9.94839432105907
5.31	-9.93689774064907
5.34	-9.94839432105907
5.37	-9.93689774064907
5.4	-9.94839432105907
5.43	-9.93689774064907
5.46	-9.94839432105907
5.49	-9.93689774064907
5.52	-9.94839432105907
5.55	-9.93689774064907
5.58	-9.94839432105907
5.61	-9.93689774064907
5.64	-9.94839432105907
5.67	-9.93689774064907
5.7	-9.94839432105907
5.73	-9.93689774064907
5.76	-9.94839432105907
5.79	-9.93689774064907
5.82	-9.94839432105907
5.85	-9.93689774064907
5.88	-9.94839432105907
5.91	-9.93689774064907
5.94	-9.94839432105907
5.97	-9.93689774064907
6	-9.94839432105907
