0	-4.1895701892238
0.03	-4.53660896754804
0.06	-4.88218310718038
0.09	-5.22595589285508
0.12	-5.56844605471569
0.15	-5.75924781817099
0.18	-5.82508672792653
0.21	-5.88858131967312
0.24	-5.95506527066593
0.27	-6.0146914915384
0.3	-6.07737973809674
0.33	-6.14138956070419
0.36	-6.19723679107452
0.39	-6.26075378195201
0.42	-6.31869499664417
0.45	-6.38605479751597
0.48	-6.44047146256531
0.51	-6.50308604665957
0.54	-6.55636384805603
0.57	-6.61357475325705
0.6	-6.66578977279463
0.63	-6.72184402213351
0.66	-6.76810601412769
0.69	-6.81677102187157
0.72	-6.86331265500258
0.75	-6.9064066196115
0.78	-6.94813260593509
0.81	-6.98684631060104
0.84	-7.02686270597707
0.87	-7.07067129013072
0.9	-7.10999074077556
0.93	-7.14269851715384
0.96	-7.18292229304668
0.99	-7.22623998546662
1.02	-7.25730828022622
1.05	-7.28168742855829
1.08	-7.30600457486579
1.11	-7.32863098558471
1.14	-7.34525395391628
1.17	-7.3598050231532
1.2	-7.3704648689691
1.23	-7.39212183163164
1.26	-7.3932946482761
1.29	-7.405098955145
1.32	-7.40474545569586
1.35	-7.38836549482835
1.38	-7.35630734118893
1.41	-7.30572304245937
1.44	-7.24669269879228
1.47	-7.14517475477413
1.5	-7.16540161547826
1.53	-7.29943941284504
1.56	-7.44681179926583
1.59	-7.60467844834003
1.62	-7.65632463931601
1.65	-7.7112160737839
1.68	-7.77186110785234
1.71	-7.83562593198118
1.74	-7.88377734293239
1.77	-7.94024538016455
1.8	-7.99719358098234
1.83	-8.05102110783297
1.86	-8.11097288388536
1.89	-8.16716880816456
1.92	-8.21587145387849
1.95	-8.26273999393545
1.98	-8.32617307537776
2.01	-8.38326163781378
2.04	-8.43953756391935
2.07	-8.48783510124166
2.1	-8.5372033457757
2.13	-8.56354413399889
2.16	-8.60531894379833
2.19	-8.64582299688753
2.22	-8.68856024129086
2.25	-8.72814198276689
2.28	-8.76726387111543
2.31	-8.80664293968299
2.34	-8.84648283104681
2.37	-8.88805455263112
2.4	-8.93682733941223
2.43	-8.98369764015908
2.46	-9.03620990546605
2.49	-9.08269125566784
2.52	-9.13755964774142
2.55	-9.17761921805733
2.58	-9.23438344963223
2.61	-9.28115218868685
2.64	-9.33365591537796
2.67	-9.38440471248758
2.7	-9.43655952924571
2.73	-9.48908822123078
2.76	-9.54198579360289
2.79	-9.59685583510115
2.82	-9.64723801989943
2.85	-9.70333568498723
2.88	-9.7576407465538
2.91	-9.81981139265273
2.94	-9.91062272982897
2.97	-10.0405667608104
3	-10.1671737626049
3.03	-10.2535624873844
3.06	-10.3171591996105
3.09	-10.3523239364533
3.12	-10.3358055986745
3.15	-10.3079675996975
3.18	-10.3028489135485
3.21	-10.3127458415647
3.24	-10.3028489135485
3.27	-10.304870403742
3.3	-10.3028489135485
3.33	-10.3127458415647
3.36	-10.3039248064528
3.39	-10.304870403742
3.42	-10.3028489135485
3.45	-10.3101212272629
3.48	-10.3028489135485
3.51	-10.304870403742
3.54	-10.3070234257056
3.57	-10.311197095968
3.6	-10.3028489135485
3.63	-10.3074960813833
3.66	-10.3070234257056
3.69	-10.3101212272629
3.72	-10.3028489135485
3.75	-10.3090447285577
3.78	-10.3054742183043
3.81	-10.3090447285577
3.84	-10.3002230770568
3.87	-10.3085724286858
3.9	-10.3096481459552
3.93	-10.3090447285577
3.96	-10.3002230770568
3.99	-10.3085724286858
4.02	-10.3054742183043
4.05	-10.304870403742
4.08	-10.3002230770568
4.11	-10.3085724286858
4.14	-10.3080989915081
4.17	-10.304870403742
4.2	-10.3028489135485
4.23	-10.311197095968
4.26	-10.3054742183043
4.29	-10.304870403742
4.32	-10.3028489135485
4.35	-10.311197095968
4.38	-10.3054742183043
4.41	-10.3022441941554
4.44	-10.3028489135485
4.47	-10.3127458415647
4.5	-10.3028489135485
4.53	-10.304870403742
4.56	-10.3070234257056
4.59	-10.3116698214522
4.62	-10.3039248064528
4.65	-10.304870403742
4.68	-10.3070234257056
4.71	-10.3101212272629
4.74	-10.3028489135485
4.77	-10.304870403742
4.8	-10.3070234257056
4.83	-10.3074960813833
4.86	-10.3012994487646
4.89	-10.3090447285577
4.92	-10.3070234257056
4.95	-10.3116698214522
4.98	-10.3028489135485
5.01	-10.3022441941554
5.04	-10.3096481459552
5.07	-10.3022441941554
5.1	-10.3096481459552
5.13	-10.3022441941554
5.16	-10.3096481459552
5.19	-10.3022441941554
5.22	-10.3096481459552
5.25	-10.3022441941554
5.28	-10.3096481459552
5.31	-10.3022441941554
5.34	-10.3096481459552
5.37	-10.3022441941554
5.4	-10.3096481459552
5.43	-10.3022441941554
5.46	-10.3096481459552
5.49	-10.3022441941554
5.52	-10.3096481459552
5.55	-10.3022441941554
5.58	-10.3096481459552
5.61	-10.3022441941554
5.64	-10.3096481459552
5.67	-10.3022441941554
5.7	-10.3096481459552
5.73	-10.3022441941554
5.76	-10.3096481459552
5.79	-10.3022441941554
5.82	-10.3096481459552
5.85	-10.3022441941554
5.88	-10.3096481459552
5.91	-10.3022441941554
5.94	-10.3096481459552
5.97	-10.3022441941554
6	-10.3096481459552
