0	-14.3071304562661
0.03	-14.3739625313849
0.06	-14.4390069824701
0.09	-14.4964579724141
0.12	-14.5470217233978
0.15	-14.5616872337006
0.18	-14.5446852432475
0.21	-14.5275159104841
0.24	-14.5075270836901
0.27	-14.4850740298708
0.3	-14.4617825567853
0.33	-14.4360462131326
0.36	-14.4009112149395
0.39	-14.376854750403
0.42	-14.3495915592328
0.45	-14.3217959133936
0.48	-14.2876582803862
0.51	-14.2594270907572
0.54	-14.2187344516815
0.57	-14.1780502381496
0.6	-14.1327440151656
0.63	-14.0835908469718
0.66	-14.0271806833587
0.69	-13.9674805019414
0.72	-13.9058862029146
0.75	-13.8354868083954
0.78	-13.7563773616489
0.81	-13.6801803694751
0.84	-13.5996896988855
0.87	-13.532322160244
0.9	-13.4495115863301
0.93	-13.3605020437098
0.96	-13.2768985780024
0.99	-13.2057585149928
1.02	-13.1042977968061
1.05	-12.9928302972134
1.08	-12.8720885628186
1.11	-12.7479978153763
1.14	-12.6164052053688
1.17	-12.4829414078337
1.2	-12.3384031834136
1.23	-12.1952833103946
1.26	-12.0382176990966
1.29	-11.8822597937384
1.32	-11.7129061229599
1.35	-11.5375190207921
1.38	-11.3563900792304
1.41	-11.1630707980006
1.44	-10.9691560845264
1.47	-10.7659876277956
1.5	-10.6651772727175
1.53	-10.6409234833777
1.56	-10.6210151318402
1.59	-10.6028931959561
1.62	-10.5648276386502
1.65	-10.5263900459546
1.68	-10.490056167735
1.71	-10.4532887888203
1.74	-10.4105796763413
1.77	-10.372513245954
1.8	-10.331431114938
1.83	-10.2947731090027
1.86	-10.2551863992046
1.89	-10.2175634158784
1.92	-10.1690453299601
1.95	-10.1225148502535
1.98	-10.0780364360408
2.01	-10.0329337334446
2.04	-9.98722667297451
2.07	-9.94101109641359
2.1	-9.88877924484608
2.13	-9.82813445072552
2.16	-9.7830872130607
2.19	-9.74594999244933
2.22	-9.71118437739972
2.25	-9.67336512584504
2.28	-9.63520269765837
2.31	-9.5938140117949
2.34	-9.56924035488089
2.37	-9.53572288689754
2.4	-9.52764363069184
2.43	-9.51954818299131
2.46	-9.52270899637825
2.49	-9.51445073664069
2.52	-9.5202678572577
2.55	-9.50925734755296
2.58	-9.511893466961
2.61	-9.50619911329571
2.64	-9.51189225145408
2.67	-9.50875525295059
2.7	-9.51435005320512
2.73	-9.51689282090937
2.76	-9.52530571888558
2.79	-9.53055421647956
2.82	-9.53306248987347
2.85	-9.53810156895948
2.88	-9.54320515120004
2.91	-9.55669062559613
2.94	-9.56494752659959
2.97	-9.59718253857437
3	-9.63553215645563
3.03	-9.68303507390261
3.06	-9.73830670253695
3.09	-9.79866443452392
3.12	-9.79694386944049
3.15	-9.79907577678938
3.18	-9.80245551365173
3.21	-9.80768575376322
3.24	-9.80245551365173
3.27	-9.79931126743112
3.3	-9.80245551365173
3.33	-9.80768575376322
3.36	-9.80536391001853
3.39	-9.79931126743112
3.42	-9.80245551365173
3.45	-9.80489461337754
3.48	-9.80245551365173
3.51	-9.79931126743112
3.54	-9.80512940078514
3.57	-9.80780307594681
3.6	-9.80245551365173
3.63	-9.80210311795641
3.66	-9.80512940078514
3.69	-9.80489461337754
3.72	-9.80245551365173
3.75	-9.80198551368673
3.78	-9.80524669018468
3.81	-9.80198551368673
3.84	-9.79966398205016
3.87	-9.80501204184387
3.9	-9.80792032860386
3.93	-9.80198551368673
3.96	-9.79966398205016
3.99	-9.80501204184387
4.02	-9.80524669018468
4.05	-9.79931126743112
4.08	-9.79966398205016
4.11	-9.80501204184387
4.14	-9.8080375117177
4.17	-9.79931126743112
4.2	-9.80245551365173
4.23	-9.80780307594681
4.26	-9.80524669018468
4.29	-9.79931126743112
4.32	-9.80245551365173
4.35	-9.80780307594681
4.38	-9.80524669018468
4.41	-9.79651906173334
4.44	-9.80245551365173
4.47	-9.80768575376322
4.5	-9.80245551365173
4.53	-9.79931126743112
4.56	-9.80512940078514
4.59	-9.80477711540096
4.62	-9.80536391001853
4.65	-9.79931126743112
4.68	-9.80512940078514
4.71	-9.80489461337754
4.74	-9.80245551365173
4.77	-9.79931126743112
4.8	-9.80512940078514
4.83	-9.80210311795641
4.86	-9.8025728397846
4.89	-9.80198551368673
4.92	-9.80512940078514
4.95	-9.80477711540096
4.98	-9.80245551365173
5.01	-9.79651906173334
5.04	-9.80792032860386
5.07	-9.79651906173334
5.1	-9.80792032860386
5.13	-9.79651906173334
5.16	-9.80792032860386
5.19	-9.79651906173334
5.22	-9.80792032860386
5.25	-9.79651906173334
5.28	-9.80792032860386
5.31	-9.79651906173334
5.34	-9.80792032860386
5.37	-9.79651906173334
5.4	-9.80792032860386
5.43	-9.79651906173334
5.46	-9.80792032860386
5.49	-9.79651906173334
5.52	-9.80792032860386
5.55	-9.79651906173334
5.58	-9.80792032860386
5.61	-9.79651906173334
5.64	-9.80792032860386
5.67	-9.79651906173334
5.7	-9.80792032860386
5.73	-9.79651906173334
5.76	-9.80792032860386
5.79	-9.79651906173334
5.82	-9.80792032860386
5.85	-9.79651906173334
5.88	-9.80792032860386
5.91	-9.79651906173334
5.94	-9.80792032860386
5.97	-9.79651906173334
6	-9.80792032860386
