0	-15.663445951674
0.05	-15.752482341226
0.1	-15.8224573809906
0.15	-15.8550905303699
0.2	-15.8227969973332
0.25	-15.7833042029071
0.3	-15.7422259815439
0.35	-15.6895897458393
0.4	-15.6437170846478
0.45	-15.5895892887241
0.5	-15.5304513261473
0.55	-15.4619390086743
0.6	-15.3889711708285
0.65	-15.3001830504663
0.7	-15.2036319059911
0.75	-15.0815750361955
0.8	-14.9478653961209
0.85	-14.8175516478786
0.9	-14.6868122409468
0.95	-14.5411544841
1	-14.4083930853356
1.05	-14.2225313346239
1.1	-14.0182097134034
1.15	-13.7982952705137
1.2	-13.5635323596118
1.25	-13.3189417024149
1.3	-13.0464225705544
1.35	-12.7607375708672
1.4	-12.4521056506837
1.45	-12.129710960295
1.5	-11.8960714478287
1.55	-11.8469415134053
1.6	-11.8043634370544
1.65	-11.7352127305788
1.7	-11.6669815850178
1.75	-11.5972785398325
1.8	-11.528537016495
1.85	-11.4608812263629
1.9	-11.3894180045669
1.95	-11.3087050478386
2	-11.2310888580659
2.05	-11.1495061410837
2.1	-11.0636717511809
2.15	-10.972818607546
2.2	-10.9013589685866
2.25	-10.8403343321867
2.3	-10.7730713246675
2.35	-10.7187478685378
2.4	-10.6860806501466
2.45	-10.6786981555125
2.5	-10.6684687016228
2.55	-10.658054101765
2.6	-10.6524951767519
2.65	-10.6524711413587
2.7	-10.6528167865362
2.75	-10.6557387587887
2.8	-10.6609009203595
2.85	-10.6659528664191
2.9	-10.6790127671546
2.95	-10.6969751973717
3	-10.7450095745749
3.05	-10.83149762266
3.1	-10.9038511295648
3.15	-10.9031563536163
3.2	-10.9067446516483
3.25	-10.9115873273007
3.3	-10.9067446516483
3.35	-10.9035156268113
3.4	-10.9096140361839
3.45	-10.9088970937066
3.5	-10.9092556873868
3.55	-10.9035156268113
3.6	-10.9067446516483
3.65	-10.9062065268939
3.7	-10.9092556873868
3.75	-10.9060270295785
3.8	-10.9040540776548
3.85	-10.9060270295785
3.9	-10.9119457036353
3.95	-10.9090764211485
4	-10.9067446516483
4.05	-10.9035156268113
4.1	-10.9121247999805
4.15	-10.9090764211485
4.2	-10.9067446516483
4.25	-10.9035156268113
4.3	-10.9094348924064
4.35	-10.9117665460704
4.4	-10.9067446516483
4.45	-10.9035156268113
4.5	-10.9067446516483
4.55	-10.9115873273007
4.6	-10.9067446516483
4.65	-10.9035156268113
4.7	-10.9067446516483
4.75	-10.9088970937066
4.8	-10.9092556873868
4.85	-10.9062065268939
4.9	-10.9067446516483
4.95	-10.9087177050738
5	-10.9094348924064
5.05	-10.9008243934073
5.1	-10.9119457036353
5.15	-10.9008243934073
5.2	-10.9119457036353
5.25	-10.9008243934073
5.3	-10.9119457036353
5.35	-10.9008243934073
5.4	-10.9119457036353
5.45	-10.9008243934073
5.5	-10.9119457036353
5.55	-10.9008243934073
5.6	-10.9119457036353
5.65	-10.9008243934073
5.7	-10.9119457036353
5.75	-10.9008243934073
5.8	-10.9119457036353
5.85	-10.9008243934073
5.9	-10.9119457036353
5.95	-10.9008243934073
6	-3.51267977582473
6.05	-4.03250861324987
6.1	-4.5533408379056
6.15	-5.07577138231862
6.2	-5.59603753470105
6.25	-6.11826805341774
6.3	-6.63949986578441
6.35	-7.16157175174399
6.4	-7.67440813264569
6.45	-8.19639065579461
6.5	-8.72555090031621
6.55	-9.18491918290754
6.6	-9.58037600924258
6.65	-9.91277392039925
6.7	-10.2071545298276
6.75	-10.4335672299866
6.8	-10.5901791027746
6.85	-10.6807724849237
6.9	-10.7698816999952
6.95	-10.8093806354057
7	-10.8154168657241
7.05	-10.8164403313147
7.1	-10.8016150444092
7.15	-10.8247278810069
7.2	-10.828356595059
7.25	-10.8247278810069
7.3	-10.828356595059
7.35	-10.8247278810069
7.4	-10.828356595059
7.45	-10.8247278810069
7.5	-10.828356595059
7.55	-10.8247278810069
7.6	-10.828356595059
7.65	-10.8247278810069
7.7	-10.828356595059
7.75	-10.8247278810069
7.8	-10.828356595059
7.85	-10.8247278810069
7.9	-10.828356595059
7.95	-10.8247278810069
8	-10.828356595059
8.05	-18.3592054655089
8.1	-18.62531647904
8.15	-18.8600446284004
8.2	-19.0941569731181
8.25	-19.3123832818142
8.3	-19.5289224648389
8.35	-19.720805209484
8.4	-19.8968586079545
8.45	-20.0533013876608
8.5	-20.1835394136185
8.55	-20.3104971839184
8.6	-20.3657915543083
8.65	-20.4261815025578
8.7	-20.4817093239803
8.75	-20.489541722281
8.8	-20.4879006490845
8.85	-20.489541722281
8.9	-20.4879006490845
8.95	-20.489541722281
9	-20.4879006490845
9.05	-20.489541722281
9.1	-20.4879006490845
9.15	-20.489541722281
9.2	-20.4879006490845
9.25	-20.489541722281
9.3	-20.4879006490845
9.35	-20.489541722281
9.4	-20.4879006490845
9.45	-20.489541722281
9.5	-20.4879006490845
9.55	-20.489541722281
9.6	-20.4879006490845
9.65	-20.489541722281
9.7	-20.4879006490845
9.75	-20.489541722281
9.8	-20.4879006490845
9.85	-20.489541722281
9.9	-20.4879006490845
9.95	-20.489541722281
10	-20.4879006490845
