0	-14.6783576039941
0.03	-14.7376041062423
0.06	-14.7950624464117
0.09	-14.8447828601706
0.12	-14.8874732257657
0.15	-14.897406632314
0.18	-14.8782073711185
0.21	-14.858899123802
0.24	-14.836618966969
0.27	-14.8119947595809
0.3	-14.7864282377471
0.33	-14.7583183202137
0.36	-14.7207871193496
0.39	-14.6944121979995
0.42	-14.6648973633858
0.45	-14.6345835807041
0.48	-14.5981119775166
0.51	-14.5674784021463
0.54	-14.5243144475286
0.57	-14.4810542642662
0.6	-14.4331884262778
0.63	-14.3812751029856
0.66	-14.3221817871112
0.69	-14.2596501913501
0.72	-14.1952329458528
0.75	-14.1218774413894
0.78	-14.0396253386606
0.81	-13.960440706543
0.84	-13.8768174470219
0.87	-13.8065518389235
0.9	-13.7205684328458
0.93	-13.628405130658
0.96	-13.5415855274272
0.99	-13.4674655902129
1.02	-13.3625769443899
1.05	-13.2476043043969
1.08	-13.1231215095619
1.11	-12.9952491437629
1.14	-12.8598438990543
1.17	-12.7225758770176
1.2	-12.5740554003228
1.23	-12.4266958260391
1.26	-12.2655822048481
1.29	-12.1053199543293
1.32	-11.9316446984166
1.35	-11.7522109914495
1.38	-11.5673091282569
1.41	-11.3704024663033
1.44	-11.1731122343609
1.47	-10.9674696527163
1.5	-10.8635424608169
1.53	-10.8350815802052
1.56	-10.8107201480212
1.59	-10.7879100559861
1.62	-10.7474898559542
1.65	-10.7066015779062
1.68	-10.6677171759576
1.71	-10.6283049962218
1.74	-10.5832171428957
1.77	-10.542668084554
1.8	-10.4990134340926
1.83	-10.459979301359
1.86	-10.4177777577311
1.89	-10.3776905100696
1.92	-10.3266303686342
1.95	-10.2776577289404
1.98	-10.2303466204449
2.01	-10.18256536618
2.04	-10.1341864488764
2.07	-10.0854996200334
2.1	-10.0306144193583
2.13	-9.96771735187908
2.16	-9.92040320584862
2.19	-9.8812349120317
2.22	-9.84443899395874
2.25	-9.80459585964105
2.28	-9.76441308538199
2.31	-9.72091486583382
2.34	-9.69464857987984
2.37	-9.65916401429307
2.4	-9.64957438793855
2.43	-9.64001915113656
2.46	-9.64185664507837
2.49	-9.63214504758728
2.52	-9.63664377747545
2.55	-9.62428149279184
2.58	-9.62546746002808
2.61	-9.61837764141086
2.64	-9.62281252320609
2.67	-9.6182389014456
2.7	-9.62258225072545
2.73	-9.62378569493695
2.76	-9.63099916696867
2.79	-9.6349147630511
2.82	-9.6361401803957
2.85	-9.63980818337672
2.88	-9.64359026054584
2.91	-9.65575785756121
2.94	-9.66179788490091
2.97	-9.69138199834971
3	-9.72732629053254
3.03	-9.77373254136869
3.06	-9.82871492263102
3.09	-9.88967306808067
3.12	-9.88835002432853
3.15	-9.89128028324832
3.18	-9.89488306452308
3.21	-9.8999822806309
3.24	-9.89488306452308
3.27	-9.89160455552719
3.3	-9.89488306452308
3.33	-9.8999822806309
3.36	-9.89783692770836
3.39	-9.89160455552719
3.42	-9.89488306452308
3.45	-9.89719005528799
3.48	-9.89488306452308
3.51	-9.89160455552719
3.54	-9.89751362297588
3.57	-9.9001439869106
3.6	-9.89488306452308
3.63	-9.89439748027506
3.66	-9.89751362297588
3.69	-9.89719005528799
3.72	-9.89488306452308
3.75	-9.89423548742829
3.78	-9.89767530822265
3.81	-9.89423548742829
3.84	-9.89209047112429
3.87	-9.89735187199236
3.9	-9.90030562746823
3.93	-9.89423548742829
3.96	-9.89209047112429
3.99	-9.89735187199236
4.02	-9.89767530822265
4.05	-9.89160455552719
4.08	-9.89209047112429
4.11	-9.89735187199236
4.14	-9.90046720228789
4.17	-9.89160455552719
4.2	-9.89488306452308
4.23	-9.9001439869106
4.26	-9.89767530822265
4.29	-9.89160455552719
4.32	-9.89488306452308
4.35	-9.9001439869106
4.38	-9.89767530822265
4.41	-9.88881128097987
4.44	-9.89488306452308
4.47	-9.8999822806309
4.5	-9.89488306452308
4.53	-9.89160455552719
4.56	-9.89751362297588
4.59	-9.89702817287658
4.62	-9.89783692770836
4.65	-9.89160455552719
4.68	-9.89751362297588
4.71	-9.89719005528799
4.74	-9.89488306452308
4.77	-9.89160455552719
4.8	-9.89751362297588
4.83	-9.89439748027506
4.86	-9.89504479444901
4.89	-9.89423548742829
4.92	-9.89751362297588
4.95	-9.89702817287658
4.98	-9.89488306452308
5.01	-9.88881128097987
5.04	-9.90030562746823
5.07	-9.88881128097987
5.1	-9.90030562746823
5.13	-9.88881128097987
5.16	-9.90030562746823
5.19	-9.88881128097987
5.22	-9.90030562746823
5.25	-9.88881128097987
5.28	-9.90030562746823
5.31	-9.88881128097987
5.34	-9.90030562746823
5.37	-9.88881128097987
5.4	-9.90030562746823
5.43	-9.88881128097987
5.46	-9.90030562746823
5.49	-9.88881128097987
5.52	-9.90030562746823
5.55	-9.88881128097987
5.58	-9.90030562746823
5.61	-9.88881128097987
5.64	-9.90030562746823
5.67	-9.88881128097987
5.7	-9.90030562746823
5.73	-9.88881128097987
5.76	-9.90030562746823
5.79	-9.88881128097987
5.82	-9.90030562746823
5.85	-9.88881128097987
5.88	-9.90030562746823
5.91	-9.88881128097987
5.94	-9.90030562746823
5.97	-9.88881128097987
6	-9.90030562746823
