0	-15.1345187887969
0.05	-15.2259137353127
0.1	-15.2977099425966
0.15	-15.3311623636799
0.2	-15.2979869643491
0.25	-15.2574179536007
0.3	-15.2152214539589
0.35	-15.1611562751258
0.4	-15.1140344062452
0.45	-15.0584360662968
0.5	-14.9976944983498
0.55	-14.9273271076481
0.6	-14.8523848723962
0.65	-14.7611980266455
0.7	-14.6620394601535
0.75	-14.5366939028099
0.8	-14.3993825888333
0.85	-14.2655585371086
0.9	-14.1312975663607
0.95	-13.981718798623
1	-13.8453809826052
1.05	-13.6545199463536
1.1	-13.4447044860484
1.15	-13.2188836734223
1.2	-12.9778162247179
1.25	-12.726652712801
1.3	-12.4468120674159
1.35	-12.1534574247768
1.4	-11.8365550346895
1.45	-11.5055268971833
1.5	-11.2656175167615
1.55	-11.2151090825764
1.6	-11.1713256450844
1.65	-11.1002924458358
1.7	-11.0301987198002
1.75	-10.9585952379254
1.8	-10.8879781168605
1.85	-10.8184760368272
1.9	-10.7450658531651
1.95	-10.6621573717784
2	-10.5824251124522
2.05	-10.4986219028127
2.1	-10.4104531245458
2.15	-10.3171410362785
2.2	-10.2437366835298
2.25	-10.1810488933297
2.3	-10.1119558863977
2.35	-10.0561483835176
2.4	-10.0225768047745
2.45	-10.0149686551597
2.5	-10.0044377378417
2.55	-9.99371663175557
2.6	-9.98797893848817
2.65	-9.98792433556787
2.7	-9.98825093244439
2.75	-9.99122219703181
2.8	-9.99649180778777
2.85	-10.0016481298151
2.9	-10.0150250419156
2.95	-10.0334144271777
3	-10.0826664976261
3.05	-10.1714319223844
3.1	-10.2457136978855
3.15	-10.2450170507953
3.2	-10.2487037792716
3.25	-10.2536730820515
3.3	-10.2487037792716
3.35	-10.2453871345003
3.4	-10.2516499631011
3.45	-10.2509114420702
3.5	-10.2512808282922
3.55	-10.2453871345003
3.6	-10.2487037792716
3.65	-10.2481494595729
3.7	-10.2512808282922
3.75	-10.2479645606786
3.8	-10.2459417888691
3.85	-10.2479645606786
3.9	-10.2540422452084
3.95	-10.2510961665991
4	-10.2487037792716
4.05	-10.2453871345003
4.1	-10.2542267325163
4.15	-10.2510961665991
4.2	-10.2487037792716
4.25	-10.2453871345003
4.3	-10.2514654271343
4.35	-10.2538576950484
4.4	-10.2487037792716
4.45	-10.2453871345003
4.5	-10.2487037792716
4.55	-10.2536730820515
4.6	-10.2487037792716
4.65	-10.2453871345003
4.7	-10.2487037792716
4.75	-10.2509114420702
4.8	-10.2512808282922
4.85	-10.2481494595729
4.9	-10.2487037792716
4.95	-10.2507266547187
5	-10.2514654271343
5.05	-10.2426244667937
5.1	-10.2540422452084
5.15	-10.2426244667937
5.2	-10.2540422452084
5.25	-10.2426244667937
5.3	-10.2540422452084
5.35	-10.2426244667937
5.4	-10.2540422452084
5.45	-10.2426244667937
5.5	-10.2540422452084
5.55	-10.2426244667937
5.6	-10.2540422452084
5.65	-10.2426244667937
5.7	-10.2540422452084
5.75	-10.2426244667937
5.8	-10.2540422452084
5.85	-10.2426244667937
5.9	-10.2540422452084
5.95	-10.2426244667937
6	-2.61837646184657
6.05	-3.15989423359456
6.1	-3.70257951827486
6.15	-4.24674956560197
6.2	-4.78862899179136
6.25	-5.33255338015857
6.3	-5.87539294591334
6.35	-6.41916204532294
6.4	-6.95363356652758
6.45	-7.4971165587847
6.5	-8.04651711424109
6.55	-8.52167592428884
6.6	-8.92967008573385
6.65	-9.27183239899283
6.7	-9.57435446301153
6.75	-9.80660857088621
6.8	-9.96674227640716
6.85	-10.05881443582
6.9	-10.1493649242093
6.95	-10.1889242697556
7	-10.1942456114479
7.05	-10.1944955716253
7.1	-10.1788168744675
7.15	-10.202580867024
7.2	-10.2063259624903
7.25	-10.202580867024
7.3	-10.2063259624903
7.35	-10.202580867024
7.4	-10.2063259624903
7.45	-10.202580867024
7.5	-10.2063259624903
7.55	-10.202580867024
7.6	-10.2063259624903
7.65	-10.202580867024
7.7	-10.2063259624903
7.75	-10.202580867024
7.8	-10.2063259624903
7.85	-10.202580867024
7.9	-10.2063259624903
7.95	-10.202580867024
8	-10.2063259624903
8.05	-17.897834742248
8.1	-18.1709199699429
8.15	-18.411807838508
8.2	-18.6520664888849
8.25	-18.8760383714435
8.3	-19.0982683829731
8.35	-19.2952045851508
8.4	-19.4759201123719
8.45	-19.6365117983275
8.5	-19.7702312222821
8.55	-19.9005667629822
8.6	-19.9573429183967
8.65	-20.0193495950432
8.7	-20.076364912582
8.75	-20.0844073421263
8.8	-20.0827236914385
8.85	-20.0844073421263
8.9	-20.0827236914385
8.95	-20.0844073421263
9	-20.0827236914385
9.05	-20.0844073421263
9.1	-20.0827236914385
9.15	-20.0844073421263
9.2	-20.0827236914385
9.25	-20.0844073421263
9.3	-20.0827236914385
9.35	-20.0844073421263
9.4	-20.0827236914385
9.45	-20.0844073421263
9.5	-20.0827236914385
9.55	-20.0844073421263
9.6	-20.0827236914385
9.65	-20.0844073421263
9.7	-20.0827236914385
9.75	-20.0844073421263
9.8	-20.0827236914385
9.85	-20.0844073421263
9.9	-20.0827236914385
9.95	-20.0844073421263
10	-20.0827236914385
