0	-2.78449302956619
0.05	-3.42058561937017
0.1	-4.05301503796424
0.15	-4.52030446676711
0.2	-4.64397538184904
0.25	-4.77097388115025
0.3	-4.88857949189245
0.35	-5.00685235857237
0.4	-5.13002056055052
0.45	-5.25045411023078
0.5	-5.36244525988918
0.55	-5.47523728670032
0.6	-5.58504795682467
0.65	-5.69311211499468
0.7	-5.79908293578356
0.75	-5.88765855560116
0.8	-5.97669332410238
0.85	-6.066803870552
0.9	-6.15836615015625
0.95	-6.24444890706615
1	-6.32840771226083
1.05	-6.40100497334805
1.1	-6.46859825428894
1.15	-6.52078182751817
1.2	-6.57205078529047
1.25	-6.62778589690313
1.3	-6.66340624522858
1.35	-6.67951497504773
1.4	-6.64309057556984
1.45	-6.55294867558338
1.5	-6.52432101925485
1.55	-6.78765873084871
1.6	-7.05136021420013
1.65	-7.15237574849486
1.7	-7.27145276544153
1.75	-7.38180072775496
1.8	-7.49479917580666
1.85	-7.60621388267967
1.9	-7.71083535267145
1.95	-7.81578553880641
2	-7.93410352137618
2.05	-8.04330296275429
2.1	-8.14950491743678
2.15	-8.21618666461064
2.2	-8.3049355616386
2.25	-8.38743117867601
2.3	-8.46511798594061
2.35	-8.54758812211397
2.4	-8.63766502058858
2.45	-8.73085261639623
2.5	-8.82073389123701
2.55	-8.9100635303379
2.6	-9.00805346195878
2.65	-9.10721315378305
2.7	-9.20027942555646
2.75	-9.2955658656694
2.8	-9.39669324279083
2.85	-9.49725029754923
2.9	-9.60536670506883
2.95	-9.78061723197732
3	-10.0074493902431
3.05	-10.1505451227119
3.1	-10.1984395449426
3.15	-10.1476922703992
3.2	-10.1415756854498
3.25	-10.152117806199
3.3	-10.1415756854498
3.35	-10.144188789579
3.4	-10.1424663098879
3.45	-10.1494753591942
3.5	-10.1459712774555
3.55	-10.144188789579
3.6	-10.1415756854498
3.65	-10.1468323537219
3.7	-10.1459712774555
3.75	-10.14858413364
3.8	-10.1389319078384
3.85	-10.14858413364
3.9	-10.1486138668197
3.95	-10.1477234290434
4	-10.1415756854498
4.05	-10.144188789579
4.1	-10.1468615649373
4.15	-10.1477234290434
4.2	-10.1415756854498
4.25	-10.144188789579
4.3	-10.1442189044151
4.35	-10.1503659472351
4.4	-10.1415756854498
4.45	-10.144188789579
4.5	-10.1415756854498
4.55	-10.152117806199
4.6	-10.1415756854498
4.65	-10.144188789579
4.7	-10.1415756854498
4.75	-10.1494753591942
4.8	-10.1459712774555
4.85	-10.1468323537219
4.9	-10.1415756854498
4.95	-10.1512270679189
5	-10.1442189044151
5.05	-10.141544666563
5.1	-10.1486138668197
5.15	-10.141544666563
5.2	-10.1486138668197
5.25	-10.141544666563
5.3	-10.1486138668197
5.35	-10.141544666563
5.4	-10.1486138668197
5.45	-10.141544666563
5.5	-10.1486138668197
5.55	-10.141544666563
5.6	-10.1486138668197
5.65	-10.141544666563
5.7	-10.1486138668197
5.75	-10.141544666563
5.8	-10.1486138668197
5.85	-10.141544666563
5.9	-10.1486138668197
5.95	-10.141544666563
6	-2.24153561235524
6.05	-2.93246141750866
6.1	-3.64314582508982
6.15	-4.35247557584224
6.2	-5.06188183417551
6.25	-5.77662690243053
6.3	-6.49113079054696
6.35	-7.21349870383513
6.4	-7.95035887920859
6.45	-8.66607239898769
6.5	-9.27546376499104
6.55	-9.67074111948913
6.6	-9.93234129479957
6.65	-10.0935594715247
6.7	-10.1979766479825
6.75	-10.2465755891711
6.8	-10.2408093766904
6.85	-10.1949556102943
6.9	-10.1489226347321
6.95	-10.0845105337085
7	-10.0195749075643
7.05	-9.95895704239025
7.1	-9.91991810975818
7.15	-9.92912595562745
7.2	-9.9316472816705
7.25	-9.92912595562745
7.3	-9.9316472816705
7.35	-9.92912595562745
7.4	-9.9316472816705
7.45	-9.92912595562745
7.5	-9.9316472816705
7.55	-9.92912595562745
7.6	-9.9316472816705
7.65	-9.92912595562745
7.7	-9.9316472816705
7.75	-9.92912595562745
7.8	-9.9316472816705
7.85	-9.92912595562745
7.9	-9.9316472816705
7.95	-9.92912595562745
8	-9.9316472816705
8.05	-18.3057041166157
8.1	-18.6609664529292
8.15	-18.9488499948925
8.2	-19.2248345478706
8.25	-19.4449395236191
8.3	-19.6893439272255
8.35	-19.878434960192
8.4	-19.9882854807933
8.45	-20.069902555424
8.5	-20.0732090878475
8.55	-20.1156289149838
8.6	-20.1089580236954
8.65	-20.1054088291425
8.7	-20.099771599949
8.75	-20.0984509822696
8.8	-20.0953350590005
8.85	-20.0984509822696
8.9	-20.0953350590005
8.95	-20.0984509822696
9	-20.0953350590005
9.05	-20.0984509822696
9.1	-20.0953350590005
9.15	-20.0984509822696
9.2	-20.0953350590005
9.25	-20.0984509822696
9.3	-20.0953350590005
9.35	-20.0984509822696
9.4	-20.0953350590005
9.45	-20.0984509822696
9.5	-20.0953350590005
9.55	-20.0984509822696
9.6	-20.0953350590005
9.65	-20.0984509822696
9.7	-20.0953350590005
9.75	-20.0984509822696
9.8	-20.0953350590005
9.85	-20.0984509822696
9.9	-20.0953350590005
9.95	-20.0984509822696
10	-20.0953350590005
