0	25
0.03	25.0319999999999
0.06	25.0631999999999
0.09	25.0983999999998
0.12	25.1367999999997
0.15	25.1679999999996
0.18	25.1959999999995
0.21	25.2231999999995
0.24	25.2527999999994
0.27	25.2823999999993
0.3	25.3127999999993
0.33	25.3447999999992
0.36	25.3815999999991
0.39	25.411199999999
0.42	25.441599999999
0.45	25.4735999999989
0.48	25.5071999999988
0.51	25.5375999999987
0.54	25.5743999999987
0.57	25.6111999999986
0.6	25.6495999999985
0.63	25.6903999999984
0.66	25.7335999999983
0.69	25.7783999999982
0.72	25.8231999999981
0.75	25.871999999998
0.78	25.9247999999978
0.81	25.9743999999977
0.84	26.0255999999976
0.87	26.0687999999975
0.9	26.1191999999974
0.93	26.1711999999973
0.96	26.2199999999972
0.99	26.2615999999971
1.02	26.3167999999969
1.05	26.3751999999968
1.08	26.4367999999967
1.11	26.4983999999965
1.14	26.5615999999964
1.17	26.6239999999962
1.2	26.6895999999961
1.23	26.7535999999959
1.26	26.8207999999958
1.29	26.8863999999956
1.32	26.9551999999954
1.35	27.0239999999953
1.38	27.0927999999951
1.41	27.163999999995
1.44	27.2335999999948
1.47	27.3039999999946
1.5	27.3399999999945
1.53	27.3511999999945
1.56	27.3607999999945
1.59	27.3695999999945
1.62	27.3831999999944
1.65	27.3967999999944
1.68	27.4095999999944
1.71	27.4223999999944
1.74	27.4367999999943
1.77	27.4495999999943
1.8	27.4631999999943
1.83	27.4751999999942
1.86	27.4879999999942
1.89	27.4999999999942
1.92	27.5151999999941
1.95	27.5295999999941
1.98	27.5431999999941
2.01	27.556799999994
2.04	27.570399999994
2.07	27.583999999994
2.1	27.5991999999939
2.13	27.6167999999939
2.16	27.6295999999939
2.19	27.6399999999938
2.22	27.6495999999938
2.25	27.6599999999938
2.28	27.6703999999938
2.31	27.6815999999938
2.34	27.6879999999937
2.37	27.6967999999937
2.4	27.6983999999937
2.43	27.6999999999937
2.46	27.6983999999937
2.49	27.6999999999937
2.52	27.6975999999937
2.55	27.6999999999937
2.58	27.6983999999937
2.61	27.6991999999937
2.64	27.6967999999937
2.67	27.6967999999937
2.7	27.6943999999937
2.73	27.6927999999937
2.76	27.6895999999937
2.79	27.6871999999937
2.82	27.6855999999937
2.85	27.6831999999937
2.88	27.6807999999938
2.91	27.6759999999938
2.94	27.6719999999938
2.97	27.6607999999938
3	27.6479999999938
3.03	27.6335999999939
3.06	27.6175999999939
3.09	27.6007999999939
3.12	27.6015999999939
3.15	27.6015999999939
3.18	27.6007999999939
3.21	27.5991999999939
3.24	27.6007999999939
3.27	27.6015999999939
3.3	27.6007999999939
3.33	27.5991999999939
3.36	27.5999999999939
3.39	27.6015999999939
3.42	27.6007999999939
3.45	27.5999999999939
3.48	27.6007999999939
3.51	27.6015999999939
3.54	27.5999999999939
3.57	27.5991999999939
3.6	27.6007999999939
3.63	27.6007999999939
3.66	27.5999999999939
3.69	27.5999999999939
3.72	27.6007999999939
3.75	27.6007999999939
3.78	27.5999999999939
3.81	27.6007999999939
3.84	27.6015999999939
3.87	27.5999999999939
3.9	27.5991999999939
3.93	27.6007999999939
3.96	27.6015999999939
3.99	27.5999999999939
4.02	27.5999999999939
4.05	27.6015999999939
4.08	27.6015999999939
4.11	27.5999999999939
4.14	27.5991999999939
4.17	27.6015999999939
4.2	27.6007999999939
4.23	27.5991999999939
4.26	27.5999999999939
4.29	27.6015999999939
4.32	27.6007999999939
4.35	27.5991999999939
4.38	27.5999999999939
4.41	27.6023999999939
4.44	27.6007999999939
4.47	27.5991999999939
4.5	27.6007999999939
4.53	27.6015999999939
4.56	27.5999999999939
4.59	27.5999999999939
4.62	27.5999999999939
4.65	27.6015999999939
4.68	27.5999999999939
4.71	27.5999999999939
4.74	27.6007999999939
4.77	27.6015999999939
4.8	27.5999999999939
4.83	27.6007999999939
4.86	27.6007999999939
4.89	27.6007999999939
4.92	27.5999999999939
4.95	27.5999999999939
4.98	27.6007999999939
5.01	27.6023999999939
5.04	27.5991999999939
5.07	27.6023999999939
5.1	27.5991999999939
5.13	27.6023999999939
5.16	27.5991999999939
5.19	27.6023999999939
5.22	27.5991999999939
5.25	27.6023999999939
5.28	27.5991999999939
5.31	27.6023999999939
5.34	27.5991999999939
5.37	27.6023999999939
5.4	27.5991999999939
5.43	27.6023999999939
5.46	27.5991999999939
5.49	27.6023999999939
5.52	27.5991999999939
5.55	27.6023999999939
5.58	27.5991999999939
5.61	27.6023999999939
5.64	27.5991999999939
5.67	27.6023999999939
5.7	27.5991999999939
5.73	27.6023999999939
5.76	27.5991999999939
5.79	27.6023999999939
5.82	27.5991999999939
5.85	27.6023999999939
5.88	27.5991999999939
5.91	27.6023999999939
5.94	27.5991999999939
5.97	27.6023999999939
6	27.5991999999939
