0	-1.03199744105101
0.03	-1.46011665820919
0.06	-1.88684558204223
0.09	-2.31303075854953
0.12	-2.7390830994119
0.15	-2.97975099337977
0.18	-3.06831345068321
0.21	-3.15391864684622
0.24	-3.24405398325474
0.27	-3.32601508909812
0.3	-3.41209259005226
0.33	-3.50045253720964
0.36	-3.58068410700882
0.39	-3.66794358982835
0.42	-3.74884199514481
0.45	-3.8418932868109
0.48	-3.91994446868982
0.51	-4.00699710607146
0.54	-4.08519696986447
0.57	-4.1684337980717
0.6	-4.24645982486114
0.63	-4.33038469406392
0.66	-4.40361247480093
0.69	-4.48075108206564
0.72	-4.55565438833222
0.75	-4.62834317460111
0.78	-4.70144952213748
0.81	-4.76996955564776
0.84	-4.84121949264094
0.87	-4.91404921354341
0.9	-4.98498730017179
0.93	-5.04902653532757
0.96	-5.12134428716716
0.99	-5.19451221642748
1.02	-5.25955182372941
1.05	-5.31850831072605
1.08	-5.37967662213221
1.11	-5.43950333895355
1.14	-5.49351989572027
1.17	-5.54537436254866
1.2	-5.59504180267297
1.23	-5.65843860495188
1.26	-5.69909012943357
1.29	-5.75304841418425
1.32	-5.79476775117059
1.35	-5.81748198932831
1.38	-5.82158466299365
1.41	-5.80504618522577
1.44	-5.77785692387014
1.47	-5.69859979369126
1.5	-5.74961138395207
1.53	-5.92716445044312
1.56	-6.12067801099327
1.59	-6.32715890456227
1.62	-6.40271302289206
1.65	-6.48251741810341
1.68	-6.56916747889379
1.71	-6.65992306872498
1.74	-6.73218400957874
1.77	-6.81392869188757
1.8	-6.8970372136949
1.83	-6.97504630984233
1.86	-7.06161673791633
1.89	-7.14288815212195
1.92	-7.21728503183189
1.95	-7.28883885692597
1.98	-7.38107365506968
2.01	-7.46535319236992
2.04	-7.54875102986313
2.07	-7.62207154569072
2.1	-7.69826329932124
2.13	-7.74708935100302
2.16	-7.8117702577495
2.19	-7.87285025001267
2.22	-7.93619333582527
2.25	-7.99625801745482
2.28	-8.05581762471678
2.31	-8.11650855856414
2.34	-8.1735979114293
2.37	-8.2351319486861
2.4	-8.29953967684483
2.43	-8.36151923160027
2.46	-8.42791228530837
2.49	-8.48943773940384
2.52	-8.55818455657007
2.55	-8.6121815977088
2.58	-8.68414744179733
2.61	-8.74540226238347
2.64	-8.81115419346209
2.67	-8.87686203245451
2.7	-8.94219056477639
2.73	-9.00875741976721
2.76	-9.07433166113693
2.79	-9.14321711587263
2.82	-9.20704346162541
2.85	-9.27754939302548
2.88	-9.34574512044462
2.91	-9.42191250338502
2.94	-9.53601893987621
2.97	-9.69420611237304
3	-9.84660183247111
3.03	-9.94526904767473
3.06	-10.0128427732005
3.09	-10.0427769715177
3.12	-10.0220754359154
3.15	-9.98593336350795
3.18	-9.97854295482241
3.21	-9.9898991145934
3.24	-9.97854295482241
3.27	-9.98191272556962
3.3	-9.97854295482241
3.33	-9.9898991145934
3.36	-9.97919414625355
3.39	-9.98191272556962
3.42	-9.97854295482241
3.45	-9.98723757737533
3.48	-9.97854295482241
3.51	-9.98191272556962
3.54	-9.98321634716094
3.57	-9.98788871538391
3.6	-9.97854295482241
3.63	-9.9845754477765
3.66	-9.98321634716094
3.69	-9.98723757737533
3.72	-9.97854295482241
3.75	-9.98658579348302
3.78	-9.98120536806193
3.81	-9.98658579348302
3.84	-9.97587994899704
3.87	-9.98522708359535
3.9	-9.98587807350379
3.93	-9.98658579348302
3.96	-9.97587994899704
3.99	-9.98522708359535
4.02	-9.98120536806193
4.05	-9.98191272556962
4.08	-9.97587994899704
4.11	-9.98522708359535
4.14	-9.98386718894287
4.17	-9.98191272556962
4.2	-9.97854295482241
4.23	-9.98788871538391
4.26	-9.98120536806193
4.29	-9.98191272556962
4.32	-9.97854295482241
4.35	-9.98788871538391
4.38	-9.98120536806193
4.41	-9.97924941052825
4.44	-9.97854295482241
4.47	-9.9898991145934
4.5	-9.97854295482241
4.53	-9.98191272556962
4.56	-9.98321634716094
4.59	-9.98924782850252
4.62	-9.97919414625355
4.65	-9.98191272556962
4.68	-9.98321634716094
4.71	-9.98723757737533
4.74	-9.97854295482241
4.77	-9.98191272556962
4.8	-9.98321634716094
4.83	-9.9845754477765
4.86	-9.97653163849958
4.89	-9.98658579348302
4.92	-9.98321634716094
4.95	-9.98924782850252
4.98	-9.97854295482241
5.01	-9.97924941052825
5.04	-9.98587807350379
5.07	-9.97924941052825
5.1	-9.98587807350379
5.13	-9.97924941052825
5.16	-9.98587807350379
5.19	-9.97924941052825
5.22	-9.98587807350379
5.25	-9.97924941052825
5.28	-9.98587807350379
5.31	-9.97924941052825
5.34	-9.98587807350379
5.37	-9.97924941052825
5.4	-9.98587807350379
5.43	-9.97924941052825
5.46	-9.98587807350379
5.49	-9.97924941052825
5.52	-9.98587807350379
5.55	-9.97924941052825
5.58	-9.98587807350379
5.61	-9.97924941052825
5.64	-9.98587807350379
5.67	-9.97924941052825
5.7	-9.98587807350379
5.73	-9.97924941052825
5.76	-9.98587807350379
5.79	-9.97924941052825
5.82	-9.98587807350379
5.85	-9.97924941052825
5.88	-9.98587807350379
5.91	-9.97924941052825
5.94	-9.98587807350379
5.97	-9.97924941052825
6	-9.98587807350379
