0	-14.5883201199246
0.03	-14.6491234131703
0.06	-14.7081371362566
0.09	-14.7594362813624
0.12	-14.8037288997711
0.15	-14.8146145379188
0.18	-14.7958412807562
0.21	-14.7769472951351
0.24	-14.755109829169
0.27	-14.7309027074194
0.3	-14.70577338105
0.33	-14.6781186116806
0.36	-14.6410406957647
0.39	-14.6151110716244
0.42	-14.5860260572345
0.45	-14.5561947836806
0.48	-14.5201647334171
0.51	-14.4899903227485
0.54	-14.4472908260799
0.57	-14.4045159343093
0.6	-14.357128999905
0.63	-14.3057318897426
0.66	-14.2471345427754
0.69	-14.1851261922995
0.72	-14.12122921463
0.75	-14.0484145221062
0.78	-13.9667344683022
0.81	-13.8880929995816
0.84	-13.8050388613719
0.87	-13.7353045683941
0.9	-13.6498967296665
0.93	-13.5583009988729
0.96	-13.4720650165292
0.99	-13.3984900812004
1.02	-13.294215103687
1.05	-13.1798647173721
1.08	-13.0560448516221
1.11	-12.9288412337997
1.14	-12.7941058679661
1.17	-12.6575047869314
1.2	-12.5096791685173
1.23	-12.3630665992103
1.26	-12.2026523546892
1.29	-12.0431412034139
1.32	-11.870211403827
1.35	-11.6914643825078
1.38	-11.5071908906214
1.41	-11.3108673931352
1.44	-11.1141176726326
1.47	-10.9088298420208
1.5	-10.8054546156135
1.53	-10.7778145470824
1.56	-10.7543257958404
1.59	-10.7324363401863
1.62	-10.6924588984838
1.65	-10.6520322306539
1.68	-10.6136307224596
1.71	-10.5747198948253
1.74	-10.5300764249244
1.77	-10.4899955613297
1.8	-10.4468249461404
1.83	-10.4082387658164
1.86	-10.3665306843527
1.89	-10.3269082684676
1.92	-10.2763210637521
1.95	-10.2278028298586
1.98	-10.1810252094445
2.01	-10.133746347475
2.04	-10.0858680745007
2.07	-10.0376416302846
2.1	-9.98324896528266
2.13	-9.9207589469489
2.16	-9.87386530271922
2.19	-9.83507593874219
2.22	-9.79866039596078
2.25	-9.75919428822413
2.28	-9.71938759854055
2.31	-9.67628101548776
2.34	-9.65033480566962
2.37	-9.6152188566172
2.4	-9.60592420529474
2.43	-9.59665386769633
2.46	-9.59875672920565
2.49	-9.58932863138343
2.52	-9.59409353984322
2.55	-9.58199268545327
2.58	-9.58346888185304
2.61	-9.57665277582752
2.64	-9.58134178048542
2.67	-9.57705178308586
2.7	-9.58164782998143
2.73	-9.58311938256948
2.76	-9.59057710540053
2.79	-9.59476135712198
2.82	-9.59624362081645
2.85	-9.60018772498737
2.88	-9.60423608492498
2.91	-9.61667490649345
2.94	-9.62316141531098
2.97	-9.65329452326355
3	-9.68974308410511
3.03	-9.73639951460369
3.06	-9.79147673949623
3.09	-9.8523562280429
3.12	-9.85095296859626
3.15	-9.85372589933045
3.18	-9.8572866053008
3.21	-9.86241540863886
3.24	-9.8572866053008
3.27	-9.85403267461429
3.3	-9.8572866053008
3.33	-9.86241540863886
3.36	-9.86023338977113
3.39	-9.85403267461429
3.42	-9.8572866053008
3.45	-9.8596215149806
3.48	-9.8572866053008
3.51	-9.85403267461429
3.54	-9.85992758546614
3.57	-9.8625683674745
3.6	-9.8572866053008
3.63	-9.85682727032771
3.66	-9.85992758546614
3.69	-9.8596215149806
3.72	-9.8572866053008
3.75	-9.85667402562717
3.78	-9.86008052090231
3.81	-9.85667402562717
3.84	-9.85449233867446
3.87	-9.85977458348688
3.9	-9.86272125978186
3.93	-9.85667402562717
3.96	-9.85449233867446
3.99	-9.85977458348688
4.02	-9.86008052090231
4.05	-9.85403267461429
4.08	-9.85449233867446
4.11	-9.85977458348688
4.14	-9.86287408554486
4.17	-9.85403267461429
4.2	-9.8572866053008
4.23	-9.8625683674745
4.26	-9.86008052090231
4.29	-9.85403267461429
4.32	-9.8572866053008
4.35	-9.8625683674745
4.38	-9.86008052090231
4.41	-9.85123772777483
4.44	-9.8572866053008
4.47	-9.86241540863886
4.5	-9.8572866053008
4.53	-9.85403267461429
4.56	-9.85992758546614
4.59	-9.85946837996133
4.62	-9.86023338977113
4.65	-9.85403267461429
4.68	-9.85992758546614
4.71	-9.8596215149806
4.74	-9.8572866053008
4.77	-9.85403267461429
4.8	-9.85992758546614
4.83	-9.85682727032771
4.86	-9.85743958385595
4.89	-9.85667402562717
4.92	-9.85992758546614
4.95	-9.85946837996133
4.98	-9.8572866053008
5.01	-9.85123772777483
5.04	-9.86272125978186
5.07	-9.85123772777483
5.1	-9.86272125978186
5.13	-9.85123772777483
5.16	-9.86272125978186
5.19	-9.85123772777483
5.22	-9.86272125978186
5.25	-9.85123772777483
5.28	-9.86272125978186
5.31	-9.85123772777483
5.34	-9.86272125978186
5.37	-9.85123772777483
5.4	-9.86272125978186
5.43	-9.85123772777483
5.46	-9.86272125978186
5.49	-9.85123772777483
5.52	-9.86272125978186
5.55	-9.85123772777483
5.58	-9.86272125978186
5.61	-9.85123772777483
5.64	-9.86272125978186
5.67	-9.85123772777483
5.7	-9.86272125978186
5.73	-9.85123772777483
5.76	-9.86272125978186
5.79	-9.85123772777483
5.82	-9.86272125978186
5.85	-9.85123772777483
5.88	-9.86272125978186
5.91	-9.85123772777483
5.94	-9.86272125978186
5.97	-9.85123772777483
6	-9.86272125978186
