27.6679743748495	25	-4.86122169521929
27.6534645796931	25.1578947368421	-4.92498447443994
27.6381463771522	25.3157894736842	-4.98979143688069
27.6219664807454	25.4736842105263	-5.05526812153594
27.604867447577	25.6315789473684	-5.12150476926264
27.5867872946353	25.7894736842105	-5.18893387706831
27.5676590727702	25.9473684210526	-5.25755172561952
27.5474103927268	26.1052631578947	-5.32678885449336
27.5259628967188	26.2631578947368	-5.39605740979751
27.5032316679629	26.4210526315789	-5.46541590795758
27.4791245693324	26.5789473684211	-5.53563504140392
27.4535415007708	26.7368421052632	-5.60661381098722
27.426373563293	26.8947368421053	-5.67761787585373
27.3975021152042	27.0526315789474	-5.74872181792558
27.3667977035089	27.2105263157895	-5.82052678465223
27.3341188502438	27.3684210526316	-5.89239699374495
27.2993106695036	27.5263157894737	-5.96401827717615
27.2622032860499	27.6842105263158	-6.0358701065075
27.2226100203594	27.8421052631579	-6.10745275817469
27.1803252974499	28	-6.17878433222098
