22	26.0313870917881	-6.82913600906597
22.2631578947368	25.9622778186964	-6.71454730673646
22.5263157894737	25.8881914281325	-6.5937857706099
22.7894736842105	25.808717072904	-6.46475176508116
23.0526315789474	25.7234018084032	-6.32325796483346
23.3157894736842	25.631744940782	-6.17571706591865
23.5789473684211	25.5331913831826	-6.01197814319942
23.8421052631579	25.4271237999382	-5.84023069041292
24.1052631578947	25.3128532588171	-5.65024466455908
24.3684210526316	25.1896080320085	-5.44956740908481
24.6315789473684	25.0565200801166	-5.23153377167674
24.8947368421053	24.9126086090281	-4.99335897697893
25.1578947368421	24.756759891043	-4.73795826401935
25.4210526315789	24.5877022650593	-4.46258422898301
25.6842105263158	24.4039748391729	-4.16191434058514
25.9473684210526	24.2038878558073	-3.83569835481178
26.2105263157895	23.9854718539312	-3.48121109300415
26.4736842105263	23.7464115280087	-3.09078298936051
26.7368421052632	23.4839582937322	-2.6724757809797
27	23.1948126050327	-2.2169499356402
