x	y	z	c
25	25	-10.159094145279	-10.159094145279
25	25.1	-10.1398533631061	-10.1398533631061
25	25.2	-10.1191026226896	-10.1191026226896
25	25.3	-10.0968031482691	-10.0968031482691
25	25.4	-10.072918191299	-10.072918191299
25	25.5	-10.0474132779971	-10.0474132779971
25	25.6	-10.0202562528439	-10.0202562528439
25	25.7	-9.99141690675521	-9.99141690675521
25	25.8	-9.96086783430168	-9.96086783430168
25	25.9	-9.92858489298977	-9.92858489298977
25	26	-9.89454745438983	-9.89454745438983
25	26.1	-9.85874004026692	-9.85874004026692
25	26.2	-9.82115720004676	-9.82115720004676
25	26.3	-9.78180041447959	-9.78180041447959
25	26.4	-9.740677117655	-9.740677117655
25	26.5	-9.69780098208567	-9.69780098208567
25	26.6	-9.6531935236994	-9.6531935236994
25	26.7	-9.60688901700533	-9.60688901700533
25	26.8	-9.55893190828953	-9.55893190828953
25	26.9	-9.50937597443462	-9.50937597443462
25	27	-9.45828463905324	-9.45828463905324
25	27.1	-9.40573542831598	-9.40573542831598
25	27.2	-9.35183415640745	-9.35183415640745
25	27.3	-9.29670527087812	-9.29670527087812
25	27.4	-9.24048847219597	-9.24048847219597
25	27.5	-9.18333914544187	-9.18333914544187
25	27.6	-9.1254281767224	-9.1254281767224
25	27.7	-9.06694265916627	-9.06694265916627
25	27.8	-9.00809213693264	-9.00809213693264
25	27.9	-8.94911063383466	-8.94911063383466
25	28	-8.89025760692726	-8.89025760692726
25.1	25	-9.99041289776794	-9.99041289776794
25.1	25.1	-9.97241345852205	-9.97241345852205
25.1	25.2	-9.95291032694585	-9.95291032694585
25.1	25.3	-9.9318651798624	-9.9318651798624
25.1	25.4	-9.90924192108858	-9.90924192108858
25.1	25.5	-9.88500694996454	-9.88500694996454
25.1	25.6	-9.85912916090569	-9.85912916090569
25.1	25.7	-9.83157938817541	-9.83157938817541
25.1	25.8	-9.80233146477919	-9.80233146477919
25.1	25.9	-9.77136276742615	-9.77136276742615
25.1	26	-9.73865449044392	-9.73865449044392
25.1	26.1	-9.70419318087372	-9.70419318087372
25.1	26.2	-9.66797525984303	-9.66797525984303
25.1	26.3	-9.63000430909977	-9.63000430909977
25.1	26.4	-9.59029024294033	-9.59029024294033
25.1	26.5	-9.54884962180696	-9.54884962180696
25.1	26.6	-9.50570713525386	-9.50570713525386
25.1	26.7	-9.4609000908434	-9.4609000908434
25.1	26.8	-9.41447630684899	-9.41447630684899
25.1	26.9	-9.36649345915242	-9.36649345915242
25.1	27	-9.31701943716995	-9.31701943716995
25.1	27.1	-9.26613632938628	-9.26613632938628
25.1	27.2	-9.21395305868836	-9.21395305868836
25.1	27.3	-9.16059721042237	-9.16059721042237
25.1	27.4	-9.1062122074349	-9.1062122074349
25.1	27.5	-9.0509578053177	-9.0509578053177
25.1	27.6	-8.99500893096166	-8.99500893096166
25.1	27.7	-8.93855307166307	-8.93855307166307
25.1	27.8	-8.88179929214967	-8.88179929214967
25.1	27.9	-8.82498131375691	-8.82498131375691
25.1	28	-8.76835853861382	-8.76835853861382
25.2	25	-9.81861911600697	-9.81861911600697
25.2	25.1	-9.8018861376493	-9.8018861376493
25.2	25.2	-9.78365557070288	-9.78365557070288
25.2	25.3	-9.76388975812507	-9.76388975812507
25.2	25.4	-9.7425535012276	-9.7425535012276
25.2	25.5	-9.7196143511295	-9.7196143511295
25.2	25.6	-9.69504251383836	-9.69504251383836
25.2	25.7	-9.66880994603749	-9.66880994603749
25.2	25.8	-9.64089175693063	-9.64089175693063
25.2	25.9	-9.61126689037365	-9.61126689037365
25.2	26	-9.57991842327351	-9.57991842327351
25.2	26.1	-9.54683500466997	-9.54683500466997
25.2	26.2	-9.5120150346231	-9.5120150346231
25.2	26.3	-9.47546433019518	-9.47546433019518
25.2	26.4	-9.43719544765572	-9.43719544765572
25.2	26.5	-9.39722802784522	-9.39722802784522
25.2	26.6	-9.35559012693483	-9.35559012693483
25.2	26.7	-9.31232216445607	-9.31232216445607
25.2	26.8	-9.26747536833219	-9.26747536833219
25.2	26.9	-9.22111133988983	-9.22111133988983
25.2	27	-9.17330245065361	-9.17330245065361
25.2	27.1	-9.12413537162202	-9.12413537162202
25.2	27.2	-9.07372222845312	-9.07372222845312
25.2	27.3	-9.02219393434838	-9.02219393434838
25.2	27.4	-8.96969792473155	-8.96969792473155
25.2	27.5	-8.91639872514624	-8.91639872514624
25.2	27.6	-8.86247561834446	-8.86247561834446
25.2	27.7	-8.80811598989022	-8.80811598989022
25.2	27.8	-8.75352750314308	-8.75352750314308
25.2	27.9	-8.69894238962674	-8.69894238962674
25.2	28	-8.6446185331054	-8.6446185331054
25.3	25	-9.64367592996168	-9.64367592996168
25.3	25.1	-9.62823491243773	-9.62823491243773
25.3	25.2	-9.61130253721261	-9.61130253721261
25.3	25.3	-9.59284195891519	-9.59284195891519
25.3	25.4	-9.57281904657216	-9.57281904657216
25.3	25.5	-9.55120269998653	-9.55120269998653
25.3	25.6	-9.52796462976697	-9.52796462976697
25.3	25.7	-9.50307800124991	-9.50307800124991
25.3	25.8	-9.47651926666116	-9.47651926666116
25.3	25.9	-9.44826901697404	-9.44826901697404
25.3	26	-9.41831230660107	-9.41831230660107
25.3	26.1	-9.38663999387364	-9.38663999387364
25.3	26.2	-9.35325256703204	-9.35325256703204
25.3	26.3	-9.31815820794056	-9.31815820794056
25.3	26.4	-9.28137227273735	-9.28137227273735
25.3	26.5	-9.24291767257942	-9.24291767257942
25.3	26.6	-9.20282602158856	-9.20282602158856
25.3	26.7	-9.16114092562612	-9.16114092562612
25.3	26.8	-9.11791705209377	-9.11791705209377
25.3	26.9	-9.07321994337192	-9.07321994337192
25.3	27	-9.02712645544929	-9.02712645544929
25.3	27.1	-8.97972784077103	-8.97972784077103
25.3	27.2	-8.93113947453741	-8.93113947453741
25.3	27.3	-8.88149571541472	-8.88149571541472
25.3	27.4	-8.8309482054035	-8.8309482054035
25.3	27.5	-8.779666518283	-8.779666518283
25.3	27.6	-8.727834502942	-8.727834502942
25.3	27.7	-8.67563901676152	-8.67563901676152
25.3	27.8	-8.62328557124879	-8.62328557124879
25.3	27.9	-8.57100396096637	-8.57100396096637
25.3	28	-8.51904939754491	-8.51904939754491
25.4	25	-9.46555060528173	-9.46555060528173
25.4	25.1	-9.45142731022856	-9.45142731022856
25.4	25.2	-9.43581930262259	-9.43581930262259
25.4	25.3	-9.41869062965903	-9.41869062965903
25.4	25.4	-9.40000832666524	-9.40000832666524
25.4	25.5	-9.37974276042472	-9.37974276042472
25.4	25.6	-9.35786727291219	-9.35786727291219
25.4	25.7	-9.33435633154602	-9.33435633154602
25.4	25.8	-9.30918782696006	-9.30918782696006
25.4	25.9	-9.28234410881657	-9.28234410881657
25.4	26	-9.25381233873917	-9.25381233873917
25.4	26.1	-9.22358572235872	-9.22358572235872
25.4	26.2	-9.1916669489432	-9.1916669489432
25.4	26.3	-9.15806669174066	-9.15806669174066
25.4	26.4	-9.12280326269371	-9.12280326269371
25.4	26.5	-9.08590303254105	-9.08590303254105
25.4	26.6	-9.04740136461783	-9.04740136461783
25.4	26.7	-9.00734512138626	-9.00734512138626
25.4	26.8	-8.9657924321327	-8.9657924321327
25.4	26.9	-8.92281278577592	-8.92281278577592
25.4	27	-8.8784875122242	-8.8784875122242
25.4	27.1	-8.83291242355706	-8.83291242355706
25.4	27.2	-8.78620614117047	-8.78620614117047
25.4	27.3	-8.73850651058648	-8.73850651058648
25.4	27.4	-8.68996947419992	-8.68996947419992
25.4	27.5	-8.64076980676729	-8.64076980676729
25.4	27.6	-8.59109602867202	-8.59109602867202
25.4	27.7	-8.54113413106801	-8.54113413106801
25.4	27.8	-8.49108691826999	-8.49108691826999
25.4	27.9	-8.44118106469213	-8.44118106469213
25.4	28	-8.39166828989467	-8.39166828989467
25.5	25	-9.28421499240385	-9.28421499240385
25.5	25.1	-9.27143532510584	-9.27143532510584
25.5	25.2	-9.25717828842932	-9.25717828842932
25.5	25.3	-9.24140884221591	-9.24140884221591
25.5	25.4	-9.22409521883377	-9.22409521883377
25.5	25.5	-9.20520929544434	-9.20520929544434
25.5	25.6	-9.18472610882118	-9.18472610882118
25.5	25.7	-9.16262152921931	-9.16262152921931
25.5	25.8	-9.13887500911956	-9.13887500911956
25.5	25.9	-9.11347079961264	-9.11347079961264
25.5	26	-9.08639833369555	-9.08639833369555
25.5	26.1	-9.05765333321735	-9.05765333321735
25.5	26.2	-9.02724080672562	-9.02724080672562
25.5	26.3	-8.99517404473498	-8.99517404473498
25.5	26.4	-8.96147447118942	-8.96147447118942
25.5	26.5	-8.9261721072542	-8.9261721072542
25.5	26.6	-8.88930625863641	-8.88930625863641
25.5	26.7	-8.85092711155741	-8.85092711155741
25.5	26.8	-8.81109627320363	-8.81109627320363
25.5	26.9	-8.76988717583339	-8.76988717583339
25.5	27	-8.72738560173232	-8.72738560173232
25.5	27.1	-8.68369188155173	-8.68369188155173
25.5	27.2	-8.63892782763472	-8.63892782763472
25.5	27.3	-8.59323473493986	-8.59323473493986
25.5	27.4	-8.54677283726153	-8.54677283726153
25.5	27.5	-8.49972213468802	-8.49972213468802
25.5	27.6	-8.45227582100325	-8.45227582100325
25.5	27.7	-8.40461879140591	-8.40461879140591
25.5	27.8	-8.35695080688453	-8.35695080688453
25.5	27.9	-8.30949502605068	-8.30949502605068
25.5	28	-8.26249921357379	-8.26249921357379
25.6	25	-9.09964343774084	-9.09964343774084
25.6	25.1	-9.08823359221032	-9.08823359221032
25.6	25.2	-9.07535464510867	-9.07535464510867
25.6	25.3	-9.06097244838759	-9.06097244838759
25.6	25.4	-9.04505641653073	-9.04505641653073
25.6	25.5	-9.02757992974209	-9.02757992974209
25.6	25.6	-9.00851974031842	-9.00851974031842
25.6	25.7	-8.98785322921888	-8.98785322921888
25.6	25.8	-8.96556155655592	-8.96556155655592
25.6	25.9	-8.94163104297918	-8.94163104297918
25.6	26	-8.91605358572644	-8.91605358572644
25.6	26.1	-8.88882761821895	-8.88882761821895
25.6	26.2	-8.8599605916318	-8.8599605916318
25.6	26.3	-8.82946853818067	-8.82946853818067
25.6	26.4	-8.79737614755859	-8.79737614755859
25.6	26.5	-8.763717278883	-8.763717278883
25.6	26.6	-8.72853537101358	-8.72853537101358
25.6	26.7	-8.69188400601386	-8.69188400601386
25.6	26.8	-8.6538282948683	-8.6538282948683
25.6	26.9	-8.61444562399316	-8.61444562399316
25.6	27	-8.573826225189	-8.573826225189
25.6	27.1	-8.53207491485676	-8.53207491485676
25.6	27.2	-8.48931658163853	-8.48931658163853
25.6	27.3	-8.44569583300439	-8.44569583300439
25.6	27.4	-8.4013770567021	-8.4013770567021
25.6	27.5	-8.35654534307344	-8.35654534307344
25.6	27.6	-8.31139843139487	-8.31139843139487
25.6	27.7	-8.26612000840196	-8.26612000840196
25.6	27.8	-8.22090668541443	-8.22090668541443
25.6	27.9	-8.1759779982219	-8.1759779982219
25.6	28	-8.13157764223708	-8.13157764223708
25.7	25	-8.91180550910742	-8.91180550910742
25.7	25.1	-8.90179287583892	-8.90179287583892
25.7	25.2	-8.8903203507963	-8.8903203507963
25.7	25.3	-8.87735468319167	-8.87735468319167
25.7	25.4	-8.86286648322254	-8.86286648322254
25.7	25.5	-8.84683065831325	-8.84683065831325
25.7	25.6	-8.82922572542233	-8.82922572542233
25.7	25.7	-8.81003069028753	-8.81003069028753
25.7	25.8	-8.78922856855342	-8.78922856855342
25.7	25.9	-8.76680792317016	-8.76680792317016
25.7	26	-8.74276331612291	-8.74276331612291
25.7	26.1	-8.71709609606607	-8.71709609606607
25.7	26.2	-8.6898162767991	-8.6898162767991
25.7	26.3	-8.66094274327523	-8.66094274327523
25.7	26.4	-8.63050358241823	-8.63050358241823
25.7	26.5	-8.59853664693351	-8.59853664693351
25.7	26.6	-8.56508967281454	-8.56508967281454
25.7	26.7	-8.53021974585469	-8.53021974585469
25.7	26.8	-8.4939955806699	-8.4939955806699
25.7	26.9	-8.45649863070073	-8.45649863070073
25.7	27	-8.41782370707085	-8.41782370707085
25.7	27.1	-8.37808019245999	-8.37808019245999
25.7	27.2	-8.33739584925232	-8.33739584925232
25.7	27.3	-8.29591828093038	-8.29591828093038
25.7	27.4	-8.25381566308898	-8.25381566308898
25.7	27.5	-8.21127776008199	-8.21127776008199
25.7	27.6	-8.16850648223373	-8.16850648223373
25.7	27.7	-8.12568428095763	-8.12568428095763
25.7	27.8	-8.08300470579002	-8.08300470579002
25.7	27.9	-8.04068378191596	-8.04068378191596
25.7	28	-7.99896126517572	-7.99896126517572
25.8	25	-8.7206742414791	-8.7206742414791
25.8	25.1	-8.71208751712325	-8.71208751712325
25.8	25.2	-8.70205103248057	-8.70205103248057
25.8	25.3	-8.6905324799965	-8.6905324799965
25.8	25.4	-8.67750372481984	-8.67750372481984
25.8	25.5	-8.66294127645679	-8.66294127645679
25.8	25.6	-8.6468255111955	-8.6468255111955
25.8	25.7	-8.62913718161301	-8.62913718161301
25.8	25.8	-8.60986130655461	-8.60986130655461
25.8	25.9	-8.58898886619276	-8.58898886619276
25.8	26	-8.56651729296414	-8.56651729296414
25.8	26.1	-8.54245106030422	-8.54245106030422
25.8	26.2	-8.51680285830135	-8.51680285830135
25.8	26.3	-8.48959451795636	-8.48959451795636
25.8	26.4	-8.46085762672979	-8.46085762672979
25.8	26.5	-8.43063414701289	-8.43063414701289
25.8	26.6	-8.39897624494558	-8.39897624494558
25.8	26.7	-8.3659446714704	-8.3659446714704
25.8	26.8	-8.3316119465837	-8.3316119465837
25.8	26.9	-8.29606383963961	-8.29606383963961
25.8	27	-8.25940004407526	-8.25940004407526
25.8	27.1	-8.22173473869383	-8.22173473869383
25.8	27.2	-8.18319826233173	-8.18319826233173
25.8	27.3	-8.14394069702019	-8.14394069702019
25.8	27.4	-8.10413338568429	-8.10413338568429
25.8	27.5	-8.0639700386292	-8.0639700386292
25.8	27.6	-8.02365608817927	-8.02365608817927
25.8	27.7	-7.98337280751326	-7.98337280751326
25.8	27.8	-7.94331096653468	-7.94331096653468
25.8	27.9	-7.90368340457731	-7.90368340457731
25.8	28	-7.8647262977057	-7.8647262977057
25.9	25	-8.52622952204915	-8.52622952204915
25.9	25.1	-8.51909856861577	-8.51909856861577
25.9	25.2	-8.51052890665505	-8.51052890665505
25.9	25.3	-8.50048925742565	-8.50048925742565
25.9	25.4	-8.48895284470963	-8.48895284470963
25.9	25.5	-8.47589790450661	-8.47589790450661
25.9	25.6	-8.46130681233877	-8.46130681233877
25.9	25.7	-8.44516220044005	-8.44516220044005
25.9	25.8	-8.42745124191707	-8.42745124191707
25.9	25.9	-8.40816751501847	-8.40816751501847
25.9	26	-8.38731153742995	-8.38731153742995
25.9	26.1	-8.36489112601069	-8.36489112601069
25.9	26.2	-8.34092175455418	-8.34092175455418
25.9	26.3	-8.31542827547334	-8.31542827547334
25.9	26.4	-8.28844585235648	-8.28844585235648
25.9	26.5	-8.26002063509123	-8.26002063509123
25.9	26.6	-8.23020932625327	-8.23020932625327
25.9	26.7	-8.19907657013939	-8.19907657013939
25.9	26.8	-8.16669901123261	-8.16669901123261
25.9	26.9	-8.13316713517176	-8.13316713517176
25.9	27	-8.09858600937359	-8.09858600937359
25.9	27.1	-8.06307500101491	-8.06307500101491
25.9	27.2	-8.026766637243	-8.026766637243
25.9	27.3	-7.98981276327991	-7.98981276327991
25.9	27.4	-7.95238701923977	-7.95238701923977
25.9	27.5	-7.91468602786266	-7.91468602786266
25.9	27.6	-7.87691782869434	-7.87691782869434
25.9	27.7	-7.83926267276749	-7.83926267276749
25.9	27.8	-7.80190904535503	-7.80190904535503
25.9	27.9	-7.76506715818214	-7.76506715818214
25.9	28	-7.72897022031633	-7.72897022031633
26	25	-8.3284590857624	-8.3284590857624
26	25.1	-8.32281481115712	-8.32281481115712
26	25.2	-8.3157438202437	-8.3157438202437
26	25.3	-8.3072159872504	-8.3072159872504
26	25.4	-8.29720604173199	-8.29720604173199
26	25.5	-8.28569411924832	-8.28569411924832
26	25.6	-8.27266477972109	-8.27266477972109
26	25.7	-8.25810268191183	-8.25810268191183
26	25.8	-8.24199731190688	-8.24199731190688
26	25.9	-8.22434503729777	-8.22434503729777
26	26	-8.20514968963321	-8.20514968963321
26	26.1	-8.18442266115073	-8.18442266115073
26	26.2	-8.16218231207108	-8.16218231207108
26	26.3	-8.13845657523727	-8.13845657523727
26	26.4	-8.11328424085511	-8.11328424085511
26	26.5	-8.08671568963097	-8.08671568963097
26	26.6	-8.05881224707521	-8.05881224707521
26	26.7	-8.02964276083224	-8.02964276083224
26	26.8	-7.99928845326244	-7.99928845326244
26	26.9	-7.96784509505228	-7.96784509505228
26	27	-7.93542382475442	-7.93542382475442
26	27.1	-7.90214976759315	-7.90214976759315
26	27.2	-7.86815716950046	-7.86815716950046
26	27.3	-7.83359873631078	-7.83359873631078
26	27.4	-7.79864929945338	-7.79864929945338
26	27.5	-7.7635070723711	-7.7635070723711
26	27.6	-7.72838154216208	-7.72838154216208
26	27.7	-7.69345221776698	-7.69345221776698
26	27.8	-7.6589060362801	-7.6589060362801
26	27.9	-7.62495140532049	-7.62495140532049
26	28	-7.59181946684342	-7.59181946684342
26.1	25	-8.12735683677832	-8.12735683677832
26.1	25.1	-8.12323135109206	-8.12323135109206
26.1	25.2	-8.11769215148722	-8.11769215148722
26.1	25.3	-8.11071042072102	-8.11071042072102
26.1	25.4	-8.10226257694105	-8.10226257694105
26.1	25.5	-8.0923308686704	-8.0923308686704
26.1	25.6	-8.08090226400648	-8.08090226400648
26.1	25.7	-8.06796361065311	-8.06796361065311
26.1	25.8	-8.05350687729143	-8.05350687729143
26.1	25.9	-8.03753142532341	-8.03753142532341
26.1	26	-8.02004464486068	-8.02004464486068
26.1	26.1	-8.00106175270946	-8.00106175270946
26.1	26.2	-7.98060410770698	-7.98060410770698
26.1	26.3	-7.95870278717259	-7.95870278717259
26.1	26.4	-7.93540026078417	-7.93540026078417
26.1	26.5	-7.91075118313711	-7.91075118313711
26.1	26.6	-7.88482159619164	-7.88482159619164
26.1	26.7	-7.85768491064919	-7.85768491064919
26.1	26.8	-7.82942745502588	-7.82942745502588
26.1	26.9	-7.80015094746499	-7.80015094746499
26.1	27	-7.76997340899388	-7.76997340899388
26.1	27.1	-7.73902640181493	-7.73902640181493
26.1	27.2	-7.70744543139428	-7.70744543139428
26.1	27.3	-7.67538312913287	-7.67538312913287
26.1	27.4	-7.64301435827975	-7.64301435827975
26.1	27.5	-7.61053752415785	-7.61053752415785
26.1	27.6	-7.57816234639121	-7.57816234639121
26.1	27.7	-7.54606799528809	-7.54606799528809
26.1	27.8	-7.51444078109889	-7.51444078109889
26.1	27.9	-7.48348833140041	-7.48348833140041
26.1	28	-7.45344083308976	-7.45344083308976
26.2	25	-7.9229155994998	-7.9229155994998
26.2	25.1	-7.92034313071106	-7.92034313071106
26.2	25.2	-7.91637115632037	-7.91637115632037
26.2	25.3	-7.91097232981845	-7.91097232981845
26.2	25.4	-7.90412494911057	-7.90412494911057
26.2	25.5	-7.89581359958031	-7.89581359958031
26.2	25.6	-7.8860278934373	-7.8860278934373
26.2	25.7	-7.87475703976496	-7.87475703976496
26.2	25.8	-7.86199566834454	-7.86199566834454
26.2	25.9	-7.84774634744746	-7.84774634744746
26.2	26	-7.83202027896745	-7.83202027896745
26.2	26.1	-7.8148367713225	-7.8148367713225
26.2	26.2	-7.79622035363226	-7.79622035363226
26.2	26.3	-7.77620539482914	-7.77620539482914
26.2	26.4	-7.7548381975574	-7.7548381975574
26.2	26.5	-7.73217785361356	-7.73217785361356
26.2	26.6	-7.70829530213488	-7.70829530213488
26.2	26.7	-7.68326874729174	-7.68326874729174
26.2	26.8	-7.6571899337708	-7.6571899337708
26.2	26.9	-7.63016692979616	-7.63016692979616
26.2	27	-7.60232514651165	-7.60232514651165
26.2	27.1	-7.57380305093648	-7.57380305093648
26.2	27.2	-7.54473728514047	-7.54473728514047
26.2	27.3	-7.51528000787173	-7.51528000787173
26.2	27.4	-7.485605566022	-7.485605566022
26.2	27.5	-7.45591184676512	-7.45591184676512
26.2	27.6	-7.42640819806814	-7.42640819806814
26.2	27.7	-7.39727388132693	-7.39727388132693
26.2	27.8	-7.36869535473723	-7.36869535473723
26.2	27.9	-7.34088031460141	-7.34088031460141
26.2	28	-7.31405889167761	-7.31405889167761
26.3	25	-7.7151378407471	-7.7151378407471
26.3	25.1	-7.71415497402683	-7.71415497402683
26.3	25.2	-7.7117882718084	-7.7117882718084
26.3	25.3	-7.70801202531214	-7.70801202531214
26.3	25.4	-7.70280660957425	-7.70280660957425
26.3	25.5	-7.69615917888163	-7.69615917888163
26.3	25.6	-7.68806223635374	-7.68806223635374
26.3	25.7	-7.6785075383238	-7.6785075383238
26.3	25.8	-7.66749256782457	-7.66749256782457
26.3	25.9	-7.65502332663682	-7.65502332663682
26.3	26	-7.64111509546988	-7.64111509546988
26.3	26.1	-7.6257915684361	-7.6257915684361
26.3	26.2	-7.60908070143818	-7.60908070143818
26.3	26.3	-7.59102041969577	-7.59102041969577
26.3	26.4	-7.57166115416711	-7.57166115416711
26.3	26.5	-7.551066766213	-7.551066766213
26.3	26.6	-7.52931340063903	-7.52931340063903
26.3	26.7	-7.50648413245838	-7.50648413245838
26.3	26.8	-7.48267616487934	-7.48267616487934
26.3	26.9	-7.45800399830931	-7.45800399830931
26.3	27	-7.43260056497499	-7.43260056497499
26.3	27.1	-7.40661144910656	-7.40661144910656
26.3	27.2	-7.38017476660974	-7.38017476660974
26.3	27.3	-7.35344253528208	-7.35344253528208
26.3	27.4	-7.32658887547639	-7.32658887547639
26.3	27.5	-7.2998113977206	-7.2998113977206
26.3	27.6	-7.27331933572379	-7.27331933572379
26.3	27.7	-7.24729257443963	-7.24729257443963
26.3	27.8	-7.22191837738812	-7.22191837738812
26.3	27.9	-7.19740520922496	-7.19740520922496
26.3	28	-7.17398384883412	-7.17398384883412
26.4	25	-7.50404167418291	-7.50404167418291
26.4	25.1	-7.50468746248692	-7.50468746248692
26.4	25.2	-7.50396685180095	-7.50396685180095
26.4	25.3	-7.50185594965008	-7.50185594965008
26.4	25.4	-7.49833741927297	-7.49833741927297
26.4	25.5	-7.49340123234976	-7.49340123234976
26.4	25.6	-7.4870430495802	-7.4870430495802
26.4	25.7	-7.47925738306418	-7.47925738306418
26.4	25.8	-7.47004478528721	-7.47004478528721
26.4	25.9	-7.45941494385689	-7.45941494385689
26.4	26	-7.44738751323771	-7.44738751323771
26.4	26.1	-7.43399091133717	-7.43399091133717
26.4	26.2	-7.41925688392608	-7.41925688392608
26.4	26.3	-7.40322731987071	-7.40322731987071
26.4	26.4	-7.38595724414184	-7.38595724414184
26.4	26.5	-7.36751582154232	-7.36751582154232
26.4	26.6	-7.34798487595052	-7.34798487595052
26.4	26.7	-7.32745232045978	-7.32745232045978
26.4	26.8	-7.30602064141713	-7.30602064141713
26.4	26.9	-7.28381059072067	-7.28381059072067
26.4	27	-7.26096244212861	-7.26096244212861
26.4	27.1	-7.23762892862207	-7.23762892862207
26.4	27.2	-7.21395052098212	-7.21395052098212
26.4	27.3	-7.19008025605936	-7.19008025605936
26.4	27.4	-7.16619327150668	-7.16619327150668
26.4	27.5	-7.14248822954059	-7.14248822954059
26.4	27.6	-7.11917552757052	-7.11917552757052
26.4	27.7	-7.0964365036591	-7.0964365036591
26.4	27.8	-7.07445998559403	-7.07445998559403
26.4	27.9	-7.05345599385719	-7.05345599385719
26.4	28	-7.0336567130571	-7.0336567130571
26.5	25	-7.28966532917456	-7.28966532917456
26.5	25.1	-7.29198159022924	-7.29198159022924
26.5	25.2	-7.29295102995759	-7.29295102995759
26.5	25.3	-7.29255177205977	-7.29255177205977
26.5	25.4	-7.2907690036336	-7.2907690036336
26.5	25.5	-7.28759579093854	-7.28759579093854
26.5	25.6	-7.2830312524276	-7.2830312524276
26.5	25.7	-7.27707290183945	-7.27707290183945
26.5	25.8	-7.26972461822452	-7.26972461822452
26.5	25.9	-7.26100007267801	-7.26100007267801
26.5	26	-7.2509236392458	-7.2509236392458
26.5	26.1	-7.23952886897314	-7.23952886897314
26.5	26.2	-7.22685180007386	-7.22685180007386
26.5	26.3	-7.2129388730898	-7.2129388730898
26.5	26.4	-7.19785038658175	-7.19785038658175
26.5	26.5	-7.18166159424482	-7.18166159424482
26.5	26.6	-7.16446069603109	-7.16446069603109
26.5	26.7	-7.14634037246415	-7.14634037246415
26.5	26.8	-7.12740808570483	-7.12740808570483
26.5	26.9	-7.10779049590061	-7.10779049590061
26.5	27	-7.0876348447188	-7.0876348447188
26.5	27.1	-7.06710099703793	-7.06710099703793
26.5	27.2	-7.04633334911768	-7.04633334911768
26.5	27.3	-7.025488114373	-7.025488114373
26.5	27.4	-7.00474384308367	-7.00474384308367
26.5	27.5	-6.98430289158276	-6.98430289158276
26.5	27.6	-6.96437938385221	-6.96437938385221
26.5	27.7	-6.94515756489904	-6.94515756489904
26.5	27.8	-6.9268290584756	-6.9268290584756
26.5	27.9	-6.90960671800407	-6.90960671800407
26.5	28	-6.89372536282808	-6.89372536282808
26.6	25	-7.07207129126109	-7.07207129126109
26.6	25.1	-7.07610361166819	-7.07610361166819
26.6	25.2	-7.07881130266492	-7.07881130266492
26.6	25.3	-7.08017474149373	-7.08017474149373
26.6	25.4	-7.0801819178305	-7.0801819178305
26.6	25.5	-7.07882931949589	-7.07882931949589
26.6	25.6	-7.07611987986586	-7.07611987986586
26.6	25.7	-7.0720544220218	-7.0720544220218
26.6	25.8	-7.0666404776728	-7.0666404776728
26.6	25.9	-7.05989607750558	-7.05989607750558
26.6	26	-7.05185075092449	-7.05185075092449
26.6	26.1	-7.04254370241627	-7.04254370241627
26.6	26.2	-7.03201592470028	-7.03201592470028
26.6	26.3	-7.02031919518381	-7.02031919518381
26.6	26.4	-7.00751999938482	-7.00751999938482
26.6	26.5	-6.99370074156385	-6.99370074156385
26.6	26.6	-6.97895698174091	-6.97895698174091
26.6	26.7	-6.96338626996371	-6.96338626996371
26.6	26.8	-6.94710088484048	-6.94710088484048
26.6	26.9	-6.93023321235331	-6.93023321235331
26.6	27	-6.91293726592728	-6.91293726592728
26.6	27.1	-6.89538033611243	-6.89538033611243
26.6	27.2	-6.87771314666014	-6.87771314666014
26.6	27.3	-6.86009834509108	-6.86009834509108
26.6	27.4	-6.842721569097	-6.842721569097
26.6	27.5	-6.82579297863637	-6.82579297863637
26.6	27.6	-6.80953453525903	-6.80953453525903
26.6	27.7	-6.79413613133987	-6.79413613133987
26.6	27.8	-6.77979471617842	-6.77979471617842
26.6	27.9	-6.76672862933132	-6.76672862933132
26.6	28	-6.75517793826282	-6.75517793826282
26.7	25	-6.85134901723884	-6.85134901723884
26.7	25.1	-6.85714943801307	-6.85714943801307
26.7	25.2	-6.86165065061919	-6.86165065061919
26.7	25.3	-6.86483558974951	-6.86483558974951
26.7	25.4	-6.86669540304536	-6.86669540304536
26.7	25.5	-6.86723041550084	-6.86723041550084
26.7	25.6	-6.86644783255975	-6.86644783255975
26.7	25.7	-6.86435219853275	-6.86435219853275
26.7	25.8	-6.86095514121536	-6.86095514121536
26.7	25.9	-6.85627956311857	-6.85627956311857
26.7	26	-6.85036074351411	-6.85036074351411
26.7	26.1	-6.84324422801125	-6.84324422801125
26.7	26.2	-6.83497674675201	-6.83497674675201
26.7	26.3	-6.82561632642113	-6.82561632642113
26.7	26.4	-6.81523671028524	-6.81523671028524
26.7	26.5	-6.80392871013168	-6.80392871013168
26.7	26.6	-6.79179655535702	-6.79179655535702
26.7	26.7	-6.77894349819222	-6.77894349819222
26.7	26.8	-6.76548739910886	-6.76548739910886
26.7	26.9	-6.75156724079747	-6.75156724079747
26.7	27	-6.73734480839585	-6.73734480839585
26.7	27.1	-6.7229963316243	-6.7229963316243
26.7	27.2	-6.70868211382593	-6.70868211382593
26.7	27.3	-6.69457537566411	-6.69457537566411
26.7	27.4	-6.68087357473573	-6.68087357473573
26.7	27.5	-6.66780001995019	-6.66780001995019
26.7	27.6	-6.65559023195633	-6.65559023195633
26.7	27.7	-6.64444514918667	-6.64444514918667
26.7	27.8	-6.63457269575336	-6.63457269575336
26.7	27.9	-6.62620263936073	-6.62620263936073
26.7	28	-6.61958619332857	-6.61958619332857
26.8	25	-6.62763944829961	-6.62763944829961
26.8	25.1	-6.63526873475785	-6.63526873475785
26.8	25.2	-6.64162836499448	-6.64162836499448
26.8	25.3	-6.64670424112614	-6.64670424112614
26.8	25.4	-6.65049114673112	-6.65049114673112
26.8	25.5	-6.65299380168837	-6.65299380168837
26.8	25.6	-6.65422430294749	-6.65422430294749
26.8	25.7	-6.6541915047615	-6.6541915047615
26.8	25.8	-6.65291177730999	-6.65291177730999
26.8	25.9	-6.65041364440109	-6.65041364440109
26.8	26	-6.64673900818622	-6.64673900818622
26.8	26.1	-6.64194074718999	-6.64194074718999
26.8	26.2	-6.63607237252961	-6.63607237252961
26.8	26.3	-6.62919936007092	-6.62919936007092
26.8	26.4	-6.62140413022231	-6.62140413022231
26.8	26.5	-6.61278758312004	-6.61278758312004
26.8	26.6	-6.60346455316557	-6.60346455316557
26.8	26.7	-6.59354603323187	-6.59354603323187
26.8	26.8	-6.58315775262464	-6.58315775262464
26.8	26.9	-6.57244792262749	-6.57244792262749
26.8	27	-6.56158912942989	-6.56158912942989
26.8	27.1	-6.5507701982109	-6.5507701982109
26.8	27.2	-6.54016598302643	-6.54016598302643
26.8	27.3	-6.5299662533789	-6.5299662533789
26.8	27.4	-6.52038716355412	-6.52038716355412
26.8	27.5	-6.51167294831682	-6.51167294831682
26.8	27.6	-6.50408136727245	-6.50408136727245
26.8	27.7	-6.49783422109453	-6.49783422109453
26.8	27.8	-6.4931610121139	-6.4931610121139
26.8	27.9	-6.49031377262949	-6.49031377262949
26.8	28	-6.48956507345772	-6.48956507345772
26.9	25	-6.4011673726832	-6.4011673726832
26.9	25.1	-6.41069842562061	-6.41069842562061
26.9	25.2	-6.41899491563311	-6.41899491563311
26.9	25.3	-6.42604629750864	-6.42604629750864
26.9	25.4	-6.43185167228232	-6.43185167228232
26.9	25.5	-6.43642094952715	-6.43642094952715
26.9	25.6	-6.43977201177594	-6.43977201177594
26.9	25.7	-6.4419189237546	-6.4419189237546
26.9	25.8	-6.44288380778393	-6.44288380778393
26.9	25.9	-6.44270198650685	-6.44270198650685
26.9	26	-6.44142336375257	-6.44142336375257
26.9	26.1	-6.43910971943718	-6.43910971943718
26.9	26.2	-6.43582298068776	-6.43582298068776
26.9	26.3	-6.43163795584274	-6.43163795584274
26.9	26.4	-6.42664798256525	-6.42664798256525
26.9	26.5	-6.42096671679945	-6.42096671679945
26.9	26.6	-6.41472282822589	-6.41472282822589
26.9	26.7	-6.40803908786928	-6.40803908786928
26.9	26.8	-6.4010538565876	-6.4010538565876
26.9	26.9	-6.39393011060514	-6.39393011060514
26.9	27	-6.38685765205277	-6.38685765205277
26.9	27.1	-6.38004530614761	-6.38004530614761
26.9	27.2	-6.37369110308556	-6.37369110308556
26.9	27.3	-6.3680113892049	-6.3680113892049
26.9	27.4	-6.36325246681433	-6.36325246681433
26.9	27.5	-6.35969222875637	-6.35969222875637
26.9	27.6	-6.35762474663535	-6.35762474663535
26.9	27.7	-6.35730913178176	-6.35730913178176
26.9	27.8	-6.35901345877573	-6.35901345877573
26.9	27.9	-6.36302758058611	-6.36302758058611
26.9	28	-6.36965704151887	-6.36965704151887
27	25	-6.17229579867239	-6.17229579867239
27	25.1	-6.18382006247127	-6.18382006247127
27	25.2	-6.19415274938935	-6.19415274938935
27	25.3	-6.20328776224587	-6.20328776224587
27	25.4	-6.21122956356691	-6.21122956356691
27	25.5	-6.21799447243757	-6.21799447243757
27	25.6	-6.22360754929113	-6.22360754929113
27	25.7	-6.2280895513875	-6.2280895513875
27	25.8	-6.23147004951017	-6.23147004951017
27	25.9	-6.23379315762065	-6.23379315762065
27	26	-6.2351191300152	-6.2351191300152
27	26.1	-6.23552135269532	-6.23552135269532
27	26.2	-6.23507307504123	-6.23507307504123
27	26.3	-6.23386182340389	-6.23386182340389
27	26.4	-6.23199589716046	-6.23199589716046
27	26.5	-6.22960654132371	-6.22960654132371
27	26.6	-6.22684219711304	-6.22684219711304
27	26.7	-6.22384515037297	-6.22384515037297
27	26.8	-6.22077567130993	-6.22077567130993
27	26.9	-6.21782235886315	-6.21782235886315
27	27	-6.2152048464398	-6.2152048464398
27	27.1	-6.21316634095317	-6.21316634095317
27	27.2	-6.21194403044198	-6.21194403044198
27	27.3	-6.21179887553501	-6.21179887553501
27	27.4	-6.21302719892653	-6.21302719892653
27	27.5	-6.215961354451	-6.215961354451
27	27.6	-6.22095267593632	-6.22095267593632
27	27.7	-6.22831956160298	-6.22831956160298
27	27.8	-6.23838625775112	-6.23838625775112
27	27.9	-6.25148761944186	-6.25148761944186
27	28	-6.26795200648964	-6.26795200648964
27.1	25	-5.94163145641036	-5.94163145641036
27.1	25.1	-5.95527206064383	-5.95527206064383
27.1	25.2	-5.96777619514981	-5.96777619514981
27.1	25.3	-5.97914368797797	-5.97914368797797
27.1	25.4	-5.98938609303614	-5.98938609303614
27.1	25.5	-5.99852816958784	-5.99852816958784
27.1	25.6	-6.00660451347002	-6.00660451347002
27.1	25.7	-6.01364522086842	-6.01364522086842
27.1	25.8	-6.01969040136233	-6.01969040136233
27.1	25.9	-6.0247966208071	-6.0247966208071
27.1	26	-6.02903883281287	-6.02903883281287
27.1	26.1	-6.03250711822876	-6.03250711822876
27.1	26.2	-6.03529174780698	-6.03529174780698
27.1	26.3	-6.03749969231571	-6.03749969231571
27.1	26.4	-6.03926227202188	-6.03926227202188
27.1	26.5	-6.04073796298313	-6.04073796298313
27.1	26.6	-6.04210674901238	-6.04210674901238
27.1	26.7	-6.04354554000747	-6.04354554000747
27.1	26.8	-6.04525460589375	-6.04525460589375
27.1	26.9	-6.04746925403103	-6.04746925403103
27.1	27	-6.05046313416383	-6.05046313416383
27.1	27.1	-6.05454078628841	-6.05454078628841
27.1	27.2	-6.060007484255	-6.060007484255
27.1	27.3	-6.06719908371969	-6.06719908371969
27.1	27.4	-6.07649113183052	-6.07649113183052
27.1	27.5	-6.08829405769496	-6.08829405769496
27.1	27.6	-6.10302914478432	-6.10302914478432
27.1	27.7	-6.12107277538503	-6.12107277538503
27.1	27.8	-6.14277634699707	-6.14277634699707
27.1	27.9	-6.16845000864188	-6.16845000864188
27.1	28	-6.19832546773683	-6.19832546773683
27.2	25	-5.71024929029943	-5.71024929029943
27.2	25.1	-5.72618966951629	-5.72618966951629
27.2	25.2	-5.74106913072099	-5.74106913072099
27.2	25.3	-5.75489609146461	-5.75489609146461
27.2	25.4	-5.76769233949481	-5.76769233949481
27.2	25.5	-5.77949479053561	-5.77949479053561
27.2	25.6	-5.79035197114416	-5.79035197114416
27.2	25.7	-5.80030849703666	-5.80030849703666
27.2	25.8	-5.80942117829753	-5.80942117829753
27.2	25.9	-5.81776639202218	-5.81776639202218
27.2	26	-5.82544259633086	-5.82544259633086
27.2	26.1	-5.83256701480589	-5.83256701480589
27.2	26.2	-5.83925905508035	-5.83925905508035
27.2	26.3	-5.84565954790345	-5.84565954790345
27.2	26.4	-5.85194006241599	-5.85194006241599
27.2	26.5	-5.85830677065388	-5.85830677065388
27.2	26.6	-5.86499562386642	-5.86499562386642
27.2	26.7	-5.87224805839818	-5.87224805839818
27.2	26.8	-5.88033904126219	-5.88033904126219
27.2	26.9	-5.88958928848298	-5.88958928848298
27.2	27	-5.90036765820404	-5.90036765820404
27.2	27.1	-5.91308078122898	-5.91308078122898
27.2	27.2	-5.92813823790269	-5.92813823790269
27.2	27.3	-5.94597439822463	-5.94597439822463
27.2	27.4	-5.9670428640624	-5.9670428640624
27.2	27.5	-5.99179040855984	-5.99179040855984
27.2	27.6	-6.02061118771009	-6.02061118771009
27.2	27.7	-6.05378277595999	-6.05378277595999
27.2	27.8	-6.09145914750778	-6.09145914750778
27.2	27.9	-6.13364444948023	-6.13364444948023
27.2	28	-6.18017040069458	-6.18017040069458
27.3	25	-5.48022941512354	-5.48022941512354
27.3	25.1	-5.49877486069207	-5.49877486069207
27.3	25.2	-5.51637362226524	-5.51637362226524
27.3	25.3	-5.53304819517939	-5.53304819517939
27.3	25.4	-5.54883712491897	-5.54883712491897
27.3	25.5	-5.56379725485849	-5.56379725485849
27.3	25.6	-5.57800033682638	-5.57800033682638
27.3	25.7	-5.59151671255575	-5.59151671255575
27.3	25.8	-5.60443334484269	-5.60443334484269
27.3	25.9	-5.61686254509904	-5.61686254509904
27.3	26	-5.62894557581597	-5.62894557581597
27.3	26.1	-5.64084975399388	-5.64084975399388
27.3	26.2	-5.6527505623106	-5.6527505623106
27.3	26.3	-5.66485438598944	-5.66485438598944
27.3	26.4	-5.67740992050527	-5.67740992050527
27.3	26.5	-5.69071299867488	-5.69071299867488
27.3	26.6	-5.70510219986443	-5.70510219986443
27.3	26.7	-5.72093468537974	-5.72093468537974
27.3	26.8	-5.73861076829277	-5.73861076829277
27.3	26.9	-5.75857883372404	-5.75857883372404
27.3	27	-5.78132497738797	-5.78132497738797
27.3	27.1	-5.80734382705292	-5.80734382705292
27.3	27.2	-5.83708243437593	-5.83708243437593
27.3	27.3	-5.87093155768405	-5.87093155768405
27.3	27.4	-5.90918902050018	-5.90918902050018
27.3	27.5	-5.95201275135771	-5.95201275135771
27.3	27.6	-5.99938286523367	-5.99938286523367
27.3	27.7	-6.05109363162572	-6.05109363162572
27.3	27.8	-6.10678223071505	-6.10678223071505
27.3	27.9	-6.16595902075454	-6.16595902075454
27.3	28	-6.22804443732305	-6.22804443732305
27.4	25	-5.25609613737052	-5.25609613737052
27.4	25.1	-5.27783220961594	-5.27783220961594
27.4	25.2	-5.29881965599508	-5.29881965599508
27.4	25.3	-5.31910787216694	-5.31910787216694
27.4	25.4	-5.33876744770863	-5.33876744770863
27.4	25.5	-5.35789336662639	-5.35789336662639
27.4	25.6	-5.3766023476001	-5.3766023476001
27.4	25.7	-5.39501661309089	-5.39501661309089
27.4	25.8	-5.41328433413856	-5.41328433413856
27.4	25.9	-5.43159023436132	-5.43159023436132
27.4	26	-5.45016067054699	-5.45016067054699
27.4	26.1	-5.46926112856498	-5.46926112856498
27.4	26.2	-5.48917639736902	-5.48917639736902
27.4	26.3	-5.51023474310535	-5.51023474310535
27.4	26.4	-5.53281696729459	-5.53281696729459
27.4	26.5	-5.55735430508908	-5.55735430508908
27.4	26.6	-5.58431297956781	-5.58431297956781
27.4	26.7	-5.61415656924408	-5.61415656924408
27.4	26.8	-5.64734318557496	-5.64734318557496
27.4	26.9	-5.68429782888141	-5.68429782888141
27.4	27	-5.72536941555843	-5.72536941555843
27.4	27.1	-5.77078029570477	-5.77078029570477
27.4	27.2	-5.82057764234609	-5.82057764234609
27.4	27.3	-5.87464161509751	-5.87464161509751
27.4	27.4	-5.93269458054501	-5.93269458054501
27.4	27.5	-5.99432131172395	-5.99432131172395
27.4	27.6	-6.05900909532234	-6.05900909532234
27.4	27.7	-6.12621719495183	-6.12621719495183
27.4	27.8	-6.19539963898975	-6.19539963898975
27.4	27.9	-6.26601963095796	-6.26601963095796
27.4	28	-6.33756128708779	-6.33756128708779
27.5	25	-5.04931829619265	-5.04931829619265
27.5	25.1	-5.07556797142042	-5.07556797142042
27.5	25.2	-5.10147339209124	-5.10147339209124
27.5	25.3	-5.12714185571932	-5.12714185571932
27.5	25.4	-5.15271190735344	-5.15271190735344
27.5	25.5	-5.17835770035996	-5.17835770035996
27.5	25.6	-5.20428709713467	-5.20428709713467
27.5	25.7	-5.23072556255341	-5.23072556255341
27.5	25.8	-5.25793664703312	-5.25793664703312
27.5	25.9	-5.28623046240511	-5.28623046240511
27.5	26	-5.31596368563086	-5.31596368563086
27.5	26.1	-5.34752767384552	-5.34752767384552
27.5	26.2	-5.38131417646373	-5.38131417646373
27.5	26.3	-5.41772165142156	-5.41772165142156
27.5	26.4	-5.45713992370625	-5.45713992370625
27.5	26.5	-5.4999205070214	-5.4999205070214
27.5	26.6	-5.54633952203779	-5.54633952203779
27.5	26.7	-5.59655771399513	-5.59655771399513
27.5	26.8	-5.65061525406036	-5.65061525406036
27.5	26.9	-5.70842714219128	-5.70842714219128
27.5	27	-5.76978749502912	-5.76978749502912
27.5	27.1	-5.83438449048141	-5.83438449048141
27.5	27.2	-5.90182553363046	-5.90182553363046
27.5	27.3	-5.97167233263028	-5.97167233263028
27.5	27.4	-6.04346261684609	-6.04346261684609
27.5	27.5	-6.11672477647564	-6.11672477647564
27.5	27.6	-6.19100175994652	-6.19100175994652
27.5	27.7	-6.26590543769907	-6.26590543769907
27.5	27.8	-6.34108517961089	-6.34108517961089
27.5	27.9	-6.41621215797484	-6.41621215797484
27.5	28	-6.49097539663517	-6.49097539663517
27.6	25	-4.89380446352115	-4.89380446352115
27.6	25.1	-4.92775067442467	-4.92775067442467
27.6	25.2	-4.96221341027782	-4.96221341027782
27.6	25.3	-4.99739001694733	-4.99739001694733
27.6	25.4	-5.0335107884049	-5.0335107884049
27.6	25.5	-5.07083745274439	-5.07083745274439
27.6	25.6	-5.10965328484714	-5.10965328484714
27.6	25.7	-5.15023792935611	-5.15023792935611
27.6	25.8	-5.19287311760547	-5.19287311760547
27.6	25.9	-5.23783477625722	-5.23783477625722
27.6	26	-5.28537706991015	-5.28537706991015
27.6	26.1	-5.33570895903911	-5.33570895903911
27.6	26.2	-5.3889592170675	-5.3889592170675
27.6	26.3	-5.44518524829598	-5.44518524829598
27.6	26.4	-5.50437353597953	-5.50437353597953
27.6	26.5	-5.56643902682387	-5.56643902682387
27.6	26.6	-5.631229857872	-5.631229857872
27.6	26.7	-5.6985387815348	-5.6985387815348
27.6	26.8	-5.76811691942922	-5.76811691942922
27.6	26.9	-5.83968375383027	-5.83968375383027
27.6	27	-5.91293559446704	-5.91293559446704
27.6	27.1	-5.98755599852847	-5.98755599852847
27.6	27.2	-6.06323434919445	-6.06323434919445
27.6	27.3	-6.13966268503916	-6.13966268503916
27.6	27.4	-6.21653310403687	-6.21653310403687
27.6	27.5	-6.29353703531006	-6.29353703531006
27.6	27.6	-6.37038134375035	-6.37038134375035
27.6	27.7	-6.44684327026934	-6.44684327026934
27.6	27.8	-6.52272342468876	-6.52272342468876
27.6	27.9	-6.59782678332907	-6.59782678332907
27.6	28	-6.67196019892981	-6.67196019892981
27.7	25	-4.87612403491948	-4.87612403491948
27.7	25.1	-4.92107708377555	-4.92107708377555
27.7	25.2	-4.96750136745858	-4.96750136745858
27.7	25.3	-5.01552770970371	-5.01552770970371
27.7	25.4	-5.06528674445646	-5.06528674445646
27.7	25.5	-5.11690341127304	-5.11690341127304
27.7	25.6	-5.17048714437065	-5.17048714437065
27.7	25.7	-5.22611367546912	-5.22611367546912
27.7	25.8	-5.28383257932659	-5.28383257932659
27.7	25.9	-5.34366801799309	-5.34366801799309
27.7	26	-5.40561657309298	-5.40561657309298
27.7	26.1	-5.46964244909366	-5.46964244909366
27.7	26.2	-5.53566617512311	-5.53566617512311
27.7	26.3	-5.60357755780496	-5.60357755780496
27.7	26.4	-5.6732411395771	-5.6732411395771
27.7	26.5	-5.74449805733434	-5.74449805733434
27.7	26.6	-5.81717113527291	-5.81717113527291
27.7	26.7	-5.89107748999131	-5.89107748999131
27.7	26.8	-5.96602309121892	-5.96602309121892
27.7	26.9	-6.04180098853021	-6.04180098853021
27.7	27	-6.11819201392539	-6.11819201392539
27.7	27.1	-6.19497225587791	-6.19497225587791
27.7	27.2	-6.27193609172126	-6.27193609172126
27.7	27.3	-6.34887775617963	-6.34887775617963
27.7	27.4	-6.42558383959617	-6.42558383959617
27.7	27.5	-6.50183223672994	-6.50183223672994
27.7	27.6	-6.57740935317216	-6.57740935317216
27.7	27.7	-6.65216749842997	-6.65216749842997
27.7	27.8	-6.72597474154203	-6.72597474154203
27.7	27.9	-6.79869627083646	-6.79869627083646
27.7	28	-6.87019327150942	-6.87019327150942
27.8	25	-5.04984177067381	-5.04984177067381
27.8	25.1	-5.10003125217293	-5.10003125217293
27.8	25.2	-5.15203298288339	-5.15203298288339
27.8	25.3	-5.20585746152815	-5.20585746152815
27.8	25.4	-5.26151082744012	-5.26151082744012
27.8	25.5	-5.31899323487814	-5.31899323487814
27.8	25.6	-5.37829458557235	-5.37829458557235
27.8	25.7	-5.43938431513718	-5.43938431513718
27.8	25.8	-5.50221745329544	-5.50221745329544
27.8	25.9	-5.56673633156658	-5.56673633156658
27.8	26	-5.63286994196559	-5.63286994196559
27.8	26.1	-5.70053216023535	-5.70053216023535
27.8	26.2	-5.7696171263494	-5.7696171263494
27.8	26.3	-5.84000282876296	-5.84000282876296
27.8	26.4	-5.91155236363211	-5.91155236363211
27.8	26.5	-5.98411394208321	-5.98411394208321
27.8	26.6	-6.05752579017412	-6.05752579017412
27.8	26.7	-6.13163166812459	-6.13163166812459
27.8	26.8	-6.20626789883572	-6.20626789883572
27.8	26.9	-6.28125861876644	-6.28125861876644
27.8	27	-6.35641557994676	-6.35641557994676
27.8	27.1	-6.43154760793268	-6.43154760793268
27.8	27.2	-6.50649093471713	-6.50649093471713
27.8	27.3	-6.58108207363587	-6.58108207363587
27.8	27.4	-6.65514775220391	-6.65514775220391
27.8	27.5	-6.72850410575965	-6.72850410575965
27.8	27.6	-6.80097372929993	-6.80097372929993
27.8	27.7	-6.87244175316888	-6.87244175316888
27.8	27.8	-6.94280669687179	-6.94280669687179
27.8	27.9	-7.01196267377831	-7.01196267377831
27.8	28	-7.07979875387749	-7.07979875387749
27.9	25	-5.33138257019652	-5.33138257019652
27.9	25.1	-5.38112616102124	-5.38112616102124
27.9	25.2	-5.43280548134211	-5.43280548134211
27.9	25.3	-5.48638739549453	-5.48638739549453
27.9	25.4	-5.54183282962966	-5.54183282962966
27.9	25.5	-5.59909634184685	-5.59909634184685
27.9	25.6	-5.65812405490285	-5.65812405490285
27.9	25.7	-5.71884763485662	-5.71884763485662
27.9	25.8	-5.78118763028991	-5.78118763028991
27.9	25.9	-5.8450545383122	-5.8450545383122
27.9	26	-5.91034844874965	-5.91034844874965
27.9	26.1	-5.97695936263347	-5.97695936263347
27.9	26.2	-6.04476848171767	-6.04476848171767
27.9	26.3	-6.11364560146867	-6.11364560146867
27.9	26.4	-6.1834481223488	-6.1834481223488
27.9	26.5	-6.25402074854048	-6.25402074854048
27.9	26.6	-6.32520122958856	-6.32520122958856
27.9	26.7	-6.39683902431349	-6.39683902431349
27.9	26.8	-6.46877831774706	-6.46877831774706
27.9	26.9	-6.54085180751937	-6.54085180751937
27.9	27	-6.61288026550451	-6.61288026550451
27.9	27.1	-6.68468379629678	-6.68468379629678
27.9	27.2	-6.75611817476081	-6.75611817476081
27.9	27.3	-6.82704177317958	-6.82704177317958
27.9	27.4	-6.89730355555045	-6.89730355555045
27.9	27.5	-6.9667423520119	-6.9667423520119
27.9	27.6	-7.03520284453738	-7.03520284453738
27.9	27.7	-7.10258805357927	-7.10258805357927
27.9	27.8	-7.16881342796867	-7.16881342796867
27.9	27.9	-7.23379035671475	-7.23379035671475
27.9	28	-7.29742574011477	-7.29742574011477
28	25	-5.6558997402021	-5.6558997402021
28	25.1	-5.7034971803005	-5.7034971803005
28	25.2	-5.75304223304152	-5.75304223304152
28	25.3	-5.80448646265861	-5.80448646265861
28	25.4	-5.8577737171725	-5.8577737171725
28	25.5	-5.9128400107899	-5.9128400107899
28	25.6	-5.96961284488152	-5.96961284488152
28	25.7	-6.02800878238507	-6.02800878238507
28	25.8	-6.08793397808677	-6.08793397808677
28	25.9	-6.14928439010082	-6.14928439010082
28	26	-6.2119455736135	-6.2119455736135
28	26.1	-6.27579467475201	-6.27579467475201
28	26.2	-6.34070667335947	-6.34070667335947
28	26.3	-6.40654737618058	-6.40654737618058
28	26.4	-6.47317087939327	-6.47317087939327
28	26.5	-6.54041921889586	-6.54041921889586
28	26.6	-6.60812907370484	-6.60812907370484
28	26.7	-6.6761535241066	-6.6761535241066
28	26.8	-6.74434199824979	-6.74434199824979
28	26.9	-6.81253295573921	-6.81253295573921
28	27	-6.88055335964754	-6.88055335964754
28	27.1	-6.94823115704792	-6.94823115704792
28	27.2	-7.01543572132707	-7.01543572132707
28	27.3	-7.08204123782841	-7.08204123782841
28	27.4	-7.14791349894745	-7.14791349894745
28	27.5	-7.21290925291506	-7.21290925291506
28	27.6	-7.27689076845057	-7.27689076845057
28	27.7	-7.33977369285773	-7.33977369285773
28	27.8	-7.40148543023185	-7.40148543023185
28	27.9	-7.46195024606619	-7.46195024606619
28	28	-7.52108898442772	-7.52108898442772
