0	-7.45828463905324
0.03	-7.41353493121892
0.06	-7.3687852233846
0.09	-7.32403551555028
0.12	-7.27928580771597
0.15	-7.23453609988165
0.18	-7.18978639204733
0.21	-7.14503668421301
0.24	-7.10028697637869
0.27	-7.05553726854437
0.3	-7.01078756071005
0.33	-6.96603785287573
0.36	-6.92128814504141
0.39	-6.87653843720709
0.42	-6.83178872937277
0.45	-6.78703902153845
0.48	-6.74228931370413
0.51	-6.69753960586981
0.54	-6.65278989803549
0.57	-6.60804019020117
0.6	-6.56329048236685
0.63	-6.51854077453253
0.66	-6.47379106669822
0.69	-6.4290413588639
0.72	-6.38429165102958
0.75	-6.33954194319526
0.78	-6.29479223536094
0.81	-6.25004252752662
0.84	-6.2052928196923
0.87	-6.16054311185798
0.9	-6.11579340402366
0.93	-6.07104369618934
0.96	-6.02629398835502
0.99	-5.9815442805207
1.02	-5.93679457268638
1.05	-5.89204486485206
1.08	-5.84729515701774
1.11	-5.80254544918342
1.14	-5.7577957413491
1.17	-5.71304603351478
1.2	-5.66829632568046
1.23	-5.62354661784615
1.26	-5.57879691001183
1.29	-5.53404720217751
1.32	-5.48929749434319
1.35	-5.44454778650887
1.38	-5.39979807867455
1.41	-5.35504837084023
1.44	-5.31029866300591
1.47	-5.26554895517159
1.5	-5.22079924733727
1.53	-5.17604953950295
1.56	-5.13129983166863
1.59	-5.08655012383431
1.62	-5.04180041599999
1.65	-4.99705070816567
1.68	-4.95230100033135
1.71	-4.90755129249703
1.74	-4.86280158466271
1.77	-4.8180518768284
1.8	-4.77330216899407
1.83	-4.72855246115976
1.86	-4.68380275332544
1.89	-4.63905304549112
1.92	-4.5943033376568
1.95	-4.54955362982248
1.98	-4.50480392198816
2.01	-4.46005421415384
2.04	-4.41530450631952
2.07	-4.3705547984852
2.1	-4.32580509065088
2.13	-4.28105538281656
2.16	-4.23630567498224
2.19	-4.19155596714792
2.22	-4.1468062593136
2.25	-4.10205655147928
2.28	-4.05730684364496
2.31	-4.01255713581064
2.34	-3.96780742797632
2.37	-3.92305772014201
2.4	-3.87830801230769
2.43	-3.83355830447337
2.46	-3.78880859663905
2.49	-3.74405888880473
2.52	-3.69930918097041
2.55	-3.65455947313609
2.58	-3.60980976530177
2.61	-3.56506005746745
2.64	-3.52031034963313
2.67	-3.47556064179881
2.7	-3.43081093396449
2.73	-3.38606122613017
2.76	-3.34131151829585
2.79	-3.29656181046153
2.82	-3.25181210262721
2.85	-3.20706239479289
2.88	-3.16231268695857
2.91	-3.11756297912426
2.94	-3.07281327128994
2.97	-3.02806356345562
3	-2.9833138556213
3.03	-2.93856414778698
3.06	-2.89381443995266
3.09	-2.84906473211834
3.12	-2.80431502428402
3.15	-2.7595653164497
3.18	-2.71481560861538
3.21	-2.67006590078106
3.24	-2.62531619294674
3.27	-2.58056648511242
3.3	-2.5358167772781
3.33	-2.49106706944378
3.36	-2.44631736160946
3.39	-2.40156765377514
3.42	-2.35681794594082
3.45	-2.31206823810651
3.48	-2.26731853027219
3.51	-2.22256882243787
3.54	-2.17781911460355
3.57	-2.13306940676923
3.6	-2.08831969893491
3.63	-2.04356999110059
3.66	-1.99882028326627
3.69	-1.95407057543195
3.72	-1.90932086759763
3.75	-1.86457115976331
3.78	-1.81982145192899
3.81	-1.77507174409467
3.84	-1.73032203626035
3.87	-1.68557232842603
3.9	-1.64082262059171
3.93	-1.59607291275739
3.96	-1.55132320492307
3.99	-1.50657349708875
4.02	-1.46182378925444
4.05	-1.41707408142012
4.08	-1.3723243735858
4.11	-1.32757466575148
4.14	-1.28282495791716
4.17	-1.23807525008284
4.2	-1.19332554224852
4.23	-1.1485758344142
4.26	-1.10382612657988
4.29	-1.05907641874556
4.32	-1.01432671091124
4.35	-0.969577003076921
4.38	-0.924827295242602
4.41	-0.880077587408283
4.44	-0.835327879573962
4.47	-0.790578171739643
4.5	-0.745828463905324
4.53	-0.701078756071005
4.56	-0.656329048236684
4.59	-0.611579340402366
4.62	-0.566829632568046
4.65	-0.522079924733727
4.68	-0.477330216899406
4.71	-0.432580509065088
4.74	-0.387830801230768
4.77	-0.343081093396449
4.8	-0.29833138556213
4.83	-0.25358167772781
4.86	-0.20883196989349
4.89	-0.16408226205917
4.92	-0.119332554224852
4.95	-0.0745828463905323
4.98	-0.0298331385562127
5.01	0
5.04	0
5.07	0
5.1	0
5.13	0
5.16	0
5.19	0
5.22	0
5.25	0
5.28	0
5.31	0
5.34	0
5.37	0
5.4	0
5.43	0
5.46	0
5.49	0
5.52	0
5.55	0
5.58	0
5.61	0
5.64	0
5.67	0
5.7	0
5.73	0
5.76	0
5.79	0
5.82	0
5.85	0
5.88	0
5.91	0
5.94	0
5.97	0
6	0
