24.8918017904011	20
24.8793021341231	20.1632653061224
24.866167427064	20.3265306122449
24.8523597357755	20.4897959183673
24.8378384121794	20.6530612244898
24.8225598614931	20.8163265306122
24.8064772865951	20.9795918367347
24.7895404059907	21.1428571428571
24.7716951421359	21.3061224489796
24.7528832764011	21.469387755102
24.7330420664056	21.6326530612245
24.7121038208026	21.7959183673469
24.6899954258272	21.9591836734694
24.6666378170153	22.1224489795918
24.6419453884232	22.2857142857143
24.6158253303954	22.4489795918367
24.588176885394	22.6122448979592
24.5588905095591	22.7755102040816
24.5278469254404	22.9387755102041
24.4949160486468	23.1020408163265
24.4599557678691	23.265306122449
24.4228105537069	23.4285714285714
24.3833098667765	23.5918367346939
24.3412663294413	23.7551020408163
24.2964736178714	23.9183673469388
24.2487040215705	24.0816326530612
24.1977056054394	24.2448979591837
24.1431988941229	24.4081632653061
24.084872978777	24.5714285714286
24.0223809211105	24.734693877551
23.9553342966708	24.8979591836735
23.8832966761984	25.0612244897959
23.8057757867103	25.2244897959184
23.7222140174508	25.3877551020408
23.631976832271	25.5510204081633
23.5343385080962	25.7142857142857
23.4284644221917	25.8775510204082
23.3133888336945	26.0408163265306
23.1879867085026	26.2040816326531
23.0509375602765	26.3673469387755
22.900678426475	26.530612244898
22.7353418070901	26.6938775510204
22.5526723955536	26.8571428571429
22.3499132585989	27.0204081632653
22.1236469360065	27.1836734693878
21.8695681702887	27.3469387755102
21.5821496042602	27.5102040816327
21.2541335983165	27.6734693877551
20.8757288898399	27.8367346938776
20.4332789916595	28
