24.9864	21.6232000000125
24.8680000000003	21.4800000000129
24.7480000000006	21.3632000000131
24.6400000000008	21.2728000000133
24.5304000000011	21.1864000000135
24.4256000000013	21.1296000000137
24.3208000000016	21.0512000000139
24.2256000000018	21.000000000014
24.134400000002	21.000800000014
24.0512000000022	21.013600000014
23.9776000000024	21.0744000000138
23.9064000000025	21.1032000000137
23.8736000000026	21.1352000000137
23.8376000000027	21.1672000000136
23.8040000000028	21.1984000000135
23.7992000000028	21.2032000000135
23.8000000000028	21.2048000000135
23.7992000000028	21.2032000000135
23.8000000000028	21.2048000000135
23.7992000000028	21.2032000000135
23.8000000000028	21.2048000000135
23.7992000000028	21.2032000000135
23.8000000000028	21.2048000000135
23.7992000000028	21.2032000000135
23.8000000000028	21.2048000000135
23.7992000000028	21.2032000000135
23.8000000000028	21.2048000000135
23.7992000000028	21.2032000000135
23.8000000000028	21.2048000000135
23.7992000000028	21.2032000000135
23.8000000000028	21.2048000000135
23.7992000000028	21.2032000000135
23.8000000000028	21.2048000000135
23.7992000000028	21.2032000000135
23.8000000000028	21.2048000000135
23.7992000000028	21.2032000000135
23.8000000000028	21.2048000000135
23.7992000000028	21.2032000000135
23.8000000000028	21.2048000000135
23.7992000000028	21.2032000000135
23.8000000000028	21.2048000000135
