20	23.151279460245
20.1632653061224	23.1069041362486
20.3265306122449	23.0608339453098
20.4897959183673	23.0130101128802
20.6530612244898	22.9633729884951
20.8163265306122	22.9118622653407
20.9795918367347	22.8584172527093
21.1428571428571	22.8029772111548
21.3061224489796	22.7454817619124
21.469387755102	22.6858713841847
21.6326530612245	22.6240880162971
21.7959183673469	22.5600757795176
21.9591836734694	22.4937818465992
22.1224489795918	22.4251574808762
22.2857142857143	22.3541592761124
22.4489795918367	22.2807506323012
22.6122448979592	22.2049035083097
22.7755102040816	22.1266004986725
22.9387755102041	22.0458372889531
23.1020408163265	21.962625551852
23.265306122449	21.8769963544699
23.4285714285714	21.7890041555447
23.5918367346939	21.6987314795691
23.7551020408163	21.6062943616684
23.9183673469388	21.5118486617949
24.0816326530612	21.4155973474444
24.2448979591837	21.3177988382845
24.4081632653061	21.2187764904455
24.5714285714286	21.1189292682944
24.734693877551	21.0187436015308
24.8979591836735	20.9188063482858
25.0612244897959	20.8198186722686
25.2244897959184	20.7226104849561
25.3877551020408	20.6281548941043
25.5510204081633	20.5375818321427
25.7142857142857	20.4521897135769
25.8775510204082	20.3734536024478
26.0408163265306	20.303027990663
26.2040816326531	20.242741952494
26.3673469387755	20.1945842369862
26.530612244898	20.1606759052939
26.6938775510204	20.1432285483472
26.8571428571429	20.1444870550036
27.0204081632653	20.1666574073211
27.1836734693878	20.2118220065747
27.3469387755102	20.2818473613884
27.5102040816327	20.3782911941059
27.6734693877551	20.5023176075224
27.8367346938776	20.6546293654273
28	20.83542522613
