25	27
25.0319999999999	26.8960000000002
25.0631999999999	26.7912000000005
25.0983999999998	26.6832000000007
25.1367999999997	26.572000000001
25.1679999999996	26.5040000000012
25.1959999999995	26.4712000000012
25.2231999999995	26.4392000000013
25.2527999999994	26.4048000000014
25.2823999999993	26.3720000000015
25.3127999999993	26.3376000000015
25.3447999999992	26.3016000000016
25.3815999999991	26.2648000000017
25.411199999999	26.2296000000018
25.441599999999	26.1952000000019
25.4735999999989	26.156800000002
25.5071999999988	26.120800000002
25.5375999999987	26.0840000000021
25.5743999999987	26.0456000000022
25.6111999999986	26.0056000000023
25.6495999999985	25.9656000000024
25.6903999999984	25.9224000000025
25.7335999999983	25.8800000000026
25.7783999999982	25.8352000000027
25.8231999999981	25.7904000000028
25.871999999998	25.7432000000029
25.9247999999978	25.692800000003
25.9743999999977	25.6448000000032
26.0255999999976	25.5944000000033
26.0687999999975	25.5480000000034
26.1191999999974	25.4968000000035
26.1711999999973	25.4456000000036
26.2199999999972	25.3936000000037
26.2615999999971	25.3456000000039
26.3167999999969	25.289600000004
26.3751999999968	25.2320000000041
26.4367999999967	25.1704000000043
26.4983999999965	25.1080000000044
26.5615999999964	25.0448000000046
26.6239999999962	24.9816000000047
26.6895999999961	24.9152000000049
26.7535999999959	24.844800000005
26.8207999999958	24.7768000000052
26.8863999999956	24.7048000000053
26.9551999999954	24.6320000000055
27.0239999999953	24.5632000000057
27.0927999999951	24.4984000000058
27.163999999995	24.436000000006
27.2335999999948	24.3768000000061
27.3039999999946	24.3312000000062
27.3399999999945	24.2792000000063
27.3511999999945	24.2128000000065
27.3607999999945	24.1424000000067
27.3695999999945	24.0680000000068
27.3831999999944	24.0296000000069
27.3967999999944	23.989600000007
27.4095999999944	23.9480000000071
27.4223999999944	23.9048000000072
27.4367999999943	23.8656000000073
27.4495999999943	23.8248000000074
27.4631999999943	23.7824000000075
27.4751999999942	23.7432000000076
27.4879999999942	23.7000000000077
27.4999999999942	23.6592000000078
27.5151999999941	23.6168000000079
27.5295999999941	23.576000000008
27.5431999999941	23.5288000000081
27.556799999994	23.4840000000082
27.570399999994	23.4392000000083
27.583999999994	23.3976000000084
27.5991999999939	23.3528000000085
27.6167999999939	23.3144000000086
27.6295999999939	23.2760000000087
27.6399999999938	23.2416000000088
27.6495999999938	23.2072000000088
27.6599999999938	23.1728000000089
27.6703999999938	23.138400000009
27.6815999999938	23.1024000000091
27.6879999999937	23.0736000000092
27.6967999999937	23.0400000000092
27.6983999999937	23.0144000000093
27.6999999999937	22.9896000000093
27.6983999999937	22.9672000000094
27.6999999999937	22.9424000000095
27.6975999999937	22.9200000000095
27.6999999999937	22.8968000000096
27.6983999999937	22.8720000000096
27.6991999999937	22.8480000000097
27.6967999999937	22.8264000000097
27.6967999999937	22.8016000000098
27.6943999999937	22.7800000000098
27.6927999999937	22.7568000000099
27.6895999999937	22.7360000000099
27.6871999999937	22.71280000001
27.6855999999937	22.69040000001
27.6831999999937	22.6664000000101
27.6807999999938	22.6432000000102
27.6759999999938	22.6200000000102
27.6719999999938	22.5808000000103
27.6607999999938	22.5336000000104
27.6479999999938	22.4904000000105
27.6335999999939	22.4704000000106
27.6175999999939	22.4648000000106
27.6007999999939	22.4752000000105
27.6015999999939	22.4824000000105
27.6015999999939	22.4968000000105
27.6007999999939	22.5008000000105
27.5991999999939	22.4984000000105
27.6007999999939	22.5008000000105
27.6015999999939	22.4984000000105
27.6007999999939	22.5008000000105
27.5991999999939	22.4984000000105
27.5999999999939	22.5016000000105
27.6015999999939	22.4984000000105
27.6007999999939	22.5008000000105
27.5999999999939	22.4984000000105
27.6007999999939	22.5008000000105
27.6015999999939	22.4984000000105
27.5999999999939	22.5000000000105
27.5991999999939	22.4992000000105
27.6007999999939	22.5008000000105
27.6007999999939	22.4984000000105
27.5999999999939	22.5000000000105
27.5999999999939	22.4984000000105
27.6007999999939	22.5008000000105
27.6007999999939	22.4976000000105
27.5999999999939	22.5008000000105
27.6007999999939	22.4976000000105
27.6015999999939	22.5008000000105
27.5999999999939	22.4992000000105
27.5991999999939	22.5000000000105
27.6007999999939	22.4976000000105
27.6015999999939	22.5008000000105
27.5999999999939	22.4992000000105
27.5999999999939	22.5008000000105
27.6015999999939	22.4984000000105
27.6015999999939	22.5008000000105
27.5999999999939	22.4992000000105
27.5991999999939	22.5008000000105
27.6015999999939	22.4984000000105
27.6007999999939	22.5008000000105
27.5991999999939	22.4992000000105
27.5999999999939	22.5008000000105
27.6015999999939	22.4984000000105
27.6007999999939	22.5008000000105
27.5991999999939	22.4992000000105
27.5999999999939	22.5008000000105
27.6023999999939	22.4984000000105
27.6007999999939	22.5008000000105
27.5991999999939	22.4984000000105
27.6007999999939	22.5008000000105
27.6015999999939	22.4984000000105
27.5999999999939	22.5000000000105
27.5999999999939	22.4976000000105
27.5999999999939	22.5016000000105
27.6015999999939	22.4984000000105
27.5999999999939	22.5000000000105
27.5999999999939	22.4984000000105
27.6007999999939	22.5008000000105
27.6015999999939	22.4984000000105
27.5999999999939	22.5000000000105
27.6007999999939	22.4984000000105
27.6007999999939	22.5016000000105
27.6007999999939	22.4976000000105
27.5999999999939	22.5000000000105
27.5999999999939	22.4976000000105
27.6007999999939	22.5008000000105
27.6023999999939	22.4984000000105
27.5991999999939	22.5000000000105
27.6023999999939	22.4984000000105
27.5991999999939	22.5000000000105
27.6023999999939	22.4984000000105
27.5991999999939	22.5000000000105
27.6023999999939	22.4984000000105
27.5991999999939	22.5000000000105
27.6023999999939	22.4984000000105
27.5991999999939	22.5000000000105
27.6023999999939	22.4984000000105
27.5991999999939	22.5000000000105
27.6023999999939	22.4984000000105
27.5991999999939	22.5000000000105
27.6023999999939	22.4984000000105
27.5991999999939	22.5000000000105
27.6023999999939	22.4984000000105
27.5991999999939	22.5000000000105
27.6023999999939	22.4984000000105
27.5991999999939	22.5000000000105
27.6023999999939	22.4984000000105
27.5991999999939	22.5000000000105
27.6023999999939	22.4984000000105
27.5991999999939	22.5000000000105
27.6023999999939	22.4984000000105
27.5991999999939	22.5000000000105
27.6023999999939	22.4984000000105
27.5991999999939	22.5000000000105
27.6023999999939	22.4984000000105
27.5991999999939	22.5000000000105
27.6023999999939	22.4984000000105
27.5991999999939	22.5000000000105
27.6023999999939	22.4984000000105
27.5991999999939	22.5000000000105
