0	-10
1.51515151515152	-10.2849142497963
3.03030303030303	-10.5690705060771
4.54545454545454	-10.8523939299182
6.06060606060606	-11.1348045669885
7.57575757575758	-11.4162168690972
9.09090909090909	-11.6965391822313
10.6060606060606	-11.9756731980931
12.1212121212121	-12.2535133659603
13.6363636363636	-12.5299462614722
15.1515151515152	-12.8048499087289
16.6666666666667	-13.0780930518566
18.1818181818182	-13.3495343719295
19.6969696969697	-13.6190216448783
21.2121212121212	-13.8863908357383
22.7272727272727	-14.1514651242917
24.2424242424242	-14.4140538568626
25.7575757575758	-14.6739514187103
27.2727272727273	-14.9309360211547
28.7878787878788	-15.1847683972544
30.3030303030303	-15.4351903995477
31.8181818181818	-15.6819234930825
33.3333333333333	-15.9246671366823
34.8484848484849	-16.1630970451834
36.3636363636364	-16.3968633251868
37.8787878787879	-16.6255884768048
39.3939393939394	-16.848865253853
40.9090909090909	-17.0662543751702
42.4242424242424	-17.2772820799892
43.9393939393939	-17.4814375210503
45.4545454545455	-17.6781699898292
46.969696969697	-17.8668859699935
48.4848484848485	-18.0469460165013
50	-18.2176614612484
51.5151515151515	-18.3782909483331
53.030303030303	-18.528036808655
54.5454545454545	-18.6660412866293
56.0606060606061	-18.791382644277
57.5757575757576	-18.903071171532
59.0909090909091	-19.0000451547467
60.6060606060606	-19.081166857856
62.1212121212121	-19.1452186135159
63.6363636363636	-19.1908991181305
65.1515151515152	-19.2168201039279
66.6666666666667	-19.2215035404582
68.1818181818182	-19.2033796628924
69.6969696969697	-19.1607860613775
71.2121212121212	-19.091968325558
72.7272727272727	-18.9950825826994
73.7373737373737	-18.9139502483761
74.7474747474748	-18.8188974608435
75.7575757575758	-18.7093202178825
76.7676767676768	-18.5846029418061
77.7777777777778	-18.4441208922785
78.7878787878788	-18.2872431014598
79.7979797979798	-18.1133358848891
80.8080808080808	-17.9217669750996
81.8181818181818	-17.711910307804
82.8282828282828	-17.4831514699249
83.8383838383838	-17.2348937788943
84.8484848484848	-16.9665649058762
85.8585858585859	-16.6776238899818
86.8686868686869	-16.3675682712966
87.8787878787879	-16.0359409469722
88.8888888888889	-15.6823361795823
89.8989898989899	-15.3064039858188
90.9090909090909	-14.9078519038823
91.9191919191919	-14.4864428722246
92.9292929292929	-14.0419877326313
93.9393939393939	-13.5743306531174
94.4444444444444	-13.3317566808745
94.9494949494949	-13.0833265910322
95.4545454545455	-12.8290181377071
95.959595959596	-12.5688046797144
96.4646464646465	-12.3026535731533
96.969696969697	-12.03052401413
97.4747474747475	-11.7523649682448
97.979797979798	-11.4681125625032
98.4848484848485	-11.177687448254
98.989898989899	-10.8809917683077
99.4949494949495	-10.5779057528445
100	-10.2682843932613
