0	-10
1.51515151515152	-10.2846423041595
3.03030303030303	-10.5685186831411
4.54545454545454	-10.8515529570754
6.06060606060606	-11.1336637743568
7.57575757575758	-11.4147641259907
9.09090909090909	-11.6947608261223
10.6060606060606	-11.9735539557317
12.1212121212121	-12.2510362662919
13.6363636363636	-12.5270925399755
15.1515151515152	-12.8015989027692
16.6666666666667	-13.0744220866306
18.1818181818182	-13.3454186365647
19.6969696969697	-13.6144340582355
21.2121212121212	-13.8813019014615
22.7272727272727	-14.1458427746495
24.2424242424242	-14.4078632849361
25.7575757575758	-14.6671548985058
27.2727272727273	-14.9234927152542
28.7878787878788	-15.1766341516739
30.3030303030303	-15.4263175255532
31.8181818181818	-15.6722605358217
33.3333333333333	-15.9141586306325
34.8484848484849	-16.1516832566081
36.3636363636364	-16.3844799820361
37.8787878787879	-16.612166486813
39.3939393939394	-16.8343304119795
40.9090909090909	-17.050527062047
42.4242424242424	-17.2602769536599
43.9393939393939	-17.463063205107
45.4545454545455	-17.6583287620327
46.969696969697	-17.84547345674
48.4848484848485	-18.0238509000168
50	-18.1927652084257
51.5151515151515	-18.3514675724306
53.030303030303	-18.4991526782766
54.5454545454545	-18.6349549999382
56.0606060606061	-18.7579449914502
57.5757575757576	-18.8671252137896
59.0909090909091	-18.9614264564332
60.6060606060606	-19.0397039159168
62.1212121212121	-19.100733541892
63.6363636363636	-19.1432086562058
65.1515151515152	-19.1657370394691
66.6666666666667	-19.1668386543093
68.1818181818182	-19.1449443371878
69.6969696969697	-19.0983957168175
71.2121212121212	-19.0254469083714
72.7272727272727	-18.9242683545518
73.7373737373737	-18.8401947149991
74.7474747474748	-18.7421469000095
75.7575757575758	-18.6295317674524
76.7676767676768	-18.5017471440516
77.7777777777778	-18.3581846580228
78.7878787878788	-18.1982331540539
79.7979797979798	-18.0212827508279
80.8080808080808	-17.8267295909938
81.8181818181818	-17.6139813235654
82.8282828282828	-17.3824633263655
83.8383838383838	-17.1316256386554
84.8484848484848	-16.8609505224869
85.8585858585859	-16.5699604730184
86.8686868686869	-16.2582264032996
87.8787878787879	-15.9253755795825
88.8888888888889	-15.5710986856111
89.8989898989899	-15.1951552019726
90.9090909090909	-14.7973760143873
91.9191919191919	-14.3776619057791
92.9292929292929	-13.9359763256382
93.9393939393939	-13.4723306240756
94.4444444444444	-13.2322837316062
94.9494949494949	-12.986760056502
95.4545454545455	-12.7357619109497
95.959595959596	-12.479287846059
96.4646464646465	-12.2173309910899
96.969696969697	-11.9498767609729
97.4747474747475	-11.6769007253532
97.979797979798	-11.3983658440907
98.4848484848485	-11.1142197567379
98.989898989899	-10.8243916299985
99.4949494949495	-10.5287885993452
100	-10.2272924524607
