0	-10
1.51515151515152	-10.3021329169451
3.03030303030303	-10.603713608332
4.54545454545454	-10.904709680924
6.06060606060606	-11.2050850893599
7.57575757575758	-11.5047998794214
9.09090909090909	-11.8038099047289
10.6060606060606	-12.1020665145558
12.1212121212121	-12.3995162101863
13.6363636363636	-12.696100266952
15.1515151515152	-12.9917543187645
16.6666666666667	-13.2864079015905
18.1818181818182	-13.5799839519029
19.6969696969697	-13.8723982556722
21.2121212121212	-14.1635588429293
22.7272727272727	-14.4533653223098
24.2424242424242	-14.741708149305
25.7575757575758	-15.0284678211288
27.2727272727273	-15.3135139901904
28.7878787878788	-15.5967044870876
30.3030303030303	-15.8778842427909
31.8181818181818	-16.1568840982496
33.3333333333333	-16.4335194879456
34.8484848484849	-16.7075889819476
36.3636363636364	-16.9788726686818
37.8787878787879	-17.2471303578689
39.3939393939394	-17.5120995798158
40.9090909090909	-17.7734933533555
42.4242424242424	-18.0309976900792
43.9393939393939	-18.284268796938
45.4545454545455	-18.5329299325839
46.969696969697	-18.7765678647501
48.4848484848485	-19.0147288661604
50	-19.2469141745505
51.5151515151515	-19.4725748279071
53.030303030303	-19.6911057682614
54.5454545454545	-19.9018390856362
56.0606060606061	-20.104036246999
57.5757575757576	-20.2968791222697
59.0909090909091	-20.4794595784603
60.6060606060606	-20.6507673634272
62.1212121212121	-20.8096759377274
63.6363636363636	-20.9549258378795
65.1515151515152	-21.0851050571045
66.6666666666667	-21.1986258174339
68.1818181818182	-21.2936969570908
69.6969696969697	-21.3682909955516
71.2121212121212	-21.4201047095379
72.7272727272727	-21.4465118390972
73.7373737373737	-21.4485348448931
74.7474747474748	-21.4369409013734
75.7575757575758	-21.4106329880191
76.7676767676768	-21.3684034372483
77.7777777777778	-21.3089205454304
78.7878787878788	-21.2307134731347
79.7979797979798	-21.13215526009
80.8080808080808	-21.0114437837656
81.8181818181818	-20.8665805079317
82.8282828282828	-20.695346906603
83.8383838383838	-20.4952785041024
84.8484848484848	-20.2636365642354
85.8585858585859	-19.997377595334
86.8686868686869	-19.6931210216092
87.8787878787879	-19.3471156054189
88.8888888888889	-18.9552055076529
89.8989898989899	-18.512797245402
90.9090909090909	-18.0148292018642
91.9191919191919	-17.4557457663392
92.9292929292929	-16.8294785360628
93.9393939393939	-16.1294372392399
94.4444444444444	-15.7495217856525
94.9494949494949	-15.3484536869393
95.4545454545455	-14.9252652285401
95.959595959596	-14.4789605725652
96.4646464646465	-14.0085143478892
96.969696969697	-13.5128763323528
97.4747474747475	-12.9909695658942
97.979797979798	-12.4416957841486
98.4848484848485	-11.8639331464855
98.989898989899	-11.256540882825
99.4949494949495	-10.6183577763639
100	-9.94820189549874
