0	-10
1.51515151515152	-10.3041129666158
3.03030303030303	-10.6076596330899
4.54545454545454	-10.9106098407154
6.06060606060606	-11.2129297282044
7.57575757575758	-11.5145814868361
9.09090909090909	-11.8155230888764
10.6060606060606	-12.1157079870191
12.1212121212121	-12.4150847823414
13.6363636363636	-12.7135968579802
15.1515151515152	-13.0111819754038
16.6666666666667	-13.3077718297962
18.1818181818182	-13.6032915606561
19.6969696969697	-13.8976592132384
21.2121212121212	-14.1907851459365
22.7272727272727	-14.4825713780958
24.2424242424242	-14.7729108720453
25.7575757575758	-15.061686742337
27.2727272727273	-15.3487713842573
28.7878787878788	-15.6340255126045
30.3030303030303	-15.9172971004893
31.8181818181818	-16.1984202064651
33.3333333333333	-16.4772136766092
34.8484848484849	-16.7534797061942
36.3636363636364	-17.0270022432533
37.8787878787879	-17.2975452135892
39.3939393939394	-17.5648505435056
40.9090909090909	-17.8286359526495
42.4242424242424	-18.0885924846957
43.9393939393939	-18.3443817380483
45.4545454545455	-18.5956327520112
46.969696969697	-18.8419384957879
48.4848484848485	-19.0828518978723
50	-19.3178813414554
51.5151515151515	-19.5464855369547
53.030303030303	-19.768067664984
54.5454545454545	-19.9819686612971
56.0606060606061	-20.1874594884261
57.5757575757576	-20.3837322058224
59.0909090909091	-20.5698896092588
60.6060606060606	-20.7449331605517
62.1212121212121	-20.9077488653612
63.6363636363636	-21.0570906816788
65.1515151515152	-21.191560943583
66.6666666666667	-21.3095871731951
68.1818181818182	-21.4093945020601
69.6969696969697	-21.4889727628937
71.2121212121212	-21.5460370802791
72.7272727272727	-21.5779805782456
73.7373737373737	-21.5838632772866
74.7474747474748	-21.576271363505
75.7575757575758	-21.5541142857832
76.7676767676768	-21.5161910168266
77.7777777777778	-21.461176648047
78.7878787878788	-21.3876072701968
79.7979797979798	-21.2938629637685
80.8080808080808	-21.1781487287344
81.8181818181818	-21.0384732003808
82.8282828282828	-20.8726250344517
83.8383838383838	-20.6781469049825
84.8484848484848	-20.4523071490897
85.8585858585859	-20.1920692275309
86.8686868686869	-19.8940593523153
87.8787878787879	-19.5545328689052
88.8888888888889	-19.169340295947
89.8989898989899	-18.7338942820618
90.9090909090909	-18.2431391458481
91.9191919191919	-17.6915250960327
92.9292929292929	-17.0729895937678
93.9393939393939	-16.3809485363255
94.4444444444444	-16.0051329131635
94.9494949494949	-15.6082340075723
95.4545454545455	-15.1892850772542
95.959595959596	-14.7472915151904
96.4646464646465	-14.2812292167971
96.969696969697	-13.7900496207564
97.4747474747475	-13.2726775213254
97.979797979798	-12.7280169966105
98.4848484848485	-12.1549487297083
98.989898989899	-11.5523352926025
99.4949494949495	-10.9190191605309
100	-10.2538231203829
