0	-10
1.51515151515152	-10.2841381064245
3.03030303030303	-10.5674951669061
4.54545454545454	-10.8499924029068
6.06060606060606	-11.13154575615
7.57575757575758	-11.4120653890319
9.09090909090909	-11.6914551506184
10.6060606060606	-11.9696120051691
12.1212121212121	-12.2464254199319
13.6363636363636	-12.5217767087507
15.1515151515152	-12.7955383278061
16.6666666666667	-13.0675731195801
18.1818181818182	-13.3377335008953
19.6969696969697	-13.6058605906202
21.2121212121212	-13.8717832723755
22.7272727272727	-14.1353171872983
24.2424242424242	-14.3962636516538
25.7575757575758	-14.6544084938041
27.2727272727273	-14.9095208047762
28.7878787878788	-15.1613515964111
30.3030303030303	-15.4096323608354
31.8181818181818	-15.6540735247984
33.3333333333333	-15.8943627922406
34.8484848484849	-16.1301633683873
36.3636363636364	-16.3611120586172
37.8787878787879	-16.5868172355193
39.3939393939394	-16.8068566677375
40.9090909090909	-17.0207752047887
42.4242424242424	-17.2280823126066
43.9393939393939	-17.4282494558944
45.4545454545455	-17.6207073245124
46.969696969697	-17.8048429037786
48.4848484848485	-17.97999639051
50	-18.1454579616605
51.5151515151515	-18.3004644053487
53.030303030303	-18.4441956334052
54.5454545454545	-18.5757710984306
56.0606060606061	-18.6942461556129
57.5757575757576	-18.7986084134433
59.0909090909091	-18.8877741494122
60.6060606060606	-18.9605848678379
62.1212121212121	-19.0158041361655
63.6363636363636	-19.0521148268196
65.1515151515152	-19.0681170012087
66.6666666666667	-19.0623266359156
68.1818181818182	-19.0331755915348
69.6969696969697	-18.9790131248444
71.2121212121212	-18.8981096041332
72.7272727272727	-18.7886628553383
73.7373737373737	-18.6989229115482
74.7474747474748	-18.595104284274
75.7575757575758	-18.4766346733755
76.7676767676768	-18.3429376410722
77.7777777777778	-18.1934362525433
78.7878787878788	-18.0275574150588
79.7979797979798	-17.8447369855729
80.8080808080808	-17.6444257109679
81.8181818181818	-17.4260960465071
82.8282828282828	-17.189249869236
83.8383838383838	-16.9334270591942
84.8484848484848	-16.6582148517845
85.8585858585859	-16.3632577754656
86.8686868686869	-16.0482678622473
87.8787878787879	-15.7130346490985
88.8888888888889	-15.3574342802624
89.8989898989899	-14.9814367923623
90.9090909090909	-14.5851103418613
91.9191919191919	-14.1686208636005
92.9292929292929	-13.7322253600548
93.9393939393939	-13.2762567653194
94.4444444444444	-13.0410502640535
94.9494949494949	-12.8010961980828
95.4545454545455	-12.5564441320053
95.959595959596	-12.3071410779545
96.4646464646465	-12.0532297384286
96.969696969697	-11.7947459678224
97.4747474747475	-11.5317165079986
97.979797979798	-11.2641559510039
98.4848484848485	-10.9920638512828
98.989898989899	-10.7154213511956
99.4949494949495	-10.4341873496062
100	-10.1482951891181
