0	-10
1.51515151515152	-10.3056660268066
3.03030303030303	-10.6107551973133
4.54545454545454	-10.9152390751976
6.06060606060606	-11.2190854865513
7.57575757575758	-11.5222582846345
9.09090909090909	-11.8247170878437
10.6060606060606	-12.1264169887138
12.1212121212121	-12.4273082314993
13.6363636363636	-12.7273358556111
15.1515151515152	-13.0264393018561
16.6666666666667	-13.3245519780599
18.1818181818182	-13.6216007802484
19.6969696969697	-13.9175055651024
21.2121212121212	-14.2121785688623
22.7272727272727	-14.5055237672607
24.2424242424242	-14.7974361703799
25.7575757575758	-15.0878010455196
27.2727272727273	-15.3764930602656
28.7878787878788	-15.6633753368832
30.3030303030303	-15.948298407936
31.8181818181818	-16.2310990616042
33.3333333333333	-16.5115990635072
34.8484848484849	-16.7896037398772
36.3636363636364	-17.0649004046286
37.8787878787879	-17.3372566101412
39.3939393939394	-17.6064181983466
40.9090909090909	-17.8721071248711
42.4242424242424	-18.1340190243844
43.9393939393939	-18.391820479803
45.4545454545455	-18.6451459513791
46.969696969697	-18.8935943137019
48.4848484848485	-19.1367249389546
50	-19.374053252995
51.5151515151515	-19.6050456764625
53.030303030303	-19.8291138455639
54.5454545454545	-20.0456079856915
56.0606060606061	-20.2538092844531
57.5757575757576	-20.4529210782977
59.0909090909091	-20.6420586262829
60.6060606060606	-20.8202371955444
62.1212121212121	-20.9863581202404
63.6363636363636	-21.1391924218506
65.1515151515152	-21.2773614816451
66.6666666666667	-21.3993141459955
68.1818181818182	-21.5032994948924
69.6969696969697	-21.5873343468203
71.2121212121212	-21.6491643415999
72.7272727272727	-21.6862172379648
73.7373737373737	-21.6957164144867
74.7474747474748	-21.6919242153443
75.7575757575758	-21.6737643896101
76.7676767676768	-21.6400516039542
77.7777777777778	-21.5894782031391
78.7878787878788	-21.5205992772945
79.7979797979798	-21.4318158618942
80.8080808080808	-21.3213561023514
81.8181818181818	-21.1872542324934
82.8282828282828	-21.027327251772
83.8383838383838	-20.8391492434188
84.8484848484848	-20.6200233714345
85.8585858585859	-20.3669517207798
86.8686868686869	-20.0766033263999
87.8787878787879	-19.7452809834745
88.8888888888889	-19.3688877185112
89.8989898989899	-18.9428941665317
90.9090909090909	-18.4623085177382
91.9191919191919	-17.9216511031571
92.9292929292929	-17.3149360573246
93.9393939393939	-16.6356627065572
94.4444444444444	-16.266612267288
94.9494949494949	-15.8767494998345
95.4545454545455	-15.4651199616225
95.959595959596	-15.0307418497426
96.4646464646465	-14.5726042225606
96.969696969697	-14.0896722142072
97.4747474747475	-13.5808846432727
97.979797979798	-13.0451602220703
98.4848484848485	-12.4813945990321
98.989898989899	-11.8884660407369
99.4949494949495	-11.2652330790162
100	-10.6105354500436
