0	-10
1.51515151515152	-10.2833015594223
3.03030303030303	-10.5657963403119
4.54545454545454	-10.8474007834853
6.06060606060606	-11.1280258619711
7.57575757575758	-11.4075765559503
9.09090909090909	-11.6859512922484
10.6060606060606	-11.963041345223
12.1212121212121	-12.2387301957057
13.6363636363636	-12.5128928444602
15.1515151515152	-12.7853950764017
16.6666666666667	-13.0560926715984
18.1818181818182	-13.3248305588519
19.6969696969697	-13.5914419074104
21.2121212121212	-13.855747152121
22.7272727272727	-14.1175529470946
24.2424242424242	-14.3766510427018
25.7575757575758	-14.632817080494
27.2727272727273	-14.8858093004199
28.7878787878788	-15.1353671545209
30.3030303030303	-15.3812098211216
31.8181818181818	-15.6230346134433
33.3333333333333	-15.8605152765142
34.8484848484849	-16.0933001663365
36.3636363636364	-16.3210103054195
37.8787878787879	-16.5432373092026
39.3939393939394	-16.7595411783585
40.9090909090909	-16.9694479529686
42.4242424242424	-17.1724472255064
43.9393939393939	-17.3679895116014
45.4545454545455	-17.5554834791966
46.969696969697	-17.7342930405579
48.4848484848485	-17.9037343141607
50	-18.0630724705706
51.5151515151515	-18.2115184799725
53.030303030303	-18.348225792059
54.5454545454545	-18.4722869830511
56.0606060606061	-18.5827304286997
57.5757575757576	-18.6785170648046
59.0909090909091	-18.7585373415363
60.6060606060606	-18.8216084739443
62.1212121212121	-18.8664721744919
63.6363636363636	-18.8917930304761
65.1515151515152	-18.8961578446041
66.6666666666667	-18.8780761877483
68.1818181818182	-18.8359826989291
69.6969696969697	-18.7682414980747
71.2121212121212	-18.6731535889481
72.7272727272727	-18.548967763056
73.7373737373737	-18.4491306159289
74.7474747474748	-18.3350325466257
75.7575757575758	-18.2061395841286
76.7676767676768	-18.0619225434682
77.7777777777778	-17.9018621391521
78.7878787878788	-17.7254550046287
79.7979797979798	-17.5322207133969
80.8080808080808	-17.3217098851266
81.8181818181818	-17.0935134374275
82.8282828282828	-16.847273015206
83.8383838383838	-16.5826925644391
84.8484848484848	-16.2995509501839
85.8585858585859	-15.9977154022575
86.8686868686869	-15.6771554092229
87.8787878787879	-15.3379564764483
88.8888888888889	-14.9803329407914
89.8989898989899	-14.604638707734
90.9090909090909	-14.2113744220463
91.9191919191919	-13.8011892544373
92.9292929292929	-13.3748751265844
93.9393939393939	-12.9333509099254
94.4444444444444	-12.707195210692
94.9494949494949	-12.477623935091
95.4545454545455	-12.2447727286812
95.959595959596	-12.0087769171067
96.4646464646465	-11.7697695393406
96.969696969697	-11.5278783714236
97.4747474747475	-11.28322341739
97.979797979798	-11.0359133796966
98.4848484848485	-10.7860424569552
98.989898989899	-10.5336865523929
99.4949494949495	-10.2788989576173
100	-10.0217070189189
