0	-10
1.51515151515152	-10.3007016182021
3.03030303030303	-10.6008610783618
4.54545454545454	-10.9004442665171
6.06060606060606	-11.1994134535665
7.57575757575758	-11.4977270297916
9.09090909090909	-11.795339212977
10.6060606060606	-12.092199727764
12.1212121212121	-12.3882534536317
13.6363636363636	-12.6834400386061
15.1515151515152	-12.9776934754755
16.6666666666667	-13.2709416369301
18.1818181818182	-13.563105765632
19.6969696969697	-13.8540999147531
21.2121212121212	-14.1438303339862
22.7272727272727	-14.432194795428
24.2424242424242	-14.7190818530431
25.7575757575758	-15.0043700286133
27.2727272727273	-15.2879269161606
28.7878787878788	-15.5696081957723
30.3030303030303	-15.8492565465224
31.8181818181818	-16.1267004467499
33.3333333333333	-16.4017528482818
34.8484848484849	-16.6742097092304
36.3636363636364	-16.9438483676757
37.8787878787879	-17.2104257358282
39.3939393939394	-17.4736762910351
40.9090909090909	-17.7333098361571
42.4242424242424	-17.989008997247
43.9393939393939	-18.2404264209863
45.4545454545455	-18.487181627721
46.969696969697	-18.7288574679833
48.4848484848485	-18.9649961207377
50	-19.1950945598708
51.5151515151515	-19.4185994011775
53.030303030303	-19.6349010246618
54.5454545454545	-19.8433268455822
56.0606060606061	-20.0431335813226
57.5757575757576	-20.2334983289823
59.0909090909091	-20.4135082284205
60.6060606060606	-20.5821484365192
62.1212121212121	-20.7382880767798
63.6363636363636	-20.8806637543815
65.1515151515152	-21.0078601315419
66.6666666666667	-21.1182869474704
68.1818181818182	-21.210151720618
69.6969696969697	-21.2814272112264
71.2121212121212	-21.329812498889
72.7272727272727	-21.3526863172718
73.7373737373737	-21.352299533782
74.7474747474748	-21.3382564270087
75.7575757575758	-21.30946457205
76.7676767676768	-21.2647221046604
77.7777777777778	-21.2027045350499
78.7878787878788	-21.1219498807736
79.7979797979798	-21.0208419462083
80.8080808080808	-20.8975915798711
81.8181818181818	-20.7502157594028
82.8282828282828	-20.576514389756
83.8383838383838	-20.3740447562394
84.8484848484848	-20.1400936643127
85.8585858585859	-19.8716474270857
86.8686868686869	-19.5653600407884
87.8787878787879	-19.2175201185869
88.8888888888889	-18.8240174568508
89.8989898989899	-18.3803104542785
90.9090909090909	-17.8813960046018
91.9191919191919	-17.3217838901857
92.9292929292929	-16.695478064188
93.9393939393939	-15.9959673790032
94.4444444444444	-15.6165597768847
94.9494949494949	-15.2161746416974
95.4545454545455	-14.7938558326088
95.959595959596	-14.3486192165816
96.4646464646465	-13.8794514422972
96.969696969697	-13.3853142663972
97.4747474747475	-12.8651429070845
97.979797979798	-12.3178510199462
98.4848484848485	-11.7423287369436
98.989898989899	-11.1374467718943
99.4949494949495	-10.5020552044422
100	-9.83498276736026
